   .92  1.10  1.10  1.01  1.35  1.28   .96   .83   .83   .99  1.09  1.10        
   .89   .63   .96   .97  1.09  1.06   .88  1.13   .87   .76   .82  1.11        
   .90  1.11   .89  1.00  1.15  1.04   .81   .73   .93   .93  1.13  1.09        
  1.13  1.13   .96   .89  1.02  1.02   .84  1.01  1.29  1.22   .87  1.22        
   .87   .87   .97  1.13   .80   .84   .76   .66   .93   .78  1.14  1.29        
   .92   .71  1.16  1.30   .58   .87   .91   .85   .77   .79  1.42  1.42        
  1.31  1.32  1.02  1.02  1.04   .97   .95   .82   .96  1.16  1.15  1.15        
  1.10  1.00   .87  1.09  1.03   .79  1.30  1.40   .84  1.07   .98  1.20        
  1.03   .77   .78   .96   .80   .77   .62   .85  1.17   .80   .70   .92        
  1.10   .83   .90  1.02  1.15  1.11   .98  1.05   .80   .70   .65   .83        
   .97   .74   .77   .94  1.05  1.06   .71   .90  1.06   .93  1.23  1.26        
   .95   .91   .86   .93   .95   .81  1.03  1.14  1.11  1.02   .62   .91        
   .83   .76   .96  1.05  1.07   .91   .75   .95   .91   .82   .94  1.10        
   .79   .91  1.14  1.01  1.02  1.07   .85  1.14   .88   .74   .97  1.49        
  1.16   .92   .83   .95   .99   .85   .83   .93  1.04   .98   .81  1.08        
  1.20   .99   .83   .93   .96  1.00   .97  1.18  1.01  1.03   .97   .91        
   .98   .90   .87   .99   .97   .91   .86   .85  1.05   .93  1.00  1.07        
  1.06   .97   .83   .90  1.01   .98  1.03  1.19   .93   .84   .74   .75        
   .88   .76   .82   .89  1.03   .97   .82   .92  1.06   .90   .98  1.14        
  1.18  1.06   .89   .83  1.19  1.14  1.09  1.25  1.02   .95   .71   .88        
   .78   .69  1.02  1.09  1.13  1.03   .80   .79   .96   .89  1.03  1.21        
  1.07  1.08   .92  1.05  1.07   .89   .83  1.04  1.06   .99   .83  1.19        
  1.14   .92   .84   .97  1.00   .92   .87   .90  1.15  1.04   .88   .91        
  1.49  1.38   .88   .97  1.15   .99   .88   .95  1.11  1.00   .83   .84        
   .96   .72   .74   .82   .90   .89   .77   .83  1.04   .91   .80   .85        
   .95   .87   .78   .83   .97   .95   .87  1.08   .75   .84   .87   .95        
   .70   .70  1.06  1.06   .86   .83   .77   .75   .82   .82   .78   .91        
   .76   .69   .82   .89   .92   .76   .74   .91   .97   .78   .73   .79        
   .83   .77  1.11  1.25   .96   .80   .40   .49   .82   .78   .98  1.04        
  1.00   .95   .76   .77   .95   .78  1.02  1.05   .83   .88   .79  1.10        
   .82   .83   .82   .84  1.13  1.07   .75   .75   .99   .88   .98  1.02        
  1.07  1.11   .77   .95   .93   .71   .94   .93  1.01   .96   .97  1.08        
   .92  1.07   .97  1.10  1.14  1.21  1.24   .86  1.14  1.09  1.30  1.03        
  1.02  1.02   .88   .99  1.05  1.00   .99   .90  1.19  1.05  1.16  1.07        
   .76  1.15   .86   .94   .93  1.27  1.01   .86  1.08   .91  1.04  1.10        
   .89  1.09   .88   .76   .96  1.13  1.08  1.04   .98   .97  1.15  1.04        
   .93   .94  1.04  1.20  1.00   .99   .63   .79  1.03   .84  1.09  1.01        
  1.22  1.07  1.06   .91  1.03  1.00  1.05   .92   .99   .87  1.11   .90        
   .81   .96  1.13  1.06  1.17  1.03   .94  1.08   .89  1.12  1.07  1.02        
  1.21  1.12   .85   .79   .94  1.04  1.04  1.01  1.23  1.16  1.13   .91        
  1.14  1.10  1.23  1.24  1.12  1.43  1.19  1.24   .98  1.30  1.32  1.11        
  1.18  1.13  1.30   .92  1.10  1.04  1.26  1.22  1.02  1.18  1.29  1.00        
  1.03  1.16  1.27  1.15  1.02  1.32  1.43  1.05   .99  1.09  1.22  1.11        
  1.16  1.02  1.17  1.00   .95  1.29  1.31  1.30  1.09  1.33  1.18   .96        
  1.02  1.28  1.28  1.21  1.15   .96   .77   .96  1.12  1.15  1.19  1.39        
  1.19  1.18  1.24  1.03  1.27  1.26  1.10  1.06  1.15  1.07  1.20  1.19        
  1.21  1.22  1.16  1.12  1.06  1.09  1.14   .85  1.26  1.09  1.15  1.37        
  1.14  1.23   .99  1.28  1.11  1.19  1.20  1.25  1.32  1.19  1.13  1.41        
  1.11  1.39  1.25  1.18  1.21  1.37  1.23  1.10  1.13  1.34  1.31  1.16        
  1.11  1.20  1.13  1.10  1.11  1.18  1.17  1.12  1.21  1.30  1.38  1.18        
  1.17  1.22  1.17  1.24  1.24  1.25  1.34  1.08   .93  1.31  1.18  1.27        
  1.05  1.15  1.28  1.29  1.25  1.35  1.37  1.26  1.45  1.31  1.04   .93        
  1.22  1.36  1.23  1.55  1.23  1.00  1.03  1.26  1.11  1.18  1.09  1.22        
  1.25  1.20  1.08  1.07  1.18  1.30  1.36  1.45  1.06  1.10  1.16  1.12        
  1.20  1.14  1.26  1.28  1.28  1.19  1.11  1.14  1.06  1.15  1.14  1.24        
  1.29  1.25  1.14  1.23  1.02  1.22  1.22  1.13  1.19  1.11  1.08  1.18        
  1.04  1.41  1.07  1.28  1.26  1.27  1.30  1.13  1.14  1.24  1.28  1.32        
  1.11  1.15  1.15  1.02  1.08  1.15  1.34  1.25  1.10  1.20  1.22   .87        
   .95  1.20  1.21  1.07  1.32  1.31  1.28  1.08  1.03  1.21  1.23  1.33        
  1.18  1.35  1.10   .98  1.04  1.33  1.31  1.29  1.46  1.31  1.35  1.21        
  1.14  1.40  1.33  1.25  1.24  1.35  1.18  1.24  1.11  1.29  1.17  1.34        
  1.29  1.29  1.19  1.11  1.14  1.35  1.33  1.34  1.14  1.10  1.27   .91        
  1.09  1.23  1.18  1.21  1.26  1.25  1.22  1.26  1.13  1.29  1.14  1.01        
  1.33  1.26  1.07  1.31  1.14  1.13  1.18  1.21  1.24  1.24  1.02  1.20        
  1.32  1.22  1.03  1.11  1.20  1.36  1.08   .93  1.10   .96   .99   .96        
  1.08  1.03  1.04   .90  1.06  1.05  1.09  1.17  1.02  1.18  1.05  1.09        
  1.28   .97  1.03  1.01  1.20   .91  1.23  1.09  1.12  1.02   .98  1.20        
  1.11  1.09  1.16   .90  1.04  1.19  1.10   .97  1.11  1.05  1.15  1.17        
  1.11  1.12   .98  1.12  1.08   .96   .92  1.34  1.11  1.08  1.15  1.17        
  1.13  1.17  1.06  1.13  1.00  1.14  1.07  1.01  1.20  1.06  1.09   .84        
  1.18  1.10  1.09  1.21  1.06   .99  1.00  1.14  1.06  1.12  1.07  1.08        
  1.04  1.08   .95  1.05  1.18   .97   .93  1.22  1.02  1.21  1.02  1.21        
  1.14  1.33  1.16  1.02  1.05  1.20  1.04  1.00   .97  1.06   .99  1.04        
   .94  1.01   .97  1.00  1.17  1.02  1.08  1.01  1.09  1.15  1.07  1.13        
  1.05  1.07   .99   .90  1.09  1.14  1.07  1.19   .98   .93   .91  1.04        
  1.17   .96  1.09   .80  1.13  1.20  1.11   .84  1.15  1.10   .98   .95        
  1.33  1.18  1.06  1.03  1.17   .97   .91  1.17   .99   .98   .99  1.11        
  1.13   .98  1.02  1.04  1.12  1.02  1.03   .79  1.07  1.02  1.03  1.13        
  1.17  1.19   .94  1.01  1.01  1.01   .90  1.08  1.06   .93   .99   .96        
  1.05  1.01   .85  1.09  1.15  1.00   .97  1.01  1.04   .93  1.14  1.27        
  1.09  1.46  1.27  1.11   .95  1.14  1.13   .84  1.05  1.19  1.18   .89        
  1.12  1.02  1.14  1.02  1.09  1.04  1.27  1.10  1.04  1.25  1.27   .97        
  1.26  1.05   .98   .96  1.24  1.19  1.17   .94  1.08  1.17  1.08  1.13        
  1.05  1.08  1.13  1.00   .83  1.09  1.18  1.11  1.19  1.47  1.28  1.12        
  1.29  1.21  1.11  1.19  1.35  1.37   .98  1.15  1.19  1.05  1.19  1.21        
  1.16  1.14  1.05   .99  1.10  1.22  1.11  1.06  1.13  1.13  1.36  1.10        
  1.31  1.19  1.06  1.30  1.29  1.16  1.08  1.10  1.00   .89  1.11  1.15        
  1.08  1.09  1.03  1.09  1.14  1.20   .98  1.16  1.07  1.07  1.19  1.40        
  1.22  1.06   .89   .86   .92  1.22   .98   .79   .80   .90   .97   .91        
   .97  1.03   .99   .96   .94   .94   .98  1.01   .91  1.11   .91   .88        
   .96  1.00   .81   .94   .94   .91   .90   .86   .97  1.00   .99   .97        
   .95   .98   .92   .89  1.00  1.00   .90   .93   .94  1.03   .99  1.27        
  1.26  1.11  1.03  1.08  1.02   .90   .88  1.11  1.04   .94   .96   .92        
  1.09   .86   .91  1.00   .96  1.08  1.00  1.02  1.18   .94  1.12   .95        
  1.09  1.00   .97  1.02  1.05   .94   .89   .84   .98   .80   .88   .89        
   .88  1.03   .85  1.07  1.10   .96   .95  1.03  1.02   .95  1.05  1.03        
   .92  1.08  1.04  1.11  1.23  1.08  1.04  1.07  1.20  1.02   .95   .99        
  1.05  1.19  1.06  1.03  1.07  1.20  1.25  1.39   .96  1.02   .90  1.02        
  1.00   .94   .91  1.24  1.25  1.07  1.03  1.16  1.14  1.14  1.20  1.26        
  1.16  1.11  1.01  1.06   .95  1.04  1.01  1.06  1.02  1.15  1.29  1.16        
  1.09  1.07  1.15  1.03  1.03  1.11  1.01  1.00  1.00   .97  1.07  1.06        
   .95  1.04  1.10  1.32  1.05   .93  1.21  1.02   .89   .98   .94  1.15        
  1.00   .99   .95  1.13  1.13  1.25  1.09  1.04  1.15   .95   .99  1.07        
  1.16   .97  1.07   .99  1.00  1.06  1.14  1.03  1.18   .98   .92   .94        
   .99   .97  1.03  1.04  1.06  1.06  1.11  1.03   .92   .94   .89  1.03        
   .96  1.02   .94  1.01  1.11  1.01  1.18  1.13  1.05  1.13  1.15   .72        
   .78   .92   .99  1.07  1.02  1.12   .98  1.08  1.04  1.15  1.03  1.11        
   .92  1.04  1.01   .90  1.01   .95  1.12  1.07  1.01   .93  1.03  1.35        
   .93   .97  1.07  1.10   .97  1.05  1.00   .97  1.04  1.05  1.04   .99        
   .92  1.01  1.02  1.06  1.13  1.06   .93   .90   .85  1.01   .92   .67        
   .79  1.06   .83  1.02  1.05   .97   .92  1.07  1.21  1.06  1.14  1.07        
   .93  1.07  1.32  1.03   .98  1.09   .99  1.05  1.03  1.18   .97  1.13        
  1.07  1.02  1.08   .99  1.02  1.06   .91  1.30   .94  1.01   .96  1.05        
  1.03   .93  1.06   .93   .94   .94   .97  1.06  1.13   .97  1.02  1.15        
  1.30  1.12   .94  1.06  1.05   .98   .90   .87  1.09   .94   .97   .94        
  1.02   .94  1.02   .87   .96   .95  1.14   .99   .91  1.23  1.07  1.07        
  1.12  1.10  1.01   .99   .94   .96   .88   .89   .92   .92   .94   .94        
   .90   .93   .99  1.07  1.00   .95  1.04  1.10   .93  1.14  1.03  1.47        
  1.17  1.05   .97   .89  1.01   .98  1.05   .97  1.01  1.02   .96  1.01        
   .90  1.03  1.01   .89   .96   .99  1.00  1.00   .96   .95   .91   .96        
  1.10  1.13  1.15  1.06  1.12  1.01  1.04  1.04  1.12  1.14  1.08  1.02        
  1.07  1.09  1.07  1.13  1.11  1.19  1.05  1.09  1.09  1.14  1.12   .98        
  1.04  1.25  1.04  1.04  1.16  1.04   .99   .99  1.07   .99  1.05  1.10        
  1.06  1.09  1.03  1.06  1.04   .98  1.01   .96  1.10  1.11  1.10  1.10        
  1.25  1.13  1.02  1.07  1.05  1.16   .92  1.00   .97  1.05  1.08  1.11        
  1.01  1.09  1.08  1.12  1.09  1.00  1.18  1.16  1.07  1.08  1.11  1.17        
  1.19  1.22  1.20   .98  1.08   .99   .95  1.06  1.06  1.08   .93  1.04        
  1.14  1.21  1.04  1.14   .97  1.05  1.06   .98  1.05   .95   .95   .94        
  1.02  1.03  1.01   .99  1.03   .93  1.10   .99  1.10  1.02  1.00   .94        
  1.02  1.17   .97   .98  1.01  1.00  1.03  1.10  1.06  1.03  1.06  1.03        
  1.07  1.20  1.00  1.06  1.02  1.01   .99  1.02  1.02   .99  1.02  1.08        
   .98  1.06  1.05  1.05  1.01   .91   .94   .94  1.02  1.08  1.17  1.07        
  1.11  1.07  1.09   .99  1.00  1.00   .90   .96  1.01   .92   .95  1.05        
  1.08  1.00   .99   .96  1.13  1.03  1.06  1.01  1.04  1.02  1.05  1.06        
   .97   .99  1.10   .96  1.02   .97  1.00  1.00  1.06  1.00   .94   .94        
  1.11   .97   .94   .97  1.09   .96  1.00  1.01   .91   .97   .94   .92        
  1.01  1.00  1.07  1.07  1.09   .99   .99  1.06  1.00  1.00  1.01  1.02        
   .97  1.05   .93   .97  1.03   .99  1.02  1.02   .98  1.02  1.01  1.03        
  1.12  1.12  1.12   .97  1.06  1.01   .96  1.02   .98  1.00  1.14  1.05        
  1.12   .99  1.02   .97   .98   .92  1.00   .97   .99  1.09  1.15  1.04        
  1.21  1.05  1.16  1.01  1.09  1.05  1.06  1.15   .96   .96   .98  1.02        
  1.17   .99   .93   .96  1.00  1.02  1.02  1.02   .97   .94  1.03   .90        
   .94  1.05   .98   .92   .98   .98  1.03   .89  1.00  1.07   .99   .99        
   .98   .99   .94  1.01   .98  1.08  1.02   .99   .94  1.07  1.02   .98        
   .95   .92  1.05  1.02  1.15  1.02   .98   .98   .95   .92  1.05  1.06        
  1.02   .92  1.04   .95  1.11   .92  1.03  1.16  1.02   .92  1.09  1.00        
  1.08   .98  1.05   .92  1.11  1.00  1.02  1.02  1.00   .96  1.12  1.13        
  1.16  1.00  1.03   .94   .97  1.04   .99  1.10  1.07  1.10  1.04   .99        
  1.04  1.09  1.10   .94  1.02  1.00  1.06   .98  1.01   .95   .91   .94        
   .93   .95   .98   .89   .97  1.15  1.09   .92  1.04  1.06  1.07  1.05        
  1.04  1.03  1.05   .93  1.07  1.05   .98  1.08  1.22  1.03  1.03  1.04        
   .95   .98   .96   .96   .99  1.05  1.01   .99   .97  1.03   .98  1.03        
   .96   .99  1.09  1.00   .97  1.09  1.05  1.00   .98  1.06   .98  1.03        
   .98   .96  1.03   .98  1.04  1.00  1.11  1.07   .97  1.03  1.11  1.05        
  1.02   .97  1.07   .89  1.10   .90  1.06   .99  1.02  1.01  1.19  1.11        
  1.01  1.02   .89   .91   .92  1.13  1.08  1.10  1.11  1.00  1.09   .96        
  1.00  1.04  1.00   .95   .97   .98  1.01  1.03  1.10  1.03   .95  1.00        
   .96   .98   .97   .96  1.02   .97  1.00   .96  1.19   .97  1.11  1.13        
  1.05   .98   .93   .95   .97   .98   .95   .94   .99  1.00   .99  1.06        
   .89   .94  1.00   .96  1.04   .95  1.02  1.00   .98  1.06  1.09  1.14        
  1.12   .97  1.01  1.05  1.10  1.11  1.04  1.00  1.04  1.07  1.07  1.03        
  1.00   .96  1.04  1.10  1.16  1.09  1.06  1.12  1.12  1.05  1.14  1.05        
  1.03   .99  1.00   .92  1.08   .99  1.01  1.01  1.02   .97  1.07  1.10        
   .95  1.10  1.07  1.07  1.09  1.06  1.14  1.15  1.13  1.25  1.16  1.06        
  1.10  1.14  1.09  1.11   .96  1.09  1.04   .99  1.05   .99  1.06  1.02        
  1.10  1.06   .95   .97  1.05  1.00  1.02  1.15  1.10  1.07  1.05  1.01        
   .95  1.00  1.05  1.05  1.07   .99  1.05  1.00   .99  1.02  1.08  1.01        
  1.04  1.02   .99  1.04  1.01  1.01   .99   .97  1.11  1.01  1.10  1.06        
  1.07   .99   .86  1.01  1.09  1.07  1.10   .99   .95  1.07  1.04   .95        
  1.08  1.07   .99  1.01  1.19  1.01  1.01  1.11  1.13  1.05  1.08   .97        
  1.10  1.10  1.07  1.06  1.13   .97  1.11   .94  1.02  1.11  1.12  1.08        
   .96  1.07  1.05  1.09  1.14  1.03  1.02   .98  1.21  1.14  1.12  1.06        
  1.08  1.21  1.12  1.05  1.03  1.12  1.10  1.12   .99  1.06  1.02  1.05        
  1.21   .98  1.04   .95  1.01  1.02  1.02  1.00  1.03  1.06  1.04  1.27        
  1.01  1.07  1.01  1.08  1.18   .96   .97  1.08   .96  1.00  1.03  1.08        
   .95   .93   .95  1.00   .98  1.03  1.04  1.11  1.05  1.07  1.07   .91        
  1.03   .99  1.02   .96  1.24  1.10  1.18  1.02  1.09  1.07  1.00   .95        
  1.10  1.01   .98   .99  1.16  1.09  1.04  1.01  1.10  1.11  1.05  1.11        
  1.15  1.08  1.10   .96  1.04  1.06  1.04  1.06  1.16  1.16  1.13  1.23        
  1.08  1.07  1.11  1.03  1.00   .94  1.11   .90  1.06  1.14  1.09  1.11        
  1.19  1.11  1.07   .98  1.12  1.03   .97  1.13  1.15  1.01  1.03  1.13        
  1.04  1.03  1.04  1.00  1.02   .97  1.00  1.01   .98  1.06  1.08  1.03        
  1.09  1.00  1.11  1.00   .93  1.03   .94  1.03  1.03   .93  1.04  1.04        
  1.06  1.04  1.01  1.03  1.03  1.02   .98  1.06  1.06  1.01  1.06   .95        
   .93  1.03   .97  1.04  1.20  1.05  1.07   .96  1.01  1.14  1.12   .98        
   .95  1.01   .99  1.03  1.09  1.01  1.00  1.00   .99  1.03  1.02  1.01        
  1.26  1.01  1.00  1.00  1.02   .98   .99  1.06  1.08  1.12  1.05  1.19        
  1.11   .99  1.04  1.09   .96   .92  1.08   .98  1.01  1.15  1.19  1.02        
  1.07  1.08  1.02  1.01  1.03  1.02   .99   .94   .98  1.12  1.04  1.09        
  1.03  1.02   .99  1.08   .91  1.06   .96   .91  1.07  1.04  1.07  1.07        
   .97   .99  1.00  1.05  1.00   .97   .97   .91  1.01  1.05  1.04  1.08        
   .96   .94  1.02  1.06  1.04  1.04   .97   .97  1.07  1.03   .93   .98        
   .97  1.00  1.01   .97  1.11  1.07  1.00   .99  1.07  1.00  1.01  1.03        
  1.02   .99  1.03  1.09   .99  1.13  1.00  1.14   .99  1.04  1.06  1.04        
   .95  1.02  1.03  1.11  1.09  1.07  1.03  1.12  1.05  1.10  1.10  1.07        
  1.05  1.10   .98  1.07  1.01   .98  1.04  1.00  1.00  1.08  1.17  1.12        
  1.16  1.04  1.06   .87  1.06  1.11  1.02  1.12  1.06  1.07  1.04  1.12        
   .92  1.05  1.03   .95  1.12  1.02  1.02  1.05   .99  1.02   .99  1.00        
  1.15  1.05  1.01  1.08  1.05  1.04   .96  1.00  1.06   .97  1.11  1.14        
   .98   .96  1.12   .98  1.03   .98  1.01  1.00   .92   .99   .98  1.04        
   .97   .94   .94   .95   .97  1.06   .99  1.08   .94   .99   .94   .99        
  1.06   .89  1.07  1.13  1.05   .97  1.03  1.02   .97   .94   .98   .95        
   .96   .91   .93   .94  1.00  1.03  1.06  1.10   .94   .98   .96   .98        
   .89   .87   .94   .90   .97   .96   .89   .87   .90  1.05  1.13   .99        
   .98  1.03   .97   .91   .99   .96   .97  1.01   .92  1.01   .95   .97        
  1.01   .99  1.01   .99   .94   .91   .98  1.04  1.02   .96   .92   .90        
  1.01   .93   .90   .91   .89   .95   .97   .85  1.03   .95  1.02   .98        
   .96   .97   .91  1.07   .89  1.01   .96   .99  1.01   .98  1.03   .93        
   .99  1.05   .95   .91  1.11   .99  1.01  1.08   .95   .94   .95  1.05        
   .94   .97  1.02  1.05  1.03  1.02   .95  1.03  1.08   .93   .96  1.03        
  1.04   .98   .99   .90  1.07  1.02   .98  1.08   .96   .89   .99  1.01        
   .95   .92  1.00  1.06   .94  1.02   .95  1.06  1.04  1.07  1.15  1.00        
  1.04  1.01  1.00   .99  1.10  1.04  1.01   .98   .93   .89   .96   .96        
   .95   .96   .98  1.03   .96  1.00  1.00  1.05  1.17  1.10   .94  1.02        
   .95  1.09   .94  1.00   .94  1.03   .95   .99  1.05  1.00   .97   .95        
   .99   .94   .97   .98   .97   .98   .98   .99  1.05   .95  1.17   .97        
   .98  1.11   .94  1.02  1.03   .99   .90  1.10   .90   .98   .99   .98        
  1.08   .94   .93  1.18  1.05   .98   .97   .93   .98   .98   .97   .99        
   .99   .83  1.10  1.14  1.04  1.07   .98  1.08  1.16   .95   .98   .95        
   .94   .93   .95   .92   .99   .88   .89   .95   .97  1.01  1.14   .98        
  1.06  1.05   .96  1.02  1.08   .94  1.05   .99   .96  1.01  1.04  1.03        
  1.04  1.03  1.04   .94   .96  1.00   .98  1.03   .99  1.02  1.06   .82        
  1.14   .89  1.04  1.08  1.00   .98   .92  1.07  1.06  1.02   .96   .91        
  1.01   .90   .93   .90   .98  1.02   .96   .97  1.06   .97  1.06   .92        
   .99   .94   .86   .83   .85   .97   .93  1.07   .95  1.12   .88   .95        
   .92   .88   .93   .95   .89   .87   .93   .98   .83   .91   .97   .97        
   .95   .88   .96   .97   .85   .93   .88   .98   .85   .92   .81   .85        
   .87   .88   .92   .80   .92   .99   .92   .93   .91   .89   .90   .99        
   .92   .99   .99   .83   .91   .81   .94   .90   .90   .87   .85   .90        
   .87   .93   .91   .82   .81   .90   .90   .98   .88   .92   .98   .95        
   .90   .93   .92   .84   .90   .98   .89   .92   .85   .92   .88   .91        
   .93   .88   .91  1.03   .92   .92  1.05   .92   .99  1.01   .86   .93        
  1.07  1.00   .99   .93   .91   .94  1.09  1.03  1.02  1.11  1.00  1.11        
   .92   .96   .93  1.09   .96   .96   .99  1.12  1.04  1.07  1.05  1.16        
   .91  1.05  1.12  1.13  1.04  1.03   .98  1.04  1.02   .98   .94   .99        
   .96   .97  1.03  1.00  1.07  1.00  1.04  1.13  1.01  1.01   .97  1.15        
  1.09  1.04  1.05  1.07  1.04   .99  1.00   .99   .95   .97  1.00  1.11        
   .92   .92   .96  1.02  1.02  1.02   .97  1.07   .93   .99   .97  1.02        
  1.01  1.02  1.00  1.02  1.07  1.02  1.00  1.05   .99   .99   .97   .93        
  1.01  1.01  1.05  1.04   .98  1.07   .98  1.12   .85  1.11   .96  1.07        
  1.03   .96   .94   .92  1.02   .92  1.06  1.07   .95  1.01  1.03  1.03        
   .89   .95   .93   .96   .91  1.02   .96  1.17  1.01   .97  1.02   .92        
  1.01  1.07  1.03  1.05   .97  1.02   .98   .88   .93   .96   .95  1.02        
   .86  1.00   .99   .89  1.03   .97  1.01  1.05   .97  1.07  1.04  1.03        
  1.03   .98  1.08  1.11   .95   .94   .96   .97  1.07   .97   .95   .97        
   .97  1.02   .92   .97   .91   .91   .91   .97   .88  1.04   .99  1.05        
  1.00   .94   .97   .95   .96   .98  1.00  1.02   .94   .87   .90   .99        
   .97   .84   .98  1.01  1.01  1.04  1.00  1.04  1.00  1.02   .95  1.10        
  1.11  1.01   .95   .94  1.03  1.00  1.11  1.10   .98  1.00  1.01  1.06        
   .88  1.01   .97  1.13   .90  1.04  1.01  1.19  1.01  1.07  1.06  1.14        
  1.04  1.07  1.10  1.02   .98  1.04  1.12  1.12   .95  1.00  1.00  1.02        
   .94   .97   .97  1.16  1.08  1.10   .99  1.04  1.21  1.22  1.02  1.10        
  1.09  1.06  1.11   .99  1.02  1.09   .96  1.03  1.02   .97  1.04  1.01        
  1.03  1.05  1.02  1.08  1.03   .91  1.05  1.03   .97  1.02  1.15  1.04        
   .97   .97   .99  1.09   .98  1.07  1.01  1.01  1.06   .95  1.04   .94        
  1.02  1.07   .97  1.07  1.12  1.09  1.04  1.07   .98   .99  1.07   .96        
  1.06  1.01  1.06  1.01  1.04  1.04  1.18  1.09   .99   .98  1.05  1.15        
  1.05  1.13  1.10  1.14  1.02  1.12  1.04  1.07   .97  1.13  1.09  1.13        
  1.05  1.26  1.35  1.11  1.06  1.12  1.11  1.10  1.06  1.02  1.08  1.11        
   .95  1.02   .98  1.07  1.12  1.08  1.00  1.03  1.04  1.10  1.09  1.13        
  1.08  1.16  1.08  1.11  1.08  1.02   .99  1.07   .98   .98  1.00  1.10        
   .87  1.01   .91  1.21  1.05   .98   .98  1.10  1.06  1.07  1.07  1.12        
   .97  1.04  1.05  1.01  1.02  1.08   .98  1.07  1.11  1.06  1.11  1.16        
  1.15  1.02  1.11  1.21  1.01  1.07  1.05  1.06   .98  1.00  1.15  1.04        
  1.03   .98  1.10   .99  1.00  1.06   .98  1.02   .99   .98  1.04  1.04        
  1.05  1.04  1.11  1.06   .98   .96  1.03  1.14   .98   .95  1.06  1.02        
  1.01  1.07  1.13  1.11  1.00  1.04  1.07  1.19   .92   .97  1.02  1.15        
  1.00  1.09  1.01  1.13  1.04  1.06  1.02  1.05   .97   .99  1.19  1.10        
  1.03  1.10  1.08  1.11  1.01  1.04   .97   .99   .93  1.04  1.13   .97        
  1.02   .96  1.02  1.00   .94  1.09   .97  1.06  1.02  1.07  1.07  1.08        
  1.03  1.03   .97   .95   .97  1.03  1.02  1.03  1.03   .97  1.10  1.02        
  1.12  1.06  1.05  1.07  1.00  1.01  1.03   .99   .98  1.08  1.11   .99        
  1.00  1.00  1.00  1.07  1.08   .96   .98  1.05  1.08  1.04   .99   .99        
   .91  1.06   .99  1.12  1.09   .96   .97  1.06  1.10   .97  1.03   .98        
   .95  1.14  1.04  1.10  1.08  1.05  1.01  1.18  1.08  1.05   .97  1.15        
   .94   .99  1.01  1.12   .95  1.05   .99  1.13  1.03  1.10  1.06  1.00        
   .96  1.01   .96  1.20  1.01   .99  1.00  1.11   .95   .88  1.09  1.16        
   .93  1.02   .97   .97   .97   .90   .97  1.02   .97   .99  1.05  1.04        
   .98  1.06  1.04  1.09  1.04  1.12  1.09   .98  1.07  1.05  1.07  1.08        
  1.01  1.00  1.07  1.14   .88  1.03  1.00   .99  1.04  1.05  1.09  1.08        
   .94   .90   .90   .92   .93   .90   .82   .97   .92   .93   .89   .81        
   .92   .96  1.01   .95   .91   .90   .89   .91   .92   .92   .88   .94        
   .99   .90  1.06   .93   .90   .90   .96  1.03   .89   .88   .98   .92        
   .87   .94   .93   .89   .90   .95   .92   .97  1.03   .99   .99  1.02        
   .96   .87   .90   .99   .94   .99   .99   .94   .88   .83   .91   .92        
   .89   .98   .92   .89   .83   .92   .92  1.08   .91   .91   .93   .89        
   .81   .94   .95   .92   .88   .98   .89   .85   .98   .92   .93  1.00        
   .87   .92   .95   .93   .92   .90   .91   .88   .84   .96   .88   .97        
   .89   .90   .94  1.03   .95  1.03  1.05   .97  1.05   .96  1.01   .93        
  1.04   .97  1.18  1.07  1.04   .97   .95  1.11  1.05  1.05   .95  1.08        
  1.01   .99   .94   .96   .96   .94  1.09  1.03   .94   .99  1.04   .95        
   .98  1.01  1.00  1.03  1.00  1.03   .99  1.18  1.09  1.09  1.05  1.04        
   .99  1.03  1.05  1.04   .99   .95  1.02  1.03   .98   .96  1.07  1.00        
   .96   .96   .96   .92  1.00   .92   .93  1.01   .98  1.03  1.01   .90        
   .97   .96  1.12   .90  1.00  1.03  1.07   .91  1.00   .90  1.06  1.12        
   .91  1.02  1.02  1.08   .95   .99   .98   .92   .92  1.02   .94   .99        
   .92   .96  1.04  1.05  1.03  1.04   .96  1.12   .99  1.09  1.02   .90        
   .98  1.12  1.05  1.06  1.07  1.03  1.03  1.10  1.00  1.06  1.01  1.08        
  1.14  1.05  1.03  1.01  1.09  1.08   .98  1.06  1.00  1.10  1.04  1.01        
   .91  1.10  1.03   .96  1.03   .97  1.07  1.11  1.23  1.08  1.04  1.24        
  1.30  1.08  1.06  1.13  1.10  1.03  1.04  1.10  1.02  1.05  1.03  1.03        
   .97   .91  1.01   .98   .99   .96   .99  1.09   .92  1.05  1.01   .97        
   .91   .96   .97  1.00  1.01  1.02  1.01   .98   .93   .94  1.20  1.07        
   .95   .98  1.04   .94  1.03   .97   .98   .92   .91   .97  1.06   .96        
  1.04   .93  1.05  1.00   .95   .99   .98   .87   .85   .89  1.12  1.00        
  1.09  1.05   .97  1.17   .94   .97   .94  1.01  1.14  1.01  1.11  1.02        
  1.07  1.07   .94  1.02  1.07   .98  1.03  1.07   .95  1.00  1.00  1.01        
   .92  1.00   .99   .95   .92   .97   .95  1.11  1.00  1.08  1.08  1.08        
  1.07  1.15  1.06  1.01  1.00  1.04   .99  1.11   .91   .95   .97  1.03        
   .83   .93   .95  1.00   .90  1.08  1.02  1.03   .97   .93  1.00  1.06        
   .92   .99  1.14   .84  1.02   .98   .92  1.00  1.00  1.04  1.06  1.06        
   .95  1.06   .98   .96   .88   .96   .94   .94   .98   .99   .99  1.00        
  1.00   .97  1.00  1.06   .97   .94  1.06  1.06   .99   .95  1.09  1.10        
  1.06  1.01   .93  1.16  1.01   .98   .98  1.03  1.21  1.03  1.13  1.14        
   .97   .98  1.09  1.14  1.01  1.10  1.06  1.01  1.02   .98  1.09  1.16        
  1.03  1.01   .99   .94  1.08   .99  1.07  1.08  1.09  1.16  1.12  1.08        
   .95  1.10  1.19  1.03   .99  1.02  1.00   .99   .98  1.10  1.03  1.09        
  1.07  1.02   .93  1.07  1.07   .97  1.02  1.13  1.03  1.02  1.00  1.02        
   .99  1.00  1.01  1.04   .95  1.02  1.00   .99   .98  1.05  1.01  1.02        
   .98  1.01   .99   .98   .93  1.01  1.04  1.08  1.05  1.03   .99  1.10        
   .96   .91  1.00   .99   .93  1.02  1.08  1.08  1.04  1.10   .99  1.11        
  1.00  1.03   .98  1.11   .99  1.03  1.01  1.06   .99  1.00  1.05  1.03        
  1.03  1.19  1.10  1.05  1.02  1.04  1.04  1.06  1.03   .94   .92  1.02        
  1.02   .96   .95  1.04   .97   .97  1.01  1.03  1.04  1.05  1.06  1.11        
  1.06  1.06  1.29  1.06   .96   .98   .98   .97   .93  1.06  1.05   .99        
  1.02  1.04  1.03  1.15  1.01   .94   .99  1.12  1.07   .99   .95  1.04        
   .94   .96  1.03   .96  1.02  1.08  1.03   .97   .96  1.02  1.01   .94        
   .93   .94   .94   .98   .91  1.02   .99  1.17   .99   .94  1.01  1.01        
  1.09  1.00   .95   .97   .81  1.12  1.17  1.08  1.08  1.13   .99  1.06        
  1.06  1.18  1.01  1.05  1.05  1.01  1.08  1.15  1.27  1.11  1.11  1.24        
  1.31  1.19  1.06  1.12  1.25  1.04  1.04   .99  1.02   .98  1.05  1.01        
  1.14   .96   .99  1.07   .99  1.07  1.06  1.03  1.15  1.08  1.09  1.08        
  1.12  1.12  1.18  1.14   .94  1.04  1.01   .94   .96  1.04  1.07   .96        
  1.03  1.05  1.05  1.15   .90  1.11  1.04  1.05  1.07  1.19   .99  1.22        
  1.15  1.05  1.01   .91   .93  1.01  1.03  1.12  1.00  1.06  1.10  1.08        
  1.05  1.12  1.09  1.09   .87  1.09  1.02  1.03  1.05  1.15  1.04  1.06        
   .86   .95   .93  1.02  1.03  1.10  1.02  1.22  1.07   .93   .98  1.01        
  1.05  1.01  1.03  1.21  1.37   .95  1.09   .93  1.10  1.06   .94   .74        
   .77   .77   .94  1.01  1.12  1.02  1.10  1.08  1.06  1.08  1.07  1.09        
  1.04   .94  1.28   .88   .87   .97   .94  1.09  1.11   .94   .96   .96        
  1.13  1.00  1.04  1.08  1.09  1.03  1.03   .86  1.04   .99  1.04  1.01        
  1.02  1.03  1.00  1.01   .98   .93  1.02  1.05  1.04  1.03   .86  1.01        
   .92   .86   .81   .87   .94   .89   .93  1.08   .95  1.01  1.07  1.10        
   .98  1.05  1.02  1.03   .97  1.13   .93   .96   .98   .92   .75   .90        
  1.05   .94  1.03  1.05  1.28  1.03  1.20  1.12  1.22   .92  1.01  1.08        
  1.24  1.19  1.23  1.21  1.16  1.09  1.15  1.12  1.01  1.08   .96  1.08        
  1.21   .92  1.09  1.10  1.18  1.43  1.09  1.08  1.15  1.38  1.15  1.27        
   .99  1.04   .92   .99  1.01  1.05  1.04  1.25  1.02   .95   .95  1.02        
   .90   .97   .99  1.14  1.06  1.01   .91   .99  1.03   .98  1.12   .93        
  1.17  1.00  1.17  1.15  1.19  1.11  1.08  1.15   .97  1.01   .97  1.16        
  1.01   .90  1.09  1.06  1.02  1.02  1.01   .97  1.18  1.17  1.32  1.19        
  1.10  1.05  1.43  1.10  1.04  1.20  1.19   .97  1.27  1.06   .97   .96        
  1.07   .94   .95   .87   .73   .80   .83  1.01   .91   .82   .91   .83        
   .95   .84  1.05   .94   .72   .84   .93   .84   .89   .85   .99   .78        
  1.05   .89   .81   .88   .85   .84   .95   .97   .92   .81   .93   .84        
   .82   .89   .86   .83   .93   .95   .96   .93   .97  1.06  1.02   .91        
   .88   .89  1.05   .86   .79  1.03   .83   .89   .86   .79   .86  1.07        
   .89   .95   .93   .94   .91   .90   .87   .90  1.30   .99   .84   .87        
   .92   .88  1.02   .83  1.04  1.07   .89   .96   .86   .77   .95   .87        
   .73   .92   .98   .77  1.19   .85   .75   .89   .94  1.01   .87   .83        
   .97  1.01   .94   .91   .83   .87   .93   .75   .90   .91   .90   .97        
  1.05   .98  1.03   .99   .85   .98   .90   .95   .96   .90   .93   .84        
   .75  1.01  1.04   .81  1.01  1.02   .94  1.02   .87   .94   .96   .95        
   .90   .93   .96   .89   .78   .79   .96  1.08   .97   .90   .98   .96        
  1.30  1.00  1.04   .97   .93   .84  1.25   .83   .88   .91  1.18   .82        
   .94   .97   .94  1.01   .75   .98   .96   .91   .99  1.01   .88   .80        
  1.08   .92   .90  1.05  1.12   .92   .93  1.00  1.05   .85   .88   .91        
  1.06   .92  1.01   .94   .91  1.20   .96  1.00   .99   .98  1.02   .94        
  1.11   .90   .99   .96   .75   .95   .83   .78   .90   .82   .94   .91        
   .76   .80   .96   .91   .92   .93   .91   .90  1.08   .84   .93   .96        
   .96   .87   .90   .84   .80   .98  1.01   .91   .85   .90   .93   .90        
   .84   .79  1.00  1.03   .85   .79   .73   .84  1.01   .76  1.07   .99        
   .99  1.12  1.02   .92   .85   .89   .87   .76   .84   .89   .93   .87        
   .93   .89   .88   .98   .82   .79   .91  1.00   .99   .95   .89   .90        
   .95  1.10   .82   .76   .92   .92   .90   .99   .93   .82   .85   .96        
   .99   .96   .94   .98   .75   .88   .87   .80   .87   .85   .98   .95        
   .92   .97   .96  1.00   .76   .81   .90   .84   .84   .85   .89   .91        
   .85   .85   .85   .97   .86   .84   .95  1.06   .90   .90  1.03   .97        
   .70  1.01   .89   .90   .89   .95   .77   .99   .98   .89   .92  1.03        
   .84   .79   .85   .92   .86   .94   .91  1.07  1.07   .98   .97  1.10        
  1.11  1.06  1.03   .99   .90   .89   .96   .97   .95   .90  1.11   .99        
   .80   .86   .88   .89   .73   .93   .90   .94   .89   .99   .90   .83        
   .86   .95   .83   .82   .90   .94   .81   .86  1.19   .84   .84   .86        
   .95   .83   .89   .97   .82   .88   .87   .91   .91   .99   .96   .82        
   .99   .98   .90  1.01  1.09   .99  1.00   .93   .96   .91   .98  1.07        
  1.10  1.07   .92   .89   .92  1.06  1.03   .88   .99  1.04   .92   .88        
   .84  1.04   .91  1.07  1.09   .94  1.00   .95   .96  1.02  1.27  1.20        
  1.23  1.12   .95  1.00   .93  1.01   .98  1.00  1.14  1.04  1.01  1.11        
   .93  1.10  1.08   .97   .98   .98   .89  1.04   .87   .98  1.03  1.04        
   .98   .90   .80   .90   .84   .99  1.00   .94   .92  1.06  1.00   .99        
   .85  1.07  1.09  1.05  1.09  1.03  1.03  1.03   .92  1.00  1.07   .98        
  1.03   .98   .98   .80   .99  1.17  1.07  1.20  1.12  1.00   .93   .90        
  1.07   .92   .93   .83  1.03   .99   .95   .98   .85   .91   .94  1.01        
   .91   .89   .91   .85   .87   .91   .97   .98   .84   .86   .96  1.04        
   .75   .88   .84   .86   .99   .95   .95   .89   .83   .93  1.02   .98        
  1.06   .97   .92  1.08   .96   .93   .95  1.01   .97  1.04  1.11  1.00        
   .93  1.05   .93  1.03  1.09   .96   .95  1.02  1.07   .88  1.00  1.11        
   .85   .97   .90   .91   .92   .97   .94   .96   .93   .94  1.02   .76        
   .82   .88   .98   .85   .92   .94   .94   .94   .79   .93  1.03  1.02        
   .97   .97   .98  1.05   .99  1.00  1.00  1.07  1.01   .92   .97   .90        
   .88   .81   .98   .87   .92  1.00   .91   .76   .82   .95   .99  1.10        
   .87   .96   .89   .74   .72   .92   .95   .98   .83   .91   .89  1.03        
   .97   .96   .94   .84   .96   .96  1.24   .87   .77   .96   .98  1.06        
   .88   .98   .82   .71   .86  1.03  1.07  1.01   .98  1.12  1.06   .84        
  1.03   .93  1.00   .97   .99  1.01   .93  1.01   .88   .94   .86   .89        
  1.01   .94   .95   .81   .92   .94   .97  1.14   .96   .89   .93  1.08        
   .81   .90   .84   .90   .99  1.02   .92   .72  1.25   .92   .95   .86        
   .93   .98   .99  1.17   .94   .90   .94   .96  1.03   .95   .97   .95        
   .71   .79   .78   .89   .77   .83   .71   .74   .66   .71   .81   .81        
   .81   .91   .83   .63   .66   .73   .76   .77   .87   .73   .78   .68        
   .45   .75   .69   .72   .79   .81   .95   .87   .61   .99   .83   .87        
   .89   .79   .69   .83   .80   .76   .91   .98   .79   .84   .73   .73        
   .72   .85   .97   .90   .97   .85   .81   .91   .76   .77   .81   .70        
   .94   .74   .81   .64   .81   .87  1.05   .65   .67   .77   .89   .77        
   .67   .79   .82   .88   .95  1.00   .77   .67   .76   .68   .72   .83        
   .98   .76   .87   .69   .66   .77   .79   .77   .89   .83  1.00   .70        
   .95   .74   .95  1.17  1.03   .99   .83   .95   .82   .75   .78   .96        
  1.18  1.16  1.01  1.12   .99   .84   .93  1.01  1.04   .84   .71  1.03        
  1.05   .80  1.20  1.01   .95   .76   .82   .94   .98   .92   .85   .98        
  1.10  1.07   .79   .67   .74   .79   .91   .98  1.02   .83   .72   .85        
  1.39   .99   .95  1.13  1.01   .91   .80  1.08   .93   .86  1.06  1.11        
  1.16  1.00   .77   .87   .85   .88  1.08  1.23   .93   .86   .81   .91        
   .68   .71  1.02  1.09  1.08  1.02   .77   .89   .90   .80   .82   .99        
  1.04   .97   .81  1.11   .97   .93  1.15  1.21   .98   .94   .71   .85        
   .74   .82  1.14  1.24  1.15  1.01  1.13  1.03   .75   .72   .96  1.11        
  1.01  1.07   .84   .93   .89   .91  1.08  1.17  1.05   .94   .90  1.19        
   .70   .72  1.23  1.24  1.13   .96  1.05  1.16   .82   .77  1.13  1.14        
   .99   .92   .79   .94   .95   .85  1.19  1.19  1.18  1.11   .77   .88        
  1.20  1.04  1.05  1.20  1.10   .92   .97  1.04   .97   .92  1.01  1.17        
  1.11  1.05   .84  1.04   .89   .81  1.09  1.16  1.09   .99   .82  1.16        
  1.01   .76   .81   .88  1.08   .92   .89  1.05  1.13   .99  1.04  1.14        
  1.08   .94  1.12  1.13  1.12  1.01  1.06  1.25  1.29  1.26  1.10  1.17        
   .78   .53   .80  1.01  1.08   .84   .81  1.03   .83   .71   .85  1.05        
   .95   .81   .67   .77   .66   .66   .87  1.13  1.01   .84   .66  1.12        
   .97   .83   .99  1.07  1.16  1.10   .86  1.00   .79   .66  1.02  1.05        
   .81   .79   .79   .92   .90   .76   .86  1.06  1.13   .81   .82  1.05        
  1.00   .95   .86  1.14  1.06   .97   .91   .90   .80   .93  1.12  1.15        
  1.09   .92   .93  1.06   .71   .73  1.00   .99  1.01   .89   .64  1.01        
   .94   .71   .82   .84  1.00  1.00   .75   .86  1.13   .96   .85  1.01        
  1.01   .90   .98  1.10   .96   .90   .90   .87  1.21  1.12   .77  1.10        
   .70   .71   .90  1.03   .60   .64   .84   .85   .90   .89  1.04  1.09        
   .78   .86   .59   .81   .74   .84   .82   .89   .79   .89   .74   .99        
  1.07   .88  1.20  1.14  1.10  1.09   .86   .87   .71   .86   .88  1.01        
  1.20  1.00   .81   .87   .83   .84  1.10  1.10   .88   .94  1.13   .99        
   .83   .64  1.05  1.00  1.07  1.05   .89   .66  1.22  1.00  1.13  1.22        
  1.16  1.04   .92   .91   .91   .75   .85  1.03  1.00   .92   .72   .92        
   .92   .92   .83   .86  1.10  1.02   .72   .64   .84   .77   .97   .97        
   .92   .85   .98   .76   .71   .76   .72   .87  1.02   .91   .78  1.18        
