  1.000000     0.9063276     0.8151134     0.7260028     0.6417851              
 0.5653911     0.4936772     0.4254852     0.3671260     0.3162125              
 0.2704045     0.2302929     0.1962796     0.1670173     0.1420096              
 0.1214693     0.1044508     0.8877969E-01 0.7632309E-01 0.6630111E-01          
 0.5765009E-01 0.5086631E-01 0.4566622E-01 0.4134071E-01 0.3692061E-01          
 0.3375334E-01 0.3134239E-01 0.2893144E-01 0.2654409E-01 0.2524406E-01          
 0.2382588E-01 0.2299857E-01 0.2176946E-01 0.2096581E-01 0.2013856E-01          
 0.1959491E-01 0.1905125E-01 0.1872033E-01 0.1831853E-01 0.1805848E-01          
 0.1779848E-01 0.1744395E-01 0.1711303E-01 0.1671124E-01 0.1630938E-01          
 0.1593119E-01 0.1538754E-01 0.1500934E-01 0.1465482E-01 0.1441842E-01          
 0.1394570E-01 0.1359117E-01 0.1323658E-01 0.1292932E-01 0.1269299E-01          
 0.1252753E-01 0.1224387E-01 0.1196021E-01 0.1160568E-01 0.1134568E-01          
 0.1106203E-01 0.1084930E-01 0.1063657E-01 0.1030564E-01 0.1018745E-01          
 0.9974718E-02 0.9761989E-02 0.9643853E-02 0.9431064E-02 0.9171069E-02          
 0.9076536E-02 0.8863807E-02 0.8651078E-02 0.8391082E-02 0.8249283E-02          
 0.7941961E-02 0.7776499E-02 0.7587433E-02 0.7540166E-02 0.7398307E-02          
 0.7185578E-02 0.7020116E-02 0.6901979E-02 0.6783783E-02 0.6736517E-02          
 0.6712854E-02 0.6523788E-02 0.6429255E-02 0.6334662E-02 0.6192863E-02          
 0.6145597E-02 0.6098330E-02 0.6003737E-02 0.5932868E-02 0.5814672E-02          
 0.5767405E-02 0.5649209E-02 0.5578280E-02 0.5483747E-02 0.5412817E-02          
 0.5412817E-02 0.5318284E-02 0.5223751E-02 0.5105555E-02 0.5058289E-02          
 0.4940093E-02 0.4892826E-02 0.4869223E-02 0.4821956E-02 0.4774630E-02          
 0.4703760E-02 0.4538298E-02 0.4467368E-02 0.4396439E-02 0.4372835E-02          
 0.4349172E-02 0.4325569E-02 0.4278302E-02 0.4207373E-02 0.4207373E-02          
 0.4136443E-02 0.4041910E-02 0.3947377E-02 0.3947377E-02 0.3852844E-02          
 0.3805518E-02 0.3734648E-02 0.3734648E-02 0.3687382E-02 0.3640115E-02          
 0.3616452E-02 0.3545523E-02 0.3474653E-02 0.3450990E-02 0.3403723E-02          
 0.3380060E-02 0.3356457E-02 0.3285527E-02 0.3238261E-02 0.3167331E-02          
 0.3143728E-02 0.3072798E-02 0.3049195E-02 0.3049195E-02 0.3025532E-02          
 0.2978265E-02 0.2954602E-02 0.2954602E-02 0.2930999E-02 0.2907336E-02          
 0.2836466E-02 0.2789140E-02 0.2765536E-02 0.2647340E-02 0.2600074E-02          
 0.2576411E-02 0.2505541E-02 0.2458274E-02 0.2458274E-02 0.2434611E-02          
 0.2387345E-02 0.2340078E-02 0.2316415E-02 0.2316415E-02 0.2292812E-02          
 0.2269149E-02 0.2269149E-02 0.2245545E-02 0.2198219E-02 0.2198219E-02          
 0.2150953E-02 0.2150953E-02 0.2127349E-02 0.2080083E-02 0.2032816E-02          
 0.2032816E-02 0.2009153E-02 0.1985490E-02 0.1914620E-02 0.1890957E-02          
 0.1843691E-02 0.1820087E-02 0.1820087E-02 0.1796424E-02 0.1796424E-02          
 0.1749158E-02 0.1701891E-02 0.1678228E-02 0.1678228E-02 0.1630962E-02          
 0.1583695E-02 0.1560032E-02 0.1536429E-02 0.1512766E-02 0.1489162E-02          
 0.1394570E-02 0.1394570E-02 0.1394570E-02 0.1394570E-02 0.1347303E-02          
 0.1347303E-02 0.1300037E-02 0.1276433E-02 0.1229167E-02 0.1229167E-02          
 0.1205504E-02 0.1158237E-02 0.1158237E-02 0.1134574E-02 0.1087308E-02          
 0.1063704E-02 0.1040041E-02 0.1040041E-02 0.1040041E-02 0.1040041E-02          
 0.1016438E-02 0.9927750E-03 0.9927750E-03 0.9691119E-03 0.9455085E-03          
 0.9218454E-03 0.9218454E-03 0.9218454E-03 0.9218454E-03 0.9218454E-03          
 0.9218454E-03 0.9218454E-03 0.9218454E-03 0.8982420E-03 0.8982420E-03          
 0.8745790E-03 0.8745790E-03 0.8745790E-03 0.8745790E-03 0.8745790E-03          
 0.8509755E-03 0.8273125E-03 0.8273125E-03 0.8273125E-03 0.8037090E-03          
 0.8037090E-03 0.8037090E-03 0.8037090E-03 0.8037090E-03 0.8037090E-03          
 0.8037090E-03 0.8037090E-03 0.7563829E-03 0.7091165E-03 0.7091165E-03          
 0.7091165E-03 0.6855130E-03 0.6855130E-03 0.6855130E-03 0.6855130E-03          
 0.6855130E-03 0.6855130E-03 0.6855130E-03 0.6855130E-03 0.6855130E-03          
 0.6855130E-03 0.6855130E-03 0.6618500E-03 0.6382465E-03 0.6382465E-03          
 0.6382465E-03 0.6382465E-03 0.6382465E-03 0.6382465E-03 0.6382465E-03          
 0.6145835E-03 0.6145835E-03 0.6145835E-03 0.6145835E-03 0.6145835E-03          
 0.6145835E-03 0.6145835E-03 0.6145835E-03 0.6145835E-03 0.6145835E-03          
 0.6145835E-03 0.6145835E-03 0.6145835E-03 0.6145835E-03 0.6145835E-03          
 0.6145835E-03 0.5909204E-03 0.5909204E-03 0.5909204E-03 0.5673170E-03          
 0.5673170E-03 0.5673170E-03 0.5673170E-03 0.5673170E-03 0.5673170E-03          
 0.5673170E-03 0.5673170E-03 0.5436540E-03 0.5436540E-03 0.5200505E-03          
 0.5200505E-03 0.5200505E-03 0.5200505E-03 0.4963875E-03 0.4491210E-03          
 0.4255176E-03 0.4255176E-03 0.4255176E-03 0.4018545E-03 0.4018545E-03          
 0.4018545E-03 0.4018545E-03 0.4018545E-03 0.3545880E-03 0.3545880E-03          
 0.3545880E-03 0.3545880E-03 0.3545880E-03 0.3545880E-03 0.3545880E-03          
 0.3545880E-03 0.3545880E-03 0.3309250E-03 0.3309250E-03 0.3309250E-03          
 0.3309250E-03 0.3309250E-03 0.3309250E-03 0.3073215E-03 0.2836585E-03          
 0.2363920E-03 0.2363920E-03 0.2363920E-03 0.2363920E-03 0.2363920E-03          
 0.2127886E-03 0.2127886E-03 0.1891255E-03 0.1891255E-03 0.1891255E-03          
 0.1891255E-03 0.1891255E-03 0.1891255E-03 0.1891255E-03 0.1891255E-03          
 0.1891255E-03 0.1891255E-03 0.1891255E-03 0.1891255E-03 0.1891255E-03          
 0.1891255E-03 0.1891255E-03 0.1891255E-03 0.1891255E-03 0.1891255E-03          
 0.1891255E-03 0.1891255E-03 0.1891255E-03 0.1891255E-03 0.1891255E-03          
 0.1891255E-03 0.1891255E-03 0.1891255E-03 0.1891255E-03 0.1891255E-03          
 0.1891255E-03 0.1891255E-03 0.1891255E-03 0.1891255E-03 0.1891255E-03          
 0.1891255E-03 0.1891255E-03 0.1891255E-03 0.1654625E-03 0.1654625E-03          
 0.1654625E-03 0.1654625E-03 0.1654625E-03 0.1654625E-03 0.1654625E-03          
 0.1654625E-03 0.1654625E-03 0.1654625E-03 0.1418591E-03 0.1418591E-03          
 0.1418591E-03 0.1418591E-03 0.1418591E-03 0.1418591E-03 0.1418591E-03          
 0.1418591E-03 0.1418591E-03 0.1418591E-03 0.1418591E-03 0.1418591E-03          
 0.1418591E-03 0.1418591E-03 0.1418591E-03 0.1418591E-03 0.1181960E-03          
  1.000000     0.9166965     0.8380543     0.7558265     0.6781403              
 0.6055934     0.5377077     0.4774711     0.4212980     0.3679934              
 0.3224573     0.2825386     0.2475200     0.2176408     0.1902713              
 0.1658899     0.1485599     0.1317079     0.1182025     0.1054142              
 0.9382099E-01 0.8485723E-01 0.7589340E-01 0.6955904E-01 0.6370264E-01          
 0.5987811E-01 0.5605358E-01 0.5210948E-01 0.4971915E-01 0.4768735E-01          
 0.4553604E-01 0.4386282E-01 0.4195052E-01 0.4027730E-01 0.3884310E-01          
 0.3776747E-01 0.3681129E-01 0.3525758E-01 0.3489906E-01 0.3418195E-01          
 0.3382337E-01 0.3274775E-01 0.3226966E-01 0.3119403E-01 0.3011835E-01          
 0.2987933E-01 0.2916223E-01 0.2808654E-01 0.2724993E-01 0.2677184E-01          
 0.2593523E-01 0.2509862E-01 0.2462059E-01 0.2390349E-01 0.2342540E-01          
 0.2270830E-01 0.2163261E-01 0.2115458E-01 0.2103508E-01 0.2019840E-01          
 0.1960087E-01 0.1900327E-01 0.1852518E-01 0.1804709E-01 0.1732999E-01          
 0.1637387E-01 0.1625437E-01 0.1577628E-01 0.1565677E-01 0.1541775E-01          
 0.1541775E-01 0.1517868E-01 0.1493967E-01 0.1446158E-01 0.1422256E-01          
 0.1374447E-01 0.1326644E-01 0.1314694E-01 0.1266885E-01 0.1254934E-01          
 0.1242983E-01 0.1231033E-01 0.1219076E-01 0.1207125E-01 0.1159322E-01          
 0.1159322E-01 0.1147366E-01 0.1135415E-01 0.1111513E-01 0.1087612E-01          
 0.1075655E-01 0.1039803E-01 0.1027852E-01 0.1027852E-01 0.1015902E-01          
 0.1003945E-01 0.9919941E-02 0.9680927E-02 0.9561419E-02 0.9561419E-02          
 0.9441912E-02 0.9441912E-02 0.9083331E-02 0.8963823E-02 0.8844316E-02          
 0.8605242E-02 0.8246720E-02 0.8007705E-02 0.7888138E-02 0.7649124E-02          
 0.7529616E-02 0.7529616E-02 0.7410109E-02 0.7410109E-02 0.7171035E-02          
 0.6932020E-02 0.6932020E-02 0.6932020E-02 0.6932020E-02 0.6932020E-02          
 0.6932020E-02 0.6812513E-02 0.6573498E-02 0.6573498E-02 0.6334424E-02          
 0.6334424E-02 0.6095409E-02 0.6095409E-02 0.5975902E-02 0.5975902E-02          
 0.5975902E-02 0.5975902E-02 0.5975902E-02 0.5736828E-02 0.5617321E-02          
 0.5497813E-02 0.5497813E-02 0.5497813E-02 0.5378306E-02 0.5378306E-02          
 0.5378306E-02 0.5378306E-02 0.5378306E-02 0.5258799E-02 0.5139291E-02          
 0.5139291E-02 0.5139291E-02 0.5019724E-02 0.5019724E-02 0.4900217E-02          
 0.4780710E-02 0.4780710E-02 0.4661202E-02 0.4661202E-02 0.4541695E-02          
 0.4302621E-02 0.4302621E-02 0.4302621E-02 0.4302621E-02 0.4302621E-02          
 0.4183114E-02 0.4183114E-02 0.4183114E-02 0.4183114E-02 0.4063606E-02          
 0.3944099E-02 0.3824592E-02 0.3705084E-02 0.3705084E-02 0.3705084E-02          
 0.3705084E-02 0.3705084E-02 0.3705084E-02 0.3705084E-02 0.3705084E-02          
 0.3705084E-02 0.3705084E-02 0.3705084E-02 0.3585517E-02 0.3585517E-02          
 0.3466010E-02 0.3466010E-02 0.3226995E-02 0.3107488E-02 0.3107488E-02          
 0.3107488E-02 0.3107488E-02 0.2987981E-02 0.2868414E-02 0.2868414E-02          
 0.2868414E-02 0.2748907E-02 0.2748907E-02 0.2748907E-02 0.2748907E-02          
 0.2748907E-02 0.2748907E-02 0.2629399E-02 0.2629399E-02 0.2629399E-02          
 0.2509892E-02 0.2509892E-02 0.2270877E-02 0.2270877E-02 0.2270877E-02          
 0.2270877E-02 0.2270877E-02 0.2151310E-02 0.2151310E-02 0.2151310E-02          
 0.2031803E-02 0.2031803E-02 0.2031803E-02 0.2031803E-02 0.2031803E-02          
 0.2031803E-02 0.2031803E-02 0.2031803E-02 0.2031803E-02 0.2031803E-02          
 0.2031803E-02 0.2031803E-02 0.2031803E-02 0.2031803E-02 0.2031803E-02          
 0.2031803E-02 0.2031803E-02 0.1912296E-02 0.1912296E-02 0.1912296E-02          
 0.1912296E-02 0.1912296E-02 0.1912296E-02 0.1912296E-02 0.1912296E-02          
 0.1792789E-02 0.1673281E-02 0.1673281E-02 0.1553774E-02 0.1553774E-02          
 0.1553774E-02 0.1553774E-02 0.1553774E-02 0.1434207E-02 0.1434207E-02          
 0.1434207E-02 0.1434207E-02 0.1434207E-02 0.1314700E-02 0.1195192E-02          
 0.1195192E-02 0.1195192E-02 0.1195192E-02 0.1195192E-02 0.1195192E-02          
 0.1195192E-02 0.1195192E-02 0.1195192E-02 0.1195192E-02 0.1195192E-02          
 0.1195192E-02 0.1195192E-02 0.1195192E-02 0.1195192E-02 0.1075685E-02          
 0.9561777E-03 0.9561777E-03 0.9561777E-03 0.9561777E-03 0.9561777E-03          
 0.9561777E-03 0.9561777E-03 0.8366704E-03 0.8366704E-03 0.8366704E-03          
 0.8366704E-03 0.8366704E-03 0.8366704E-03 0.8366704E-03 0.8366704E-03          
 0.8366704E-03 0.8366704E-03 0.8366704E-03 0.8366704E-03 0.8366704E-03          
 0.8366704E-03 0.8366704E-03 0.8366704E-03 0.8366704E-03 0.8366704E-03          
 0.8366704E-03 0.8366704E-03 0.8366704E-03 0.8366704E-03 0.8366704E-03          
 0.7171035E-03 0.7171035E-03 0.7171035E-03 0.7171035E-03 0.7171035E-03          
 0.7171035E-03 0.7171035E-03 0.7171035E-03 0.7171035E-03 0.7171035E-03          
 0.7171035E-03 0.7171035E-03 0.5975962E-03 0.5975962E-03 0.5975962E-03          
 0.5975962E-03 0.5975962E-03 0.5975962E-03 0.5975962E-03 0.5975962E-03          
 0.5975962E-03 0.5975962E-03 0.5975962E-03 0.5975962E-03 0.5975962E-03          
 0.5975962E-03 0.5975962E-03 0.5975962E-03 0.5975962E-03 0.5975962E-03          
 0.5975962E-03 0.5975962E-03 0.5975962E-03 0.5975962E-03 0.5975962E-03          
 0.5975962E-03 0.5975962E-03 0.5975962E-03 0.5975962E-03 0.4780889E-03          
 0.4780889E-03 0.4780889E-03 0.4780889E-03 0.4780889E-03 0.4780889E-03          
 0.4780889E-03 0.4780889E-03 0.4780889E-03 0.4780889E-03 0.3585815E-03          
 0.2390742E-03 0.2390742E-03 0.2390742E-03 0.2390742E-03 0.2390742E-03          
 0.2390742E-03 0.2390742E-03 0.2390742E-03 0.2390742E-03 0.2390742E-03          
 0.2390742E-03 0.2390742E-03 0.2390742E-03 0.2390742E-03 0.2390742E-03          
 0.2390742E-03 0.1195669E-03 0.1195669E-03 0.1195669E-03 0.1195669E-03          
 0.1195669E-03 0.1195669E-03 0.1195669E-03 0.1195669E-03 0.1195669E-03          
 0.1195669E-03 0.1195669E-03 0.1195669E-03 0.1195669E-03 0.1195669E-03          
 0.1195669E-03 0.1195669E-03 0.1195669E-03 0.1195669E-03 0.1195669E-03          
 0.1195669E-03 0.1195669E-03 0.1195669E-03 0.1195669E-03 0.1195669E-03          
 0.1195669E-03 0.1195669E-03 0.1195669E-03 0.1195669E-03 0.1195669E-03          
 0.1195669E-03 0.1195669E-03 0.1195669E-03 0.1195669E-03 0.1195669E-03          
 0.1195669E-03 0.1195669E-03 0.1195669E-03 0.1195669E-03 0.1195669E-03          
