  1.000000     0.9264233     0.8539428     0.7831953     0.7148977              
 0.6495789     0.5862089     0.5264546     0.4718472     0.4218507              
 0.3743145     0.3322418     0.2944912     0.2603285     0.2300077              
 0.2032190     0.1796875     0.1595769     0.1420100     0.1274186              
 0.1147063     0.1034730     0.9409106E-01 0.8558255E-01 0.7812500E-01          
 0.7146090E-01 0.6567025E-01 0.6097931E-01 0.5646229E-01 0.5273181E-01          
 0.4918569E-01 0.4625911E-01 0.4349250E-01 0.4127580E-01 0.3910774E-01          
 0.3734344E-01 0.3570437E-01 0.3411406E-01 0.3259677E-01 0.3130221E-01          
 0.3022695E-01 0.2903676E-01 0.2815288E-01 0.2719939E-01 0.2637810E-01          
 0.2565771E-01 0.2495825E-01 0.2431101E-01 0.2372289E-01 0.2316612E-01          
 0.2260584E-01 0.2209777E-01 0.2158970E-01 0.2113032E-01 0.2068490E-01          
 0.2024293E-01 0.1984620E-01 0.1941472E-01 0.1907367E-01 0.1870477E-01          
 0.1839858E-01 0.1801926E-01 0.1766080E-01 0.1734412E-01 0.1702744E-01          
 0.1676995E-01 0.1647764E-01 0.1618183E-01 0.1593125E-01 0.1569462E-01          
 0.1537448E-01 0.1515526E-01 0.1488727E-01 0.1465064E-01 0.1442444E-01          
 0.1416695E-01 0.1395464E-01 0.1378065E-01 0.1356488E-01 0.1331437E-01          
 0.1308119E-01 0.1285148E-01 0.1264620E-01 0.1241302E-01 0.1222861E-01          
 0.1202673E-01 0.1183188E-01 0.1165789E-01 0.1143169E-01 0.1127857E-01          
 0.1113588E-01 0.1099670E-01 0.1081574E-01 0.1062781E-01 0.1046079E-01          
 0.1030767E-01 0.1019633E-01 0.1007104E-01 0.9886563E-02 0.9712577E-02          
 0.9573400E-02 0.9423733E-02 0.9294987E-02 0.9138405E-02 0.9030521E-02          
 0.8884370E-02 0.8779943E-02 0.8686006E-02 0.8567691E-02 0.8404136E-02          
 0.8313656E-02 0.8212745E-02 0.8101344E-02 0.8014381E-02 0.7906497E-02          
 0.7795155E-02 0.7711589E-02 0.7631600E-02 0.7527173E-02 0.7467985E-02          
 0.7346213E-02 0.7287085E-02 0.7217467E-02 0.7130444E-02 0.7057369E-02          
 0.6977320E-02 0.6869435E-02 0.6806850E-02 0.6740689E-02 0.6650209E-02          
 0.6566703E-02 0.6493628E-02 0.6413579E-02 0.6316125E-02 0.6236136E-02          
 0.6169975E-02 0.6103873E-02 0.6016850E-02 0.5957723E-02 0.5888104E-02          
 0.5832434E-02 0.5776763E-02 0.5710661E-02 0.5634069E-02 0.5557537E-02          
 0.5494893E-02 0.5432248E-02 0.5366147E-02 0.5331337E-02 0.5261719E-02          
 0.5192101E-02 0.5153835E-02 0.5094707E-02 0.5038977E-02 0.4983306E-02          
 0.4927635E-02 0.4864991E-02 0.4778028E-02 0.4718840E-02 0.4652739E-02          
 0.4614472E-02 0.4579663E-02 0.4534423E-02 0.4478753E-02 0.4447401E-02          
 0.4405677E-02 0.4370868E-02 0.4311681E-02 0.4280388E-02 0.4224718E-02          
 0.4186392E-02 0.4137695E-02 0.4099429E-02 0.4047215E-02 0.3998518E-02          
 0.3953278E-02 0.3925443E-02 0.3869712E-02 0.3824472E-02 0.3782749E-02          
 0.3733993E-02 0.3713131E-02 0.3685296E-02 0.3619194E-02 0.3573954E-02          
 0.3542602E-02 0.3497362E-02 0.3473043E-02 0.3434718E-02 0.3386021E-02          
 0.3340781E-02 0.3298998E-02 0.3267705E-02 0.3225923E-02 0.3198087E-02          
 0.3166795E-02 0.3121555E-02 0.3114581E-02 0.3083289E-02 0.3048480E-02          
 0.2985835E-02 0.2958000E-02 0.2930164E-02 0.2912760E-02 0.2884924E-02          
 0.2853572E-02 0.2815306E-02 0.2797902E-02 0.2766609E-02 0.2738774E-02          
 0.2693534E-02 0.2669156E-02 0.2651751E-02 0.2630889E-02 0.2613485E-02          
 0.2599537E-02 0.2575219E-02 0.2529979E-02 0.2512574E-02 0.2488196E-02          
 0.2442956E-02 0.2415121E-02 0.2383828E-02 0.2352476E-02 0.2338588E-02          
 0.2310693E-02 0.2296805E-02 0.2282858E-02 0.2261996E-02 0.2251565E-02          
 0.2223730E-02 0.2199352E-02 0.2181947E-02 0.2143681E-02 0.2129734E-02          
 0.2105415E-02 0.2077580E-02 0.2060175E-02 0.2035797E-02 0.2018392E-02          
 0.2000988E-02 0.1973152E-02 0.1945317E-02 0.1924455E-02 0.1910508E-02          
 0.1893103E-02 0.1879215E-02 0.1879215E-02 0.1861811E-02 0.1830459E-02          
 0.1799166E-02 0.1771331E-02 0.1739979E-02 0.1712143E-02 0.1680851E-02          
 0.1666904E-02 0.1653016E-02 0.1628637E-02 0.1618207E-02 0.1611233E-02          
 0.1597345E-02 0.1586914E-02 0.1559079E-02 0.1541674E-02 0.1531184E-02          
 0.1510322E-02 0.1499891E-02 0.1489460E-02 0.1479030E-02 0.1458108E-02          
 0.1447678E-02 0.1437247E-02 0.1416385E-02 0.1392007E-02 0.1378119E-02          
 0.1367629E-02 0.1364172E-02 0.1353741E-02 0.1346767E-02 0.1343310E-02          
 0.1329362E-02 0.1318932E-02 0.1301527E-02 0.1287639E-02 0.1280665E-02          
 0.1273692E-02 0.1252830E-02 0.1228452E-02 0.1211047E-02 0.1207590E-02          
 0.1197159E-02 0.1183212E-02 0.1169324E-02 0.1162350E-02 0.1158834E-02          
 0.1155376E-02 0.1144946E-02 0.1130998E-02 0.1124084E-02 0.1110137E-02          
 0.1103163E-02 0.1092732E-02 0.1085758E-02 0.1075327E-02 0.1064897E-02          
 0.1054466E-02 0.1037061E-02 0.1030087E-02 0.1026630E-02 0.1016200E-02          
 0.1012683E-02 0.1002252E-02 0.9952784E-03 0.9813905E-03 0.9674430E-03          
 0.9639859E-03 0.9535551E-03 0.9465814E-03 0.9291768E-03 0.9257197E-03          
 0.9187460E-03 0.9152293E-03 0.9047985E-03 0.8978844E-03 0.8909106E-03          
 0.8839369E-03 0.8735061E-03 0.8561015E-03 0.8491278E-03 0.8352399E-03          
 0.8282661E-03 0.8143187E-03 0.7934570E-03 0.7900000E-03 0.7864833E-03          
 0.7690787E-03 0.7656217E-03 0.7586479E-03 0.7551908E-03 0.7516742E-03          
 0.7447600E-03 0.7412434E-03 0.7308126E-03 0.7238388E-03 0.7169247E-03          
 0.7099509E-03 0.7029772E-03 0.6925464E-03 0.6855726E-03 0.6751418E-03          
 0.6681681E-03 0.6647110E-03 0.6577373E-03 0.6507635E-03 0.6438494E-03          
 0.6403327E-03 0.6333590E-03 0.6264448E-03 0.6229281E-03 0.6159544E-03          
 0.6159544E-03 0.5986094E-03 0.5950928E-03 0.5950928E-03 0.5916357E-03          
 0.5916357E-03 0.5881190E-03 0.5881190E-03 0.5846620E-03 0.5776882E-03          
 0.5707145E-03 0.5568266E-03 0.5498528E-03 0.5428791E-03 0.5394220E-03          
 0.5324483E-03 0.5254745E-03 0.5220175E-03 0.5185604E-03 0.5185604E-03          
 0.5115867E-03 0.5115867E-03 0.5046129E-03 0.5011559E-03 0.4941821E-03          
 0.4872084E-03 0.4802346E-03 0.4733205E-03 0.4663467E-03 0.4559159E-03          
 0.4454851E-03 0.4385114E-03 0.4280806E-03 0.4211068E-03 0.4211068E-03          
 0.4176497E-03 0.4176497E-03 0.4106760E-03 0.4037023E-03 0.4037023E-03          
  1.000000     0.9298794     0.8601136     0.7934812     0.7266124              
 0.6625562     0.6011521     0.5447313     0.4925420     0.4432920              
 0.3981723     0.3576219     0.3208639     0.2872902     0.2577452              
 0.2315619     0.2091456     0.1891196     0.1725143     0.1587047              
 0.1463056     0.1352158     0.1241090     0.1158147     0.1084412              
 0.1021403     0.9651512E-01 0.9122777E-01 0.8665836E-01 0.8261263E-01          
 0.7900608E-01 0.7584721E-01 0.7300925E-01 0.7034868E-01 0.6780636E-01          
 0.6565261E-01 0.6359172E-01 0.6174201E-01 0.6012875E-01 0.5845642E-01          
 0.5701208E-01 0.5564380E-01 0.5425864E-01 0.5313528E-01 0.5187678E-01          
 0.5079567E-01 0.4967231E-01 0.4864186E-01 0.4759455E-01 0.4655564E-01          
 0.4559278E-01 0.4467213E-01 0.4385287E-01 0.4298288E-01 0.4221427E-01          
 0.4167372E-01 0.4095578E-01 0.4023790E-01 0.3949463E-01 0.3895402E-01          
 0.3827834E-01 0.3762800E-01 0.3707898E-01 0.3639483E-01 0.3584582E-01          
 0.3536439E-01 0.3478163E-01 0.3404677E-01 0.3355688E-01 0.3303325E-01          
 0.3247577E-01 0.3187609E-01 0.3140312E-01 0.3096390E-01 0.3056693E-01          
 0.3011084E-01 0.2962095E-01 0.2911419E-01 0.2870035E-01 0.2832025E-01          
 0.2794015E-01 0.2756006E-01 0.2718842E-01 0.2678305E-01 0.2636915E-01          
 0.2598906E-01 0.2559209E-01 0.2538097E-01 0.2499241E-01 0.2462077E-01          
 0.2429986E-01 0.2397889E-01 0.2364945E-01 0.2332854E-01 0.2302444E-01          
 0.2269506E-01 0.2239943E-01 0.2210385E-01 0.2183354E-01 0.2151257E-01          
 0.2116627E-01 0.2087069E-01 0.2067637E-01 0.2043992E-01 0.2014428E-01          
 0.1991624E-01 0.1962060E-01 0.1936722E-01 0.1924896E-01 0.1908004E-01          
 0.1888579E-01 0.1871687E-01 0.1855642E-01 0.1835370E-01 0.1812565E-01          
 0.1791447E-01 0.1766109E-01 0.1747531E-01 0.1723880E-01 0.1706988E-01          
 0.1694316E-01 0.1677424E-01 0.1651239E-01 0.1633507E-01 0.1611543E-01          
 0.1592118E-01 0.1569313E-01 0.1545662E-01 0.1522857E-01 0.1502585E-01          
 0.1489919E-01 0.1472181E-01 0.1453602E-01 0.1440930E-01 0.1426572E-01          
 0.1410526E-01 0.1393634E-01 0.1380116E-01 0.1361537E-01 0.1348865E-01          
 0.1332819E-01 0.1318461E-01 0.1303256E-01 0.1288050E-01 0.1279604E-01          
 0.1261872E-01 0.1249200E-01 0.1239067E-01 0.1221329E-01 0.1206124E-01          
 0.1193458E-01 0.1180786E-01 0.1160514E-01 0.1143622E-01 0.1126730E-01          
 0.1111525E-01 0.1102239E-01 0.1096326E-01 0.1087034E-01 0.1075208E-01          
 0.1067609E-01 0.1059163E-01 0.1049024E-01 0.1041424E-01 0.1031286E-01          
 0.1016927E-01 0.1003414E-01 0.9958148E-02 0.9848356E-02 0.9721637E-02          
 0.9611845E-02 0.9502053E-02 0.9400666E-02 0.9333134E-02 0.9206414E-02          
 0.9121954E-02 0.9020627E-02 0.8953035E-02 0.8817911E-02 0.8708119E-02          
 0.8640528E-02 0.8564532E-02 0.8429348E-02 0.8285761E-02 0.8184433E-02          
 0.8091509E-02 0.7964849E-02 0.7846594E-02 0.7753670E-02 0.7669210E-02          
 0.7542491E-02 0.7474959E-02 0.7398903E-02 0.7339776E-02 0.7280707E-02          
 0.7221580E-02 0.7120192E-02 0.7044196E-02 0.7018864E-02 0.6934404E-02          
 0.6866813E-02 0.6816149E-02 0.6765485E-02 0.6689429E-02 0.6588101E-02          
 0.6495178E-02 0.6419182E-02 0.6360054E-02 0.6241798E-02 0.6140411E-02          
 0.6022215E-02 0.5963087E-02 0.5836368E-02 0.5802572E-02 0.5735040E-02          
 0.5642116E-02 0.5566120E-02 0.5490065E-02 0.5456269E-02 0.5354941E-02          
 0.5270481E-02 0.5202889E-02 0.5110025E-02 0.5084634E-02 0.5042434E-02          
 0.4966438E-02 0.4949510E-02 0.4890382E-02 0.4831254E-02 0.4738390E-02          
 0.4662335E-02 0.4653931E-02 0.4603207E-02 0.4561007E-02 0.4493415E-02          
 0.4442751E-02 0.4392087E-02 0.4316032E-02 0.4265368E-02 0.4231572E-02          
 0.4164040E-02 0.4130244E-02 0.4079580E-02 0.4045784E-02 0.4011989E-02          
 0.3961325E-02 0.3935993E-02 0.3893733E-02 0.3859937E-02 0.3851533E-02          
 0.3834605E-02 0.3800809E-02 0.3767073E-02 0.3724813E-02 0.3682613E-02          
 0.3631890E-02 0.3615022E-02 0.3572762E-02 0.3496766E-02 0.3462970E-02          
 0.3454566E-02 0.3446102E-02 0.3386974E-02 0.3353179E-02 0.3285587E-02          
 0.3260255E-02 0.3218055E-02 0.3167391E-02 0.3150463E-02 0.3125131E-02          
 0.3091335E-02 0.3066003E-02 0.3032207E-02 0.3015339E-02 0.2964675E-02          
 0.2947748E-02 0.2913952E-02 0.2905548E-02 0.2863288E-02 0.2812624E-02          
 0.2787292E-02 0.2770364E-02 0.2761960E-02 0.2736628E-02 0.2719700E-02          
 0.2711296E-02 0.2694368E-02 0.2677500E-02 0.2643704E-02 0.2601445E-02          
 0.2567708E-02 0.2533913E-02 0.2525449E-02 0.2500117E-02 0.2483249E-02          
 0.2466321E-02 0.2432525E-02 0.2415657E-02 0.2390325E-02 0.2364993E-02          
 0.2339661E-02 0.2331197E-02 0.2314270E-02 0.2263606E-02 0.2246737E-02          
 0.2238274E-02 0.2221406E-02 0.2212942E-02 0.2204478E-02 0.2179146E-02          
 0.2145350E-02 0.2111614E-02 0.2094686E-02 0.2077818E-02 0.2069354E-02          
 0.2052486E-02 0.2044022E-02 0.2027154E-02 0.2001762E-02 0.1993358E-02          
 0.1984894E-02 0.1976430E-02 0.1968026E-02 0.1951098E-02 0.1925766E-02          
 0.1925766E-02 0.1900434E-02 0.1891971E-02 0.1891971E-02 0.1883566E-02          
 0.1883566E-02 0.1866639E-02 0.1858175E-02 0.1841307E-02 0.1824439E-02          
 0.1799107E-02 0.1799107E-02 0.1773715E-02 0.1765311E-02 0.1756847E-02          
 0.1748383E-02 0.1739979E-02 0.1731515E-02 0.1714587E-02 0.1697719E-02          
 0.1663923E-02 0.1655519E-02 0.1621723E-02 0.1579463E-02 0.1562595E-02          
 0.1537263E-02 0.1528800E-02 0.1511931E-02 0.1503468E-02 0.1486540E-02          
 0.1469672E-02 0.1452804E-02 0.1435876E-02 0.1435876E-02 0.1419008E-02          
 0.1402080E-02 0.1385212E-02 0.1376748E-02 0.1351416E-02 0.1317620E-02          
 0.1283884E-02 0.1258492E-02 0.1233161E-02 0.1233161E-02 0.1233161E-02          
 0.1233161E-02 0.1216292E-02 0.1207829E-02 0.1207829E-02 0.1182497E-02          
 0.1174033E-02 0.1165628E-02 0.1157165E-02 0.1157165E-02 0.1148701E-02          
 0.1123369E-02 0.1106501E-02 0.1098037E-02 0.1098037E-02 0.1081169E-02          
 0.1030445E-02 0.1022041E-02 0.1013577E-02 0.1013577E-02 0.1013577E-02          
 0.9882450E-03 0.9797812E-03 0.9713173E-03 0.9713173E-03 0.9544492E-03          
 0.9459853E-03 0.9375811E-03 0.9375811E-03 0.9206533E-03 0.9037852E-03          
  1.000000     0.9644539     0.9314101     0.8956432     0.8623786              
 0.8316897     0.8025464     0.7720047     0.7407271     0.7116573              
 0.6818516     0.6556520     0.6275390     0.6031793     0.5743303              
 0.5527672     0.5299529     0.5098616     0.4893288     0.4685752              
 0.4503974     0.4308949     0.4119812     0.3947601     0.3805563              
 0.3647336     0.3503827     0.3350015     0.3210921     0.3088019              
 0.2969532     0.2828967     0.2720047     0.2620695     0.2533118              
 0.2441860     0.2355755     0.2252723     0.2176921     0.2096703              
 0.2023845     0.1949514     0.1875920     0.1804534     0.1747130              
 0.1697822     0.1646305     0.1597733     0.1549897     0.1494702              
 0.1457168     0.1419635     0.1372535     0.1340153     0.1306300              
 0.1264351     0.1222402     0.1190020     0.1149544     0.1122314              
 0.1084045     0.1048719     0.1019282     0.9942597E-01 0.9714454E-01          
 0.9530467E-01 0.9331763E-01 0.9140420E-01 0.8926994E-01 0.8779806E-01          
 0.8654696E-01 0.8411837E-01 0.8242565E-01 0.8146894E-01 0.7984984E-01          
 0.7808357E-01 0.7580221E-01 0.7469827E-01 0.7337356E-01 0.7249045E-01          
 0.7116574E-01 0.6962025E-01 0.6844276E-01 0.6741244E-01 0.6630850E-01          
 0.6483662E-01 0.6380630E-01 0.6255519E-01 0.6167209E-01 0.6078893E-01          
 0.5968499E-01 0.5894905E-01 0.5806595E-01 0.5710924E-01 0.5615246E-01          
 0.5512214E-01 0.5409187E-01 0.5306154E-01 0.5217838E-01 0.5158961E-01          
 0.5107450E-01 0.5041212E-01 0.4938179E-01 0.4827791E-01 0.4783630E-01          
 0.4695320E-01 0.4636443E-01 0.4548132E-01 0.4452461E-01 0.4408300E-01          
 0.4378861E-01 0.4327345E-01 0.4261112E-01 0.4209596E-01 0.4165441E-01          
 0.4136002E-01 0.4069769E-01 0.3996176E-01 0.3937298E-01 0.3900498E-01          
 0.3856343E-01 0.3790110E-01 0.3753310E-01 0.3701794E-01 0.3665000E-01          
 0.3591406E-01 0.3532529E-01 0.3503090E-01 0.3451574E-01 0.3414780E-01          
 0.3370619E-01 0.3326464E-01 0.3289670E-01 0.3252870E-01 0.3201354E-01          
 0.3164560E-01 0.3120399E-01 0.3061527E-01 0.3024727E-01 0.3010011E-01          
 0.2987933E-01 0.2943772E-01 0.2929056E-01 0.2892256E-01 0.2862823E-01          
 0.2833384E-01 0.2811307E-01 0.2803946E-01 0.2774507E-01 0.2745068E-01          
 0.2730352E-01 0.2700913E-01 0.2671474E-01 0.2634680E-01 0.2612597E-01          
 0.2597880E-01 0.2575803E-01 0.2561080E-01 0.2531648E-01 0.2524287E-01          
 0.2487487E-01 0.2480131E-01 0.2443331E-01 0.2413893E-01 0.2377099E-01          
 0.2369738E-01 0.2325583E-01 0.2303505E-01 0.2274066E-01 0.2244627E-01          
 0.2215189E-01 0.2200472E-01 0.2185750E-01 0.2156317E-01 0.2126878E-01          
 0.2075362E-01 0.2053285E-01 0.2023846E-01 0.1994407E-01 0.1972330E-01          
 0.1935530E-01 0.1898736E-01 0.1839858E-01 0.1825142E-01 0.1810420E-01          
 0.1795703E-01 0.1788342E-01 0.1736826E-01 0.1707387E-01 0.1685309E-01          
 0.1648515E-01 0.1611716E-01 0.1582277E-01 0.1567560E-01 0.1560199E-01          
 0.1545483E-01 0.1538122E-01 0.1530761E-01 0.1493967E-01 0.1479244E-01          
 0.1464528E-01 0.1464528E-01 0.1449811E-01 0.1442450E-01 0.1442450E-01          
 0.1442450E-01 0.1420373E-01 0.1420373E-01 0.1390934E-01 0.1383573E-01          
 0.1376212E-01 0.1376212E-01 0.1361495E-01 0.1361495E-01 0.1346779E-01          
 0.1324695E-01 0.1295263E-01 0.1280540E-01 0.1265824E-01 0.1251101E-01          
 0.1251101E-01 0.1229024E-01 0.1229024E-01 0.1221669E-01 0.1206946E-01          
 0.1192230E-01 0.1170152E-01 0.1133353E-01 0.1125991E-01 0.1118636E-01          
 0.1118636E-01 0.1111275E-01 0.1096559E-01 0.1089197E-01 0.1074475E-01          
 0.1074475E-01 0.1052397E-01 0.1037681E-01 0.1022959E-01 0.1015604E-01          
 0.1015604E-01 0.1000881E-01 0.9935260E-02 0.9861648E-02 0.9788036E-02          
 0.9567261E-02 0.9346485E-02 0.9125710E-02 0.9052098E-02 0.8831322E-02          
 0.8757710E-02 0.8684158E-02 0.8536935E-02 0.8316159E-02 0.8316159E-02          
 0.8242548E-02 0.8168995E-02 0.8168995E-02 0.8095384E-02 0.8095384E-02          
 0.7874608E-02 0.7800996E-02 0.7800996E-02 0.7506609E-02 0.7506609E-02          
 0.7359445E-02 0.7359445E-02 0.7285833E-02 0.7212222E-02 0.7212222E-02          
 0.7138669E-02 0.6917894E-02 0.6697059E-02 0.6623507E-02 0.6476283E-02          
 0.6476283E-02 0.6402731E-02 0.6402731E-02 0.6255507E-02 0.6181896E-02          
 0.6181896E-02 0.6181896E-02 0.6181896E-02 0.6108344E-02 0.5961120E-02          
 0.5887568E-02 0.5887568E-02 0.5813956E-02 0.5813956E-02 0.5593181E-02          
 0.5593181E-02 0.5593181E-02 0.5445957E-02 0.5372405E-02 0.5298793E-02          
 0.5151629E-02 0.5151629E-02 0.5151629E-02 0.5078018E-02 0.5078018E-02          
 0.5004406E-02 0.4930794E-02 0.4930794E-02 0.4930794E-02 0.4930794E-02          
 0.4783630E-02 0.4783630E-02 0.4710019E-02 0.4710019E-02 0.4710019E-02          
 0.4710019E-02 0.4562855E-02 0.4489243E-02 0.4342079E-02 0.4342079E-02          
 0.4268467E-02 0.4194856E-02 0.4121304E-02 0.3974080E-02 0.3900528E-02          
 0.3826916E-02 0.3753304E-02 0.3679693E-02 0.3679693E-02 0.3606141E-02          
 0.3606141E-02 0.3458917E-02 0.3458917E-02 0.3458917E-02 0.3458917E-02          
 0.3458917E-02 0.3458917E-02 0.3458917E-02 0.3458917E-02 0.3458917E-02          
 0.3385365E-02 0.3385365E-02 0.3385365E-02 0.3385365E-02 0.3311753E-02          
 0.3311753E-02 0.3238142E-02 0.3090978E-02 0.3090978E-02 0.3090978E-02          
 0.3090978E-02 0.3090978E-02 0.3017366E-02 0.3017366E-02 0.3017366E-02          
 0.3017366E-02 0.3017366E-02 0.3017366E-02 0.3017366E-02 0.3017366E-02          
 0.2943754E-02 0.2943754E-02 0.2943754E-02 0.2943754E-02 0.2943754E-02          
 0.2870202E-02 0.2870202E-02 0.2796590E-02 0.2722979E-02 0.2722979E-02          
 0.2722979E-02 0.2722979E-02 0.2722979E-02 0.2575815E-02 0.2575815E-02          
 0.2575815E-02 0.2575815E-02 0.2575815E-02 0.2575815E-02 0.2502203E-02          
 0.2502203E-02 0.2502203E-02 0.2502203E-02 0.2502203E-02 0.2502203E-02          
 0.2502203E-02 0.2502203E-02 0.2502203E-02 0.2502203E-02 0.2428591E-02          
 0.2428591E-02 0.2355039E-02 0.2355039E-02 0.2355039E-02 0.2281427E-02          
 0.2134264E-02 0.2060652E-02 0.1987040E-02 0.1987040E-02 0.1987040E-02          
 0.1913428E-02 0.1839876E-02 0.1839876E-02 0.1839876E-02 0.1839876E-02          
