  1.000000     0.9127054     0.8289554     0.7474309     0.6685992              
 0.5942463     0.5215420     0.4586746     0.4006155     0.3492334              
 0.3049129     0.2667748     0.2311920     0.2022312     0.1761280              
 0.1539540     0.1354894     0.1190856     0.1046052     0.9292746E-01          
 0.8347535E-01 0.7506734E-01 0.6819808E-01 0.6212568E-01 0.5685008E-01          
 0.5239880E-01 0.4893667E-01 0.4580426E-01 0.4272687E-01 0.4050124E-01          
 0.3849536E-01 0.3692919E-01 0.3528059E-01 0.3390670E-01 0.3280765E-01          
 0.3137881E-01 0.3036219E-01 0.2975768E-01 0.2904326E-01 0.2816403E-01          
 0.2731222E-01 0.2670771E-01 0.2593839E-01 0.2505910E-01 0.2423477E-01          
 0.2363032E-01 0.2297086E-01 0.2211905E-01 0.2151459E-01 0.2093756E-01          
 0.2052540E-01 0.2008575E-01 0.1970106E-01 0.1917899E-01 0.1876688E-01          
 0.1832724E-01 0.1786011E-01 0.1736552E-01 0.1706326E-01 0.1673359E-01          
 0.1654124E-01 0.1623899E-01 0.1588178E-01 0.1549709E-01 0.1502997E-01          
 0.1481014E-01 0.1448041E-01 0.1428813E-01 0.1401335E-01 0.1384848E-01          
 0.1357371E-01 0.1316154E-01 0.1294172E-01 0.1277685E-01 0.1241964E-01          
 0.1211739E-01 0.1200747E-01 0.1173276E-01 0.1154041E-01 0.1134807E-01          
 0.1115572E-01 0.1101834E-01 0.1088095E-01 0.1060617E-01 0.1033139E-01          
 0.1022148E-01 0.1005661E-01 0.9809315E-02 0.9616971E-02 0.9397209E-02          
 0.9369731E-02 0.9259820E-02 0.9012520E-02 0.8902609E-02 0.8765221E-02          
 0.8600354E-02 0.8435488E-02 0.8325577E-02 0.8215666E-02 0.8105755E-02          
 0.7968366E-02 0.7776022E-02 0.7666111E-02 0.7501245E-02 0.7446289E-02          
 0.7336378E-02 0.7281423E-02 0.7089138E-02 0.6951749E-02 0.6814361E-02          
 0.6731927E-02 0.6622016E-02 0.6539583E-02 0.6512105E-02 0.6484628E-02          
 0.6402195E-02 0.6319761E-02 0.6292284E-02 0.6209850E-02 0.6044984E-02          
 0.5935073E-02 0.5880117E-02 0.5797684E-02 0.5797684E-02 0.5715251E-02          
 0.5715251E-02 0.5577862E-02 0.5522907E-02 0.5467951E-02 0.5358040E-02          
 0.5330563E-02 0.5275607E-02 0.5193174E-02 0.5110741E-02 0.4973352E-02          
 0.4835963E-02 0.4781067E-02 0.4671156E-02 0.4533768E-02 0.4478812E-02          
 0.4478812E-02 0.4368901E-02 0.4313946E-02 0.4286468E-02 0.4149079E-02          
 0.4066646E-02 0.4039168E-02 0.3929257E-02 0.3846824E-02 0.3736913E-02          
 0.3627002E-02 0.3627002E-02 0.3517091E-02 0.3462136E-02 0.3407180E-02          
 0.3324747E-02 0.3297269E-02 0.3269792E-02 0.3187358E-02 0.3104925E-02          
 0.3022492E-02 0.2940059E-02 0.2885103E-02 0.2830148E-02 0.2830148E-02          
 0.2775192E-02 0.2775192E-02 0.2775192E-02 0.2747715E-02 0.2692759E-02          
 0.2692759E-02 0.2665281E-02 0.2637804E-02 0.2610326E-02 0.2610326E-02          
 0.2582848E-02 0.2582848E-02 0.2527893E-02 0.2500415E-02 0.2500415E-02          
 0.2472937E-02 0.2472937E-02 0.2445459E-02 0.2417982E-02 0.2390563E-02          
 0.2335608E-02 0.2308130E-02 0.2253175E-02 0.2253175E-02 0.2198219E-02          
 0.2198219E-02 0.2170742E-02 0.2143264E-02 0.2115786E-02 0.2088308E-02          
 0.2088308E-02 0.2060831E-02 0.2033353E-02 0.1978397E-02 0.1978397E-02          
 0.1978397E-02 0.1950920E-02 0.1950920E-02 0.1950920E-02 0.1950920E-02          
 0.1923442E-02 0.1923442E-02 0.1868486E-02 0.1868486E-02 0.1841009E-02          
 0.1841009E-02 0.1813531E-02 0.1786053E-02 0.1786053E-02 0.1758575E-02          
 0.1731098E-02 0.1731098E-02 0.1703620E-02 0.1676142E-02 0.1676142E-02          
 0.1593709E-02 0.1593709E-02 0.1593709E-02 0.1566231E-02 0.1566231E-02          
 0.1538754E-02 0.1538754E-02 0.1538754E-02 0.1538754E-02 0.1538754E-02          
 0.1511276E-02 0.1483798E-02 0.1483798E-02 0.1428843E-02 0.1401365E-02          
 0.1373887E-02 0.1346409E-02 0.1346409E-02 0.1346409E-02 0.1318932E-02          
 0.1291454E-02 0.1263976E-02 0.1263976E-02 0.1263976E-02 0.1236498E-02          
 0.1236498E-02 0.1209021E-02 0.1209021E-02 0.1209021E-02 0.1209021E-02          
 0.1181543E-02 0.1181543E-02 0.1154065E-02 0.1126587E-02 0.1126587E-02          
 0.1126587E-02 0.1071632E-02 0.1044154E-02 0.9891987E-03 0.9617209E-03          
 0.9617209E-03 0.9342432E-03 0.9342432E-03 0.9342432E-03 0.9342432E-03          
 0.9342432E-03 0.9067655E-03 0.9067655E-03 0.8792877E-03 0.8518100E-03          
 0.8518100E-03 0.8243322E-03 0.7968545E-03 0.7968545E-03 0.7968545E-03          
 0.7968545E-03 0.7968545E-03 0.7693768E-03 0.7693768E-03 0.7693768E-03          
 0.7693768E-03 0.7693768E-03 0.7693768E-03 0.7693768E-03 0.7418990E-03          
 0.7418990E-03 0.7418990E-03 0.7418990E-03 0.7144213E-03 0.7144213E-03          
 0.7144213E-03 0.6869435E-03 0.6869435E-03 0.6869435E-03 0.6869435E-03          
 0.6594658E-03 0.6594658E-03 0.6594658E-03 0.6594658E-03 0.6594658E-03          
 0.6594658E-03 0.6594658E-03 0.6594658E-03 0.6594658E-03 0.6594658E-03          
 0.6594658E-03 0.6594658E-03 0.6319880E-03 0.6319880E-03 0.6319880E-03          
 0.6319880E-03 0.6319880E-03 0.6319880E-03 0.6045103E-03 0.6045103E-03          
 0.6045103E-03 0.6045103E-03 0.6045103E-03 0.6045103E-03 0.5770326E-03          
 0.5495548E-03 0.5495548E-03 0.5220771E-03 0.5220771E-03 0.5220771E-03          
 0.5220771E-03 0.5220771E-03 0.5220771E-03 0.5220771E-03 0.5220771E-03          
 0.5220771E-03 0.5220771E-03 0.4945993E-03 0.4945993E-03 0.4945993E-03          
 0.4945993E-03 0.4945993E-03 0.4945993E-03 0.4945993E-03 0.4671216E-03          
 0.4671216E-03 0.4671216E-03 0.4671216E-03 0.4671216E-03 0.4671216E-03          
 0.4671216E-03 0.4671216E-03 0.4671216E-03 0.4671216E-03 0.4671216E-03          
 0.4671216E-03 0.4671216E-03 0.4396439E-03 0.4396439E-03 0.4396439E-03          
 0.4396439E-03 0.4396439E-03 0.4396439E-03 0.4396439E-03 0.4121661E-03          
 0.4121661E-03 0.4121661E-03 0.4121661E-03 0.4121661E-03 0.4121661E-03          
 0.3846884E-03 0.3846884E-03 0.3572106E-03 0.3572106E-03 0.3572106E-03          
 0.3572106E-03 0.3572106E-03 0.3572106E-03 0.3572106E-03 0.3572106E-03          
 0.3572106E-03 0.3572106E-03 0.3572106E-03 0.3572106E-03 0.3572106E-03          
 0.3572106E-03 0.3572106E-03 0.3572106E-03 0.3572106E-03 0.3572106E-03          
 0.3572106E-03 0.3297329E-03 0.3297329E-03 0.3297329E-03 0.3297329E-03          
 0.3297329E-03 0.3297329E-03 0.3297329E-03 0.3022552E-03 0.3022552E-03          
 0.3022552E-03 0.3022552E-03 0.3022552E-03 0.3022552E-03 0.3022552E-03          
  1.000000     0.9235014     0.8459128     0.7682562     0.6973433              
 0.6281335     0.5617167     0.5050409     0.4481608     0.3959810              
 0.3512262     0.3117167     0.2757493     0.2427112     0.2148502              
 0.1912807     0.1700273     0.1514987     0.1367167     0.1217984              
 0.1102861     0.1006131     0.9202999E-01 0.8467305E-01 0.7677114E-01          
 0.7029974E-01 0.6559950E-01 0.6198913E-01 0.5790192E-01 0.5558586E-01          
 0.5245233E-01 0.5013627E-01 0.4856950E-01 0.4659402E-01 0.4495919E-01          
 0.4380113E-01 0.4209811E-01 0.4053134E-01 0.3937334E-01 0.3780657E-01          
 0.3658038E-01 0.3542238E-01 0.3419620E-01 0.3337878E-01 0.3235698E-01          
 0.3147143E-01 0.3065395E-01 0.2990466E-01 0.2929157E-01 0.2813357E-01          
 0.2738422E-01 0.2663493E-01 0.2595371E-01 0.2540874E-01 0.2472752E-01          
 0.2438694E-01 0.2391011E-01 0.2356952E-01 0.2336514E-01 0.2275205E-01          
 0.2241147E-01 0.2193463E-01 0.2166218E-01 0.2132154E-01 0.2098095E-01          
 0.2070850E-01 0.2050412E-01 0.2029973E-01 0.2016354E-01 0.1995915E-01          
 0.1961857E-01 0.1934606E-01 0.1914173E-01 0.1900548E-01 0.1839238E-01          
 0.1777935E-01 0.1743871E-01 0.1723439E-01 0.1682562E-01 0.1662129E-01          
 0.1641691E-01 0.1573575E-01 0.1539510E-01 0.1512265E-01 0.1498640E-01          
 0.1464581E-01 0.1416898E-01 0.1376027E-01 0.1369214E-01 0.1328343E-01          
 0.1301092E-01 0.1273847E-01 0.1267034E-01 0.1253408E-01 0.1232976E-01          
 0.1226163E-01 0.1212537E-01 0.1198912E-01 0.1178479E-01 0.1171666E-01          
 0.1164854E-01 0.1144415E-01 0.1117170E-01 0.1110357E-01 0.1096731E-01          
 0.1083112E-01 0.1076299E-01 0.1055861E-01 0.1049048E-01 0.1021802E-01          
 0.1001364E-01 0.9877443E-02 0.9536803E-02 0.9400547E-02 0.9332478E-02          
 0.9332478E-02 0.9196222E-02 0.8923709E-02 0.8719385E-02 0.8446872E-02          
 0.8446872E-02 0.8310676E-02 0.8106291E-02 0.7901967E-02 0.7833838E-02          
 0.7697582E-02 0.7561326E-02 0.7425070E-02 0.7084489E-02 0.7084489E-02          
 0.6812036E-02 0.6675780E-02 0.6675780E-02 0.6539524E-02 0.6539524E-02          
 0.6471395E-02 0.6471395E-02 0.6267071E-02 0.6267071E-02 0.6062686E-02          
 0.5994558E-02 0.5994558E-02 0.5858362E-02 0.5653977E-02 0.5517721E-02          
 0.5449593E-02 0.5381525E-02 0.5381525E-02 0.5313396E-02 0.5313396E-02          
 0.5313396E-02 0.5245268E-02 0.5245268E-02 0.5245268E-02 0.5245268E-02          
 0.5177140E-02 0.5109012E-02 0.4904687E-02 0.4836559E-02 0.4836559E-02          
 0.4768431E-02 0.4768431E-02 0.4700303E-02 0.4700303E-02 0.4700303E-02          
 0.4632175E-02 0.4495919E-02 0.4427850E-02 0.4427850E-02 0.4427850E-02          
 0.4427850E-02 0.4291594E-02 0.4223466E-02 0.4155338E-02 0.4155338E-02          
 0.4155338E-02 0.4087210E-02 0.4087210E-02 0.4087210E-02 0.4019082E-02          
 0.3951013E-02 0.3882885E-02 0.3814757E-02 0.3678501E-02 0.3542244E-02          
 0.3474116E-02 0.3337920E-02 0.3337920E-02 0.3269792E-02 0.3269792E-02          
 0.3201663E-02 0.3133535E-02 0.3133535E-02 0.3065407E-02 0.3065407E-02          
 0.3065407E-02 0.3065407E-02 0.3065407E-02 0.3065407E-02 0.2997279E-02          
 0.2997279E-02 0.2929211E-02 0.2792954E-02 0.2792954E-02 0.2656698E-02          
 0.2588570E-02 0.2588570E-02 0.2520442E-02 0.2520442E-02 0.2520442E-02          
 0.2384245E-02 0.2316117E-02 0.2316117E-02 0.2316117E-02 0.2247989E-02          
 0.2247989E-02 0.2179861E-02 0.2111733E-02 0.2043605E-02 0.1975536E-02          
 0.1907408E-02 0.1907408E-02 0.1907408E-02 0.1907408E-02 0.1907408E-02          
 0.1839280E-02 0.1839280E-02 0.1839280E-02 0.1771152E-02 0.1771152E-02          
 0.1771152E-02 0.1771152E-02 0.1771152E-02 0.1771152E-02 0.1703024E-02          
 0.1703024E-02 0.1634896E-02 0.1634896E-02 0.1634896E-02 0.1634896E-02          
 0.1634896E-02 0.1634896E-02 0.1566768E-02 0.1566768E-02 0.1566768E-02          
 0.1566768E-02 0.1566768E-02 0.1566768E-02 0.1498640E-02 0.1430571E-02          
 0.1430571E-02 0.1430571E-02 0.1294315E-02 0.1294315E-02 0.1294315E-02          
 0.1294315E-02 0.1226187E-02 0.1226187E-02 0.1226187E-02 0.1226187E-02          
 0.1226187E-02 0.1226187E-02 0.1226187E-02 0.1226187E-02 0.1226187E-02          
 0.1226187E-02 0.1226187E-02 0.1226187E-02 0.1226187E-02 0.1158059E-02          
 0.1158059E-02 0.1089931E-02 0.1089931E-02 0.1089931E-02 0.1089931E-02          
 0.1089931E-02 0.1089931E-02 0.1089931E-02 0.1089931E-02 0.1089931E-02          
 0.1089931E-02 0.1089931E-02 0.1089931E-02 0.1089931E-02 0.1089931E-02          
 0.1089931E-02 0.1089931E-02 0.1089931E-02 0.9537339E-03 0.9537339E-03          
 0.9537339E-03 0.9537339E-03 0.9537339E-03 0.9537339E-03 0.9537339E-03          
 0.9537339E-03 0.9537339E-03 0.9537339E-03 0.9537339E-03 0.9537339E-03          
 0.9537339E-03 0.9537339E-03 0.8856058E-03 0.8174777E-03 0.8174777E-03          
 0.8174777E-03 0.8174777E-03 0.8174777E-03 0.8174777E-03 0.8174777E-03          
 0.8174777E-03 0.8174777E-03 0.8174777E-03 0.8174777E-03 0.8174777E-03          
 0.8174777E-03 0.8174777E-03 0.8174777E-03 0.8174777E-03 0.8174777E-03          
 0.8174777E-03 0.8174777E-03 0.8174777E-03 0.8174777E-03 0.8174777E-03          
 0.8174777E-03 0.8174777E-03 0.8174777E-03 0.8174777E-03 0.8174777E-03          
 0.8174777E-03 0.8174777E-03 0.8174777E-03 0.8174777E-03 0.7493496E-03          
 0.6812215E-03 0.6812215E-03 0.6812215E-03 0.6812215E-03 0.6812215E-03          
 0.6812215E-03 0.6812215E-03 0.6812215E-03 0.6812215E-03 0.6812215E-03          
 0.6812215E-03 0.6812215E-03 0.6812215E-03 0.6812215E-03 0.6812215E-03          
 0.6812215E-03 0.6812215E-03 0.6130934E-03 0.6130934E-03 0.6130934E-03          
 0.6130934E-03 0.6130934E-03 0.6130934E-03 0.6130934E-03 0.6130934E-03          
 0.6130934E-03 0.6130934E-03 0.5449653E-03 0.5449653E-03 0.5449653E-03          
 0.5449653E-03 0.5449653E-03 0.5449653E-03 0.5449653E-03 0.5449653E-03          
 0.5449653E-03 0.5449653E-03 0.5449653E-03 0.5449653E-03 0.5449653E-03          
 0.5449653E-03 0.5449653E-03 0.4768968E-03 0.4087687E-03 0.4087687E-03          
 0.4087687E-03 0.4087687E-03 0.4087687E-03 0.4087687E-03 0.4087687E-03          
 0.4087687E-03 0.4087687E-03 0.4087687E-03 0.4087687E-03 0.4087687E-03          
 0.4087687E-03 0.4087687E-03 0.4087687E-03 0.4087687E-03 0.4087687E-03          
 0.4087687E-03 0.4087687E-03 0.4087687E-03 0.4087687E-03 0.4087687E-03          
