  1.000000     0.9074813     0.8152949     0.7290536     0.6457757              
 0.5687290     0.4975168     0.4334682     0.3748754     0.3244618              
 0.2795410     0.2400669     0.2063347     0.1779846     0.1534010              
 0.1334792     0.1162808     0.1017411     0.8949083E-01 0.7926226E-01          
 0.7105535E-01 0.6357783E-01 0.5696803E-01 0.5214912E-01 0.4794878E-01          
 0.4438537E-01 0.4113591E-01 0.3823715E-01 0.3608620E-01 0.3398144E-01          
 0.3219974E-01 0.3078729E-01 0.2964258E-01 0.2841479E-01 0.2737165E-01          
 0.2630997E-01 0.2530372E-01 0.2448213E-01 0.2378976E-01 0.2299583E-01          
 0.2239579E-01 0.2184188E-01 0.2126032E-01 0.2072489E-01 0.2009714E-01          
 0.1957095E-01 0.1902628E-01 0.1855546E-01 0.1808465E-01 0.1763231E-01          
 0.1717997E-01 0.1685685E-01 0.1637685E-01 0.1600754E-01 0.1562905E-01          
 0.1524132E-01 0.1495516E-01 0.1465052E-01 0.1434588E-01 0.1408738E-01          
 0.1377350E-01 0.1345962E-01 0.1322883E-01 0.1297039E-01 0.1263803E-01          
 0.1231492E-01 0.1203799E-01 0.1181644E-01 0.1164103E-01 0.1144719E-01          
 0.1123482E-01 0.1094866E-01 0.1075482E-01 0.1055169E-01 0.1033938E-01          
 0.1009935E-01 0.9942412E-02 0.9766996E-02 0.9628534E-02 0.9416223E-02          
 0.9259284E-02 0.9074628E-02 0.8871555E-02 0.8677721E-02 0.8576155E-02          
 0.8456171E-02 0.8326888E-02 0.8206904E-02 0.8114576E-02 0.7976115E-02          
 0.7883787E-02 0.7726848E-02 0.7625282E-02 0.7496059E-02 0.7431448E-02          
 0.7311404E-02 0.7219136E-02 0.7089853E-02 0.6960630E-02 0.6859064E-02          
 0.6748319E-02 0.6655991E-02 0.6508291E-02 0.6388247E-02 0.6268263E-02          
 0.6194413E-02 0.6074429E-02 0.5991340E-02 0.5899012E-02 0.5852818E-02          
 0.5769730E-02 0.5668223E-02 0.5612850E-02 0.5529761E-02 0.5437434E-02          
 0.5409718E-02 0.5317390E-02 0.5243540E-02 0.5151272E-02 0.5040467E-02          
 0.4966617E-02 0.4929662E-02 0.4892766E-02 0.4865050E-02 0.4735827E-02          
 0.4671216E-02 0.4578888E-02 0.4532754E-02 0.4477322E-02 0.4421949E-02          
 0.4329622E-02 0.4255772E-02 0.4181921E-02 0.4108071E-02 0.4061937E-02          
 0.4034221E-02 0.3969610E-02 0.3941894E-02 0.3877282E-02 0.3821909E-02          
 0.3775716E-02 0.3757298E-02 0.3692627E-02 0.3646493E-02 0.3628016E-02          
 0.3591120E-02 0.3554165E-02 0.3508031E-02 0.3480315E-02 0.3415704E-02          
 0.3387988E-02 0.3314137E-02 0.3295720E-02 0.3240287E-02 0.3221869E-02          
 0.3175676E-02 0.3157198E-02 0.3120303E-02 0.3092587E-02 0.3027976E-02          
 0.3000259E-02 0.2981842E-02 0.2963364E-02 0.2898753E-02 0.2834141E-02          
 0.2815664E-02 0.2787948E-02 0.2741814E-02 0.2704859E-02 0.2695620E-02          
 0.2686441E-02 0.2658725E-02 0.2631009E-02 0.2621770E-02 0.2594113E-02          
 0.2547920E-02 0.2492547E-02 0.2483308E-02 0.2455652E-02 0.2437174E-02          
 0.2409458E-02 0.2372563E-02 0.2307892E-02 0.2234042E-02 0.2178669E-02          
 0.2169430E-02 0.2160192E-02 0.2114058E-02 0.2086341E-02 0.2077103E-02          
 0.2067924E-02 0.2049446E-02 0.2021730E-02 0.1984835E-02 0.1966357E-02          
 0.1883268E-02 0.1874030E-02 0.1855552E-02 0.1818657E-02 0.1790941E-02          
 0.1781702E-02 0.1772463E-02 0.1754045E-02 0.1744807E-02 0.1726329E-02          
 0.1707852E-02 0.1680195E-02 0.1670957E-02 0.1661718E-02 0.1634002E-02          
 0.1634002E-02 0.1597106E-02 0.1578629E-02 0.1550913E-02 0.1541674E-02          
 0.1495540E-02 0.1477063E-02 0.1477063E-02 0.1458645E-02 0.1421690E-02          
 0.1421690E-02 0.1421690E-02 0.1421690E-02 0.1421690E-02 0.1412451E-02          
 0.1403213E-02 0.1393974E-02 0.1384735E-02 0.1384735E-02 0.1357079E-02          
 0.1338601E-02 0.1320124E-02 0.1292467E-02 0.1283228E-02 0.1264751E-02          
 0.1255512E-02 0.1246274E-02 0.1246274E-02 0.1209378E-02 0.1190901E-02          
 0.1190901E-02 0.1190901E-02 0.1181662E-02 0.1172423E-02 0.1172423E-02          
 0.1163185E-02 0.1135528E-02 0.1107812E-02 0.1107812E-02 0.1080096E-02          
 0.1080096E-02 0.1070917E-02 0.1070917E-02 0.1070917E-02 0.1070917E-02          
 0.1052439E-02 0.1052439E-02 0.1033962E-02 0.1015484E-02 0.1015484E-02          
 0.1006246E-02 0.1006246E-02 0.9970665E-03 0.9878278E-03 0.9878278E-03          
 0.9878278E-03 0.9878278E-03 0.9693503E-03 0.9601116E-03 0.9601116E-03          
 0.9601116E-03 0.9416342E-03 0.9323955E-03 0.9231567E-03 0.9047389E-03          
 0.9047389E-03 0.8862615E-03 0.8585453E-03 0.8493066E-03 0.8493066E-03          
 0.8493066E-03 0.8401275E-03 0.8401275E-03 0.8401275E-03 0.8401275E-03          
 0.8308887E-03 0.8216500E-03 0.8124113E-03 0.8124113E-03 0.8031726E-03          
 0.8031726E-03 0.7939339E-03 0.7754564E-03 0.7662773E-03 0.7662773E-03          
 0.7570386E-03 0.7477999E-03 0.7477999E-03 0.7385612E-03 0.7293224E-03          
 0.7200837E-03 0.7108450E-03 0.6923676E-03 0.6831884E-03 0.6647110E-03          
 0.6462336E-03 0.6462336E-03 0.6277561E-03 0.6277561E-03 0.6185174E-03          
 0.6093383E-03 0.6093383E-03 0.6000996E-03 0.5908608E-03 0.5908608E-03          
 0.5908608E-03 0.5816221E-03 0.5816221E-03 0.5723834E-03 0.5723834E-03          
 0.5723834E-03 0.5723834E-03 0.5723834E-03 0.5631447E-03 0.5631447E-03          
 0.5262494E-03 0.5262494E-03 0.5170107E-03 0.5170107E-03 0.5170107E-03          
 0.5170107E-03 0.4985332E-03 0.4985332E-03 0.4892945E-03 0.4892945E-03          
 0.4892945E-03 0.4800558E-03 0.4800558E-03 0.4615784E-03 0.4523993E-03          
 0.4339218E-03 0.4062057E-03 0.3969669E-03 0.3969669E-03 0.3969669E-03          
 0.3969669E-03 0.3877282E-03 0.3877282E-03 0.3877282E-03 0.3785491E-03          
 0.3600717E-03 0.3508329E-03 0.3508329E-03 0.3415942E-03 0.3415942E-03          
 0.3415942E-03 0.3415942E-03 0.3323555E-03 0.3323555E-03 0.3323555E-03          
 0.3231168E-03 0.3231168E-03 0.3231168E-03 0.3138781E-03 0.3138781E-03          
 0.3138781E-03 0.3138781E-03 0.3138781E-03 0.3138781E-03 0.3138781E-03          
 0.3138781E-03 0.3138781E-03 0.3138781E-03 0.3046989E-03 0.2954602E-03          
 0.2954602E-03 0.2954602E-03 0.2862215E-03 0.2862215E-03 0.2862215E-03          
 0.2769828E-03 0.2769828E-03 0.2769828E-03 0.2769828E-03 0.2769828E-03          
 0.2769828E-03 0.2769828E-03 0.2769828E-03 0.2769828E-03 0.2677441E-03          
 0.2677441E-03 0.2677441E-03 0.2677441E-03 0.2677441E-03 0.2677441E-03          
 0.2677441E-03 0.2677441E-03 0.2677441E-03 0.2677441E-03 0.2677441E-03          
  1.000000     0.9135831     0.8331811     0.7525507     0.6776687              
 0.6067459     0.5408863     0.4792904     0.4262220     0.3759708              
 0.3324959     0.2940841     0.2582229     0.2289478     0.2026039              
 0.1805620     0.1601188     0.1427974     0.1292447     0.1172529              
 0.1075834     0.9856099E-01 0.9159434E-01 0.8538908E-01 0.7941222E-01          
 0.7480586E-01 0.7118928E-01 0.6700170E-01 0.6391811E-01 0.6125325E-01          
 0.5866456E-01 0.5668497E-01 0.5493379E-01 0.5363941E-01 0.5219281E-01          
 0.5086041E-01 0.4964221E-01 0.4876661E-01 0.4773873E-01 0.4671085E-01          
 0.4583526E-01 0.4495966E-01 0.4362726E-01 0.4298007E-01 0.4218066E-01          
 0.4126698E-01 0.4061979E-01 0.3955388E-01 0.3871632E-01 0.3799301E-01          
 0.3742200E-01 0.3685093E-01 0.3635603E-01 0.3551853E-01 0.3498554E-01          
 0.3437644E-01 0.3346282E-01 0.3277755E-01 0.3216845E-01 0.3159744E-01          
 0.3114057E-01 0.3079796E-01 0.3022695E-01 0.2984625E-01 0.2935135E-01          
 0.2904677E-01 0.2847576E-01 0.2817118E-01 0.2756208E-01 0.2714330E-01          
 0.2664840E-01 0.2626771E-01 0.2600127E-01 0.2554441E-01 0.2546829E-01          
 0.2493531E-01 0.2451652E-01 0.2421200E-01 0.2394551E-01 0.2386940E-01          
 0.2360290E-01 0.2329832E-01 0.2306992E-01 0.2291763E-01 0.2268922E-01          
 0.2253693E-01 0.2230853E-01 0.2196592E-01 0.2154714E-01 0.2112842E-01          
 0.2086192E-01 0.2063352E-01 0.2017665E-01 0.2010053E-01 0.1983404E-01          
 0.1952952E-01 0.1914883E-01 0.1903462E-01 0.1857775E-01 0.1815903E-01          
 0.1800674E-01 0.1777834E-01 0.1758796E-01 0.1732147E-01 0.1709306E-01          
 0.1659817E-01 0.1644588E-01 0.1625556E-01 0.1602715E-01 0.1587486E-01          
 0.1568449E-01 0.1553226E-01 0.1534188E-01 0.1522768E-01 0.1499927E-01          
 0.1477087E-01 0.1442826E-01 0.1439017E-01 0.1412368E-01 0.1404756E-01          
 0.1385719E-01 0.1370490E-01 0.1355267E-01 0.1340038E-01 0.1324809E-01          
 0.1313388E-01 0.1301968E-01 0.1290548E-01 0.1286739E-01 0.1279128E-01          
 0.1275319E-01 0.1260090E-01 0.1237249E-01 0.1225829E-01 0.1214409E-01          
 0.1210600E-01 0.1191568E-01 0.1187760E-01 0.1168728E-01 0.1149690E-01          
 0.1130658E-01 0.1123041E-01 0.1111621E-01 0.1100200E-01 0.1084971E-01          
 0.1077360E-01 0.1073551E-01 0.1054519E-01 0.1054519E-01 0.1043099E-01          
 0.1024061E-01 0.1008832E-01 0.1001221E-01 0.9936094E-02 0.9859920E-02          
 0.9745717E-02 0.9631515E-02 0.9479225E-02 0.9403110E-02 0.9326994E-02          
 0.9288907E-02 0.9212732E-02 0.9136617E-02 0.9022415E-02 0.9022415E-02          
 0.8984327E-02 0.8946300E-02 0.8908212E-02 0.8870125E-02 0.8603632E-02          
 0.8489430E-02 0.8413315E-02 0.8375227E-02 0.8337200E-02 0.8222938E-02          
 0.8070707E-02 0.7994533E-02 0.7880330E-02 0.7728040E-02 0.7613838E-02          
 0.7499635E-02 0.7461607E-02 0.7423520E-02 0.7309318E-02 0.7157028E-02          
 0.7004738E-02 0.6814420E-02 0.6776333E-02 0.6700218E-02 0.6624043E-02          
 0.6509840E-02 0.6357551E-02 0.6319523E-02 0.6243348E-02 0.6129146E-02          
 0.6053030E-02 0.6053030E-02 0.6014943E-02 0.5900741E-02 0.5786538E-02          
 0.5786538E-02 0.5672336E-02 0.5596220E-02 0.5558133E-02 0.5520046E-02          
 0.5443931E-02 0.5443931E-02 0.5443931E-02 0.5367756E-02 0.5329728E-02          
 0.5253553E-02 0.5177438E-02 0.4987061E-02 0.4910946E-02 0.4872859E-02          
 0.4834831E-02 0.4834831E-02 0.4796743E-02 0.4796743E-02 0.4606366E-02          
 0.4568338E-02 0.4530251E-02 0.4530251E-02 0.4454136E-02 0.4454136E-02          
 0.4416049E-02 0.4339933E-02 0.4301846E-02 0.4301846E-02 0.4263759E-02          
 0.4073441E-02 0.3997266E-02 0.3959239E-02 0.3959239E-02 0.3883064E-02          
 0.3845036E-02 0.3845036E-02 0.3806949E-02 0.3730834E-02 0.3692746E-02          
 0.3616571E-02 0.3578544E-02 0.3578544E-02 0.3464341E-02 0.3464341E-02          
 0.3464341E-02 0.3426254E-02 0.3312051E-02 0.3273964E-02 0.3273964E-02          
 0.3197849E-02 0.3197849E-02 0.3159761E-02 0.3159761E-02 0.3159761E-02          
 0.3159761E-02 0.3159761E-02 0.3121674E-02 0.3121674E-02 0.3045559E-02          
 0.3007472E-02 0.2855241E-02 0.2740979E-02 0.2740979E-02 0.2740979E-02          
 0.2740979E-02 0.2740979E-02 0.2740979E-02 0.2740979E-02 0.2702951E-02          
 0.2664864E-02 0.2664864E-02 0.2626777E-02 0.2626777E-02 0.2626777E-02          
 0.2626777E-02 0.2626777E-02 0.2626777E-02 0.2550662E-02 0.2550662E-02          
 0.2512574E-02 0.2512574E-02 0.2512574E-02 0.2436459E-02 0.2436459E-02          
 0.2398372E-02 0.2398372E-02 0.2360344E-02 0.2360344E-02 0.2322257E-02          
 0.2284169E-02 0.2246082E-02 0.2208054E-02 0.2131879E-02 0.2093852E-02          
 0.2055764E-02 0.2055764E-02 0.2017677E-02 0.1979649E-02 0.1941562E-02          
 0.1903474E-02 0.1903474E-02 0.1865447E-02 0.1865447E-02 0.1789272E-02          
 0.1789272E-02 0.1789272E-02 0.1713157E-02 0.1713157E-02 0.1636982E-02          
 0.1598954E-02 0.1560867E-02 0.1560867E-02 0.1522779E-02 0.1522779E-02          
 0.1522779E-02 0.1522779E-02 0.1484752E-02 0.1484752E-02 0.1484752E-02          
 0.1484752E-02 0.1446664E-02 0.1446664E-02 0.1370490E-02 0.1294374E-02          
 0.1256287E-02 0.1256287E-02 0.1256287E-02 0.1218259E-02 0.1180172E-02          
 0.1180172E-02 0.1142085E-02 0.1142085E-02 0.1104057E-02 0.1104057E-02          
 0.1104057E-02 0.1104057E-02 0.1065969E-02 0.1065969E-02 0.1027882E-02          
 0.1027882E-02 0.1027882E-02 0.1027882E-02 0.9898543E-03 0.9898543E-03          
 0.9898543E-03 0.9898543E-03 0.9898543E-03 0.9517670E-03 0.9517670E-03          
 0.9517670E-03 0.9136796E-03 0.9136796E-03 0.9136796E-03 0.9136796E-03          
 0.8375645E-03 0.7994771E-03 0.7613897E-03 0.7613897E-03 0.7613897E-03          
 0.7233620E-03 0.7233620E-03 0.7233620E-03 0.7233620E-03 0.7233620E-03          
 0.7233620E-03 0.7233620E-03 0.7233620E-03 0.6852746E-03 0.6852746E-03          
 0.6852746E-03 0.6471872E-03 0.6471872E-03 0.6091595E-03 0.6091595E-03          
 0.6091595E-03 0.6091595E-03 0.5710721E-03 0.5710721E-03 0.5710721E-03          
 0.5710721E-03 0.5710721E-03 0.5710721E-03 0.5329847E-03 0.5329847E-03          
 0.5329847E-03 0.4949570E-03 0.4949570E-03 0.4949570E-03 0.4949570E-03          
 0.4949570E-03 0.4949570E-03 0.4568696E-03 0.4187822E-03 0.4187822E-03          
 0.4187822E-03 0.4187822E-03 0.4187822E-03 0.4187822E-03 0.3806949E-03          
