  1.000000     0.9277287     0.8556350     0.7851154     0.7160239              
 0.6518511     0.5906486     0.5335208     0.4789063     0.4292297              
 0.3825868     0.3401901     0.3017346     0.2674744     0.2369208              
 0.2108988     0.1879169     0.1682861     0.1511117     0.1362664              
 0.1235347     0.1130751     0.1032248     0.9487242E-01 0.8752275E-01          
 0.8075702E-01 0.7496238E-01 0.6992298E-01 0.6549925E-01 0.6137383E-01          
 0.5800366E-01 0.5507141E-01 0.5214554E-01 0.4977185E-01 0.4747427E-01          
 0.4549408E-01 0.4371697E-01 0.4200965E-01 0.4051816E-01 0.3924876E-01          
 0.3785884E-01 0.3672910E-01 0.3570092E-01 0.3469175E-01 0.3389210E-01          
 0.3303522E-01 0.3224188E-01 0.3131527E-01 0.3052825E-01 0.2988720E-01          
 0.2928424E-01 0.2866226E-01 0.2798951E-01 0.2745003E-01 0.2689153E-01          
 0.2633297E-01 0.2575541E-01 0.2531117E-01 0.2485418E-01 0.2448606E-01          
 0.2408624E-01 0.2364194E-01 0.2322304E-01 0.2283591E-01 0.2250588E-01          
 0.2211237E-01 0.2173787E-01 0.2135706E-01 0.2098262E-01 0.2059543E-01          
 0.2020198E-01 0.1989728E-01 0.1957995E-01 0.1926899E-01 0.1891357E-01          
 0.1868504E-01 0.1844388E-01 0.1817095E-01 0.1794249E-01 0.1765686E-01          
 0.1747918E-01 0.1721895E-01 0.1695240E-01 0.1673657E-01 0.1649541E-01          
 0.1628596E-01 0.1605111E-01 0.1586705E-01 0.1558149E-01 0.1537204E-01          
 0.1514989E-01 0.1492137E-01 0.1479447E-01 0.1464212E-01 0.1440728E-01          
 0.1418519E-01 0.1399475E-01 0.1377261E-01 0.1363933E-01 0.1351875E-01          
 0.1333469E-01 0.1322043E-01 0.1304275E-01 0.1288408E-01 0.1278883E-01          
 0.1261115E-01 0.1241440E-01 0.1220495E-01 0.1204628E-01 0.1191300E-01          
 0.1179242E-01 0.1169086E-01 0.1152587E-01 0.1137352E-01 0.1124024E-01          
 0.1110059E-01 0.1097369E-01 0.1082766E-01 0.1068169E-01 0.1052940E-01          
 0.1039612E-01 0.1028186E-01 0.1016760E-01 0.1003432E-01 0.9913743E-02          
 0.9818554E-02 0.9678900E-02 0.9596407E-02 0.9501219E-02 0.9361565E-02          
 0.9209275E-02 0.9088635E-02 0.9012520E-02 0.8923650E-02 0.8847475E-02          
 0.8790374E-02 0.8707821E-02 0.8650720E-02 0.8593619E-02 0.8466661E-02          
 0.8377790E-02 0.8327067E-02 0.8219123E-02 0.8187413E-02 0.8117616E-02          
 0.8035064E-02 0.7939875E-02 0.7819295E-02 0.7724106E-02 0.7635236E-02          
 0.7584453E-02 0.7489264E-02 0.7413089E-02 0.7362306E-02 0.7279813E-02          
 0.7159233E-02 0.7083058E-02 0.7006884E-02 0.6924391E-02 0.6841898E-02          
 0.6784737E-02 0.6708622E-02 0.6638765E-02 0.6556273E-02 0.6467402E-02          
 0.6403923E-02 0.6346822E-02 0.6283343E-02 0.6213546E-02 0.6143749E-02          
 0.6067574E-02 0.5985081E-02 0.5902529E-02 0.5839109E-02 0.5807340E-02          
 0.5737543E-02 0.5674064E-02 0.5616963E-02 0.5585194E-02 0.5540788E-02          
 0.5470991E-02 0.5413830E-02 0.5337656E-02 0.5267859E-02 0.5217075E-02          
 0.5134583E-02 0.5058408E-02 0.4994929E-02 0.4893422E-02 0.4829943E-02          
 0.4772842E-02 0.4709363E-02 0.4664898E-02 0.4576087E-02 0.4518926E-02          
 0.4487216E-02 0.4461825E-02 0.4411042E-02 0.4366636E-02 0.4341245E-02          
 0.4309475E-02 0.4284084E-02 0.4226983E-02 0.4169881E-02 0.4112720E-02          
 0.4081011E-02 0.4036605E-02 0.3998518E-02 0.3954053E-02 0.3915966E-02          
 0.3884256E-02 0.3858864E-02 0.3801763E-02 0.3763676E-02 0.3725588E-02          
 0.3681183E-02 0.3636718E-02 0.3579617E-02 0.3528833E-02 0.3490746E-02          
 0.3446341E-02 0.3401875E-02 0.3357470E-02 0.3357470E-02 0.3338456E-02          
 0.3287673E-02 0.3249586E-02 0.3230512E-02 0.3205121E-02 0.3160715E-02          
 0.3135324E-02 0.3129005E-02 0.3097236E-02 0.3065526E-02 0.3002048E-02          
 0.2970338E-02 0.2913177E-02 0.2875090E-02 0.2837062E-02 0.2798975E-02          
 0.2786279E-02 0.2741814E-02 0.2741814E-02 0.2703726E-02 0.2691031E-02          
 0.2659321E-02 0.2640307E-02 0.2602220E-02 0.2564132E-02 0.2551436E-02          
 0.2513349E-02 0.2481639E-02 0.2437174E-02 0.2418160E-02 0.2399087E-02          
 0.2392769E-02 0.2354681E-02 0.2335608E-02 0.2291203E-02 0.2284884E-02          
 0.2253115E-02 0.2240419E-02 0.2227724E-02 0.2215028E-02 0.2202332E-02          
 0.2170622E-02 0.2157927E-02 0.2138853E-02 0.2088130E-02 0.2081752E-02          
 0.2056360E-02 0.2018273E-02 0.1986563E-02 0.1961172E-02 0.1942158E-02          
 0.1910388E-02 0.1878679E-02 0.1853287E-02 0.1840591E-02 0.1840591E-02          
 0.1834214E-02 0.1808822E-02 0.1796126E-02 0.1796126E-02 0.1758099E-02          
 0.1732707E-02 0.1694620E-02 0.1681924E-02 0.1656532E-02 0.1643836E-02          
 0.1612067E-02 0.1593053E-02 0.1593053E-02 0.1593053E-02 0.1567662E-02          
 0.1561344E-02 0.1542270E-02 0.1529574E-02 0.1516879E-02 0.1510561E-02          
 0.1497865E-02 0.1497865E-02 0.1491487E-02 0.1478791E-02 0.1472473E-02          
 0.1453400E-02 0.1434386E-02 0.1415372E-02 0.1408994E-02 0.1408994E-02          
 0.1402676E-02 0.1389980E-02 0.1370907E-02 0.1351893E-02 0.1313806E-02          
 0.1307428E-02 0.1288414E-02 0.1288414E-02 0.1282036E-02 0.1250327E-02          
 0.1218617E-02 0.1193225E-02 0.1161456E-02 0.1148760E-02 0.1148760E-02          
 0.1136065E-02 0.1110673E-02 0.1104355E-02 0.1091659E-02 0.1078963E-02          
 0.1072586E-02 0.1072586E-02 0.1047254E-02 0.1034558E-02 0.1021862E-02          
 0.1021862E-02 0.1009166E-02 0.9837747E-03 0.9837747E-03 0.9837747E-03          
 0.9520054E-03 0.9393096E-03 0.9393096E-03 0.9266138E-03 0.9139180E-03          
 0.9139180E-03 0.9075999E-03 0.9012222E-03 0.8949041E-03 0.8758903E-03          
 0.8631945E-03 0.8631945E-03 0.8568168E-03 0.8441210E-03 0.8378029E-03          
 0.8314252E-03 0.8124113E-03 0.8060336E-03 0.7933378E-03 0.7933378E-03          
 0.7806420E-03 0.7806420E-03 0.7743239E-03 0.7552505E-03 0.7552505E-03          
 0.7552505E-03 0.7489324E-03 0.7362366E-03 0.7298589E-03 0.7045269E-03          
 0.6981492E-03 0.6854534E-03 0.6664395E-03 0.6664395E-03 0.6600618E-03          
 0.6473660E-03 0.6283522E-03 0.6219745E-03 0.6219745E-03 0.6092787E-03          
 0.6092787E-03 0.5965829E-03 0.5902648E-03 0.5902648E-03 0.5838871E-03          
 0.5775690E-03 0.5775690E-03 0.5775690E-03 0.5711913E-03 0.5711913E-03          
 0.5648732E-03 0.5331039E-03 0.5267859E-03 0.5204678E-03 0.5204678E-03          
 0.5204678E-03 0.5140901E-03 0.5013943E-03 0.5013943E-03 0.4886985E-03          
  1.000000     0.9322073     0.8642233     0.8004285     0.7363085              
 0.6745988     0.6157775     0.5604568     0.5096505     0.4606041              
 0.4183293     0.3785412     0.3423494     0.3113224     0.2835664              
 0.2585075     0.2363946     0.2178396     0.2013314     0.1866404              
 0.1738049     0.1637240     0.1545804     0.1461446     0.1379192              
 0.1307458     0.1248924     0.1195172     0.1148115     0.1103545              
 0.1061461     0.1024925     0.9933621E-01 0.9621823E-01 0.9340626E-01          
 0.9067082E-01 0.8829886E-01 0.8630949E-01 0.8418614E-01 0.8225417E-01          
 0.8014995E-01 0.7814145E-01 0.7649636E-01 0.7492781E-01 0.7360792E-01          
 0.7211584E-01 0.7083422E-01 0.6922740E-01 0.6806052E-01 0.6695104E-01          
 0.6586069E-01 0.6454080E-01 0.6362265E-01 0.6251317E-01 0.6148016E-01          
 0.6027508E-01 0.5929953E-01 0.5820918E-01 0.5711883E-01 0.5631542E-01          
 0.5553108E-01 0.5482334E-01 0.5401993E-01 0.5323565E-01 0.5212617E-01          
 0.5126536E-01 0.5042368E-01 0.4977334E-01 0.4900819E-01 0.4841518E-01          
 0.4780304E-01 0.4722917E-01 0.4650229E-01 0.4569888E-01 0.4504848E-01          
 0.4424506E-01 0.4361385E-01 0.4300171E-01 0.4229391E-01 0.4172009E-01          
 0.4122269E-01 0.4053408E-01 0.4001760E-01 0.3944373E-01 0.3909940E-01          
 0.3865945E-01 0.3820038E-01 0.3774124E-01 0.3720564E-01 0.3674656E-01          
 0.3630662E-01 0.3582835E-01 0.3517801E-01 0.3468066E-01 0.3429806E-01          
 0.3378159E-01 0.3309298E-01 0.3261471E-01 0.3232777E-01 0.3200263E-01          
 0.3150523E-01 0.3110355E-01 0.3068268E-01 0.3016621E-01 0.2989841E-01          
 0.2945846E-01 0.2913326E-01 0.2873158E-01 0.2829158E-01 0.2785164E-01          
 0.2758384E-01 0.2720124E-01 0.2685696E-01 0.2651262E-01 0.2614915E-01          
 0.2578574E-01 0.2534574E-01 0.2494407E-01 0.2461886E-01 0.2410239E-01          
 0.2387285E-01 0.2350938E-01 0.2310765E-01 0.2287811E-01 0.2257204E-01          
 0.2238077E-01 0.2209383E-01 0.2174956E-01 0.2144349E-01 0.2108002E-01          
 0.2081221E-01 0.2039140E-01 0.2020007E-01 0.1995140E-01 0.1964533E-01          
 0.1939666E-01 0.1918626E-01 0.1903325E-01 0.1884192E-01 0.1857412E-01          
 0.1836371E-01 0.1822984E-01 0.1811504E-01 0.1794291E-01 0.1767510E-01          
 0.1734990E-01 0.1715857E-01 0.1692903E-01 0.1677603E-01 0.1652735E-01          
 0.1646996E-01 0.1635516E-01 0.1616389E-01 0.1595348E-01 0.1566654E-01          
 0.1539874E-01 0.1524574E-01 0.1499701E-01 0.1472920E-01 0.1453793E-01          
 0.1432753E-01 0.1415539E-01 0.1409799E-01 0.1394492E-01 0.1379192E-01          
 0.1360065E-01 0.1348585E-01 0.1335198E-01 0.1321805E-01 0.1306504E-01          
 0.1285458E-01 0.1266330E-01 0.1245290E-01 0.1229984E-01 0.1224250E-01          
 0.1208943E-01 0.1203203E-01 0.1189816E-01 0.1180249E-01 0.1166862E-01          
 0.1157296E-01 0.1141995E-01 0.1128602E-01 0.1113302E-01 0.1086521E-01          
 0.1069301E-01 0.1055914E-01 0.1040608E-01 0.1031047E-01 0.1015741E-01          
 0.1002353E-01 0.9870470E-02 0.9698331E-02 0.9602666E-02 0.9526193E-02          
 0.9392262E-02 0.9162724E-02 0.9009719E-02 0.8914053E-02 0.8837521E-02          
 0.8703649E-02 0.8531451E-02 0.8435845E-02 0.8378446E-02 0.8244514E-02          
 0.8110642E-02 0.7976711E-02 0.7900238E-02 0.7766306E-02 0.7766306E-02          
 0.7728040E-02 0.7575035E-02 0.7479370E-02 0.7364631E-02 0.7249832E-02          
 0.7192433E-02 0.7115960E-02 0.7096827E-02 0.7001162E-02 0.6943762E-02          
 0.6886423E-02 0.6733358E-02 0.6599486E-02 0.6484687E-02 0.6465554E-02          
 0.6389022E-02 0.6274283E-02 0.6255150E-02 0.6159484E-02 0.6082952E-02          
 0.6025612E-02 0.5987346E-02 0.5929947E-02 0.5872548E-02 0.5796075E-02          
 0.5681276E-02 0.5585611E-02 0.5566478E-02 0.5509138E-02 0.5451739E-02          
 0.5394340E-02 0.5317807E-02 0.5183935E-02 0.5126536E-02 0.5088270E-02          
 0.5011737E-02 0.4935265E-02 0.4839599E-02 0.4801333E-02 0.4686594E-02          
 0.4667461E-02 0.4648328E-02 0.4648328E-02 0.4629195E-02 0.4514396E-02          
 0.4476130E-02 0.4437923E-02 0.4380524E-02 0.4323125E-02 0.4284859E-02          
 0.4246593E-02 0.4208326E-02 0.4170120E-02 0.4131854E-02 0.4055321E-02          
 0.3940523E-02 0.3940523E-02 0.3825784E-02 0.3806651E-02 0.3768384E-02          
 0.3691852E-02 0.3672719E-02 0.3615379E-02 0.3596246E-02 0.3538847E-02          
 0.3538847E-02 0.3538847E-02 0.3519714E-02 0.3500581E-02 0.3462315E-02          
 0.3424048E-02 0.3385782E-02 0.3385782E-02 0.3347576E-02 0.3290176E-02          
 0.3232777E-02 0.3213644E-02 0.3117979E-02 0.3079772E-02 0.3041506E-02          
 0.3003240E-02 0.2964973E-02 0.2926707E-02 0.2850175E-02 0.2850175E-02          
 0.2792835E-02 0.2754569E-02 0.2716303E-02 0.2658904E-02 0.2620637E-02          
 0.2620637E-02 0.2486765E-02 0.2467632E-02 0.2429366E-02 0.2429366E-02          
 0.2429366E-02 0.2429366E-02 0.2410233E-02 0.2333701E-02 0.2314568E-02          
 0.2314568E-02 0.2276361E-02 0.2238095E-02 0.2180696E-02 0.2161562E-02          
 0.2142429E-02 0.2104163E-02 0.2085030E-02 0.2065897E-02 0.2027631E-02          
 0.2008557E-02 0.1989424E-02 0.1989424E-02 0.1989424E-02 0.1970291E-02          
 0.1970291E-02 0.1970291E-02 0.1951158E-02 0.1912892E-02 0.1893759E-02          
 0.1874626E-02 0.1855493E-02 0.1855493E-02 0.1836360E-02 0.1836360E-02          
 0.1817226E-02 0.1778960E-02 0.1740754E-02 0.1740754E-02 0.1721621E-02          
 0.1702487E-02 0.1645088E-02 0.1606822E-02 0.1606822E-02 0.1606822E-02          
 0.1606822E-02 0.1606822E-02 0.1587689E-02 0.1530290E-02 0.1530290E-02          
 0.1530290E-02 0.1511157E-02 0.1492023E-02 0.1492023E-02 0.1453817E-02          
 0.1434684E-02 0.1434684E-02 0.1434684E-02 0.1396418E-02 0.1377285E-02          
 0.1377285E-02 0.1300752E-02 0.1300752E-02 0.1281619E-02 0.1262486E-02          
 0.1262486E-02 0.1262486E-02 0.1262486E-02 0.1262486E-02 0.1262486E-02          
 0.1262486E-02 0.1224220E-02 0.1224220E-02 0.1224220E-02 0.1205146E-02          
 0.1205146E-02 0.1166880E-02 0.1109481E-02 0.1090348E-02 0.1090348E-02          
 0.1071215E-02 0.1032948E-02 0.1032948E-02 0.1032948E-02 0.1032948E-02          
 0.1013815E-02 0.9755492E-03 0.9373426E-03 0.9182096E-03 0.8990765E-03          
 0.8799434E-03 0.8799434E-03 0.8799434E-03 0.8799434E-03 0.8608103E-03          
 0.8416772E-03 0.8225441E-03 0.8225441E-03 0.8034110E-03 0.8034110E-03          
