  1.000000     0.9222497     0.8460734     0.7724766     0.7018161              
 0.6313938     0.5660375     0.5038822     0.4468989     0.3950080              
 0.3465034     0.3042817     0.2661605     0.2324572     0.2038862              
 0.1766908     0.1543233     0.1355935     0.1182524     0.1037949              
 0.9101731E-01 0.8028996E-01 0.7117629E-01 0.6323993E-01 0.5661303E-01          
 0.5076653E-01 0.4622954E-01 0.4228783E-01 0.3911322E-01 0.3633553E-01          
 0.3390169E-01 0.3157365E-01 0.2961600E-01 0.2787000E-01 0.2616370E-01          
 0.2468222E-01 0.2316105E-01 0.2193093E-01 0.2088594E-01 0.1997328E-01          
 0.1919287E-01 0.1829338E-01 0.1767170E-01 0.1701033E-01 0.1622993E-01          
 0.1558179E-01 0.1513207E-01 0.1457655E-01 0.1412678E-01 0.1358449E-01          
 0.1305538E-01 0.1261890E-01 0.1227498E-01 0.1183850E-01 0.1142842E-01          
 0.1107126E-01 0.1075381E-01 0.1047605E-01 0.1017183E-01 0.9907305E-02          
 0.9682417E-02 0.9312034E-02 0.8954883E-02 0.8756518E-02 0.8663893E-02          
 0.8491933E-02 0.8253872E-02 0.7976115E-02 0.7737994E-02 0.7592499E-02          
 0.7420540E-02 0.7169247E-02 0.7050157E-02 0.6917894E-02 0.6838560E-02          
 0.6666601E-02 0.6494641E-02 0.6388783E-02 0.6203651E-02 0.6097794E-02          
 0.5912602E-02 0.5727410E-02 0.5634844E-02 0.5489349E-02 0.5304158E-02          
 0.5211592E-02 0.5079269E-02 0.4907370E-02 0.4775047E-02 0.4708946E-02          
 0.4616320E-02 0.4563451E-02 0.4510522E-02 0.4391491E-02 0.4206300E-02          
 0.4113674E-02 0.4060805E-02 0.3981411E-02 0.3875613E-02 0.3796220E-02          
 0.3743351E-02 0.3624320E-02 0.3531694E-02 0.3386199E-02 0.3320038E-02          
 0.3280401E-02 0.3214240E-02 0.3161311E-02 0.3055513E-02 0.3002584E-02          
 0.2910018E-02 0.2870321E-02 0.2843857E-02 0.2751291E-02 0.2711594E-02          
 0.2645493E-02 0.2619028E-02 0.2592564E-02 0.2539635E-02 0.2473533E-02          
 0.2380908E-02 0.2354443E-02 0.2314806E-02 0.2235413E-02 0.2156079E-02          
 0.2142847E-02 0.2103150E-02 0.2050221E-02 0.2023757E-02 0.1997352E-02          
 0.1997352E-02 0.1984119E-02 0.1970887E-02 0.1944423E-02 0.1917958E-02          
 0.1904726E-02 0.1878262E-02 0.1865029E-02 0.1851857E-02 0.1838624E-02          
 0.1812160E-02 0.1759231E-02 0.1732767E-02 0.1693070E-02 0.1666665E-02          
 0.1653433E-02 0.1640201E-02 0.1587272E-02 0.1534343E-02 0.1494706E-02          
 0.1481473E-02 0.1468241E-02 0.1468241E-02 0.1441777E-02 0.1415312E-02          
 0.1402080E-02 0.1388848E-02 0.1362443E-02 0.1335979E-02 0.1335979E-02          
 0.1322746E-02 0.1309514E-02 0.1283050E-02 0.1256585E-02 0.1230121E-02          
 0.1124322E-02 0.1124322E-02 0.1097858E-02 0.1071393E-02 0.1071393E-02          
 0.1044989E-02 0.1031756E-02 0.1005292E-02 0.9920597E-03 0.9655952E-03          
 0.9258986E-03 0.8994341E-03 0.8994341E-03 0.8597970E-03 0.8333325E-03          
 0.8333325E-03 0.8068681E-03 0.7936358E-03 0.7539392E-03 0.7274747E-03          
 0.7143021E-03 0.7010698E-03 0.6481409E-03 0.6349087E-03 0.6084442E-03          
 0.6084442E-03 0.5819798E-03 0.5687475E-03 0.5687475E-03 0.5687475E-03          
 0.5687475E-03 0.5555749E-03 0.5423427E-03 0.5423427E-03 0.5291104E-03          
 0.5291104E-03 0.5158782E-03 0.4894137E-03 0.4894137E-03 0.4894137E-03          
 0.4497170E-03 0.4364848E-03 0.4364848E-03 0.4364848E-03 0.4364848E-03          
 0.4364848E-03 0.4232526E-03 0.4232526E-03 0.4232526E-03 0.4100204E-03          
 0.3968477E-03 0.3968477E-03 0.3836155E-03 0.3836155E-03 0.3836155E-03          
 0.3703833E-03 0.3703833E-03 0.3703833E-03 0.3571510E-03 0.3571510E-03          
 0.3439188E-03 0.3306866E-03 0.3306866E-03 0.3306866E-03 0.3306866E-03          
 0.3306866E-03 0.3306866E-03 0.3306866E-03 0.3306866E-03 0.3306866E-03          
 0.3174543E-03 0.3174543E-03 0.3042221E-03 0.3042221E-03 0.3042221E-03          
 0.3042221E-03 0.3042221E-03 0.2909899E-03 0.2777576E-03 0.2777576E-03          
 0.2777576E-03 0.2777576E-03 0.2777576E-03 0.2777576E-03 0.2777576E-03          
 0.2645254E-03 0.2645254E-03 0.2645254E-03 0.2645254E-03 0.2645254E-03          
 0.2645254E-03 0.2645254E-03 0.2512932E-03 0.2512932E-03 0.2512932E-03          
 0.2512932E-03 0.2512932E-03 0.2512932E-03 0.2381206E-03 0.2381206E-03          
 0.2381206E-03 0.2381206E-03 0.2381206E-03 0.2381206E-03 0.2381206E-03          
 0.2248883E-03 0.2248883E-03 0.2248883E-03 0.2248883E-03 0.2116561E-03          
 0.2116561E-03 0.1984239E-03 0.1984239E-03 0.1984239E-03 0.1984239E-03          
 0.1984239E-03 0.1851916E-03 0.1851916E-03 0.1851916E-03 0.1851916E-03          
 0.1851916E-03 0.1851916E-03 0.1719594E-03 0.1719594E-03 0.1719594E-03          
 0.1719594E-03 0.1719594E-03 0.1587272E-03 0.1587272E-03 0.1587272E-03          
 0.1587272E-03 0.1587272E-03 0.1587272E-03 0.1587272E-03 0.1587272E-03          
 0.1454949E-03 0.1454949E-03 0.1454949E-03 0.1454949E-03 0.1454949E-03          
 0.1454949E-03 0.1454949E-03 0.1322627E-03 0.1190305E-03 0.1190305E-03          
 0.1190305E-03 0.1190305E-03 0.1190305E-03 0.1190305E-03 0.1190305E-03          
 0.1190305E-03 0.1057982E-03 0.1057982E-03 0.1057982E-03 0.1057982E-03          
 0.1057982E-03 0.9256601E-04 0.9256601E-04 0.9256601E-04 0.9256601E-04          
 0.9256601E-04 0.7939339E-04 0.7939339E-04 0.7939339E-04 0.7939339E-04          
 0.6616116E-04 0.5292892E-04 0.5292892E-04 0.5292892E-04 0.5292892E-04          
 0.5292892E-04 0.5292892E-04 0.5292892E-04 0.5292892E-04 0.5292892E-04          
 0.5292892E-04 0.5292892E-04 0.5292892E-04 0.5292892E-04 0.5292892E-04          
 0.5292892E-04 0.5292892E-04 0.5292892E-04 0.5292892E-04 0.5292892E-04          
 0.5292892E-04 0.5292892E-04 0.5292892E-04 0.5292892E-04 0.5292892E-04          
 0.5292892E-04 0.5292892E-04 0.5292892E-04 0.5292892E-04 0.5292892E-04          
 0.5292892E-04 0.5292892E-04 0.5292892E-04 0.5292892E-04 0.5292892E-04          
 0.5292892E-04 0.5292892E-04 0.5292892E-04 0.5292892E-04 0.5292892E-04          
 0.5292892E-04 0.5292892E-04 0.5292892E-04 0.5292892E-04 0.5292892E-04          
 0.5292892E-04 0.5292892E-04 0.5292892E-04 0.5292892E-04 0.5292892E-04          
 0.5292892E-04 0.5292892E-04 0.5292892E-04 0.5292892E-04 0.5292892E-04          
 0.5292892E-04 0.5292892E-04 0.5292892E-04 0.5292892E-04 0.5292892E-04          
 0.5292892E-04 0.5292892E-04 0.5292892E-04 0.5292892E-04 0.5292892E-04          
 0.5292892E-04 0.5292892E-04 0.5292892E-04 0.5292892E-04 0.5292892E-04          
  1.000000     0.9300840     0.8629045     0.7965181     0.7298144              
 0.6660057     0.6035057     0.5463594     0.4916323     0.4439641              
 0.3976840     0.3549334     0.3168623     0.2822415     0.2488896              
 0.2214863     0.1974540     0.1745717     0.1561310     0.1401095              
 0.1274984     0.1158788     0.1055679     0.9545529E-01 0.8748412E-01          
 0.8141655E-01 0.7578522E-01 0.7086772E-01 0.6690198E-01 0.6293625E-01          
 0.5972397E-01 0.5674970E-01 0.5417198E-01 0.5147523E-01 0.4913545E-01          
 0.4766816E-01 0.4596287E-01 0.4433692E-01 0.4298860E-01 0.4164022E-01          
 0.4045051E-01 0.3945905E-01 0.3826934E-01 0.3723824E-01 0.3588992E-01          
 0.3493816E-01 0.3366911E-01 0.3279662E-01 0.3212243E-01 0.3132933E-01          
 0.3065515E-01 0.2978265E-01 0.2898955E-01 0.2831537E-01 0.2760154E-01          
 0.2708596E-01 0.2657044E-01 0.2581692E-01 0.2490485E-01 0.2446860E-01          
 0.2399272E-01 0.2371508E-01 0.2319956E-01 0.2252537E-01 0.2200985E-01          
 0.2153397E-01 0.2109772E-01 0.2046317E-01 0.2006662E-01 0.1963037E-01          
 0.1907521E-01 0.1852000E-01 0.1816308E-01 0.1764750E-01 0.1744926E-01          
 0.1713198E-01 0.1665610E-01 0.1633883E-01 0.1598191E-01 0.1578361E-01          
 0.1546639E-01 0.1514912E-01 0.1479220E-01 0.1467323E-01 0.1447493E-01          
 0.1419735E-01 0.1395941E-01 0.1376110E-01 0.1340419E-01 0.1316625E-01          
 0.1292831E-01 0.1261103E-01 0.1245242E-01 0.1217479E-01 0.1185757E-01          
 0.1154029E-01 0.1126271E-01 0.1102477E-01 0.1078683E-01 0.1050919E-01          
 0.1035058E-01 0.1019192E-01 0.9835005E-02 0.9676397E-02 0.9517789E-02          
 0.9359121E-02 0.9121180E-02 0.8764267E-02 0.8526325E-02 0.8407354E-02          
 0.8209050E-02 0.8010805E-02 0.7852137E-02 0.7653892E-02 0.7574558E-02          
 0.7415950E-02 0.7098675E-02 0.6860733E-02 0.6741762E-02 0.6583095E-02          
 0.6503820E-02 0.6464124E-02 0.6424487E-02 0.6384850E-02 0.6146908E-02          
 0.6107211E-02 0.5829632E-02 0.5671024E-02 0.5631328E-02 0.5393386E-02          
 0.5274415E-02 0.5076170E-02 0.4996836E-02 0.4917502E-02 0.4838169E-02          
 0.4798532E-02 0.4758894E-02 0.4679561E-02 0.4639924E-02 0.4560590E-02          
 0.4520953E-02 0.4481256E-02 0.4362285E-02 0.4322648E-02 0.4243314E-02          
 0.4164040E-02 0.4164040E-02 0.4124343E-02 0.4124343E-02 0.4084706E-02          
 0.3965735E-02 0.3926098E-02 0.3886402E-02 0.3886402E-02 0.3846765E-02          
 0.3767431E-02 0.3767431E-02 0.3727794E-02 0.3608823E-02 0.3529489E-02          
 0.3529489E-02 0.3489852E-02 0.3410518E-02 0.3251910E-02 0.3212273E-02          
 0.3093302E-02 0.3013968E-02 0.3013968E-02 0.2934635E-02 0.2894998E-02          
 0.2855301E-02 0.2815664E-02 0.2815664E-02 0.2815664E-02 0.2776027E-02          
 0.2736330E-02 0.2696693E-02 0.2657056E-02 0.2617359E-02 0.2617359E-02          
 0.2538085E-02 0.2498388E-02 0.2498388E-02 0.2419114E-02 0.2419114E-02          
 0.2379417E-02 0.2300143E-02 0.2260447E-02 0.2141476E-02 0.2101839E-02          
 0.2022505E-02 0.1903534E-02 0.1863897E-02 0.1863897E-02 0.1863897E-02          
 0.1824260E-02 0.1784563E-02 0.1705289E-02 0.1705289E-02 0.1705289E-02          
 0.1625955E-02 0.1625955E-02 0.1625955E-02 0.1586318E-02 0.1546621E-02          
 0.1467347E-02 0.1467347E-02 0.1467347E-02 0.1348376E-02 0.1348376E-02          
 0.1348376E-02 0.1269042E-02 0.1229405E-02 0.1189709E-02 0.1189709E-02          
 0.1110435E-02 0.1110435E-02 0.1110435E-02 0.1110435E-02 0.1070738E-02          
 0.1070738E-02 0.1070738E-02 0.1031101E-02 0.1031101E-02 0.9914637E-03          
 0.9914637E-03 0.9517670E-03 0.9517670E-03 0.9517670E-03 0.9517670E-03          
 0.9517670E-03 0.9517670E-03 0.9517670E-03 0.9517670E-03 0.9517670E-03          
 0.9517670E-03 0.9121299E-03 0.9121299E-03 0.8724332E-03 0.7931590E-03          
 0.7931590E-03 0.7931590E-03 0.7931590E-03 0.7931590E-03 0.7534623E-03          
 0.7534623E-03 0.7534623E-03 0.7534623E-03 0.7138252E-03 0.6741881E-03          
 0.6741881E-03 0.6344914E-03 0.6344914E-03 0.6344914E-03 0.6344914E-03          
 0.6344914E-03 0.6344914E-03 0.6344914E-03 0.5948544E-03 0.5948544E-03          
 0.5948544E-03 0.5948544E-03 0.5948544E-03 0.5948544E-03 0.5552173E-03          
 0.5552173E-03 0.5155206E-03 0.5155206E-03 0.5155206E-03 0.4758835E-03          
 0.4362464E-03 0.4362464E-03 0.4362464E-03 0.4362464E-03 0.4362464E-03          
 0.4362464E-03 0.4362464E-03 0.3965497E-03 0.3965497E-03 0.3965497E-03          
 0.3965497E-03 0.3965497E-03 0.3965497E-03 0.3965497E-03 0.3965497E-03          
 0.3965497E-03 0.3965497E-03 0.3965497E-03 0.3965497E-03 0.3965497E-03          
 0.3965497E-03 0.3965497E-03 0.3172755E-03 0.2379417E-03 0.2379417E-03          
 0.2379417E-03 0.2379417E-03 0.1983047E-03 0.1983047E-03 0.1983047E-03          
 0.1983047E-03 0.1983047E-03 0.1983047E-03 0.1983047E-03 0.1983047E-03          
 0.1983047E-03 0.1983047E-03 0.1983047E-03 0.1586080E-03 0.1586080E-03          
 0.1586080E-03 0.1586080E-03 0.1586080E-03 0.1586080E-03 0.1586080E-03          
 0.1586080E-03 0.1586080E-03 0.1586080E-03 0.1189709E-03 0.1189709E-03          
 0.1189709E-03 0.1189709E-03 0.1189709E-03 0.1189709E-03 0.1189709E-03          
 0.1189709E-03 0.1189709E-03 0.1189709E-03 0.1189709E-03 0.1189709E-03          
 0.1189709E-03 0.1189709E-03 0.1189709E-03 0.1189709E-03 0.1189709E-03          
 0.1189709E-03 0.1189709E-03 0.1189709E-03 0.1189709E-03 0.1189709E-03          
 0.1189709E-03 0.1189709E-03 0.1189709E-03 0.1189709E-03 0.1189709E-03          
 0.1189709E-03 0.1189709E-03 0.1189709E-03 0.1189709E-03 0.1189709E-03          
 0.1189709E-03 0.1189709E-03 0.1189709E-03 0.1189709E-03 0.1189709E-03          
 0.1189709E-03 0.1189709E-03 0.1189709E-03 0.1189709E-03 0.1189709E-03          
 0.1189709E-03 0.1189709E-03 0.1189709E-03 0.1189709E-03 0.1189709E-03          
 0.1189709E-03 0.1189709E-03 0.1189709E-03 0.1189709E-03 0.1189709E-03          
 0.1189709E-03 0.1189709E-03 0.1189709E-03 0.1189709E-03 0.1189709E-03          
 0.1189709E-03 0.1189709E-03 0.1189709E-03 0.1189709E-03 0.1189709E-03          
 0.1189709E-03 0.1189709E-03 0.1189709E-03 0.1189709E-03 0.1189709E-03          
 0.1189709E-03 0.1189709E-03 0.1189709E-03 0.1189709E-03 0.1189709E-03          
 0.1189709E-03 0.1189709E-03 0.1189709E-03 0.1189709E-03 0.1189709E-03          
 0.1189709E-03 0.1189709E-03 0.1189709E-03 0.7933378E-04 0.7933378E-04          
  1.000000     0.9525140     0.8990116     0.8504512     0.8059734              
 0.7677267     0.7230339     0.6785561     0.6373012     0.5979803              
 0.5584444     0.5206274     0.4864632     0.4538032     0.4189944              
 0.3884830     0.3573270     0.3304684     0.3068328     0.2827675              
 0.2599914     0.2430168     0.2249678     0.2125054     0.1983240              
 0.1839278     0.1703911     0.1592179     0.1499785     0.1409540              
 0.1327890     0.1267726     0.1218307     0.1155995     0.1097980              
 0.1059304     0.1024925     0.9604639E-01 0.9153414E-01 0.8680707E-01          
 0.8229482E-01 0.7799745E-01 0.7541901E-01 0.7262570E-01 0.7112163E-01          
 0.7004726E-01 0.6789857E-01 0.6574988E-01 0.6381607E-01 0.6231201E-01          
 0.6059301E-01 0.5865920E-01 0.5672538E-01 0.5479157E-01 0.5371726E-01          
 0.5242801E-01 0.5178338E-01 0.5027932E-01 0.4963470E-01 0.4899013E-01          
 0.4748601E-01 0.4662657E-01 0.4469275E-01 0.4404813E-01 0.4383326E-01          
 0.4361838E-01 0.4275894E-01 0.4189944E-01 0.4061025E-01 0.3996563E-01          
 0.3953588E-01 0.3867638E-01 0.3781694E-01 0.3760207E-01 0.3695744E-01          
 0.3545338E-01 0.3437901E-01 0.3351957E-01 0.3287494E-01 0.3223032E-01          
 0.3180063E-01 0.3158575E-01 0.3094113E-01 0.2986676E-01 0.2922219E-01          
 0.2793294E-01 0.2750325E-01 0.2685863E-01 0.2664375E-01 0.2599913E-01          
 0.2599913E-01 0.2578425E-01 0.2513969E-01 0.2470994E-01 0.2470994E-01          
 0.2428019E-01 0.2406532E-01 0.2406532E-01 0.2385044E-01 0.2385044E-01          
 0.2299100E-01 0.2277613E-01 0.2191663E-01 0.2148688E-01 0.2127200E-01          
 0.2084231E-01 0.2062744E-01 0.2062744E-01 0.2041256E-01 0.1998281E-01          
 0.1998281E-01 0.1998281E-01 0.1976794E-01 0.1869363E-01 0.1804900E-01          
 0.1783413E-01 0.1783413E-01 0.1740438E-01 0.1675975E-01 0.1675975E-01          
 0.1675975E-01 0.1675975E-01 0.1675975E-01 0.1654488E-01 0.1633006E-01          
 0.1611519E-01 0.1568544E-01 0.1568544E-01 0.1568544E-01 0.1525569E-01          
 0.1482594E-01 0.1439619E-01 0.1418138E-01 0.1418138E-01 0.1418138E-01          
 0.1396650E-01 0.1353675E-01 0.1332188E-01 0.1267725E-01 0.1267725E-01          
 0.1267725E-01 0.1224750E-01 0.1224750E-01 0.1224750E-01 0.1181781E-01          
 0.1181781E-01 0.1181781E-01 0.1181781E-01 0.1181781E-01 0.1138806E-01          
 0.1138806E-01 0.1117319E-01 0.1117319E-01 0.1117319E-01 0.1095831E-01          
 0.1074344E-01 0.1074344E-01 0.1074344E-01 0.1052856E-01 0.1052856E-01          
 0.1031369E-01 0.1009881E-01 0.1009881E-01 0.1009881E-01 0.9884000E-02          
 0.9884000E-02 0.9669125E-02 0.9239376E-02 0.9024501E-02 0.9024501E-02          
 0.9024501E-02 0.8809626E-02 0.8594751E-02 0.8594751E-02 0.8594751E-02          
 0.8594751E-02 0.8379877E-02 0.8379877E-02 0.8379877E-02 0.8379877E-02          
 0.8165002E-02 0.8165002E-02 0.8165002E-02 0.8165002E-02 0.7950127E-02          
 0.7950127E-02 0.7950127E-02 0.7735252E-02 0.7735252E-02 0.7520437E-02          
 0.7305562E-02 0.7305562E-02 0.6875813E-02 0.6660938E-02 0.6660938E-02          
 0.6660938E-02 0.6660938E-02 0.6660938E-02 0.6660938E-02 0.6660938E-02          
 0.6660938E-02 0.6446064E-02 0.6446064E-02 0.6446064E-02 0.6446064E-02          
 0.6446064E-02 0.6016314E-02 0.6016314E-02 0.6016314E-02 0.6016314E-02          
 0.6016314E-02 0.6016314E-02 0.5801439E-02 0.5801439E-02 0.5801439E-02          
 0.5801439E-02 0.5801439E-02 0.5801439E-02 0.5801439E-02 0.5801439E-02          
 0.5801439E-02 0.5801439E-02 0.5586565E-02 0.5586565E-02 0.5586565E-02          
 0.5586565E-02 0.5586565E-02 0.5586565E-02 0.5586565E-02 0.5371749E-02          
 0.5156875E-02 0.4942000E-02 0.4727125E-02 0.4512250E-02 0.4512250E-02          
 0.4512250E-02 0.4512250E-02 0.4297376E-02 0.4297376E-02 0.4297376E-02          
 0.4082501E-02 0.4082501E-02 0.4082501E-02 0.3867626E-02 0.3867626E-02          
 0.3867626E-02 0.3867626E-02 0.3652751E-02 0.3652751E-02 0.3652751E-02          
 0.3652751E-02 0.3652751E-02 0.3437877E-02 0.2793312E-02 0.2793312E-02          
 0.2793312E-02 0.2793312E-02 0.2793312E-02 0.2793312E-02 0.2793312E-02          
 0.2793312E-02 0.2793312E-02 0.2793312E-02 0.2578437E-02 0.2578437E-02          
 0.2578437E-02 0.2578437E-02 0.2578437E-02 0.2578437E-02 0.2578437E-02          
 0.2578437E-02 0.2578437E-02 0.2578437E-02 0.2578437E-02 0.2578437E-02          
 0.2363563E-02 0.2363563E-02 0.2363563E-02 0.2363563E-02 0.2363563E-02          
 0.2148688E-02 0.2148688E-02 0.2148688E-02 0.2148688E-02 0.1718938E-02          
 0.1718938E-02 0.1718938E-02 0.1718938E-02 0.1718938E-02 0.1718938E-02          
 0.1718938E-02 0.1718938E-02 0.1504064E-02 0.1504064E-02 0.1074374E-02          
 0.1074374E-02 0.1074374E-02 0.1074374E-02 0.1074374E-02 0.8594990E-03          
 0.8594990E-03 0.8594990E-03 0.8594990E-03 0.8594990E-03 0.8594990E-03          
 0.8594990E-03 0.8594990E-03 0.8594990E-03 0.8594990E-03 0.8594990E-03          
 0.8594990E-03 0.8594990E-03 0.8594990E-03 0.8594990E-03 0.8594990E-03          
 0.8594990E-03 0.8594990E-03 0.8594990E-03 0.8594990E-03 0.8594990E-03          
 0.8594990E-03 0.8594990E-03 0.8594990E-03 0.8594990E-03 0.6446242E-03          
 0.6446242E-03 0.6446242E-03 0.6446242E-03 0.6446242E-03 0.6446242E-03          
 0.6446242E-03 0.6446242E-03 0.6446242E-03 0.6446242E-03 0.6446242E-03          
 0.6446242E-03 0.6446242E-03 0.6446242E-03 0.6446242E-03 0.6446242E-03          
 0.6446242E-03 0.6446242E-03 0.6446242E-03 0.6446242E-03 0.6446242E-03          
 0.6446242E-03 0.6446242E-03 0.6446242E-03 0.6446242E-03 0.6446242E-03          
 0.6446242E-03 0.6446242E-03 0.6446242E-03 0.6446242E-03 0.6446242E-03          
 0.6446242E-03 0.6446242E-03 0.6446242E-03 0.6446242E-03 0.6446242E-03          
 0.6446242E-03 0.6446242E-03 0.6446242E-03 0.6446242E-03 0.6446242E-03          
 0.6446242E-03 0.6446242E-03 0.6446242E-03 0.6446242E-03 0.6446242E-03          
 0.6446242E-03 0.6446242E-03 0.6446242E-03 0.6446242E-03 0.6446242E-03          
 0.6446242E-03 0.6446242E-03 0.6446242E-03 0.6446242E-03 0.6446242E-03          
 0.6446242E-03 0.6446242E-03 0.6446242E-03 0.6446242E-03 0.6446242E-03          
 0.6446242E-03 0.6446242E-03 0.6446242E-03 0.6446242E-03 0.6446242E-03          
 0.6446242E-03 0.6446242E-03 0.6446242E-03 0.6446242E-03 0.6446242E-03          
 0.6446242E-03 0.6446242E-03 0.6446242E-03 0.6446242E-03 0.6446242E-03          
  1.000000     0.9306198     0.8654172     0.7998194     0.7352941              
 0.6718979     0.6145421     0.5575815     0.5028791     0.4497573              
 0.4009823     0.3555945     0.3144405     0.2746980     0.2401490              
 0.2067291     0.1768658     0.1518573     0.1285424     0.1082195              
 0.8975953E-01 0.7355762E-01 0.6046063E-01 0.4950887E-01 0.3917807E-01          
 0.3121823E-01 0.2630687E-01 0.2258098E-01 0.1992774E-01 0.1783901E-01          
 0.1507282E-01 0.1371795E-01 0.1213729E-01 0.1089531E-01 0.9992123E-02          
 0.9540498E-02 0.8750141E-02 0.8242071E-02 0.7677555E-02 0.7282376E-02          
 0.6887197E-02 0.6604970E-02 0.6492019E-02 0.5983949E-02 0.5814612E-02          
 0.5306542E-02 0.4911363E-02 0.4742026E-02 0.4572630E-02 0.4346848E-02          
 0.4121006E-02 0.3895223E-02 0.3725886E-02 0.3612936E-02 0.3612936E-02          
 0.3443599E-02 0.3330708E-02 0.3274262E-02 0.3048420E-02 0.2822638E-02          
 0.2709746E-02 0.2653241E-02 0.2653241E-02 0.2540350E-02 0.2483904E-02          
 0.2427459E-02 0.2258122E-02 0.2201676E-02 0.2201676E-02 0.2145171E-02          
 0.2088726E-02 0.2088726E-02 0.2032280E-02 0.1919389E-02 0.1806498E-02          
 0.1750052E-02 0.1693547E-02 0.1693547E-02 0.1693547E-02 0.1637101E-02          
 0.1580656E-02 0.1580656E-02 0.1411319E-02 0.1354873E-02 0.1354873E-02          
 0.1354873E-02 0.1354873E-02 0.1241982E-02 0.1241982E-02 0.1241982E-02          
 0.1185477E-02 0.1185477E-02 0.1185477E-02 0.1129031E-02 0.1072586E-02          
 0.1016140E-02 0.1016140E-02 0.1016140E-02 0.1016140E-02 0.1016140E-02          
 0.1016140E-02 0.9032488E-03 0.8468032E-03 0.7339120E-03 0.7339120E-03          
 0.7339120E-03 0.7339120E-03 0.7339120E-03 0.7339120E-03 0.7339120E-03          
 0.6209612E-03 0.6209612E-03 0.5645156E-03 0.5645156E-03 0.5645156E-03          
 0.5645156E-03 0.5645156E-03 0.5080700E-03 0.5080700E-03 0.4516244E-03          
 0.4516244E-03 0.4516244E-03 0.4516244E-03 0.4516244E-03 0.4516244E-03          
 0.4516244E-03 0.3951788E-03 0.3951788E-03 0.3951788E-03 0.3951788E-03          
 0.3951788E-03 0.3951788E-03 0.3387332E-03 0.3387332E-03 0.3387332E-03          
 0.2822876E-03 0.2822876E-03 0.2822876E-03 0.2822876E-03 0.2822876E-03          
 0.2822876E-03 0.2822876E-03 0.2822876E-03 0.2822876E-03 0.2822876E-03          
 0.2822876E-03 0.2822876E-03 0.2257824E-03 0.2257824E-03 0.2257824E-03          
 0.2257824E-03 0.2257824E-03 0.2257824E-03 0.2257824E-03 0.2257824E-03          
 0.2257824E-03 0.2257824E-03 0.2257824E-03 0.2257824E-03 0.2257824E-03          
 0.2257824E-03 0.2257824E-03 0.2257824E-03 0.2257824E-03 0.2257824E-03          
 0.2257824E-03 0.2257824E-03 0.2257824E-03 0.2257824E-03 0.2257824E-03          
 0.2257824E-03 0.2257824E-03 0.2257824E-03 0.2257824E-03 0.1693368E-03          
 0.1693368E-03 0.1693368E-03 0.1693368E-03 0.1693368E-03 0.1693368E-03          
 0.1693368E-03 0.1693368E-03 0.1693368E-03 0.1693368E-03 0.1693368E-03          
 0.1693368E-03 0.1693368E-03 0.1693368E-03 0.1693368E-03 0.1693368E-03          
 0.1693368E-03 0.1693368E-03 0.1693368E-03 0.1693368E-03 0.1693368E-03          
 0.1693368E-03 0.1693368E-03 0.1693368E-03 0.1693368E-03 0.1693368E-03          
 0.1693368E-03 0.1693368E-03 0.1693368E-03 0.1693368E-03 0.1693368E-03          
 0.1693368E-03 0.1693368E-03 0.1693368E-03 0.1693368E-03 0.1693368E-03          
 0.1693368E-03 0.1693368E-03 0.1693368E-03 0.1693368E-03 0.1128912E-03          
 0.5644560E-04 0.5644560E-04 0.5644560E-04 0.5644560E-04 0.5644560E-04          
 0.5644560E-04 0.5644560E-04 0.5644560E-04 0.5644560E-04 0.5644560E-04          
 0.5644560E-04 0.5644560E-04 0.5644560E-04 0.5644560E-04 0.5644560E-04          
 0.5644560E-04 0.5644560E-04 0.5644560E-04 0.5644560E-04 0.5644560E-04          
 0.5644560E-04 0.5644560E-04 0.5644560E-04 0.5644560E-04 0.0000000E+00          
 0.0000000E+00 0.0000000E+00 0.0000000E+00 0.0000000E+00 0.0000000E+00          
 0.0000000E+00 0.0000000E+00 0.0000000E+00 0.0000000E+00 0.0000000E+00          
 0.0000000E+00 0.0000000E+00 0.0000000E+00 0.0000000E+00 0.0000000E+00          
 0.0000000E+00 0.0000000E+00 0.0000000E+00 0.0000000E+00 0.0000000E+00          
 0.0000000E+00 0.0000000E+00 0.0000000E+00 0.0000000E+00 0.0000000E+00          
 0.0000000E+00 0.0000000E+00 0.0000000E+00 0.0000000E+00 0.0000000E+00          
 0.0000000E+00 0.0000000E+00 0.0000000E+00 0.0000000E+00 0.0000000E+00          
 0.0000000E+00 0.0000000E+00 0.0000000E+00 0.0000000E+00 0.0000000E+00          
 0.0000000E+00 0.0000000E+00 0.0000000E+00 0.0000000E+00 0.0000000E+00          
 0.0000000E+00 0.0000000E+00 0.0000000E+00 0.0000000E+00 0.0000000E+00          
 0.0000000E+00 0.0000000E+00 0.0000000E+00 0.0000000E+00 0.0000000E+00          
 0.0000000E+00 0.0000000E+00 0.0000000E+00 0.0000000E+00 0.0000000E+00          
 0.0000000E+00 0.0000000E+00 0.0000000E+00 0.0000000E+00 0.0000000E+00          
 0.0000000E+00 0.0000000E+00 0.0000000E+00 0.0000000E+00 0.0000000E+00          
 0.0000000E+00 0.0000000E+00 0.0000000E+00 0.0000000E+00 0.0000000E+00          
 0.0000000E+00 0.0000000E+00 0.0000000E+00 0.0000000E+00 0.0000000E+00          
 0.0000000E+00 0.0000000E+00 0.0000000E+00 0.0000000E+00 0.0000000E+00          
 0.0000000E+00 0.0000000E+00 0.0000000E+00 0.0000000E+00 0.0000000E+00          
 0.0000000E+00 0.0000000E+00 0.0000000E+00 0.0000000E+00 0.0000000E+00          
 0.0000000E+00 0.0000000E+00 0.0000000E+00 0.0000000E+00 0.0000000E+00          
 0.0000000E+00 0.0000000E+00 0.0000000E+00 0.0000000E+00 0.0000000E+00          
 0.0000000E+00 0.0000000E+00 0.0000000E+00 0.0000000E+00 0.0000000E+00          
 0.0000000E+00 0.0000000E+00 0.0000000E+00 0.0000000E+00 0.0000000E+00          
 0.0000000E+00 0.0000000E+00 0.0000000E+00 0.0000000E+00 0.0000000E+00          
 0.0000000E+00 0.0000000E+00 0.0000000E+00 0.0000000E+00 0.0000000E+00          
 0.0000000E+00 0.0000000E+00 0.0000000E+00 0.0000000E+00 0.0000000E+00          
 0.0000000E+00 0.0000000E+00 0.0000000E+00 0.0000000E+00 0.0000000E+00          
 0.0000000E+00 0.0000000E+00 0.0000000E+00 0.0000000E+00 0.0000000E+00          
 0.0000000E+00 0.0000000E+00 0.0000000E+00 0.0000000E+00 0.0000000E+00          
 0.0000000E+00 0.0000000E+00 0.0000000E+00 0.0000000E+00 0.0000000E+00          
 0.0000000E+00 0.0000000E+00 0.0000000E+00 0.0000000E+00 0.0000000E+00          
 0.0000000E+00 0.0000000E+00 0.0000000E+00 0.0000000E+00 0.0000000E+00          
  1.000000     0.9208850     0.8429974     0.7677636     0.6944703              
 0.6263020     0.5600411     0.4963014     0.4374046     0.3843793              
 0.3347210     0.2888775     0.2500663     0.2149207     0.1834240              
 0.1566709     0.1326212     0.1113746     0.9364426E-01 0.7783788E-01          
 0.6501693E-01 0.5402040E-01 0.4486501E-01 0.3794867E-01 0.3197771E-01          
 0.2705169E-01 0.2280569E-01 0.1963776E-01 0.1670206E-01 0.1489419E-01          
 0.1310289E-01 0.1156038E-01 0.1029986E-01 0.9271562E-02 0.8442223E-02          
 0.7778823E-02 0.7065594E-02 0.6501675E-02 0.6020725E-02 0.5622625E-02          
 0.5274355E-02 0.5008936E-02 0.4809916E-02 0.4494786E-02 0.4295766E-02          
 0.4013777E-02 0.3847957E-02 0.3648937E-02 0.3383517E-02 0.3267407E-02          
 0.3134727E-02 0.3002048E-02 0.2803028E-02 0.2720118E-02 0.2587438E-02          
 0.2554238E-02 0.2421558E-02 0.2371788E-02 0.2272248E-02 0.2205908E-02          
 0.2139568E-02 0.2089858E-02 0.1957119E-02 0.1874208E-02 0.1824439E-02          
 0.1807868E-02 0.1791298E-02 0.1741529E-02 0.1658618E-02 0.1641989E-02          
 0.1625419E-02 0.1559079E-02 0.1525879E-02 0.1509309E-02 0.1459539E-02          
 0.1459539E-02 0.1426399E-02 0.1426399E-02 0.1360059E-02 0.1343489E-02          
 0.1293719E-02 0.1293719E-02 0.1243949E-02 0.1210749E-02 0.1194179E-02          
 0.1161039E-02 0.1127839E-02 0.1111269E-02 0.1061499E-02 0.1044929E-02          
 0.1011729E-02 0.1011729E-02 0.9951591E-03 0.9951591E-03 0.9619594E-03          
 0.9453893E-03 0.9122491E-03 0.8790493E-03 0.8790493E-03 0.8624792E-03          
 0.8127093E-03 0.8127093E-03 0.8127093E-03 0.7961392E-03 0.7795691E-03          
 0.7463694E-03 0.7131696E-03 0.6965995E-03 0.6965995E-03 0.6634593E-03          
 0.6468296E-03 0.6468296E-03 0.6302595E-03 0.5804896E-03 0.5639195E-03          
 0.5639195E-03 0.5473495E-03 0.5141497E-03 0.4810095E-03 0.4810095E-03          
 0.4643798E-03 0.4478097E-03 0.4478097E-03 0.4478097E-03 0.4312396E-03          
 0.4312396E-03 0.4312396E-03 0.4312396E-03 0.4312396E-03 0.4312396E-03          
 0.3980398E-03 0.3814697E-03 0.3483295E-03 0.3483295E-03 0.3151298E-03          
 0.2985597E-03 0.2653599E-03 0.2653599E-03 0.2487898E-03 0.2487898E-03          
 0.2487898E-03 0.2487898E-03 0.2322197E-03 0.1990199E-03 0.1824498E-03          
 0.1824498E-03 0.1492500E-03 0.1492500E-03 0.1492500E-03 0.1492500E-03          
 0.1492500E-03 0.1492500E-03 0.1492500E-03 0.1492500E-03 0.1326799E-03          
 0.1326799E-03 0.1161098E-03 0.1161098E-03 0.1161098E-03 0.1161098E-03          
 0.9953976E-04 0.8291006E-04 0.8291006E-04 0.8291006E-04 0.8291006E-04          
 0.8291006E-04 0.8291006E-04 0.8291006E-04 0.8291006E-04 0.8291006E-04          
 0.8291006E-04 0.8291006E-04 0.8291006E-04 0.8291006E-04 0.8291006E-04          
 0.8291006E-04 0.8291006E-04 0.8291006E-04 0.6633997E-04 0.6633997E-04          
 0.4976988E-04 0.4976988E-04 0.4976988E-04 0.4976988E-04 0.3319979E-04          
 0.3319979E-04 0.3319979E-04 0.3319979E-04 0.3319979E-04 0.3319979E-04          
 0.3319979E-04 0.1657009E-04 0.1657009E-04 0.1657009E-04 0.1657009E-04          
 0.1657009E-04 0.1657009E-04 0.1657009E-04 0.1657009E-04 0.1657009E-04          
 0.1657009E-04 0.1657009E-04 0.1657009E-04 0.1657009E-04 0.1657009E-04          
 0.1657009E-04 0.1657009E-04 0.1657009E-04 0.1657009E-04 0.1657009E-04          
 0.1657009E-04 0.1657009E-04 0.1657009E-04 0.1657009E-04 0.1657009E-04          
 0.1657009E-04 0.1657009E-04 0.1657009E-04 0.1657009E-04 0.1657009E-04          
 0.1657009E-04 0.1657009E-04 0.1657009E-04 0.1657009E-04 0.1657009E-04          
 0.1657009E-04 0.1657009E-04 0.1657009E-04 0.1657009E-04 0.1657009E-04          
 0.1657009E-04 0.1657009E-04 0.1657009E-04 0.1657009E-04 0.1657009E-04          
 0.1657009E-04 0.1657009E-04 0.1657009E-04 0.1657009E-04 0.1657009E-04          
 0.1657009E-04 0.1657009E-04 0.1657009E-04 0.1657009E-04 0.1657009E-04          
 0.1657009E-04 0.1657009E-04 0.1657009E-04 0.1657009E-04 0.1657009E-04          
 0.1657009E-04 0.1657009E-04 0.1657009E-04 0.1657009E-04 0.1657009E-04          
 0.0000000E+00 0.0000000E+00 0.0000000E+00 0.0000000E+00 0.0000000E+00          
 0.0000000E+00 0.0000000E+00 0.0000000E+00 0.0000000E+00 0.0000000E+00          
 0.0000000E+00 0.0000000E+00 0.0000000E+00 0.0000000E+00 0.0000000E+00          
 0.0000000E+00 0.0000000E+00 0.0000000E+00 0.0000000E+00 0.0000000E+00          
 0.0000000E+00 0.0000000E+00 0.0000000E+00 0.0000000E+00 0.0000000E+00          
 0.0000000E+00 0.0000000E+00 0.0000000E+00 0.0000000E+00 0.0000000E+00          
 0.0000000E+00 0.0000000E+00 0.0000000E+00 0.0000000E+00 0.0000000E+00          
 0.0000000E+00 0.0000000E+00 0.0000000E+00 0.0000000E+00 0.0000000E+00          
 0.0000000E+00 0.0000000E+00 0.0000000E+00 0.0000000E+00 0.0000000E+00          
 0.0000000E+00 0.0000000E+00 0.0000000E+00 0.0000000E+00 0.0000000E+00          
 0.0000000E+00 0.0000000E+00 0.0000000E+00 0.0000000E+00 0.0000000E+00          
 0.0000000E+00 0.0000000E+00 0.0000000E+00 0.0000000E+00 0.0000000E+00          
 0.0000000E+00 0.0000000E+00 0.0000000E+00 0.0000000E+00 0.0000000E+00          
 0.0000000E+00 0.0000000E+00 0.0000000E+00 0.0000000E+00 0.0000000E+00          
 0.0000000E+00 0.0000000E+00 0.0000000E+00 0.0000000E+00 0.0000000E+00          
 0.0000000E+00 0.0000000E+00 0.0000000E+00 0.0000000E+00 0.0000000E+00          
 0.0000000E+00 0.0000000E+00 0.0000000E+00 0.0000000E+00 0.0000000E+00          
 0.0000000E+00 0.0000000E+00 0.0000000E+00 0.0000000E+00 0.0000000E+00          
 0.0000000E+00 0.0000000E+00 0.0000000E+00 0.0000000E+00 0.0000000E+00          
 0.0000000E+00 0.0000000E+00 0.0000000E+00 0.0000000E+00 0.0000000E+00          
 0.0000000E+00 0.0000000E+00 0.0000000E+00 0.0000000E+00 0.0000000E+00          
 0.0000000E+00 0.0000000E+00 0.0000000E+00 0.0000000E+00 0.0000000E+00          
 0.0000000E+00 0.0000000E+00 0.0000000E+00 0.0000000E+00 0.0000000E+00          
 0.0000000E+00 0.0000000E+00 0.0000000E+00 0.0000000E+00 0.0000000E+00          
 0.0000000E+00 0.0000000E+00 0.0000000E+00 0.0000000E+00 0.0000000E+00          
 0.0000000E+00 0.0000000E+00 0.0000000E+00 0.0000000E+00 0.0000000E+00          
 0.0000000E+00 0.0000000E+00 0.0000000E+00 0.0000000E+00 0.0000000E+00          
 0.0000000E+00 0.0000000E+00 0.0000000E+00 0.0000000E+00 0.0000000E+00          
 0.0000000E+00 0.0000000E+00 0.0000000E+00 0.0000000E+00 0.0000000E+00          
  1.000000     0.9300786     0.8545028     0.7801682     0.7131430              
 0.6411530     0.5721970     0.5082058     0.4462833     0.3898773              
 0.3365053     0.2901669     0.2496207     0.2112812     0.1792856              
 0.1521170     0.1249483     0.1004000     0.8412635E-01 0.6923181E-01          
 0.5695766E-01 0.4633844E-01 0.3696042E-01 0.2896154E-01 0.2330714E-01          
 0.1820439E-01 0.1503241E-01 0.1158458E-01 0.9653866E-02 0.8550525E-02          
 0.7723093E-02 0.7033527E-02 0.5792320E-02 0.4689038E-02 0.4275262E-02          
 0.3585696E-02 0.3171980E-02 0.3034055E-02 0.2758265E-02 0.2758265E-02          
 0.2482414E-02 0.2344489E-02 0.2206564E-02 0.2068698E-02 0.1930773E-02          
 0.1792848E-02 0.1241207E-02 0.9653568E-03 0.9653568E-03 0.8274913E-03          
 0.8274913E-03 0.8274913E-03 0.6895661E-03 0.5516410E-03 0.5516410E-03          
 0.5516410E-03 0.5516410E-03 0.5516410E-03 0.5516410E-03 0.5516410E-03          
 0.4137158E-03 0.4137158E-03 0.4137158E-03 0.4137158E-03 0.4137158E-03          
 0.4137158E-03 0.4137158E-03 0.4137158E-03 0.4137158E-03 0.4137158E-03          
 0.4137158E-03 0.4137158E-03 0.4137158E-03 0.4137158E-03 0.4137158E-03          
 0.4137158E-03 0.4137158E-03 0.4137158E-03 0.4137158E-03 0.4137158E-03          
 0.4137158E-03 0.4137158E-03 0.4137158E-03 0.4137158E-03 0.4137158E-03          
 0.2758503E-03 0.2758503E-03 0.2758503E-03 0.2758503E-03 0.2758503E-03          
 0.2758503E-03 0.2758503E-03 0.1379251E-03 0.1379251E-03 0.0000000E+00          
 0.0000000E+00 0.0000000E+00 0.0000000E+00 0.0000000E+00 0.0000000E+00          
 0.0000000E+00 0.0000000E+00 0.0000000E+00 0.0000000E+00 0.0000000E+00          
 0.0000000E+00 0.0000000E+00 0.0000000E+00 0.0000000E+00 0.0000000E+00          
 0.0000000E+00 0.0000000E+00 0.0000000E+00 0.0000000E+00 0.0000000E+00          
 0.0000000E+00 0.0000000E+00 0.0000000E+00 0.0000000E+00 0.0000000E+00          
 0.0000000E+00 0.0000000E+00 0.0000000E+00 0.0000000E+00 0.0000000E+00          
 0.0000000E+00 0.0000000E+00 0.0000000E+00 0.0000000E+00 0.0000000E+00          
 0.0000000E+00 0.0000000E+00 0.0000000E+00 0.0000000E+00 0.0000000E+00          
 0.0000000E+00 0.0000000E+00 0.0000000E+00 0.0000000E+00 0.0000000E+00          
 0.0000000E+00 0.0000000E+00 0.0000000E+00 0.0000000E+00 0.0000000E+00          
 0.0000000E+00 0.0000000E+00 0.0000000E+00 0.0000000E+00 0.0000000E+00          
 0.0000000E+00 0.0000000E+00 0.0000000E+00 0.0000000E+00 0.0000000E+00          
 0.0000000E+00 0.0000000E+00 0.0000000E+00 0.0000000E+00 0.0000000E+00          
 0.0000000E+00 0.0000000E+00 0.0000000E+00 0.0000000E+00 0.0000000E+00          
 0.0000000E+00 0.0000000E+00 0.0000000E+00 0.0000000E+00 0.0000000E+00          
 0.0000000E+00 0.0000000E+00 0.0000000E+00 0.0000000E+00 0.0000000E+00          
 0.0000000E+00 0.0000000E+00 0.0000000E+00 0.0000000E+00 0.0000000E+00          
 0.0000000E+00 0.0000000E+00 0.0000000E+00 0.0000000E+00 0.0000000E+00          
 0.0000000E+00 0.0000000E+00 0.0000000E+00 0.0000000E+00 0.0000000E+00          
 0.0000000E+00 0.0000000E+00 0.0000000E+00 0.0000000E+00 0.0000000E+00          
 0.0000000E+00 0.0000000E+00 0.0000000E+00 0.0000000E+00 0.0000000E+00          
 0.0000000E+00 0.0000000E+00 0.0000000E+00 0.0000000E+00 0.0000000E+00          
 0.0000000E+00 0.0000000E+00 0.0000000E+00 0.0000000E+00 0.0000000E+00          
 0.0000000E+00 0.0000000E+00 0.0000000E+00 0.0000000E+00 0.0000000E+00          
 0.0000000E+00 0.0000000E+00 0.0000000E+00 0.0000000E+00 0.0000000E+00          
 0.0000000E+00 0.0000000E+00 0.0000000E+00 0.0000000E+00 0.0000000E+00          
 0.0000000E+00 0.0000000E+00 0.0000000E+00 0.0000000E+00 0.0000000E+00          
 0.0000000E+00 0.0000000E+00 0.0000000E+00 0.0000000E+00 0.0000000E+00          
 0.0000000E+00 0.0000000E+00 0.0000000E+00 0.0000000E+00 0.0000000E+00          
 0.0000000E+00 0.0000000E+00 0.0000000E+00 0.0000000E+00 0.0000000E+00          
 0.0000000E+00 0.0000000E+00 0.0000000E+00 0.0000000E+00 0.0000000E+00          
 0.0000000E+00 0.0000000E+00 0.0000000E+00 0.0000000E+00 0.0000000E+00          
 0.0000000E+00 0.0000000E+00 0.0000000E+00 0.0000000E+00 0.0000000E+00          
 0.0000000E+00 0.0000000E+00 0.0000000E+00 0.0000000E+00 0.0000000E+00          
 0.0000000E+00 0.0000000E+00 0.0000000E+00 0.0000000E+00 0.0000000E+00          
 0.0000000E+00 0.0000000E+00 0.0000000E+00 0.0000000E+00 0.0000000E+00          
 0.0000000E+00 0.0000000E+00 0.0000000E+00 0.0000000E+00 0.0000000E+00          
 0.0000000E+00 0.0000000E+00 0.0000000E+00 0.0000000E+00 0.0000000E+00          
 0.0000000E+00 0.0000000E+00 0.0000000E+00 0.0000000E+00 0.0000000E+00          
 0.0000000E+00 0.0000000E+00 0.0000000E+00 0.0000000E+00 0.0000000E+00          
 0.0000000E+00 0.0000000E+00 0.0000000E+00 0.0000000E+00 0.0000000E+00          
 0.0000000E+00 0.0000000E+00 0.0000000E+00 0.0000000E+00 0.0000000E+00          
 0.0000000E+00 0.0000000E+00 0.0000000E+00 0.0000000E+00 0.0000000E+00          
 0.0000000E+00 0.0000000E+00 0.0000000E+00 0.0000000E+00 0.0000000E+00          
 0.0000000E+00 0.0000000E+00 0.0000000E+00 0.0000000E+00 0.0000000E+00          
 0.0000000E+00 0.0000000E+00 0.0000000E+00 0.0000000E+00 0.0000000E+00          
 0.0000000E+00 0.0000000E+00 0.0000000E+00 0.0000000E+00 0.0000000E+00          
 0.0000000E+00 0.0000000E+00 0.0000000E+00 0.0000000E+00 0.0000000E+00          
 0.0000000E+00 0.0000000E+00 0.0000000E+00 0.0000000E+00 0.0000000E+00          
 0.0000000E+00 0.0000000E+00 0.0000000E+00 0.0000000E+00 0.0000000E+00          
 0.0000000E+00 0.0000000E+00 0.0000000E+00 0.0000000E+00 0.0000000E+00          
 0.0000000E+00 0.0000000E+00 0.0000000E+00 0.0000000E+00 0.0000000E+00          
 0.0000000E+00 0.0000000E+00 0.0000000E+00 0.0000000E+00 0.0000000E+00          
 0.0000000E+00 0.0000000E+00 0.0000000E+00 0.0000000E+00 0.0000000E+00          
 0.0000000E+00 0.0000000E+00 0.0000000E+00 0.0000000E+00 0.0000000E+00          
 0.0000000E+00 0.0000000E+00 0.0000000E+00 0.0000000E+00 0.0000000E+00          
 0.0000000E+00 0.0000000E+00 0.0000000E+00 0.0000000E+00 0.0000000E+00          
 0.0000000E+00 0.0000000E+00 0.0000000E+00 0.0000000E+00 0.0000000E+00          
 0.0000000E+00 0.0000000E+00 0.0000000E+00 0.0000000E+00 0.0000000E+00          
 0.0000000E+00 0.0000000E+00 0.0000000E+00 0.0000000E+00 0.0000000E+00          
 0.0000000E+00 0.0000000E+00 0.0000000E+00 0.0000000E+00 0.0000000E+00          
