  1.000000     0.9241226     0.8490624     0.7777920     0.7083428              
 0.6418074     0.5775656     0.5182163     0.4642615     0.4129055              
 0.3667864     0.3239258     0.2858000     0.2515923     0.2210070              
 0.1937687     0.1701137     0.1487326     0.1306197     0.1154304              
 0.1013831     0.8968842E-01 0.7927352E-01 0.7024658E-01 0.6320816E-01          
 0.5740023E-01 0.5233055E-01 0.4789090E-01 0.4383522E-01 0.4003543E-01          
 0.3700352E-01 0.3425705E-01 0.3183544E-01 0.2960080E-01 0.2778953E-01          
 0.2603734E-01 0.2456069E-01 0.2324164E-01 0.2199143E-01 0.2093816E-01          
 0.1988482E-01 0.1894963E-01 0.1820153E-01 0.1756167E-01 0.1675445E-01          
 0.1597679E-01 0.1542550E-01 0.1489395E-01 0.1440173E-01 0.1388001E-01          
 0.1322043E-01 0.1275778E-01 0.1227546E-01 0.1183248E-01 0.1149774E-01          
 0.1124179E-01 0.1091695E-01 0.1065117E-01 0.1033616E-01 0.1004088E-01          
 0.9824276E-02 0.9647071E-02 0.9401023E-02 0.9223819E-02 0.8987546E-02          
 0.8800507E-02 0.8593798E-02 0.8337855E-02 0.8150816E-02 0.7934213E-02          
 0.7766902E-02 0.7629097E-02 0.7432222E-02 0.7225454E-02 0.7127047E-02          
 0.6999075E-02 0.6821871E-02 0.6624997E-02 0.6497025E-02 0.6378889E-02          
 0.6270587E-02 0.6142616E-02 0.6004810E-02 0.5876839E-02 0.5768597E-02          
 0.5630732E-02 0.5522490E-02 0.5443692E-02 0.5325615E-02 0.5217314E-02          
 0.5089343E-02 0.4961371E-02 0.4853070E-02 0.4784167E-02 0.4695594E-02          
 0.4616797E-02 0.4538059E-02 0.4439652E-02 0.4370749E-02 0.4282117E-02          
 0.4173815E-02 0.4085243E-02 0.4055738E-02 0.3967106E-02 0.3898203E-02          
 0.3848970E-02 0.3780067E-02 0.3671825E-02 0.3612757E-02 0.3563523E-02          
 0.3504455E-02 0.3455222E-02 0.3376484E-02 0.3337085E-02 0.3327250E-02          
 0.3278017E-02 0.3228843E-02 0.3150046E-02 0.3081143E-02 0.3022075E-02          
 0.2982736E-02 0.2903998E-02 0.2844930E-02 0.2795696E-02 0.2776027E-02          
 0.2707064E-02 0.2648056E-02 0.2628326E-02 0.2569258E-02 0.2529919E-02          
 0.2520084E-02 0.2490520E-02 0.2411783E-02 0.2362549E-02 0.2342880E-02          
 0.2323151E-02 0.2313316E-02 0.2254248E-02 0.2224743E-02 0.2195179E-02          
 0.2175510E-02 0.2146006E-02 0.2126276E-02 0.2116442E-02 0.2086937E-02          
 0.2018034E-02 0.2008200E-02 0.1998305E-02 0.1978636E-02 0.1968801E-02          
 0.1949131E-02 0.1899898E-02 0.1840830E-02 0.1840830E-02 0.1811266E-02          
 0.1801431E-02 0.1791596E-02 0.1771927E-02 0.1732528E-02 0.1703024E-02          
 0.1673460E-02 0.1653790E-02 0.1634121E-02 0.1634121E-02 0.1594722E-02          
 0.1565218E-02 0.1545489E-02 0.1545489E-02 0.1525819E-02 0.1476586E-02          
 0.1456916E-02 0.1437247E-02 0.1397848E-02 0.1378179E-02 0.1368284E-02          
 0.1348615E-02 0.1319110E-02 0.1299381E-02 0.1299381E-02 0.1269877E-02          
 0.1250207E-02 0.1230478E-02 0.1200974E-02 0.1191139E-02 0.1191139E-02          
 0.1171410E-02 0.1161575E-02 0.1151741E-02 0.1151741E-02 0.1132071E-02          
 0.1102507E-02 0.1092672E-02 0.1092672E-02 0.1063168E-02 0.1053333E-02          
 0.1033604E-02 0.9843707E-03 0.9745359E-03 0.9450316E-03 0.9351969E-03          
 0.9154677E-03 0.8859634E-03 0.8761287E-03 0.8465648E-03 0.8367300E-03          
 0.8367300E-03 0.8367300E-03 0.8367300E-03 0.8072257E-03 0.7973909E-03          
 0.7973909E-03 0.7973909E-03 0.7973909E-03 0.7776618E-03 0.7678270E-03          
 0.7678270E-03 0.7678270E-03 0.7383227E-03 0.7383227E-03 0.7383227E-03          
 0.7383227E-03 0.7087588E-03 0.6890893E-03 0.6890893E-03 0.6890893E-03          
 0.6792545E-03 0.6792545E-03 0.6694198E-03 0.6595254E-03 0.6398559E-03          
 0.6398559E-03 0.6398559E-03 0.6398559E-03 0.6103516E-03 0.6004572E-03          
 0.6004572E-03 0.6004572E-03 0.5906224E-03 0.5906224E-03 0.5906224E-03          
 0.5807877E-03 0.5807877E-03 0.5709529E-03 0.5512834E-03 0.5413890E-03          
 0.5118847E-03 0.5118847E-03 0.5020499E-03 0.5020499E-03 0.5020499E-03          
 0.5020499E-03 0.4922152E-03 0.4823804E-03 0.4823804E-03 0.4724860E-03          
 0.4528165E-03 0.4528165E-03 0.4528165E-03 0.4429817E-03 0.4331470E-03          
 0.4331470E-03 0.4331470E-03 0.4331470E-03 0.4331470E-03 0.4233122E-03          
 0.4233122E-03 0.4233122E-03 0.4233122E-03 0.4233122E-03 0.4233122E-03          
 0.4233122E-03 0.4233122E-03 0.4134178E-03 0.4134178E-03 0.4035830E-03          
 0.4035830E-03 0.4035830E-03 0.4035830E-03 0.4035830E-03 0.3937483E-03          
 0.3937483E-03 0.3937483E-03 0.3937483E-03 0.3937483E-03 0.3839135E-03          
 0.3839135E-03 0.3839135E-03 0.3642440E-03 0.3642440E-03 0.3544092E-03          
 0.3544092E-03 0.3544092E-03 0.3445148E-03 0.3445148E-03 0.3346801E-03          
 0.3346801E-03 0.3346801E-03 0.3248453E-03 0.3150105E-03 0.2854466E-03          
 0.2854466E-03 0.2854466E-03 0.2756119E-03 0.2657771E-03 0.2657771E-03          
 0.2657771E-03 0.2559423E-03 0.2461076E-03 0.2461076E-03 0.2461076E-03          
 0.2461076E-03 0.2461076E-03 0.2461076E-03 0.2362728E-03 0.2362728E-03          
 0.2067089E-03 0.1870394E-03 0.1772046E-03 0.1772046E-03 0.1673698E-03          
 0.1574755E-03 0.1574755E-03 0.1574755E-03 0.1574755E-03 0.1574755E-03          
 0.1574755E-03 0.1574755E-03 0.1574755E-03 0.1574755E-03 0.1574755E-03          
 0.1574755E-03 0.1574755E-03 0.1574755E-03 0.1476407E-03 0.1476407E-03          
 0.1476407E-03 0.1476407E-03 0.1476407E-03 0.1476407E-03 0.1476407E-03          
 0.1476407E-03 0.1476407E-03 0.1476407E-03 0.1476407E-03 0.1476407E-03          
 0.1378059E-03 0.1279712E-03 0.1279712E-03 0.1279712E-03 0.1279712E-03          
 0.1083016E-03 0.1083016E-03 0.9846687E-04 0.9846687E-04 0.8857250E-04          
 0.8857250E-04 0.8857250E-04 0.8857250E-04 0.8857250E-04 0.8857250E-04          
 0.8857250E-04 0.7873774E-04 0.7873774E-04 0.7873774E-04 0.7873774E-04          
 0.7873774E-04 0.6890297E-04 0.6890297E-04 0.6890297E-04 0.6890297E-04          
 0.6890297E-04 0.6890297E-04 0.6890297E-04 0.6890297E-04 0.6890297E-04          
 0.6890297E-04 0.6890297E-04 0.6890297E-04 0.6890297E-04 0.5906820E-04          
 0.5906820E-04 0.5906820E-04 0.5906820E-04 0.4923344E-04 0.4923344E-04          
 0.4923344E-04 0.4923344E-04 0.4923344E-04 0.4923344E-04 0.3939867E-04          
 0.3939867E-04 0.3939867E-04 0.3939867E-04 0.3939867E-04 0.3939867E-04          
 0.3939867E-04 0.3939867E-04 0.3939867E-04 0.3939867E-04 0.3939867E-04          
  1.000000     0.9317443     0.8667751     0.8010102     0.7384280              
 0.6762264     0.6179340     0.5609216     0.5062271     0.4596969              
 0.4165917     0.3742822     0.3374386     0.3048156     0.2740607              
 0.2466270     0.2226873     0.2011693     0.1824189     0.1658133              
 0.1505570     0.1376185     0.1260984     0.1161351     0.1074863              
 0.9994465E-01 0.9337163E-01 0.8790565E-01 0.8261263E-01 0.7790768E-01          
 0.7351416E-01 0.7008928E-01 0.6721789E-01 0.6431192E-01 0.6102538E-01          
 0.5825782E-01 0.5621672E-01 0.5400264E-01 0.5192691E-01 0.5012798E-01          
 0.4870963E-01 0.4746419E-01 0.4597664E-01 0.4435062E-01 0.4275930E-01          
 0.4141009E-01 0.4002631E-01 0.3891927E-01 0.3791600E-01 0.3698194E-01          
 0.3618628E-01 0.3532141E-01 0.3442192E-01 0.3317648E-01 0.3227705E-01          
 0.3134298E-01 0.3089327E-01 0.3016675E-01 0.2940565E-01 0.2874833E-01          
 0.2816021E-01 0.2753752E-01 0.2694941E-01 0.2632672E-01 0.2587700E-01          
 0.2556562E-01 0.2487373E-01 0.2456236E-01 0.2411264E-01 0.2355909E-01          
 0.2314401E-01 0.2262509E-01 0.2231371E-01 0.2179480E-01 0.2137965E-01          
 0.2079153E-01 0.2048016E-01 0.1985747E-01 0.1933855E-01 0.1920015E-01          
 0.1881963E-01 0.1847368E-01 0.1819694E-01 0.1785094E-01 0.1750499E-01          
 0.1712447E-01 0.1677853E-01 0.1660556E-01 0.1650178E-01 0.1629418E-01          
 0.1605201E-01 0.1570606E-01 0.1549852E-01 0.1518714E-01 0.1504880E-01          
 0.1466823E-01 0.1452988E-01 0.1421851E-01 0.1408011E-01 0.1373416E-01          
 0.1349199E-01 0.1331902E-01 0.1307684E-01 0.1276553E-01 0.1255792E-01          
 0.1228118E-01 0.1214284E-01 0.1196980E-01 0.1172769E-01 0.1148552E-01          
 0.1134712E-01 0.1103580E-01 0.1089740E-01 0.1079363E-01 0.1065522E-01          
 0.1024008E-01 0.9997904E-02 0.9790361E-02 0.9686589E-02 0.9651959E-02          
 0.9651959E-02 0.9375215E-02 0.9236813E-02 0.8960068E-02 0.8925498E-02          
 0.8821726E-02 0.8752525E-02 0.8614123E-02 0.8510351E-02 0.8337379E-02          
 0.8095205E-02 0.7956803E-02 0.7887661E-02 0.7783830E-02 0.7680058E-02          
 0.7576287E-02 0.7472515E-02 0.7334113E-02 0.7264912E-02 0.7126570E-02          
 0.7057369E-02 0.6953597E-02 0.6815195E-02 0.6573021E-02 0.6365478E-02          
 0.6330848E-02 0.6261647E-02 0.6157875E-02 0.6019533E-02 0.5881131E-02          
 0.5846560E-02 0.5777359E-02 0.5673587E-02 0.5604386E-02 0.5535185E-02          
 0.5500615E-02 0.5431414E-02 0.5431414E-02 0.5293012E-02 0.5223811E-02          
 0.5050838E-02 0.5016267E-02 0.4981637E-02 0.4912496E-02 0.4808664E-02          
 0.4774094E-02 0.4739523E-02 0.4670322E-02 0.4566550E-02 0.4462719E-02          
 0.4462719E-02 0.4358947E-02 0.4324377E-02 0.4289746E-02 0.4220605E-02          
 0.4185975E-02 0.4151404E-02 0.4047632E-02 0.4047632E-02 0.3909230E-02          
 0.3874600E-02 0.3840029E-02 0.3840029E-02 0.3840029E-02 0.3805459E-02          
 0.3770828E-02 0.3736258E-02 0.3667057E-02 0.3667057E-02 0.3563285E-02          
 0.3528655E-02 0.3528655E-02 0.3528655E-02 0.3528655E-02 0.3459513E-02          
 0.3390312E-02 0.3355682E-02 0.3321111E-02 0.3251910E-02 0.3217340E-02          
 0.3182709E-02 0.3113568E-02 0.3009737E-02 0.3009737E-02 0.2975166E-02          
 0.2940595E-02 0.2905965E-02 0.2802193E-02 0.2767563E-02 0.2732992E-02          
 0.2732992E-02 0.2663791E-02 0.2594590E-02 0.2560019E-02 0.2525449E-02          
 0.2525449E-02 0.2525449E-02 0.2525449E-02 0.2490819E-02 0.2387047E-02          
 0.2387047E-02 0.2352476E-02 0.2317846E-02 0.2248645E-02 0.2144873E-02          
 0.2075672E-02 0.2041101E-02 0.2041101E-02 0.2041101E-02 0.2006531E-02          
 0.2006531E-02 0.1971900E-02 0.1937330E-02 0.1937330E-02 0.1902699E-02          
 0.1868129E-02 0.1868129E-02 0.1833558E-02 0.1764357E-02 0.1764357E-02          
 0.1729727E-02 0.1729727E-02 0.1729727E-02 0.1695156E-02 0.1695156E-02          
 0.1695156E-02 0.1695156E-02 0.1695156E-02 0.1695156E-02 0.1695156E-02          
 0.1660526E-02 0.1660526E-02 0.1660526E-02 0.1625955E-02 0.1591384E-02          
 0.1522183E-02 0.1522183E-02 0.1522183E-02 0.1487553E-02 0.1383781E-02          
 0.1314580E-02 0.1314580E-02 0.1280010E-02 0.1280010E-02 0.1280010E-02          
 0.1280010E-02 0.1245439E-02 0.1107037E-02 0.1107037E-02 0.1107037E-02          
 0.1107037E-02 0.1037836E-02 0.1003265E-02 0.1003265E-02 0.9686351E-03          
 0.9686351E-03 0.9686351E-03 0.9340644E-03 0.9340644E-03 0.8994937E-03          
 0.8648634E-03 0.8648634E-03 0.8302927E-03 0.7956624E-03 0.7610917E-03          
 0.7610917E-03 0.7265210E-03 0.6918907E-03 0.6226897E-03 0.6226897E-03          
 0.5881190E-03 0.5881190E-03 0.5881190E-03 0.5881190E-03 0.5534887E-03          
 0.5534887E-03 0.5534887E-03 0.5534887E-03 0.5534887E-03 0.5534887E-03          
 0.5534887E-03 0.5534887E-03 0.5534887E-03 0.5534887E-03 0.5534887E-03          
 0.5534887E-03 0.5534887E-03 0.5534887E-03 0.5534887E-03 0.5534887E-03          
 0.5534887E-03 0.5534887E-03 0.5534887E-03 0.5534887E-03 0.5534887E-03          
 0.5534887E-03 0.5534887E-03 0.5189180E-03 0.4843473E-03 0.4843473E-03          
 0.4151464E-03 0.3805161E-03 0.3805161E-03 0.3805161E-03 0.3805161E-03          
 0.3805161E-03 0.3805161E-03 0.3805161E-03 0.3805161E-03 0.3805161E-03          
 0.3113747E-03 0.3113747E-03 0.3113747E-03 0.3113747E-03 0.3113747E-03          
 0.3113747E-03 0.3113747E-03 0.3113747E-03 0.3113747E-03 0.3113747E-03          
 0.3113747E-03 0.3113747E-03 0.3113747E-03 0.3113747E-03 0.2767444E-03          
 0.2767444E-03 0.2767444E-03 0.2767444E-03 0.2767444E-03 0.2767444E-03          
 0.2767444E-03 0.2767444E-03 0.2767444E-03 0.2767444E-03 0.2767444E-03          
 0.2421737E-03 0.2421737E-03 0.2421737E-03 0.2421737E-03 0.2421737E-03          
 0.2421737E-03 0.2421737E-03 0.2421737E-03 0.2421737E-03 0.2421737E-03          
 0.2421737E-03 0.2421737E-03 0.2421737E-03 0.2075434E-03 0.2075434E-03          
 0.2075434E-03 0.2075434E-03 0.2075434E-03 0.2075434E-03 0.1729727E-03          
 0.1729727E-03 0.1729727E-03 0.1729727E-03 0.1729727E-03 0.1729727E-03          
 0.1729727E-03 0.1729727E-03 0.1729727E-03 0.1729727E-03 0.1729727E-03          
 0.1729727E-03 0.1729727E-03 0.1729727E-03 0.1729727E-03 0.1729727E-03          
 0.1384020E-03 0.1384020E-03 0.1384020E-03 0.1384020E-03 0.1384020E-03          
 0.1384020E-03 0.1384020E-03 0.1384020E-03 0.1384020E-03 0.1384020E-03          
  1.000000     0.9470189     0.8973582     0.8488523     0.7954382              
 0.7486647     0.7037679     0.6593042     0.6223474     0.5822145              
 0.5419374     0.5023820     0.4724989     0.4388624     0.4101343              
 0.3803955     0.3529667     0.3278475     0.3060488     0.2880034              
 0.2660604     0.2454165     0.2262163     0.2081710     0.1956114              
 0.1842067     0.1741014     0.1616862     0.1531687     0.1456619              
 0.1393099     0.1341129     0.1280497     0.1224195     0.1156345              
 0.1098599     0.1039411     0.1010538     0.9556806E-01 0.9152591E-01          
 0.8762813E-01 0.8300853E-01 0.8041000E-01 0.7795584E-01 0.7521296E-01          
 0.7218134E-01 0.6900537E-01 0.6756169E-01 0.6582934E-01 0.6453007E-01          
 0.6294209E-01 0.6149846E-01 0.5991048E-01 0.5745631E-01 0.5630141E-01          
 0.5485779E-01 0.5326980E-01 0.5168182E-01 0.5052692E-01 0.4865021E-01          
 0.4778403E-01 0.4605168E-01 0.4475242E-01 0.4374188E-01 0.4229826E-01          
 0.4099900E-01 0.4013282E-01 0.3912228E-01 0.3868920E-01 0.3796738E-01          
 0.3666812E-01 0.3594631E-01 0.3508013E-01 0.3406960E-01 0.3320342E-01          
 0.3204852E-01 0.3089362E-01 0.3017181E-01 0.2945000E-01 0.2843946E-01          
 0.2771765E-01 0.2742893E-01 0.2612966E-01 0.2598530E-01 0.2497476E-01          
 0.2425295E-01 0.2410859E-01 0.2381986E-01 0.2353114E-01 0.2295369E-01          
 0.2266490E-01 0.2223182E-01 0.2136564E-01 0.2078819E-01 0.2006638E-01          
 0.1948893E-01 0.1905584E-01 0.1862276E-01 0.1818967E-01 0.1775658E-01          
 0.1746786E-01 0.1717913E-01 0.1674604E-01 0.1674604E-01 0.1645732E-01          
 0.1616859E-01 0.1587987E-01 0.1559114E-01 0.1544678E-01 0.1530242E-01          
 0.1530242E-01 0.1530242E-01 0.1472497E-01 0.1429188E-01 0.1429188E-01          
 0.1414752E-01 0.1400316E-01 0.1342571E-01 0.1313698E-01 0.1270390E-01          
 0.1212645E-01 0.1198208E-01 0.1154900E-01 0.1111591E-01 0.1097155E-01          
 0.1024973E-01 0.1010537E-01 0.1010537E-01 0.9961009E-02 0.9816647E-02          
 0.9383559E-02 0.9094834E-02 0.8950472E-02 0.8950472E-02 0.8806109E-02          
 0.8517385E-02 0.8517385E-02 0.8517385E-02 0.8373022E-02 0.8373022E-02          
 0.8373022E-02 0.8373022E-02 0.8084297E-02 0.8084297E-02 0.8084297E-02          
 0.7939935E-02 0.7795572E-02 0.7795572E-02 0.7651210E-02 0.7362485E-02          
 0.7362485E-02 0.7073760E-02 0.6929398E-02 0.6929398E-02 0.6207585E-02          
 0.6063223E-02 0.5630136E-02 0.5485773E-02 0.5485773E-02 0.5485773E-02          
 0.5485773E-02 0.5197048E-02 0.4763961E-02 0.4763961E-02 0.4763961E-02          
 0.4763961E-02 0.4763961E-02 0.4763961E-02 0.4763961E-02 0.4763961E-02          
 0.4763961E-02 0.4763961E-02 0.4763961E-02 0.4763961E-02 0.4619598E-02          
 0.4619598E-02 0.4475236E-02 0.4475236E-02 0.4475236E-02 0.4475236E-02          
 0.4475236E-02 0.4330873E-02 0.4330873E-02 0.4330873E-02 0.4186511E-02          
 0.4186511E-02 0.4186511E-02 0.4186511E-02 0.3897786E-02 0.3897786E-02          
 0.3464699E-02 0.3464699E-02 0.3320336E-02 0.3175974E-02 0.3175974E-02          
 0.3175974E-02 0.3031611E-02 0.3031611E-02 0.3031611E-02 0.2887249E-02          
 0.2887249E-02 0.2887249E-02 0.2887249E-02 0.2887249E-02 0.2887249E-02          
 0.2887249E-02 0.2887249E-02 0.2887249E-02 0.2887249E-02 0.2742887E-02          
 0.2742887E-02 0.2742887E-02 0.2742887E-02 0.2598524E-02 0.2454162E-02          
 0.2309799E-02 0.2309799E-02 0.2309799E-02 0.2165437E-02 0.2165437E-02          
 0.2165437E-02 0.2165437E-02 0.2165437E-02 0.2165437E-02 0.2165437E-02          
 0.2165437E-02 0.2165437E-02 0.2165437E-02 0.2165437E-02 0.2021074E-02          
 0.2021074E-02 0.1876712E-02 0.1876712E-02 0.1876712E-02 0.1876712E-02          
 0.1876712E-02 0.1876712E-02 0.1876712E-02 0.1876712E-02 0.1876712E-02          
 0.1876712E-02 0.1876712E-02 0.1876712E-02 0.1876712E-02 0.1876712E-02          
 0.1876712E-02 0.1876712E-02 0.1732349E-02 0.1732349E-02 0.1732349E-02          
 0.1732349E-02 0.1732349E-02 0.1732349E-02 0.1732349E-02 0.1587987E-02          
 0.1587987E-02 0.1587987E-02 0.1587987E-02 0.1587987E-02 0.1587987E-02          
 0.1587987E-02 0.1587987E-02 0.1587987E-02 0.1587987E-02 0.1587987E-02          
 0.1587987E-02 0.1587987E-02 0.1587987E-02 0.1587987E-02 0.1443624E-02          
 0.1299262E-02 0.1299262E-02 0.1299262E-02 0.1299262E-02 0.1299262E-02          
 0.1299262E-02 0.1299262E-02 0.1299262E-02 0.1299262E-02 0.1299262E-02          
 0.1299262E-02 0.1299262E-02 0.1154900E-02 0.1154900E-02 0.1154900E-02          
 0.1154900E-02 0.1154900E-02 0.1154900E-02 0.1154900E-02 0.1154900E-02          
 0.1154900E-02 0.1154900E-02 0.1154900E-02 0.1154900E-02 0.1154900E-02          
 0.1154900E-02 0.1154900E-02 0.1154900E-02 0.1154900E-02 0.1154900E-02          
 0.1154900E-02 0.1154900E-02 0.1154900E-02 0.1154900E-02 0.1154900E-02          
 0.1010537E-02 0.1010537E-02 0.1010537E-02 0.1010537E-02 0.1010537E-02          
 0.1010537E-02 0.1010537E-02 0.1010537E-02 0.1010537E-02 0.1010537E-02          
 0.1010537E-02 0.1010537E-02 0.1010537E-02 0.1010537E-02 0.1010537E-02          
 0.1010537E-02 0.1010537E-02 0.1010537E-02 0.1010537E-02 0.1010537E-02          
 0.1010537E-02 0.1010537E-02 0.1010537E-02 0.1010537E-02 0.1010537E-02          
 0.1010537E-02 0.1010537E-02 0.1010537E-02 0.1010537E-02 0.1010537E-02          
 0.8661747E-03 0.8661747E-03 0.8661747E-03 0.8661747E-03 0.8661747E-03          
 0.8661747E-03 0.7218122E-03 0.7218122E-03 0.7218122E-03 0.7218122E-03          
 0.7218122E-03 0.7218122E-03 0.7218122E-03 0.7218122E-03 0.7218122E-03          
 0.7218122E-03 0.7218122E-03 0.7218122E-03 0.7218122E-03 0.7218122E-03          
 0.7218122E-03 0.7218122E-03 0.5774498E-03 0.5774498E-03 0.5774498E-03          
 0.4330873E-03 0.4330873E-03 0.4330873E-03 0.4330873E-03 0.4330873E-03          
 0.4330873E-03 0.4330873E-03 0.4330873E-03 0.4330873E-03 0.4330873E-03          
 0.4330873E-03 0.4330873E-03 0.4330873E-03 0.4330873E-03 0.4330873E-03          
 0.4330873E-03 0.4330873E-03 0.4330873E-03 0.4330873E-03 0.4330873E-03          
 0.4330873E-03 0.4330873E-03 0.4330873E-03 0.4330873E-03 0.4330873E-03          
 0.2887249E-03 0.2887249E-03 0.2887249E-03 0.2887249E-03 0.2887249E-03          
 0.2887249E-03 0.2887249E-03 0.2887249E-03 0.2887249E-03 0.2887249E-03          
 0.2887249E-03 0.2887249E-03 0.2887249E-03 0.2887249E-03 0.2887249E-03          
  1.000000     0.9322264     0.8635368     0.7973958     0.7307769              
 0.6647952     0.6028352     0.5450165     0.4883128     0.4354318              
 0.3833473     0.3365588     0.2951061     0.2579142     0.2254211              
 0.1951181     0.1685581     0.1428742     0.1210130     0.1024171              
 0.8752441E-01 0.7295024E-01 0.6227851E-01 0.5092978E-01 0.4360294E-01          
 0.3687334E-01 0.3169674E-01 0.2795362E-01 0.2492732E-01 0.2265757E-01          
 0.2026838E-01 0.1799864E-01 0.1644564E-01 0.1533073E-01 0.1401663E-01          
 0.1314062E-01 0.1230437E-01 0.1154780E-01 0.1063192E-01 0.9915173E-02          
 0.9357691E-02 0.8840024E-02 0.8640945E-02 0.8123279E-02 0.7804751E-02          
 0.7525980E-02 0.7247269E-02 0.6968498E-02 0.6649971E-02 0.6411016E-02          
 0.6172121E-02 0.5933166E-02 0.5813718E-02 0.5654454E-02 0.5375683E-02          
 0.5296052E-02 0.5057156E-02 0.4897833E-02 0.4778385E-02 0.4698753E-02          
 0.4619122E-02 0.4499674E-02 0.4340410E-02 0.4181087E-02 0.4061639E-02          
 0.3942192E-02 0.3822744E-02 0.3782928E-02 0.3703237E-02 0.3504157E-02          
 0.3384709E-02 0.3344893E-02 0.3344893E-02 0.3305078E-02 0.3265262E-02          
 0.3105938E-02 0.3066123E-02 0.2906859E-02 0.2867043E-02 0.2787411E-02          
 0.2707779E-02 0.2548456E-02 0.2548456E-02 0.2429008E-02 0.2389193E-02          
 0.2349377E-02 0.2349377E-02 0.2349377E-02 0.2349377E-02 0.2309561E-02          
 0.2269745E-02 0.2150297E-02 0.2070665E-02 0.2030849E-02 0.1990974E-02          
 0.1990974E-02 0.1911342E-02 0.1911342E-02 0.1911342E-02 0.1911342E-02          
 0.1871526E-02 0.1831710E-02 0.1752079E-02 0.1672447E-02 0.1632631E-02          
 0.1592815E-02 0.1592815E-02 0.1513183E-02 0.1473367E-02 0.1473367E-02          
 0.1393676E-02 0.1393676E-02 0.1353860E-02 0.1314044E-02 0.1274228E-02          
 0.1234412E-02 0.1234412E-02 0.1234412E-02 0.1194596E-02 0.1194596E-02          
 0.1194596E-02 0.1154780E-02 0.1114964E-02 0.1075149E-02 0.1075149E-02          
 0.1075149E-02 0.1075149E-02 0.1035333E-02 0.9955168E-03 0.9955168E-03          
 0.9955168E-03 0.9955168E-03 0.9955168E-03 0.9955168E-03 0.9955168E-03          
 0.9955168E-03 0.9955168E-03 0.9955168E-03 0.9955168E-03 0.9955168E-03          
 0.9557009E-03 0.9158850E-03 0.9158850E-03 0.9158850E-03 0.9158850E-03          
 0.8361936E-03 0.8361936E-03 0.8361936E-03 0.7963777E-03 0.7565618E-03          
 0.7565618E-03 0.7565618E-03 0.7565618E-03 0.7565618E-03 0.6769300E-03          
 0.6769300E-03 0.6371140E-03 0.6371140E-03 0.6371140E-03 0.6371140E-03          
 0.6371140E-03 0.6371140E-03 0.5574822E-03 0.5176663E-03 0.5176663E-03          
 0.5176663E-03 0.5176663E-03 0.4778504E-03 0.4778504E-03 0.4778504E-03          
 0.4380345E-03 0.4380345E-03 0.4380345E-03 0.3982186E-03 0.3982186E-03          
 0.3982186E-03 0.3982186E-03 0.3982186E-03 0.3982186E-03 0.3982186E-03          
 0.3982186E-03 0.3584027E-03 0.3584027E-03 0.3584027E-03 0.3584027E-03          
 0.3584027E-03 0.3584027E-03 0.3584027E-03 0.3584027E-03 0.3584027E-03          
 0.3584027E-03 0.3584027E-03 0.3584027E-03 0.3584027E-03 0.3584027E-03          
 0.3584027E-03 0.3584027E-03 0.3584027E-03 0.3584027E-03 0.3584027E-03          
 0.3185868E-03 0.3185868E-03 0.3185868E-03 0.3185868E-03 0.2787113E-03          
 0.2787113E-03 0.2787113E-03 0.2787113E-03 0.2787113E-03 0.2787113E-03          
 0.2787113E-03 0.2787113E-03 0.2787113E-03 0.2787113E-03 0.2787113E-03          
 0.2787113E-03 0.2787113E-03 0.2787113E-03 0.2787113E-03 0.2787113E-03          
 0.2787113E-03 0.2787113E-03 0.2388954E-03 0.2388954E-03 0.2388954E-03          
 0.1990795E-03 0.1990795E-03 0.1990795E-03 0.1990795E-03 0.1990795E-03          
 0.1990795E-03 0.1990795E-03 0.1990795E-03 0.1990795E-03 0.1990795E-03          
 0.1990795E-03 0.1990795E-03 0.1990795E-03 0.1990795E-03 0.1990795E-03          
 0.1990795E-03 0.1990795E-03 0.1990795E-03 0.1990795E-03 0.1990795E-03          
 0.1990795E-03 0.1990795E-03 0.1990795E-03 0.1990795E-03 0.1990795E-03          
 0.1990795E-03 0.1592636E-03 0.1592636E-03 0.1592636E-03 0.1592636E-03          
 0.1592636E-03 0.1592636E-03 0.1592636E-03 0.1592636E-03 0.1592636E-03          
 0.1592636E-03 0.1592636E-03 0.1194477E-03 0.1194477E-03 0.1194477E-03          
 0.1194477E-03 0.1194477E-03 0.1194477E-03 0.1194477E-03 0.1194477E-03          
 0.1194477E-03 0.1194477E-03 0.1194477E-03 0.1194477E-03 0.1194477E-03          
 0.7963181E-04 0.7963181E-04 0.7963181E-04 0.7963181E-04 0.7963181E-04          
 0.7963181E-04 0.7963181E-04 0.7963181E-04 0.7963181E-04 0.7963181E-04          
 0.7963181E-04 0.7963181E-04 0.7963181E-04 0.7963181E-04 0.7963181E-04          
 0.7963181E-04 0.7963181E-04 0.7963181E-04 0.7963181E-04 0.7963181E-04          
 0.7963181E-04 0.7963181E-04 0.7963181E-04 0.7963181E-04 0.7963181E-04          
 0.7963181E-04 0.7963181E-04 0.7963181E-04 0.7963181E-04 0.7963181E-04          
 0.7963181E-04 0.7963181E-04 0.7963181E-04 0.7963181E-04 0.7963181E-04          
 0.7963181E-04 0.7963181E-04 0.7963181E-04 0.3981590E-04 0.3981590E-04          
 0.3981590E-04 0.3981590E-04 0.3981590E-04 0.3981590E-04 0.3981590E-04          
 0.3981590E-04 0.3981590E-04 0.3981590E-04 0.3981590E-04 0.3981590E-04          
 0.3981590E-04 0.3981590E-04 0.3981590E-04 0.3981590E-04 0.3981590E-04          
 0.3981590E-04 0.3981590E-04 0.3981590E-04 0.3981590E-04 0.3981590E-04          
 0.3981590E-04 0.3981590E-04 0.3981590E-04 0.3981590E-04 0.3981590E-04          
 0.3981590E-04 0.3981590E-04 0.3981590E-04 0.3981590E-04 0.3981590E-04          
 0.3981590E-04 0.3981590E-04 0.3981590E-04 0.3981590E-04 0.3981590E-04          
 0.3981590E-04 0.3981590E-04 0.3981590E-04 0.3981590E-04 0.3981590E-04          
 0.3981590E-04 0.3981590E-04 0.3981590E-04 0.3981590E-04 0.3981590E-04          
 0.3981590E-04 0.3981590E-04 0.0000000E+00 0.0000000E+00 0.0000000E+00          
 0.0000000E+00 0.0000000E+00 0.0000000E+00 0.0000000E+00 0.0000000E+00          
 0.0000000E+00 0.0000000E+00 0.0000000E+00 0.0000000E+00 0.0000000E+00          
 0.0000000E+00 0.0000000E+00 0.0000000E+00 0.0000000E+00 0.0000000E+00          
 0.0000000E+00 0.0000000E+00 0.0000000E+00 0.0000000E+00 0.0000000E+00          
 0.0000000E+00 0.0000000E+00 0.0000000E+00 0.0000000E+00 0.0000000E+00          
 0.0000000E+00 0.0000000E+00 0.0000000E+00 0.0000000E+00 0.0000000E+00          
 0.0000000E+00 0.0000000E+00 0.0000000E+00 0.0000000E+00 0.0000000E+00          
  1.000000     0.9246702     0.8501410     0.7764506     0.7047170              
 0.6359316     0.5705264     0.5091875     0.4515211     0.3978575              
 0.3486543     0.3043815     0.2642387     0.2283020     0.1963047              
 0.1665184     0.1407985     0.1188782     0.9953743E-01 0.8338630E-01          
 0.6985283E-01 0.5853051E-01 0.4977506E-01 0.4190916E-01 0.3574604E-01          
 0.3092992E-01 0.2674919E-01 0.2321649E-01 0.2026838E-01 0.1785398E-01          
 0.1596057E-01 0.1437211E-01 0.1303786E-01 0.1167816E-01 0.1069969E-01          
 0.9937227E-02 0.9136677E-02 0.8590221E-02 0.7929444E-02 0.7192433E-02          
 0.6760359E-02 0.6277502E-02 0.5781889E-02 0.5476892E-02 0.5121112E-02          
 0.4905105E-02 0.4638195E-02 0.4409492E-02 0.4244268E-02 0.4079103E-02          
 0.3964722E-02 0.3786802E-02 0.3647029E-02 0.3494561E-02 0.3329337E-02          
 0.3202260E-02 0.3126025E-02 0.3024399E-02 0.2948105E-02 0.2859175E-02          
 0.2744794E-02 0.2681255E-02 0.2643168E-02 0.2541482E-02 0.2465248E-02          
 0.2350867E-02 0.2261937E-02 0.2185702E-02 0.2109408E-02 0.2071321E-02          
 0.2033174E-02 0.1982391E-02 0.1918852E-02 0.1804471E-02 0.1766324E-02          
 0.1690090E-02 0.1664698E-02 0.1601160E-02 0.1537621E-02 0.1474082E-02          
 0.1423240E-02 0.1397848E-02 0.1334310E-02 0.1283467E-02 0.1207232E-02          
 0.1194477E-02 0.1181781E-02 0.1156390E-02 0.1130939E-02 0.1080155E-02          
 0.9911656E-03 0.9530783E-03 0.9403229E-03 0.9022355E-03 0.8513927E-03          
 0.8386970E-03 0.8133054E-03 0.7878542E-03 0.7751584E-03 0.7497668E-03          
 0.6989241E-03 0.6862283E-03 0.6862283E-03 0.6862283E-03 0.6734729E-03          
 0.6734729E-03 0.6607771E-03 0.6480813E-03 0.6226897E-03 0.6226897E-03          
 0.6226897E-03 0.6226897E-03 0.5972385E-03 0.5845428E-03 0.5845428E-03          
 0.5845428E-03 0.5845428E-03 0.5718470E-03 0.5591512E-03 0.5337000E-03          
 0.5337000E-03 0.5210042E-03 0.4956126E-03 0.4956126E-03 0.4701614E-03          
 0.4320741E-03 0.4320741E-03 0.4320741E-03 0.4320741E-03 0.4193187E-03          
 0.4066229E-03 0.4066229E-03 0.3812313E-03 0.3430843E-03 0.3430843E-03          
 0.3430843E-03 0.3303885E-03 0.3049970E-03 0.2922416E-03 0.2922416E-03          
 0.2922416E-03 0.2922416E-03 0.2922416E-03 0.2795458E-03 0.2795458E-03          
 0.2541542E-03 0.2541542E-03 0.2541542E-03 0.2541542E-03 0.2287626E-03          
 0.2160072E-03 0.2160072E-03 0.2160072E-03 0.2160072E-03 0.2033114E-03          
 0.1906157E-03 0.1779199E-03 0.1652241E-03 0.1652241E-03 0.1524687E-03          
 0.1397729E-03 0.1397729E-03 0.1397729E-03 0.1397729E-03 0.1397729E-03          
 0.1397729E-03 0.1397729E-03 0.1397729E-03 0.1397729E-03 0.1270771E-03          
 0.1143813E-03 0.1143813E-03 0.1016855E-03 0.1016855E-03 0.1016855E-03          
 0.1016855E-03 0.1016855E-03 0.8893013E-04 0.8893013E-04 0.8893013E-04          
 0.8893013E-04 0.7623434E-04 0.7623434E-04 0.6353855E-04 0.5084276E-04          
 0.5084276E-04 0.5084276E-04 0.5084276E-04 0.5084276E-04 0.5084276E-04          
 0.5084276E-04 0.5084276E-04 0.5084276E-04 0.5084276E-04 0.5084276E-04          
 0.5084276E-04 0.5084276E-04 0.5084276E-04 0.5084276E-04 0.5084276E-04          
 0.5084276E-04 0.5084276E-04 0.5084276E-04 0.3814697E-04 0.3814697E-04          
 0.3814697E-04 0.3814697E-04 0.3814697E-04 0.3814697E-04 0.3814697E-04          
 0.3814697E-04 0.3814697E-04 0.3814697E-04 0.3814697E-04 0.3814697E-04          
 0.3814697E-04 0.3814697E-04 0.3814697E-04 0.3814697E-04 0.3814697E-04          
 0.3814697E-04 0.2539158E-04 0.2539158E-04 0.2539158E-04 0.2539158E-04          
 0.2539158E-04 0.2539158E-04 0.2539158E-04 0.2539158E-04 0.2539158E-04          
 0.2539158E-04 0.2539158E-04 0.2539158E-04 0.2539158E-04 0.2539158E-04          
 0.2539158E-04 0.2539158E-04 0.2539158E-04 0.2539158E-04 0.2539158E-04          
 0.2539158E-04 0.2539158E-04 0.2539158E-04 0.2539158E-04 0.2539158E-04          
 0.2539158E-04 0.2539158E-04 0.2539158E-04 0.2539158E-04 0.2539158E-04          
 0.2539158E-04 0.2539158E-04 0.2539158E-04 0.2539158E-04 0.2539158E-04          
 0.1269579E-04 0.1269579E-04 0.0000000E+00 0.0000000E+00 0.0000000E+00          
 0.0000000E+00 0.0000000E+00 0.0000000E+00 0.0000000E+00 0.0000000E+00          
 0.0000000E+00 0.0000000E+00 0.0000000E+00 0.0000000E+00 0.0000000E+00          
 0.0000000E+00 0.0000000E+00 0.0000000E+00 0.0000000E+00 0.0000000E+00          
 0.0000000E+00 0.0000000E+00 0.0000000E+00 0.0000000E+00 0.0000000E+00          
 0.0000000E+00 0.0000000E+00 0.0000000E+00 0.0000000E+00 0.0000000E+00          
 0.0000000E+00 0.0000000E+00 0.0000000E+00 0.0000000E+00 0.0000000E+00          
 0.0000000E+00 0.0000000E+00 0.0000000E+00 0.0000000E+00 0.0000000E+00          
 0.0000000E+00 0.0000000E+00 0.0000000E+00 0.0000000E+00 0.0000000E+00          
 0.0000000E+00 0.0000000E+00 0.0000000E+00 0.0000000E+00 0.0000000E+00          
 0.0000000E+00 0.0000000E+00 0.0000000E+00 0.0000000E+00 0.0000000E+00          
 0.0000000E+00 0.0000000E+00 0.0000000E+00 0.0000000E+00 0.0000000E+00          
 0.0000000E+00 0.0000000E+00 0.0000000E+00 0.0000000E+00 0.0000000E+00          
 0.0000000E+00 0.0000000E+00 0.0000000E+00 0.0000000E+00 0.0000000E+00          
 0.0000000E+00 0.0000000E+00 0.0000000E+00 0.0000000E+00 0.0000000E+00          
 0.0000000E+00 0.0000000E+00 0.0000000E+00 0.0000000E+00 0.0000000E+00          
 0.0000000E+00 0.0000000E+00 0.0000000E+00 0.0000000E+00 0.0000000E+00          
 0.0000000E+00 0.0000000E+00 0.0000000E+00 0.0000000E+00 0.0000000E+00          
 0.0000000E+00 0.0000000E+00 0.0000000E+00 0.0000000E+00 0.0000000E+00          
 0.0000000E+00 0.0000000E+00 0.0000000E+00 0.0000000E+00 0.0000000E+00          
 0.0000000E+00 0.0000000E+00 0.0000000E+00 0.0000000E+00 0.0000000E+00          
 0.0000000E+00 0.0000000E+00 0.0000000E+00 0.0000000E+00 0.0000000E+00          
 0.0000000E+00 0.0000000E+00 0.0000000E+00 0.0000000E+00 0.0000000E+00          
 0.0000000E+00 0.0000000E+00 0.0000000E+00 0.0000000E+00 0.0000000E+00          
 0.0000000E+00 0.0000000E+00 0.0000000E+00 0.0000000E+00 0.0000000E+00          
 0.0000000E+00 0.0000000E+00 0.0000000E+00 0.0000000E+00 0.0000000E+00          
 0.0000000E+00 0.0000000E+00 0.0000000E+00 0.0000000E+00 0.0000000E+00          
 0.0000000E+00 0.0000000E+00 0.0000000E+00 0.0000000E+00 0.0000000E+00          
 0.0000000E+00 0.0000000E+00 0.0000000E+00 0.0000000E+00 0.0000000E+00          
  1.000000     0.9252434     0.8527903     0.7833735     0.7158413              
 0.6507172     0.5853838     0.5228772     0.4657104     0.4139881              
 0.3639410     0.3216417     0.2807036     0.2438488     0.2116009              
 0.1809235     0.1565281     0.1352738     0.1139148     0.9454507E-01          
 0.7768822E-01 0.6512409E-01 0.5350226E-01 0.4324156E-01 0.3497016E-01          
 0.2963042E-01 0.2408123E-01 0.1947439E-01 0.1696157E-01 0.1423937E-01          
 0.1256412E-01 0.1120299E-01 0.9423077E-02 0.8376062E-02 0.7538497E-02          
 0.6177366E-02 0.5653858E-02 0.5235076E-02 0.4397452E-02 0.4188061E-02          
 0.3350437E-02 0.2931654E-02 0.2722204E-02 0.2512813E-02 0.2303421E-02          
 0.2094030E-02 0.2094030E-02 0.2094030E-02 0.1779914E-02 0.1779914E-02          
 0.1675189E-02 0.1151741E-02 0.1151741E-02 0.1151741E-02 0.9422898E-03          
 0.8376241E-03 0.6282330E-03 0.5235076E-03 0.5235076E-03 0.5235076E-03          
 0.5235076E-03 0.5235076E-03 0.5235076E-03 0.4187822E-03 0.3141165E-03          
 0.3141165E-03 0.3141165E-03 0.3141165E-03 0.3141165E-03 0.2093911E-03          
 0.2093911E-03 0.2093911E-03 0.2093911E-03 0.2093911E-03 0.2093911E-03          
 0.2093911E-03 0.2093911E-03 0.2093911E-03 0.2093911E-03 0.1047254E-03          
 0.1047254E-03 0.1047254E-03 0.1047254E-03 0.0000000E+00 0.0000000E+00          
 0.0000000E+00 0.0000000E+00 0.0000000E+00 0.0000000E+00 0.0000000E+00          
 0.0000000E+00 0.0000000E+00 0.0000000E+00 0.0000000E+00 0.0000000E+00          
 0.0000000E+00 0.0000000E+00 0.0000000E+00 0.0000000E+00 0.0000000E+00          
 0.0000000E+00 0.0000000E+00 0.0000000E+00 0.0000000E+00 0.0000000E+00          
 0.0000000E+00 0.0000000E+00 0.0000000E+00 0.0000000E+00 0.0000000E+00          
 0.0000000E+00 0.0000000E+00 0.0000000E+00 0.0000000E+00 0.0000000E+00          
 0.0000000E+00 0.0000000E+00 0.0000000E+00 0.0000000E+00 0.0000000E+00          
 0.0000000E+00 0.0000000E+00 0.0000000E+00 0.0000000E+00 0.0000000E+00          
 0.0000000E+00 0.0000000E+00 0.0000000E+00 0.0000000E+00 0.0000000E+00          
 0.0000000E+00 0.0000000E+00 0.0000000E+00 0.0000000E+00 0.0000000E+00          
 0.0000000E+00 0.0000000E+00 0.0000000E+00 0.0000000E+00 0.0000000E+00          
 0.0000000E+00 0.0000000E+00 0.0000000E+00 0.0000000E+00 0.0000000E+00          
 0.0000000E+00 0.0000000E+00 0.0000000E+00 0.0000000E+00 0.0000000E+00          
 0.0000000E+00 0.0000000E+00 0.0000000E+00 0.0000000E+00 0.0000000E+00          
 0.0000000E+00 0.0000000E+00 0.0000000E+00 0.0000000E+00 0.0000000E+00          
 0.0000000E+00 0.0000000E+00 0.0000000E+00 0.0000000E+00 0.0000000E+00          
 0.0000000E+00 0.0000000E+00 0.0000000E+00 0.0000000E+00 0.0000000E+00          
 0.0000000E+00 0.0000000E+00 0.0000000E+00 0.0000000E+00 0.0000000E+00          
 0.0000000E+00 0.0000000E+00 0.0000000E+00 0.0000000E+00 0.0000000E+00          
 0.0000000E+00 0.0000000E+00 0.0000000E+00 0.0000000E+00 0.0000000E+00          
 0.0000000E+00 0.0000000E+00 0.0000000E+00 0.0000000E+00 0.0000000E+00          
 0.0000000E+00 0.0000000E+00 0.0000000E+00 0.0000000E+00 0.0000000E+00          
 0.0000000E+00 0.0000000E+00 0.0000000E+00 0.0000000E+00 0.0000000E+00          
 0.0000000E+00 0.0000000E+00 0.0000000E+00 0.0000000E+00 0.0000000E+00          
 0.0000000E+00 0.0000000E+00 0.0000000E+00 0.0000000E+00 0.0000000E+00          
 0.0000000E+00 0.0000000E+00 0.0000000E+00 0.0000000E+00 0.0000000E+00          
 0.0000000E+00 0.0000000E+00 0.0000000E+00 0.0000000E+00 0.0000000E+00          
 0.0000000E+00 0.0000000E+00 0.0000000E+00 0.0000000E+00 0.0000000E+00          
 0.0000000E+00 0.0000000E+00 0.0000000E+00 0.0000000E+00 0.0000000E+00          
 0.0000000E+00 0.0000000E+00 0.0000000E+00 0.0000000E+00 0.0000000E+00          
 0.0000000E+00 0.0000000E+00 0.0000000E+00 0.0000000E+00 0.0000000E+00          
 0.0000000E+00 0.0000000E+00 0.0000000E+00 0.0000000E+00 0.0000000E+00          
 0.0000000E+00 0.0000000E+00 0.0000000E+00 0.0000000E+00 0.0000000E+00          
 0.0000000E+00 0.0000000E+00 0.0000000E+00 0.0000000E+00 0.0000000E+00          
 0.0000000E+00 0.0000000E+00 0.0000000E+00 0.0000000E+00 0.0000000E+00          
 0.0000000E+00 0.0000000E+00 0.0000000E+00 0.0000000E+00 0.0000000E+00          
 0.0000000E+00 0.0000000E+00 0.0000000E+00 0.0000000E+00 0.0000000E+00          
 0.0000000E+00 0.0000000E+00 0.0000000E+00 0.0000000E+00 0.0000000E+00          
 0.0000000E+00 0.0000000E+00 0.0000000E+00 0.0000000E+00 0.0000000E+00          
 0.0000000E+00 0.0000000E+00 0.0000000E+00 0.0000000E+00 0.0000000E+00          
 0.0000000E+00 0.0000000E+00 0.0000000E+00 0.0000000E+00 0.0000000E+00          
 0.0000000E+00 0.0000000E+00 0.0000000E+00 0.0000000E+00 0.0000000E+00          
 0.0000000E+00 0.0000000E+00 0.0000000E+00 0.0000000E+00 0.0000000E+00          
 0.0000000E+00 0.0000000E+00 0.0000000E+00 0.0000000E+00 0.0000000E+00          
 0.0000000E+00 0.0000000E+00 0.0000000E+00 0.0000000E+00 0.0000000E+00          
 0.0000000E+00 0.0000000E+00 0.0000000E+00 0.0000000E+00 0.0000000E+00          
 0.0000000E+00 0.0000000E+00 0.0000000E+00 0.0000000E+00 0.0000000E+00          
 0.0000000E+00 0.0000000E+00 0.0000000E+00 0.0000000E+00 0.0000000E+00          
 0.0000000E+00 0.0000000E+00 0.0000000E+00 0.0000000E+00 0.0000000E+00          
 0.0000000E+00 0.0000000E+00 0.0000000E+00 0.0000000E+00 0.0000000E+00          
 0.0000000E+00 0.0000000E+00 0.0000000E+00 0.0000000E+00 0.0000000E+00          
 0.0000000E+00 0.0000000E+00 0.0000000E+00 0.0000000E+00 0.0000000E+00          
 0.0000000E+00 0.0000000E+00 0.0000000E+00 0.0000000E+00 0.0000000E+00          
 0.0000000E+00 0.0000000E+00 0.0000000E+00 0.0000000E+00 0.0000000E+00          
 0.0000000E+00 0.0000000E+00 0.0000000E+00 0.0000000E+00 0.0000000E+00          
 0.0000000E+00 0.0000000E+00 0.0000000E+00 0.0000000E+00 0.0000000E+00          
 0.0000000E+00 0.0000000E+00 0.0000000E+00 0.0000000E+00 0.0000000E+00          
 0.0000000E+00 0.0000000E+00 0.0000000E+00 0.0000000E+00 0.0000000E+00          
 0.0000000E+00 0.0000000E+00 0.0000000E+00 0.0000000E+00 0.0000000E+00          
 0.0000000E+00 0.0000000E+00 0.0000000E+00 0.0000000E+00 0.0000000E+00          
 0.0000000E+00 0.0000000E+00 0.0000000E+00 0.0000000E+00 0.0000000E+00          
 0.0000000E+00 0.0000000E+00 0.0000000E+00 0.0000000E+00 0.0000000E+00          
 0.0000000E+00 0.0000000E+00 0.0000000E+00 0.0000000E+00 0.0000000E+00          
