  1.000000     0.9255621     0.8524847     0.7799319     0.7107710              
 0.6447945     0.5819231     0.5225229     0.4672954     0.4167165              
 0.3711582     0.3280280     0.2907175     0.2563232     0.2260099              
 0.1988385     0.1752114     0.1541648     0.1358024     0.1201669              
 0.1059712     0.9401423E-01 0.8317369E-01 0.7455987E-01 0.6660485E-01          
 0.5987602E-01 0.5430019E-01 0.4960895E-01 0.4535085E-01 0.4139161E-01          
 0.3808516E-01 0.3512037E-01 0.3272897E-01 0.3057551E-01 0.2849525E-01          
 0.2671391E-01 0.2510953E-01 0.2373081E-01 0.2259004E-01 0.2135772E-01          
 0.2022302E-01 0.1913714E-01 0.1827091E-01 0.1747173E-01 0.1658714E-01          
 0.1577580E-01 0.1520842E-01 0.1466548E-01 0.1406765E-01 0.1356745E-01          
 0.1312822E-01 0.1262188E-01 0.1211554E-01 0.1167631E-01 0.1134688E-01          
 0.1096255E-01 0.1059037E-01 0.1030368E-01 0.1001698E-01 0.9693623E-02          
 0.9376407E-02 0.9126306E-02 0.8839548E-02 0.8546770E-02 0.8327127E-02          
 0.8107543E-02 0.7906199E-02 0.7662177E-02 0.7460892E-02 0.7259548E-02          
 0.7046044E-02 0.6850839E-02 0.6655633E-02 0.6521404E-02 0.6362796E-02          
 0.6198049E-02 0.5990624E-02 0.5874753E-02 0.5758822E-02 0.5618513E-02          
 0.5508721E-02 0.5386710E-02 0.5246401E-02 0.5008459E-02 0.4898667E-02          
 0.4794955E-02 0.4624128E-02 0.4508257E-02 0.4386246E-02 0.4306912E-02          
 0.4197121E-02 0.4105628E-02 0.4038513E-02 0.3977478E-02 0.3922582E-02          
 0.3794491E-02 0.3702998E-02 0.3617585E-02 0.3556550E-02 0.3513873E-02          
 0.3428459E-02 0.3361344E-02 0.3269851E-02 0.3178358E-02 0.3117323E-02          
 0.3038049E-02 0.2977014E-02 0.2928197E-02 0.2842844E-02 0.2794027E-02          
 0.2757430E-02 0.2702534E-02 0.2659798E-02 0.2617121E-02 0.2586603E-02          
 0.2531707E-02 0.2470672E-02 0.2421856E-02 0.2373099E-02 0.2330363E-02          
 0.2299845E-02 0.2244949E-02 0.2214491E-02 0.2165675E-02 0.2141237E-02          
 0.2116859E-02 0.2086341E-02 0.2055883E-02 0.2049744E-02 0.2031446E-02          
 0.2019227E-02 0.1982629E-02 0.1958251E-02 0.1915574E-02 0.1897216E-02          
 0.1885056E-02 0.1830161E-02 0.1811862E-02 0.1799643E-02 0.1763046E-02          
 0.1750827E-02 0.1738608E-02 0.1720309E-02 0.1702011E-02 0.1689851E-02          
 0.1653254E-02 0.1610518E-02 0.1592219E-02 0.1561701E-02 0.1531243E-02          
 0.1506805E-02 0.1494586E-02 0.1482427E-02 0.1476288E-02 0.1451910E-02          
 0.1445830E-02 0.1421392E-02 0.1409233E-02 0.1409233E-02 0.1403093E-02          
 0.1366496E-02 0.1360416E-02 0.1354277E-02 0.1335979E-02 0.1311600E-02          
 0.1281083E-02 0.1262784E-02 0.1244485E-02 0.1220107E-02 0.1201808E-02          
 0.1183510E-02 0.1165211E-02 0.1122475E-02 0.1098096E-02 0.1073658E-02          
 0.1061499E-02 0.1043200E-02 0.1037061E-02 0.1037061E-02 0.1030982E-02          
 0.1000464E-02 0.9455681E-03 0.9333491E-03 0.9150505E-03 0.8967519E-03          
 0.8906722E-03 0.8784533E-03 0.8662939E-03 0.8662939E-03 0.8662939E-03          
 0.8601546E-03 0.8418560E-03 0.8296371E-03 0.8174777E-03 0.7991791E-03          
 0.7808805E-03 0.7686615E-03 0.7625818E-03 0.7442832E-03 0.7442832E-03          
 0.7076263E-03 0.6832480E-03 0.6527305E-03 0.6466508E-03 0.6344318E-03          
 0.6222725E-03 0.6161332E-03 0.6161332E-03 0.6039739E-03 0.5917549E-03          
 0.5856156E-03 0.5673170E-03 0.5551577E-03 0.5490184E-03 0.5429387E-03          
 0.5307198E-03 0.5307198E-03 0.5307198E-03 0.5185604E-03 0.5124211E-03          
 0.5063415E-03 0.5063415E-03 0.4941225E-03 0.4880428E-03 0.4758239E-03          
 0.4697442E-03 0.4636645E-03 0.4575253E-03 0.4575253E-03 0.4514456E-03          
 0.4514456E-03 0.4514456E-03 0.4514456E-03 0.4453063E-03 0.4453063E-03          
 0.4331470E-03 0.4331470E-03 0.4331470E-03 0.4331470E-03 0.4148483E-03          
 0.4087090E-03 0.4026294E-03 0.4026294E-03 0.3904104E-03 0.3904104E-03          
 0.3782511E-03 0.3721118E-03 0.3660321E-03 0.3660321E-03 0.3660321E-03          
 0.3660321E-03 0.3660321E-03 0.3660321E-03 0.3538132E-03 0.3538132E-03          
 0.3538132E-03 0.3538132E-03 0.3477335E-03 0.3477335E-03 0.3477335E-03          
 0.3416538E-03 0.3355145E-03 0.3355145E-03 0.3355145E-03 0.3355145E-03          
 0.3355145E-03 0.3355145E-03 0.3232956E-03 0.3232956E-03 0.3111362E-03          
 0.3049970E-03 0.3049970E-03 0.3049970E-03 0.2866983E-03 0.2866983E-03          
 0.2806187E-03 0.2806187E-03 0.2806187E-03 0.2683997E-03 0.2683997E-03          
 0.2683997E-03 0.2501011E-03 0.2501011E-03 0.2501011E-03 0.2501011E-03          
 0.2501011E-03 0.2501011E-03 0.2440214E-03 0.2318025E-03 0.2318025E-03          
 0.2318025E-03 0.2318025E-03 0.2318025E-03 0.2318025E-03 0.2318025E-03          
 0.2196431E-03 0.2196431E-03 0.2196431E-03 0.2196431E-03 0.2196431E-03          
 0.2074242E-03 0.2013445E-03 0.1952052E-03 0.1952052E-03 0.1891255E-03          
 0.1829863E-03 0.1829863E-03 0.1829863E-03 0.1769066E-03 0.1708269E-03          
 0.1708269E-03 0.1708269E-03 0.1708269E-03 0.1646876E-03 0.1586080E-03          
 0.1525283E-03 0.1525283E-03 0.1463890E-03 0.1463890E-03 0.1403093E-03          
 0.1342297E-03 0.1342297E-03 0.1342297E-03 0.1342297E-03 0.1280904E-03          
 0.1280904E-03 0.1280904E-03 0.1280904E-03 0.1280904E-03 0.1280904E-03          
 0.1280904E-03 0.1159310E-03 0.1159310E-03 0.1159310E-03 0.1159310E-03          
 0.1159310E-03 0.1159310E-03 0.1097918E-03 0.1097918E-03 0.1097918E-03          
 0.1097918E-03 0.1037121E-03 0.1037121E-03 0.9763241E-04 0.9763241E-04          
 0.9763241E-04 0.9763241E-04 0.9149313E-04 0.9149313E-04 0.9149313E-04          
 0.9149313E-04 0.9149313E-04 0.8541346E-04 0.8541346E-04 0.8541346E-04          
 0.8541346E-04 0.8541346E-04 0.8541346E-04 0.8541346E-04 0.8541346E-04          
 0.8541346E-04 0.8541346E-04 0.8541346E-04 0.7933378E-04 0.7319450E-04          
 0.7319450E-04 0.7319450E-04 0.6711483E-04 0.6711483E-04 0.6711483E-04          
 0.6711483E-04 0.6711483E-04 0.6711483E-04 0.6097555E-04 0.6097555E-04          
 0.6097555E-04 0.6097555E-04 0.6097555E-04 0.6097555E-04 0.6097555E-04          
 0.6097555E-04 0.6097555E-04 0.6097555E-04 0.5489588E-04 0.5489588E-04          
 0.4881620E-04 0.4881620E-04 0.4881620E-04 0.4881620E-04 0.4881620E-04          
 0.4267693E-04 0.4267693E-04 0.4267693E-04 0.3659725E-04 0.3659725E-04          
 0.3659725E-04 0.3659725E-04 0.3051758E-04 0.3051758E-04 0.3051758E-04          
  1.000000     0.9303088     0.8624611     0.7959540     0.7321044              
 0.6708164     0.6114197     0.5559971     0.5052669     0.4576251              
 0.4137658     0.3747187     0.3378262     0.3032320     0.2724444              
 0.2460139     0.2220254     0.2009816     0.1807996     0.1642088              
 0.1491022     0.1361982     0.1241800     0.1154417     0.1068231              
 0.9901845E-01 0.9276992E-01 0.8683264E-01 0.8190089E-01 0.7699305E-01          
 0.7299495E-01 0.6937993E-01 0.6669861E-01 0.6389755E-01 0.6126404E-01          
 0.5855876E-01 0.5628443E-01 0.5420160E-01 0.5197513E-01 0.5013168E-01          
 0.4852766E-01 0.4711515E-01 0.4560691E-01 0.4395497E-01 0.4268616E-01          
 0.4177642E-01 0.4062724E-01 0.3943020E-01 0.3840077E-01 0.3749102E-01          
 0.3648549E-01 0.3550392E-01 0.3452241E-01 0.3370839E-01 0.3277475E-01          
 0.3208041E-01 0.3109890E-01 0.3026098E-01 0.2939910E-01 0.2844149E-01          
 0.2789080E-01 0.2738810E-01 0.2695715E-01 0.2645439E-01 0.2595162E-01          
 0.2559251E-01 0.2497005E-01 0.2441943E-01 0.2389276E-01 0.2339000E-01          
 0.2276754E-01 0.2228874E-01 0.2185780E-01 0.2142686E-01 0.2104384E-01          
 0.2070862E-01 0.2042133E-01 0.1996648E-01 0.1936799E-01 0.1884127E-01          
 0.1821882E-01 0.1790756E-01 0.1745272E-01 0.1716542E-01 0.1692605E-01          
 0.1666266E-01 0.1637536E-01 0.1615995E-01 0.1587266E-01 0.1560926E-01          
 0.1534593E-01 0.1503474E-01 0.1469952E-01 0.1438832E-01 0.1412499E-01          
 0.1374191E-01 0.1352644E-01 0.1314342E-01 0.1283216E-01 0.1256883E-01          
 0.1230550E-01 0.1204216E-01 0.1182669E-01 0.1168305E-01 0.1153940E-01          
 0.1137179E-01 0.1113242E-01 0.1101267E-01 0.1084512E-01 0.1065356E-01          
 0.1046205E-01 0.1029450E-01 0.1019871E-01 0.9983242E-02 0.9839594E-02          
 0.9600163E-02 0.9408653E-02 0.9312928E-02 0.9193182E-02 0.9073496E-02          
 0.8929849E-02 0.8858025E-02 0.8762240E-02 0.8618653E-02 0.8498907E-02          
 0.8331358E-02 0.8283436E-02 0.8067966E-02 0.7828593E-02 0.7637084E-02          
 0.7493436E-02 0.7397652E-02 0.7349789E-02 0.7182181E-02 0.7062495E-02          
 0.7038534E-02 0.6990671E-02 0.6942809E-02 0.6870985E-02 0.6823063E-02          
 0.6655514E-02 0.6559730E-02 0.6487906E-02 0.6463945E-02 0.6392121E-02          
 0.6272435E-02 0.6128788E-02 0.6033063E-02 0.5913317E-02 0.5841494E-02          
 0.5817592E-02 0.5673945E-02 0.5554199E-02 0.5362689E-02 0.5314827E-02          
 0.5266964E-02 0.5219042E-02 0.5171180E-02 0.5147219E-02 0.5051494E-02          
 0.5003572E-02 0.4955709E-02 0.4883885E-02 0.4859924E-02 0.4764199E-02          
 0.4716277E-02 0.4620552E-02 0.4572690E-02 0.4500866E-02 0.4500866E-02          
 0.4405081E-02 0.4333258E-02 0.4285395E-02 0.4189610E-02 0.4117787E-02          
 0.4045963E-02 0.3998101E-02 0.3878355E-02 0.3830492E-02 0.3830492E-02          
 0.3758669E-02 0.3758669E-02 0.3710806E-02 0.3615022E-02 0.3591120E-02          
 0.3519297E-02 0.3423512E-02 0.3375649E-02 0.3327727E-02 0.3303826E-02          
 0.3279865E-02 0.3232002E-02 0.3160179E-02 0.3112257E-02 0.3064394E-02          
 0.3016531E-02 0.2968609E-02 0.2920747E-02 0.2896845E-02 0.2848923E-02          
 0.2825022E-02 0.2825022E-02 0.2801061E-02 0.2753198E-02 0.2753198E-02          
 0.2753198E-02 0.2705276E-02 0.2633452E-02 0.2585590E-02 0.2561629E-02          
 0.2489805E-02 0.2394080E-02 0.2394080E-02 0.2346158E-02 0.2346158E-02          
 0.2274334E-02 0.2250433E-02 0.2250433E-02 0.2226472E-02 0.2178609E-02          
 0.2130687E-02 0.2130687E-02 0.2130687E-02 0.2106786E-02 0.2106786E-02          
 0.2058923E-02 0.1987100E-02 0.1963139E-02 0.1963139E-02 0.1963139E-02          
 0.1939178E-02 0.1939178E-02 0.1867354E-02 0.1819491E-02 0.1819491E-02          
 0.1795530E-02 0.1771629E-02 0.1699805E-02 0.1675844E-02 0.1675844E-02          
 0.1651883E-02 0.1651883E-02 0.1651883E-02 0.1627982E-02 0.1627982E-02          
 0.1604021E-02 0.1604021E-02 0.1604021E-02 0.1604021E-02 0.1580060E-02          
 0.1508236E-02 0.1436412E-02 0.1412511E-02 0.1388550E-02 0.1364589E-02          
 0.1340687E-02 0.1340687E-02 0.1292765E-02 0.1244903E-02 0.1221001E-02          
 0.1221001E-02 0.1197040E-02 0.1173079E-02 0.1149178E-02 0.1149178E-02          
 0.1101255E-02 0.1077354E-02 0.1077354E-02 0.1077354E-02 0.1077354E-02          
 0.1077354E-02 0.1053393E-02 0.1053393E-02 0.1053393E-02 0.1029432E-02          
 0.1029432E-02 0.1029432E-02 0.9815693E-03 0.9576082E-03 0.9576082E-03          
 0.9576082E-03 0.9337068E-03 0.9337068E-03 0.9337068E-03 0.9337068E-03          
 0.9337068E-03 0.9337068E-03 0.9337068E-03 0.9337068E-03 0.9097457E-03          
 0.9097457E-03 0.8857846E-03 0.8618832E-03 0.8618832E-03 0.8379221E-03          
 0.8379221E-03 0.8139610E-03 0.8139610E-03 0.8139610E-03 0.7660985E-03          
 0.7660985E-03 0.7421374E-03 0.7182360E-03 0.7182360E-03 0.7182360E-03          
 0.7182360E-03 0.6703138E-03 0.6703138E-03 0.6703138E-03 0.6703138E-03          
 0.6703138E-03 0.6703138E-03 0.6464124E-03 0.6464124E-03 0.6464124E-03          
 0.6464124E-03 0.5984902E-03 0.5984902E-03 0.5745888E-03 0.5506277E-03          
 0.5506277E-03 0.5506277E-03 0.5506277E-03 0.5506277E-03 0.5266666E-03          
 0.4788041E-03 0.4788041E-03 0.4548430E-03 0.4548430E-03 0.3830791E-03          
 0.3351569E-03 0.3351569E-03 0.3351569E-03 0.3112555E-03 0.3112555E-03          
 0.3112555E-03 0.3112555E-03 0.3112555E-03 0.3112555E-03 0.3112555E-03          
 0.3112555E-03 0.3112555E-03 0.3112555E-03 0.2872944E-03 0.2633333E-03          
 0.2633333E-03 0.2633333E-03 0.2394319E-03 0.2394319E-03 0.2394319E-03          
 0.2394319E-03 0.2394319E-03 0.2394319E-03 0.2154708E-03 0.2154708E-03          
 0.1915097E-03 0.1915097E-03 0.1915097E-03 0.1915097E-03 0.1915097E-03          
 0.1915097E-03 0.1915097E-03 0.1915097E-03 0.1915097E-03 0.1915097E-03          
 0.1915097E-03 0.1915097E-03 0.1915097E-03 0.1915097E-03 0.1915097E-03          
 0.1915097E-03 0.1915097E-03 0.1915097E-03 0.1915097E-03 0.1915097E-03          
 0.1915097E-03 0.1915097E-03 0.1915097E-03 0.1915097E-03 0.1915097E-03          
 0.1676083E-03 0.1676083E-03 0.1676083E-03 0.1676083E-03 0.1676083E-03          
 0.1676083E-03 0.1676083E-03 0.1676083E-03 0.1196861E-03 0.1196861E-03          
 0.1196861E-03 0.1196861E-03 0.1196861E-03 0.1196861E-03 0.9578466E-04          
 0.9578466E-04 0.9578466E-04 0.9578466E-04 0.9578466E-04 0.9578466E-04          
  1.000000     0.9371862     0.8764021     0.8133746     0.7526973              
 0.6965068     0.6386070     0.5897874     0.5390450     0.4961008              
 0.4518748     0.4086102     0.3712210     0.3358616     0.3013567              
 0.2726204     0.2470890     0.2214507     0.2000855     0.1816045              
 0.1649396     0.1504113     0.1381263     0.1290460     0.1186839              
 0.1113129     0.1058648     0.9924155E-01 0.9454119E-01 0.8909303E-01          
 0.8546096E-01 0.8161521E-01 0.7776946E-01 0.7584661E-01 0.7371008E-01          
 0.7061213E-01 0.6890291E-01 0.6633908E-01 0.6462985E-01 0.6217283E-01          
 0.5971587E-01 0.5779296E-01 0.5576324E-01 0.5405408E-01 0.5341309E-01          
 0.5223799E-01 0.5127656E-01 0.5010146E-01 0.4935372E-01 0.4860592E-01          
 0.4785812E-01 0.4732400E-01 0.4625577E-01 0.4540116E-01 0.4486698E-01          
 0.4433286E-01 0.4337144E-01 0.4166222E-01 0.4048711E-01 0.3952569E-01          
 0.3899157E-01 0.3824377E-01 0.3770965E-01 0.3717554E-01 0.3621405E-01          
 0.3578675E-01 0.3525263E-01 0.3439802E-01 0.3386390E-01 0.3332978E-01          
 0.3258198E-01 0.3194106E-01 0.3130007E-01 0.3087276E-01 0.3001815E-01          
 0.2862942E-01 0.2830893E-01 0.2777481E-01 0.2745432E-01 0.2702701E-01          
 0.2627927E-01 0.2553147E-01 0.2542466E-01 0.2499735E-01 0.2457005E-01          
 0.2371544E-01 0.2360857E-01 0.2296764E-01 0.2264714E-01 0.2243352E-01          
 0.2211303E-01 0.2136523E-01 0.2093792E-01 0.2029699E-01 0.1997650E-01          
 0.1954919E-01 0.1837409E-01 0.1773316E-01 0.1751947E-01 0.1687855E-01          
 0.1623756E-01 0.1613075E-01 0.1559663E-01 0.1548982E-01 0.1548982E-01          
 0.1516932E-01 0.1516932E-01 0.1506251E-01 0.1484883E-01 0.1474202E-01          
 0.1452833E-01 0.1420790E-01 0.1378059E-01 0.1356691E-01 0.1346010E-01          
 0.1335329E-01 0.1292598E-01 0.1271230E-01 0.1239187E-01 0.1196456E-01          
 0.1185769E-01 0.1164407E-01 0.1143038E-01 0.1110995E-01 0.1110995E-01          
 0.1068264E-01 0.1046896E-01 0.1014847E-01 0.1004165E-01 0.9934843E-02          
 0.9828031E-02 0.9828031E-02 0.9187043E-02 0.8973420E-02 0.8866549E-02          
 0.8759737E-02 0.8546114E-02 0.8439243E-02 0.8439243E-02 0.8332431E-02          
 0.8225620E-02 0.8225620E-02 0.7798314E-02 0.7371008E-02 0.7264197E-02          
 0.7264197E-02 0.7264197E-02 0.7264197E-02 0.7264197E-02 0.7050514E-02          
 0.6836891E-02 0.6836891E-02 0.6836891E-02 0.6516397E-02 0.6409585E-02          
 0.6409585E-02 0.6409585E-02 0.6302774E-02 0.6302774E-02 0.6302774E-02          
 0.6195903E-02 0.6195903E-02 0.5982280E-02 0.5875468E-02 0.5875468E-02          
 0.5448163E-02 0.5448163E-02 0.5234480E-02 0.5020857E-02 0.4913986E-02          
 0.4913986E-02 0.4807174E-02 0.4700363E-02 0.4700363E-02 0.4700363E-02          
 0.4593551E-02 0.4486680E-02 0.4486680E-02 0.4486680E-02 0.4486680E-02          
 0.4273057E-02 0.4273057E-02 0.4059374E-02 0.3952563E-02 0.3845751E-02          
 0.3845751E-02 0.3738940E-02 0.3738940E-02 0.3525257E-02 0.3525257E-02          
 0.3418446E-02 0.3311634E-02 0.3311634E-02 0.3204763E-02 0.3204763E-02          
 0.3204763E-02 0.3204763E-02 0.3204763E-02 0.3097951E-02 0.2991140E-02          
 0.2991140E-02 0.2884328E-02 0.2884328E-02 0.2884328E-02 0.2777457E-02          
 0.2563834E-02 0.2457023E-02 0.2457023E-02 0.2457023E-02 0.2350152E-02          
 0.2350152E-02 0.2350152E-02 0.2350152E-02 0.2350152E-02 0.2350152E-02          
 0.2350152E-02 0.2350152E-02 0.2350152E-02 0.2243340E-02 0.2243340E-02          
 0.2243340E-02 0.2136528E-02 0.2136528E-02 0.2136528E-02 0.2136528E-02          
 0.2136528E-02 0.2029717E-02 0.2029717E-02 0.1816034E-02 0.1816034E-02          
 0.1816034E-02 0.1816034E-02 0.1816034E-02 0.1816034E-02 0.1816034E-02          
 0.1816034E-02 0.1816034E-02 0.1816034E-02 0.1816034E-02 0.1816034E-02          
 0.1816034E-02 0.1816034E-02 0.1816034E-02 0.1709223E-02 0.1709223E-02          
 0.1602411E-02 0.1495540E-02 0.1495540E-02 0.1495540E-02 0.1495540E-02          
 0.1495540E-02 0.1495540E-02 0.1495540E-02 0.1495540E-02 0.1495540E-02          
 0.1495540E-02 0.1495540E-02 0.1495540E-02 0.1388729E-02 0.1388729E-02          
 0.1281917E-02 0.1281917E-02 0.1281917E-02 0.1281917E-02 0.1281917E-02          
 0.1281917E-02 0.1068234E-02 0.8546114E-03 0.8546114E-03 0.8546114E-03          
 0.8546114E-03 0.8546114E-03 0.8546114E-03 0.8546114E-03 0.8546114E-03          
 0.8546114E-03 0.8546114E-03 0.8546114E-03 0.7477999E-03 0.7477999E-03          
 0.7477999E-03 0.7477999E-03 0.6409287E-03 0.6409287E-03 0.6409287E-03          
 0.6409287E-03 0.5341172E-03 0.5341172E-03 0.5341172E-03 0.5341172E-03          
 0.5341172E-03 0.5341172E-03 0.5341172E-03 0.5341172E-03 0.5341172E-03          
 0.5341172E-03 0.5341172E-03 0.5341172E-03 0.5341172E-03 0.5341172E-03          
 0.5341172E-03 0.5341172E-03 0.5341172E-03 0.5341172E-03 0.5341172E-03          
 0.5341172E-03 0.5341172E-03 0.5341172E-03 0.5341172E-03 0.5341172E-03          
 0.5341172E-03 0.5341172E-03 0.5341172E-03 0.5341172E-03 0.5341172E-03          
 0.5341172E-03 0.5341172E-03 0.5341172E-03 0.5341172E-03 0.5341172E-03          
 0.5341172E-03 0.5341172E-03 0.5341172E-03 0.5341172E-03 0.5341172E-03          
 0.5341172E-03 0.5341172E-03 0.4273057E-03 0.4273057E-03 0.4273057E-03          
 0.4273057E-03 0.4273057E-03 0.4273057E-03 0.4273057E-03 0.4273057E-03          
 0.4273057E-03 0.4273057E-03 0.4273057E-03 0.4273057E-03 0.4273057E-03          
 0.4273057E-03 0.4273057E-03 0.4273057E-03 0.4273057E-03 0.4273057E-03          
 0.4273057E-03 0.4273057E-03 0.4273057E-03 0.4273057E-03 0.4273057E-03          
 0.3204942E-03 0.3204942E-03 0.3204942E-03 0.3204942E-03 0.3204942E-03          
 0.3204942E-03 0.3204942E-03 0.3204942E-03 0.3204942E-03 0.3204942E-03          
 0.3204942E-03 0.3204942E-03 0.3204942E-03 0.3204942E-03 0.3204942E-03          
 0.3204942E-03 0.3204942E-03 0.3204942E-03 0.3204942E-03 0.3204942E-03          
 0.3204942E-03 0.3204942E-03 0.3204942E-03 0.2136230E-03 0.2136230E-03          
 0.2136230E-03 0.2136230E-03 0.2136230E-03 0.2136230E-03 0.2136230E-03          
 0.2136230E-03 0.2136230E-03 0.2136230E-03 0.2136230E-03 0.2136230E-03          
 0.2136230E-03 0.2136230E-03 0.2136230E-03 0.2136230E-03 0.2136230E-03          
 0.2136230E-03 0.2136230E-03 0.2136230E-03 0.2136230E-03 0.2136230E-03          
 0.2136230E-03 0.1068115E-03 0.1068115E-03 0.1068115E-03 0.1068115E-03          
  1.000000     0.9323054     0.8661729     0.7982758     0.7308995              
 0.6659820     0.6039575     0.5453756     0.4914225     0.4395811              
 0.3914716     0.3479330     0.3055515     0.2663523     0.2328232              
 0.2020135     0.1734892     0.1489571     0.1266815     0.1080800              
 0.9234244E-01 0.7825381E-01 0.6561172E-01 0.5482107E-01 0.4637372E-01          
 0.3963315E-01 0.3433913E-01 0.3011543E-01 0.2728033E-01 0.2380884E-01          
 0.2163911E-01 0.1996124E-01 0.1808083E-01 0.1666331E-01 0.1553506E-01          
 0.1458037E-01 0.1350999E-01 0.1278675E-01 0.1203460E-01 0.1102209E-01          
 0.1055920E-01 0.1015419E-01 0.9604514E-02 0.9170592E-02 0.8939147E-02          
 0.8649886E-02 0.8418441E-02 0.8129120E-02 0.7695198E-02 0.7261276E-02          
 0.7087708E-02 0.6943047E-02 0.6682694E-02 0.6480157E-02 0.6306589E-02          
 0.5959451E-02 0.5785882E-02 0.5670130E-02 0.5525529E-02 0.5409777E-02          
 0.5294085E-02 0.5120516E-02 0.4975855E-02 0.4889071E-02 0.4686534E-02          
 0.4628718E-02 0.4570842E-02 0.4541934E-02 0.4455090E-02 0.4368305E-02          
 0.4223704E-02 0.4165828E-02 0.4079044E-02 0.3934383E-02 0.3876507E-02          
 0.3731906E-02 0.3616154E-02 0.3500462E-02 0.3355801E-02 0.3297925E-02          
 0.3211141E-02 0.3153324E-02 0.3095448E-02 0.3066480E-02 0.2950788E-02          
 0.2921879E-02 0.2921879E-02 0.2864003E-02 0.2806127E-02 0.2719343E-02          
 0.2661526E-02 0.2632558E-02 0.2603650E-02 0.2545774E-02 0.2516866E-02          
 0.2458990E-02 0.2458990E-02 0.2372205E-02 0.2314329E-02 0.2198637E-02          
 0.2169728E-02 0.2169728E-02 0.2111852E-02 0.2053976E-02 0.1996100E-02          
 0.1967192E-02 0.1909316E-02 0.1909316E-02 0.1909316E-02 0.1851499E-02          
 0.1764715E-02 0.1735747E-02 0.1706839E-02 0.1706839E-02 0.1706839E-02          
 0.1677930E-02 0.1648962E-02 0.1620054E-02 0.1533270E-02 0.1533270E-02          
 0.1533270E-02 0.1533270E-02 0.1504302E-02 0.1417518E-02 0.1359701E-02          
 0.1359701E-02 0.1330733E-02 0.1330733E-02 0.1272917E-02 0.1243949E-02          
 0.1243949E-02 0.1128256E-02 0.1128256E-02 0.1128256E-02 0.1128256E-02          
 0.1128256E-02 0.1099288E-02 0.1099288E-02 0.1099288E-02 0.1099288E-02          
 0.1070380E-02 0.1070380E-02 0.1070380E-02 0.1070380E-02 0.1041472E-02          
 0.1041472E-02 0.1041472E-02 0.1041472E-02 0.1041472E-02 0.1041472E-02          
 0.1041472E-02 0.1041472E-02 0.1041472E-02 0.1041472E-02 0.1041472E-02          
 0.1012504E-02 0.1012504E-02 0.1012504E-02 0.1012504E-02 0.1012504E-02          
 0.1012504E-02 0.9835958E-03 0.9835958E-03 0.9546876E-03 0.9546876E-03          
 0.9546876E-03 0.9546876E-03 0.9546876E-03 0.9546876E-03 0.9546876E-03          
 0.9546876E-03 0.9546876E-03 0.9546876E-03 0.9257197E-03 0.9257197E-03          
 0.9257197E-03 0.8968115E-03 0.8968115E-03 0.8679032E-03 0.8100271E-03          
 0.8100271E-03 0.8100271E-03 0.8100271E-03 0.8100271E-03 0.7811189E-03          
 0.7811189E-03 0.7521510E-03 0.7521510E-03 0.7232428E-03 0.7232428E-03          
 0.7232428E-03 0.7232428E-03 0.7232428E-03 0.7232428E-03 0.7232428E-03          
 0.7232428E-03 0.6942749E-03 0.6942749E-03 0.6653666E-03 0.6364584E-03          
 0.6364584E-03 0.6364584E-03 0.6364584E-03 0.6364584E-03 0.6364584E-03          
 0.6364584E-03 0.6364584E-03 0.6364584E-03 0.6364584E-03 0.6364584E-03          
 0.6074905E-03 0.5785823E-03 0.5785823E-03 0.5785823E-03 0.5785823E-03          
 0.5785823E-03 0.5785823E-03 0.5496740E-03 0.5496740E-03 0.5496740E-03          
 0.5496740E-03 0.5496740E-03 0.5496740E-03 0.5496740E-03 0.5496740E-03          
 0.5496740E-03 0.5207062E-03 0.4917979E-03 0.4917979E-03 0.4917979E-03          
 0.4917979E-03 0.4917979E-03 0.4917979E-03 0.4917979E-03 0.4628897E-03          
 0.4628897E-03 0.4628897E-03 0.4628897E-03 0.4628897E-03 0.4628897E-03          
 0.4339218E-03 0.4339218E-03 0.4339218E-03 0.4339218E-03 0.4339218E-03          
 0.4339218E-03 0.4339218E-03 0.4339218E-03 0.4339218E-03 0.4339218E-03          
 0.4339218E-03 0.4339218E-03 0.4339218E-03 0.4339218E-03 0.4339218E-03          
 0.4339218E-03 0.4339218E-03 0.4050136E-03 0.3471375E-03 0.3471375E-03          
 0.3471375E-03 0.3182292E-03 0.3182292E-03 0.3182292E-03 0.2893209E-03          
 0.2603531E-03 0.2603531E-03 0.2603531E-03 0.2603531E-03 0.2314448E-03          
 0.2024770E-03 0.2024770E-03 0.2024770E-03 0.2024770E-03 0.1735687E-03          
 0.1735687E-03 0.1735687E-03 0.1735687E-03 0.1735687E-03 0.1735687E-03          
 0.1735687E-03 0.1735687E-03 0.1735687E-03 0.1446605E-03 0.1446605E-03          
 0.1446605E-03 0.1446605E-03 0.1446605E-03 0.1446605E-03 0.1446605E-03          
 0.1446605E-03 0.1446605E-03 0.1446605E-03 0.1446605E-03 0.1446605E-03          
 0.1446605E-03 0.1446605E-03 0.1446605E-03 0.1446605E-03 0.1446605E-03          
 0.1156926E-03 0.1156926E-03 0.1156926E-03 0.1156926E-03 0.1156926E-03          
 0.1156926E-03 0.1156926E-03 0.1156926E-03 0.1156926E-03 0.1156926E-03          
 0.1156926E-03 0.1156926E-03 0.1156926E-03 0.1156926E-03 0.1156926E-03          
 0.1156926E-03 0.1156926E-03 0.1156926E-03 0.1156926E-03 0.1156926E-03          
 0.1156926E-03 0.1156926E-03 0.1156926E-03 0.1156926E-03 0.1156926E-03          
 0.1156926E-03 0.1156926E-03 0.1156926E-03 0.1156926E-03 0.1156926E-03          
 0.1156926E-03 0.1156926E-03 0.1156926E-03 0.1156926E-03 0.8678436E-04          
 0.5787611E-04 0.5787611E-04 0.5787611E-04 0.5787611E-04 0.5787611E-04          
 0.5787611E-04 0.5787611E-04 0.5787611E-04 0.5787611E-04 0.5787611E-04          
 0.5787611E-04 0.5787611E-04 0.5787611E-04 0.5787611E-04 0.5787611E-04          
 0.5787611E-04 0.5787611E-04 0.5787611E-04 0.5787611E-04 0.5787611E-04          
 0.5787611E-04 0.5787611E-04 0.5787611E-04 0.5787611E-04 0.5787611E-04          
 0.5787611E-04 0.5787611E-04 0.5787611E-04 0.5787611E-04 0.5787611E-04          
 0.5787611E-04 0.5787611E-04 0.5787611E-04 0.5787611E-04 0.5787611E-04          
 0.5787611E-04 0.5787611E-04 0.5787611E-04 0.5787611E-04 0.5787611E-04          
 0.5787611E-04 0.5787611E-04 0.5787611E-04 0.5787611E-04 0.5787611E-04          
 0.5787611E-04 0.5787611E-04 0.5787611E-04 0.5787611E-04 0.5787611E-04          
 0.5787611E-04 0.5787611E-04 0.5787611E-04 0.5787611E-04 0.5787611E-04          
 0.5787611E-04 0.5787611E-04 0.5787611E-04 0.5787611E-04 0.5787611E-04          
 0.5787611E-04 0.5787611E-04 0.5787611E-04 0.5787611E-04 0.5787611E-04          
  1.000000     0.9226931     0.8459191     0.7709292     0.6981270              
 0.6290224     0.5626786     0.5019375     0.4447889     0.3918625              
 0.3429967     0.2991039     0.2588682     0.2231452     0.1904578              
 0.1627432     0.1388633     0.1173650     0.9884554E-01 0.8307904E-01          
 0.6957293E-01 0.5808508E-01 0.4829258E-01 0.4029226E-01 0.3389037E-01          
 0.2870750E-01 0.2470332E-01 0.2127230E-01 0.1850325E-01 0.1612979E-01          
 0.1420039E-01 0.1249695E-01 0.1107615E-01 0.1009125E-01 0.9130538E-02          
 0.8347452E-02 0.7637024E-02 0.6983101E-02 0.6385744E-02 0.5844831E-02          
 0.5497694E-02 0.5158663E-02 0.4916430E-02 0.4609644E-02 0.4294813E-02          
 0.4060686E-02 0.3753960E-02 0.3535986E-02 0.3350258E-02 0.3229201E-02          
 0.3059685E-02 0.2882063E-02 0.2744794E-02 0.2599478E-02 0.2470315E-02          
 0.2413809E-02 0.2252340E-02 0.2147436E-02 0.2058625E-02 0.1961708E-02          
 0.1881003E-02 0.1808345E-02 0.1743734E-02 0.1663029E-02 0.1630723E-02          
 0.1590371E-02 0.1517713E-02 0.1469254E-02 0.1428902E-02 0.1380503E-02          
 0.1315892E-02 0.1283586E-02 0.1210928E-02 0.1146376E-02 0.1138270E-02          
 0.1114070E-02 0.1081765E-02 0.1025259E-02 0.1009107E-02 0.9849072E-03          
 0.9687543E-03 0.9526014E-03 0.9284019E-03 0.9042025E-03 0.8637905E-03          
 0.8557439E-03 0.8153915E-03 0.7992387E-03 0.7830858E-03 0.7669330E-03          
 0.7507801E-03 0.7346272E-03 0.7346272E-03 0.7265806E-03 0.6942749E-03          
 0.6862283E-03 0.6700754E-03 0.6458163E-03 0.6216168E-03 0.6135702E-03          
 0.5893111E-03 0.5731583E-03 0.5570650E-03 0.5489588E-03 0.5489588E-03          
 0.5409122E-03 0.5166531E-03 0.5086064E-03 0.4924536E-03 0.4924536E-03          
 0.4763007E-03 0.4682541E-03 0.4521012E-03 0.4521012E-03 0.4359484E-03          
 0.4278421E-03 0.4278421E-03 0.4036427E-03 0.3874898E-03 0.3794432E-03          
 0.3713369E-03 0.3632903E-03 0.3471375E-03 0.3390908E-03 0.3390908E-03          
 0.3229380E-03 0.3229380E-03 0.3148317E-03 0.3148317E-03 0.3148317E-03          
 0.3148317E-03 0.3148317E-03 0.3067851E-03 0.2906322E-03 0.2825260E-03          
 0.2744794E-03 0.2744794E-03 0.2664328E-03 0.2664328E-03 0.2664328E-03          
 0.2664328E-03 0.2664328E-03 0.2664328E-03 0.2583265E-03 0.2502799E-03          
 0.2260208E-03 0.2018213E-03 0.2018213E-03 0.2018213E-03 0.2018213E-03          
 0.1937747E-03 0.1856685E-03 0.1776218E-03 0.1776218E-03 0.1695156E-03          
 0.1695156E-03 0.1695156E-03 0.1695156E-03 0.1695156E-03 0.1614690E-03          
 0.1614690E-03 0.1614690E-03 0.1614690E-03 0.1614690E-03 0.1533628E-03          
 0.1533628E-03 0.1533628E-03 0.1533628E-03 0.1533628E-03 0.1533628E-03          
 0.1533628E-03 0.1453161E-03 0.1372695E-03 0.1372695E-03 0.1291633E-03          
 0.1211166E-03 0.1211166E-03 0.1211166E-03 0.1130104E-03 0.1130104E-03          
 0.1130104E-03 0.1130104E-03 0.1130104E-03 0.1049638E-03 0.1049638E-03          
 0.1049638E-03 0.8881092E-04 0.8881092E-04 0.8070469E-04 0.8070469E-04          
 0.6461143E-04 0.4845858E-04 0.4035234E-04 0.4035234E-04 0.4035234E-04          
 0.4035234E-04 0.4035234E-04 0.4035234E-04 0.4035234E-04 0.4035234E-04          
 0.4035234E-04 0.4035234E-04 0.4035234E-04 0.4035234E-04 0.4035234E-04          
 0.4035234E-04 0.4035234E-04 0.4035234E-04 0.3230572E-04 0.3230572E-04          
 0.3230572E-04 0.3230572E-04 0.3230572E-04 0.3230572E-04 0.3230572E-04          
 0.3230572E-04 0.3230572E-04 0.3230572E-04 0.3230572E-04 0.3230572E-04          
 0.3230572E-04 0.3230572E-04 0.3230572E-04 0.3230572E-04 0.3230572E-04          
 0.3230572E-04 0.3230572E-04 0.3230572E-04 0.3230572E-04 0.3230572E-04          
 0.3230572E-04 0.3230572E-04 0.3230572E-04 0.3230572E-04 0.3230572E-04          
 0.3230572E-04 0.3230572E-04 0.3230572E-04 0.3230572E-04 0.3230572E-04          
 0.3230572E-04 0.3230572E-04 0.3230572E-04 0.3230572E-04 0.3230572E-04          
 0.3230572E-04 0.3230572E-04 0.3230572E-04 0.3230572E-04 0.3230572E-04          
 0.3230572E-04 0.3230572E-04 0.3230572E-04 0.3230572E-04 0.3230572E-04          
 0.3230572E-04 0.3230572E-04 0.3230572E-04 0.3230572E-04 0.3230572E-04          
 0.3230572E-04 0.3230572E-04 0.2419949E-04 0.2419949E-04 0.2419949E-04          
 0.2419949E-04 0.2419949E-04 0.2419949E-04 0.2419949E-04 0.2419949E-04          
 0.2419949E-04 0.2419949E-04 0.2419949E-04 0.2419949E-04 0.1615286E-04          
 0.1615286E-04 0.1615286E-04 0.1615286E-04 0.1615286E-04 0.8046627E-05          
 0.8046627E-05 0.8046627E-05 0.8046627E-05 0.8046627E-05 0.8046627E-05          
 0.8046627E-05 0.8046627E-05 0.8046627E-05 0.8046627E-05 0.8046627E-05          
 0.8046627E-05 0.8046627E-05  0.000000      0.000000      0.000000              
  0.000000      0.000000      0.000000      0.000000      0.000000              
  0.000000      0.000000      0.000000      0.000000      0.000000              
  0.000000      0.000000      0.000000      0.000000      0.000000              
  0.000000      0.000000      0.000000      0.000000      0.000000              
  0.000000      0.000000      0.000000      0.000000      0.000000              
  0.000000      0.000000      0.000000      0.000000      0.000000              
  0.000000      0.000000      0.000000      0.000000      0.000000              
  0.000000      0.000000      0.000000      0.000000      0.000000              
  0.000000      0.000000      0.000000      0.000000      0.000000              
  0.000000      0.000000      0.000000      0.000000      0.000000              
  0.000000      0.000000      0.000000      0.000000      0.000000              
  0.000000      0.000000      0.000000      0.000000      0.000000              
  0.000000      0.000000      0.000000      0.000000      0.000000              
  0.000000      0.000000      0.000000      0.000000      0.000000              
  0.000000      0.000000      0.000000      0.000000      0.000000              
  0.000000      0.000000      0.000000      0.000000      0.000000              
  0.000000      0.000000      0.000000      0.000000      0.000000              
  0.000000      0.000000      0.000000      0.000000      0.000000              
  0.000000      0.000000      0.000000      0.000000      0.000000              
  0.000000      0.000000      0.000000      0.000000      0.000000              
  0.000000      0.000000      0.000000      0.000000      0.000000              
  1.000000     0.9245512     0.8507521     0.7782630     0.7082970              
 0.6363416     0.5738962     0.5157690     0.4540514     0.3993207              
 0.3490053     0.3046094     0.2628821     0.2263950     0.1929646              
 0.1645803     0.1398351     0.1174187     0.9762251E-01 0.8117419E-01          
 0.6642407E-01 0.5366325E-01 0.4425037E-01 0.3512859E-01 0.2852982E-01          
 0.2343524E-01 0.1848614E-01 0.1576906E-01 0.1339155E-01 0.1164484E-01          
 0.9801090E-02 0.7860243E-02 0.6889880E-02 0.5822420E-02 0.4997551E-02          
 0.4075706E-02 0.3784597E-02 0.3250837E-02 0.2814174E-02 0.2426028E-02          
 0.2280474E-02 0.2037823E-02 0.1795232E-02 0.1601160E-02 0.1504123E-02          
 0.1455605E-02 0.1213014E-02 0.1164496E-02 0.1067460E-02 0.1067460E-02          
 0.1018941E-02 0.1018941E-02 0.9704232E-03 0.7763505E-03 0.7277727E-03          
 0.6792545E-03 0.6792545E-03 0.6307364E-03 0.6307364E-03 0.6307364E-03          
 0.5822182E-03 0.5822182E-03 0.5337000E-03 0.4851818E-03 0.4366636E-03          
 0.3881454E-03 0.3396273E-03 0.2425909E-03 0.2425909E-03 0.1940727E-03          
 0.9703636E-04 0.9703636E-04 0.9703636E-04 0.9703636E-04 0.9703636E-04          
 0.9703636E-04 0.9703636E-04 0.4851818E-04 0.4851818E-04 0.4851818E-04          
 0.4851818E-04 0.4851818E-04 0.4851818E-04 0.4851818E-04 0.4851818E-04          
 0.4851818E-04 0.4851818E-04 0.4851818E-04 0.4851818E-04 0.4851818E-04          
 0.4851818E-04 0.4851818E-04 0.4851818E-04 0.4851818E-04 0.4851818E-04          
 0.4851818E-04 0.4851818E-04 0.4851818E-04  0.000000      0.000000              
  0.000000      0.000000      0.000000      0.000000      0.000000              
  0.000000      0.000000      0.000000      0.000000      0.000000              
  0.000000      0.000000      0.000000      0.000000      0.000000              
  0.000000      0.000000      0.000000      0.000000      0.000000              
  0.000000      0.000000      0.000000      0.000000      0.000000              
  0.000000      0.000000      0.000000      0.000000      0.000000              
  0.000000      0.000000      0.000000      0.000000      0.000000              
  0.000000      0.000000      0.000000      0.000000      0.000000              
  0.000000      0.000000      0.000000      0.000000      0.000000              
  0.000000      0.000000      0.000000      0.000000      0.000000              
  0.000000      0.000000      0.000000      0.000000      0.000000              
  0.000000      0.000000      0.000000      0.000000      0.000000              
  0.000000      0.000000      0.000000      0.000000      0.000000              
  0.000000      0.000000      0.000000      0.000000      0.000000              
  0.000000      0.000000      0.000000      0.000000      0.000000              
  0.000000      0.000000      0.000000      0.000000      0.000000              
  0.000000      0.000000      0.000000      0.000000      0.000000              
  0.000000      0.000000      0.000000      0.000000      0.000000              
  0.000000      0.000000      0.000000      0.000000      0.000000              
  0.000000      0.000000      0.000000      0.000000      0.000000              
  0.000000      0.000000      0.000000      0.000000      0.000000              
  0.000000      0.000000      0.000000      0.000000      0.000000              
  0.000000      0.000000      0.000000      0.000000      0.000000              
  0.000000      0.000000      0.000000      0.000000      0.000000              
  0.000000      0.000000      0.000000      0.000000      0.000000              
  0.000000      0.000000      0.000000      0.000000      0.000000              
  0.000000      0.000000      0.000000      0.000000      0.000000              
  0.000000      0.000000      0.000000      0.000000      0.000000              
  0.000000      0.000000      0.000000      0.000000      0.000000              
  0.000000      0.000000      0.000000      0.000000      0.000000              
  0.000000      0.000000      0.000000      0.000000      0.000000              
  0.000000      0.000000      0.000000      0.000000      0.000000              
  0.000000      0.000000      0.000000      0.000000      0.000000              
  0.000000      0.000000      0.000000      0.000000      0.000000              
  0.000000      0.000000      0.000000      0.000000      0.000000              
  0.000000      0.000000      0.000000      0.000000      0.000000              
  0.000000      0.000000      0.000000      0.000000      0.000000              
  0.000000      0.000000      0.000000      0.000000      0.000000              
  0.000000      0.000000      0.000000      0.000000      0.000000              
  0.000000      0.000000      0.000000      0.000000      0.000000              
  0.000000      0.000000      0.000000      0.000000      0.000000              
  0.000000      0.000000      0.000000      0.000000      0.000000              
  0.000000      0.000000      0.000000      0.000000      0.000000              
  0.000000      0.000000      0.000000      0.000000      0.000000              
  0.000000      0.000000      0.000000      0.000000      0.000000              
  0.000000      0.000000      0.000000      0.000000      0.000000              
  0.000000      0.000000      0.000000      0.000000      0.000000              
  0.000000      0.000000      0.000000      0.000000      0.000000              
  0.000000      0.000000      0.000000      0.000000      0.000000              
  0.000000      0.000000      0.000000      0.000000      0.000000              
  0.000000      0.000000      0.000000      0.000000      0.000000              
  0.000000      0.000000      0.000000      0.000000      0.000000              
  0.000000      0.000000      0.000000      0.000000      0.000000              
  0.000000      0.000000      0.000000      0.000000      0.000000              
  0.000000      0.000000      0.000000      0.000000      0.000000              
  0.000000      0.000000      0.000000      0.000000      0.000000              
  0.000000      0.000000      0.000000      0.000000      0.000000              
  0.000000      0.000000      0.000000      0.000000      0.000000              
  0.000000      0.000000      0.000000      0.000000      0.000000              
  0.000000      0.000000      0.000000      0.000000      0.000000              
