  1.000000     0.9258195     0.8528166     0.7812613     0.7114233              
 0.6440178     0.5808619     0.5214970     0.4662029     0.4152352              
 0.3679594     0.3257958     0.2871773     0.2524959     0.2222510              
 0.1954017     0.1719189     0.1513734     0.1334335     0.1177253              
 0.1042739     0.9271723E-01 0.8259010E-01 0.7408369E-01 0.6640553E-01          
 0.6033725E-01 0.5481625E-01 0.5005950E-01 0.4606283E-01 0.4252750E-01          
 0.3940082E-01 0.3665209E-01 0.3424948E-01 0.3212017E-01 0.3027135E-01          
 0.2862400E-01 0.2706838E-01 0.2558529E-01 0.2425385E-01 0.2301580E-01          
 0.2192539E-01 0.2091587E-01 0.2002472E-01 0.1921332E-01 0.1842284E-01          
 0.1772439E-01 0.1705790E-01 0.1650757E-01 0.1592332E-01 0.1530832E-01          
 0.1476008E-01 0.1426971E-01 0.1381773E-01 0.1342082E-01 0.1302928E-01          
 0.1260149E-01 0.1224667E-01 0.1194346E-01 0.1162809E-01 0.1132089E-01          
 0.1102781E-01 0.1075000E-01 0.1050186E-01 0.1019126E-01 0.9906828E-02          
 0.9680867E-02 0.9443283E-02 0.9236813E-02 0.8995712E-02 0.8804619E-02          
 0.8593678E-02 0.8403480E-02 0.8150935E-02 0.7961214E-02 0.7815182E-02          
 0.7624686E-02 0.7450819E-02 0.7314563E-02 0.7159412E-02 0.7003844E-02          
 0.6850004E-02 0.6678700E-02 0.6553173E-02 0.6424785E-02 0.6279290E-02          
 0.6161273E-02 0.6039858E-02 0.5876005E-02 0.5722940E-02 0.5607486E-02          
 0.5479455E-02 0.5400598E-02 0.5261719E-02 0.5152047E-02 0.5047798E-02          
 0.4956484E-02 0.4818857E-02 0.4713356E-02 0.4625857E-02 0.4531205E-02          
 0.4444480E-02 0.4364312E-02 0.4288077E-02 0.4205525E-02 0.4127562E-02          
 0.4062474E-02 0.3993213E-02 0.3919840E-02 0.3834426E-02 0.3780186E-02          
 0.3726363E-02 0.3660917E-02 0.3598452E-02 0.3525496E-02 0.3473818E-02          
 0.3410101E-02 0.3338397E-02 0.3283799E-02 0.3236711E-02 0.3193736E-02          
 0.3149152E-02 0.3091633E-02 0.3028691E-02 0.2995789E-02 0.2946556E-02          
 0.2910316E-02 0.2869070E-02 0.2834380E-02 0.2801001E-02 0.2758086E-02          
 0.2721369E-02 0.2687991E-02 0.2629220E-02 0.2593815E-02 0.2557993E-02          
 0.2531707E-02 0.2495050E-02 0.2460361E-02 0.2420306E-02 0.2385259E-02          
 0.2354860E-02 0.2321064E-02 0.2288520E-02 0.2242625E-02 0.2212226E-02          
 0.2190948E-02 0.2159238E-02 0.2114177E-02 0.2074122E-02 0.2051175E-02          
 0.2021968E-02 0.2004504E-02 0.1973629E-02 0.1940727E-02 0.1909018E-02          
 0.1862288E-02 0.1842678E-02 0.1825213E-02 0.1801491E-02 0.1781046E-02          
 0.1765251E-02 0.1734793E-02 0.1709342E-02 0.1695156E-02 0.1681805E-02          
 0.1661360E-02 0.1643896E-02 0.1616359E-02 0.1594722E-02 0.1575470E-02          
 0.1561344E-02 0.1540482E-02 0.1530886E-02 0.1503766E-02 0.1485050E-02          
 0.1464605E-02 0.1439154E-02 0.1424968E-02 0.1405776E-02 0.1387835E-02          
 0.1372039E-02 0.1352370E-02 0.1330316E-02 0.1318991E-02 0.1299798E-02          
 0.1289785E-02 0.1274407E-02 0.1259804E-02 0.1244009E-02 0.1237333E-02          
 0.1206040E-02 0.1177251E-02 0.1159370E-02 0.1149774E-02 0.1134396E-02          
 0.1120269E-02 0.1104832E-02 0.1090229E-02 0.1071930E-02 0.1053154E-02          
 0.1043141E-02 0.1038551E-02 0.1031876E-02 0.1003504E-02 0.9810328E-03          
 0.9742975E-03 0.9659529E-03 0.9559989E-03 0.9430051E-03 0.9321570E-03          
 0.9226203E-03 0.9067655E-03 0.8993149E-03 0.8901954E-03 0.8730292E-03          
 0.8651614E-03 0.8572340E-03 0.8509755E-03 0.8367896E-03 0.8284450E-03          
 0.8143187E-03 0.8043051E-03 0.7980466E-03 0.7897019E-03 0.7762909E-03          
 0.7667542E-03 0.7572174E-03 0.7447004E-03 0.7396340E-03 0.7312894E-03          
 0.7154942E-03 0.7079840E-03 0.7017255E-03 0.7001162E-03 0.6984472E-03          
 0.6880164E-03 0.6771684E-03 0.6650686E-03 0.6508827E-03 0.6396174E-03          
 0.6362796E-03 0.6296039E-03 0.6200671E-03 0.5963445E-03 0.5896091E-03          
 0.5833507E-03 0.5817413E-03 0.5704165E-03 0.5637407E-03 0.5604029E-03          
 0.5478859E-03 0.5416274E-03 0.5383492E-03 0.5288124E-03 0.5220771E-03          
 0.5125403E-03 0.5030036E-03 0.4979372E-03 0.4962683E-03 0.4884005E-03          
 0.4854798E-03 0.4729629E-03 0.4646182E-03 0.4630089E-03 0.4613400E-03          
 0.4580617E-03 0.4534125E-03 0.4429817E-03 0.4346371E-03 0.4246831E-03          
 0.4200339E-03 0.4137754E-03 0.4075170E-03 0.3966689E-03 0.3966689E-03          
 0.3904104E-03 0.3871322E-03 0.3837943E-03 0.3821850E-03 0.3759265E-03          
 0.3742576E-03 0.3691912E-03 0.3641844E-03 0.3579259E-03 0.3545880E-03          
 0.3529787E-03 0.3513098E-03 0.3446341E-03 0.3446341E-03 0.3395677E-03          
 0.3367066E-03 0.3350377E-03 0.3271699E-03 0.3225207E-03 0.3192425E-03          
 0.3192425E-03 0.3146529E-03 0.3083944E-03 0.3021359E-03 0.3004670E-03          
 0.2958775E-03 0.2896190E-03 0.2867579E-03 0.2867579E-03 0.2834201E-03          
 0.2817512E-03 0.2788901E-03 0.2726316E-03 0.2726316E-03 0.2693534E-03          
 0.2693534E-03 0.2647638E-03 0.2630949E-03 0.2630949E-03 0.2614260E-03          
 0.2581477E-03 0.2548099E-03 0.2469420E-03 0.2469420E-03 0.2452731E-03          
 0.2419949E-03 0.2386570E-03 0.2357960E-03 0.2283454E-03 0.2254844E-03          
 0.2221465E-03 0.2171397E-03 0.2171397E-03 0.2124906E-03 0.2096295E-03          
 0.2096295E-03 0.2063513E-03 0.2063513E-03 0.2063513E-03 0.1938343E-03          
 0.1904964E-03 0.1904964E-03 0.1904964E-03 0.1888871E-03 0.1842380E-03          
 0.1842380E-03 0.1826286E-03 0.1826286E-03 0.1826286E-03 0.1779795E-03          
 0.1751184E-03 0.1722574E-03 0.1693964E-03 0.1677275E-03 0.1661181E-03          
 0.1614690E-03 0.1598597E-03 0.1565218E-03 0.1565218E-03 0.1565218E-03          
 0.1548529E-03 0.1532435E-03 0.1515746E-03 0.1499057E-03 0.1499057E-03          
 0.1499057E-03 0.1482964E-03 0.1482964E-03 0.1482964E-03 0.1482964E-03          
 0.1482964E-03 0.1466274E-03 0.1449585E-03 0.1449585E-03 0.1416802E-03          
 0.1416802E-03 0.1400113E-03 0.1383424E-03 0.1383424E-03 0.1383424E-03          
 0.1383424E-03 0.1383424E-03 0.1350641E-03 0.1333952E-03 0.1305342E-03          
 0.1272559E-03 0.1239181E-03 0.1206398E-03 0.1206398E-03 0.1189709E-03          
 0.1189709E-03 0.1161098E-03 0.1132488E-03 0.1132488E-03 0.1086593E-03          
 0.1069903E-03 0.1069903E-03 0.1069903E-03 0.1037121E-03 0.1037121E-03          
 0.1020432E-03 0.1003742E-03 0.1003742E-03 0.9870529E-04 0.9870529E-04          
  1.000000     0.9235628     0.8480713     0.7738734     0.7046474              
 0.6392831     0.5779185     0.5207876     0.4675446     0.4191039              
 0.3768383     0.3389244     0.3041927     0.2744990     0.2478800              
 0.2242187     0.2039586     0.1864568     0.1702123     0.1554616              
 0.1433737     0.1328267     0.1231829     0.1146402     0.1073452              
 0.1009818     0.9532326E-01 0.9042025E-01 0.8635330E-01 0.8266598E-01          
 0.7937330E-01 0.7604975E-01 0.7328290E-01 0.7061493E-01 0.6822276E-01          
 0.6623399E-01 0.6420767E-01 0.6223232E-01 0.6033438E-01 0.5865055E-01          
 0.5724758E-01 0.5561233E-01 0.5407035E-01 0.5273020E-01 0.5123806E-01          
 0.5010211E-01 0.4896796E-01 0.4781079E-01 0.4679072E-01 0.4571432E-01          
 0.4478270E-01 0.4379159E-01 0.4292411E-01 0.4181451E-01 0.4085326E-01          
 0.3998101E-01 0.3916472E-01 0.3831893E-01 0.3747994E-01 0.3678262E-01          
 0.3602755E-01 0.3529537E-01 0.3462929E-01 0.3391051E-01 0.3325766E-01          
 0.3274322E-01 0.3219098E-01 0.3164846E-01 0.3095740E-01 0.3028971E-01          
 0.2961367E-01 0.2902019E-01 0.2847129E-01 0.2797830E-01 0.2747232E-01          
 0.2688026E-01 0.2632779E-01 0.2592045E-01 0.2549672E-01 0.2505827E-01          
 0.2463752E-01 0.2411979E-01 0.2365488E-01 0.2328867E-01 0.2290946E-01          
 0.2250397E-01 0.2204567E-01 0.2166986E-01 0.2129728E-01 0.2088994E-01          
 0.2054846E-01 0.2028137E-01 0.2004874E-01 0.1966292E-01 0.1922745E-01          
 0.1895547E-01 0.1866674E-01 0.1835507E-01 0.1802033E-01 0.1768237E-01          
 0.1735580E-01 0.1711333E-01 0.1684469E-01 0.1649189E-01 0.1622152E-01          
 0.1595598E-01 0.1574016E-01 0.1549453E-01 0.1520252E-01 0.1488763E-01          
 0.1465839E-01 0.1447219E-01 0.1427448E-01 0.1401561E-01 0.1370388E-01          
 0.1351428E-01 0.1320583E-01 0.1298493E-01 0.1277721E-01 0.1259905E-01          
 0.1243091E-01 0.1220173E-01 0.1204020E-01 0.1188511E-01 0.1165605E-01          
 0.1140374E-01 0.1119453E-01 0.1103139E-01 0.1084006E-01 0.1062894E-01          
 0.1044768E-01 0.1031244E-01 0.1019204E-01 0.1006997E-01 0.9931445E-02          
 0.9811103E-02 0.9642780E-02 0.9603143E-02 0.9527326E-02 0.9392083E-02          
 0.9306252E-02 0.9131551E-02 0.8965135E-02 0.8821547E-02 0.8676469E-02          
 0.8508325E-02 0.8383036E-02 0.8304000E-02 0.8152366E-02 0.8007228E-02          
 0.7913232E-02 0.7774711E-02 0.7656097E-02 0.7535696E-02 0.7400453E-02          
 0.7308185E-02 0.7197797E-02 0.7092118E-02 0.6991565E-02 0.6833315E-02          
 0.6745934E-02 0.6670058E-02 0.6600797E-02 0.6549716E-02 0.6460667E-02          
 0.6350279E-02 0.6253123E-02 0.6197095E-02 0.6116331E-02 0.6020665E-02          
 0.5926669E-02 0.5776703E-02 0.5702555E-02 0.5592108E-02 0.5536079E-02          
 0.5463481E-02 0.5372941E-02 0.5285561E-02 0.5191565E-02 0.5145371E-02          
 0.5102575E-02 0.5031586E-02 0.4978776E-02 0.4929364E-02 0.4883111E-02          
 0.4812121E-02 0.4746079E-02 0.4663587E-02 0.4643738E-02 0.4579425E-02          
 0.4523396E-02 0.4432619E-02 0.4381537E-02 0.4335284E-02 0.4267752E-02          
 0.4234791E-02 0.4196882E-02 0.4114389E-02 0.4031897E-02 0.3994048E-02          
 0.3942907E-02 0.3870308E-02 0.3819168E-02 0.3792822E-02 0.3779590E-02          
 0.3753185E-02 0.3685653E-02 0.3665805E-02 0.3598273E-02 0.3525853E-02          
 0.3489614E-02 0.3428698E-02 0.3366053E-02 0.3326416E-02 0.3272116E-02          
 0.3227651E-02 0.3160119E-02 0.3108978E-02 0.3039718E-02 0.3021598E-02          
 0.2977073E-02 0.2970457E-02 0.2940834E-02 0.2896309E-02 0.2858460E-02          
 0.2790928E-02 0.2739787E-02 0.2733171E-02 0.2701819E-02 0.2652407E-02          
 0.2607882E-02 0.2550185E-02 0.2532005E-02 0.2507269E-02 0.2467692E-02          
 0.2416551E-02 0.2391815E-02 0.2347291E-02 0.2301097E-02 0.2287865E-02          
 0.2251565E-02 0.2205372E-02 0.2180636E-02 0.2154231E-02 0.2104819E-02          
 0.2066970E-02 0.2053738E-02 0.2035618E-02 0.2004206E-02 0.2004206E-02          
 0.1966357E-02 0.1941621E-02 0.1928389E-02 0.1901984E-02 0.1875639E-02          
 0.1869023E-02 0.1837611E-02 0.1783311E-02 0.1745462E-02 0.1719058E-02          
 0.1700938E-02 0.1682818E-02 0.1653194E-02 0.1615286E-02 0.1597166E-02          
 0.1577318E-02 0.1559198E-02 0.1547635E-02 0.1473486E-02 0.1460254E-02          
 0.1442134E-02 0.1435518E-02 0.1410782E-02 0.1397550E-02 0.1384318E-02          
 0.1384318E-02 0.1359582E-02 0.1315057E-02 0.1295209E-02 0.1270473E-02          
 0.1245737E-02 0.1206160E-02 0.1179755E-02 0.1136959E-02 0.1130342E-02          
 0.1130342E-02 0.1117110E-02 0.1103878E-02 0.1097262E-02 0.1097262E-02          
 0.1061022E-02 0.1061022E-02 0.1061022E-02 0.1061022E-02 0.1036286E-02          
 0.1018167E-02 0.1004934E-02 0.9983182E-03 0.9686351E-03 0.9505153E-03          
 0.9505153E-03 0.9390116E-03 0.9275079E-03 0.9208918E-03 0.9208918E-03          
 0.9076595E-03 0.9076595E-03 0.8961558E-03 0.8961558E-03 0.8895397E-03          
 0.8763075E-03 0.8383989E-03 0.8383989E-03 0.8202791E-03 0.8202791E-03          
 0.8202791E-03 0.8202791E-03 0.8070469E-03 0.7823110E-03 0.7756948E-03          
 0.7690787E-03 0.7624626E-03 0.7624626E-03 0.7558465E-03 0.7443428E-03          
 0.7443428E-03 0.7443428E-03 0.7443428E-03 0.7443428E-03 0.7311106E-03          
 0.7244945E-03 0.7129312E-03 0.6865859E-03 0.6865859E-03 0.6601810E-03          
 0.6469488E-03 0.6354451E-03 0.6288290E-03 0.6288290E-03 0.6089807E-03          
 0.6089807E-03 0.5957484E-03 0.5825162E-03 0.5759001E-03 0.5643964E-03          
 0.5577803E-03 0.5511642E-03 0.5313158E-03 0.5313158E-03 0.5313158E-03          
 0.5246997E-03 0.5246997E-03 0.5246997E-03 0.5180836E-03 0.4982352E-03          
 0.4916191E-03 0.4916191E-03 0.4916191E-03 0.4916191E-03 0.4668832E-03          
 0.4602671E-03 0.4602671E-03 0.4602671E-03 0.4536510E-03 0.4536510E-03          
 0.4421473E-03 0.4421473E-03 0.4355311E-03 0.4289150E-03 0.4222989E-03          
 0.4222989E-03 0.4090667E-03 0.4090667E-03 0.3975630E-03 0.3975630E-03          
 0.3975630E-03 0.3975630E-03 0.3843307E-03 0.3843307E-03 0.3843307E-03          
 0.3777146E-03 0.3710985E-03 0.3644824E-03 0.3644824E-03 0.3644824E-03          
 0.3512502E-03 0.3512502E-03 0.3198981E-03 0.3132820E-03 0.3132820E-03          
 0.3066659E-03 0.3066659E-03 0.2934337E-03 0.2934337E-03 0.2934337E-03          
 0.2934337E-03 0.2934337E-03 0.2934337E-03 0.2934337E-03 0.2819300E-03          
  1.000000     0.9254267     0.8491984     0.7764614     0.7057389              
 0.6371659     0.5729841     0.5163963     0.4650332     0.4174826              
 0.3740798     0.3360148     0.3017239     0.2702065     0.2450166              
 0.2232462     0.2043985     0.1868916     0.1710575     0.1586673              
 0.1473970     0.1372840     0.1285228     0.1213867     0.1149923              
 0.1097036     0.1046401     0.1005058     0.9742415E-01 0.9432572E-01          
 0.9164101E-01 0.8907670E-01 0.8678102E-01 0.8461559E-01 0.8292419E-01          
 0.8119822E-01 0.7951468E-01 0.7773733E-01 0.7577831E-01 0.7397431E-01          
 0.7266307E-01 0.7123917E-01 0.7017767E-01 0.6852174E-01 0.6720161E-01          
 0.6573433E-01 0.6471628E-01 0.6368047E-01 0.6261110E-01 0.6139457E-01          
 0.6059182E-01 0.5945235E-01 0.5833066E-01 0.5702734E-01 0.5575055E-01          
 0.5449945E-01 0.5337781E-01 0.5208331E-01 0.5071968E-01 0.4984778E-01          
 0.4896003E-01 0.4781264E-01 0.4706210E-01 0.4650128E-01 0.4558688E-01          
 0.4430026E-01 0.4344612E-01 0.4241139E-01 0.4108328E-01 0.3987569E-01          
 0.3918546E-01 0.3842610E-01 0.3741693E-01 0.3639889E-01 0.3524357E-01          
 0.3434694E-01 0.3384638E-01 0.3323418E-01 0.3269005E-01 0.3216374E-01          
 0.3119707E-01 0.3029954E-01 0.2978206E-01 0.2899706E-01 0.2851427E-01          
 0.2797902E-01 0.2746958E-01 0.2673596E-01 0.2589864E-01 0.2546722E-01          
 0.2506137E-01 0.2442354E-01 0.2388835E-01 0.2324945E-01 0.2291280E-01          
 0.2215338E-01 0.2187699E-01 0.2156591E-01 0.2098823E-01 0.2053100E-01          
 0.2003044E-01 0.1985765E-01 0.1955545E-01 0.1939154E-01 0.1909828E-01          
 0.1882184E-01 0.1859766E-01 0.1836467E-01 0.1802796E-01 0.1770014E-01          
 0.1729435E-01 0.1703566E-01 0.1668209E-01 0.1651824E-01 0.1615578E-01          
 0.1602638E-01 0.1582795E-01 0.1552582E-01 0.1523250E-01 0.1509422E-01          
 0.1489580E-01 0.1468056E-01 0.1445639E-01 0.1432699E-01 0.1412857E-01          
 0.1383531E-01 0.1361114E-01 0.1344723E-01 0.1328331E-01 0.1301575E-01          
 0.1267910E-01 0.1252407E-01 0.1238579E-01 0.1220500E-01 0.1196313E-01          
 0.1160067E-01 0.1149702E-01 0.1146251E-01 0.1139337E-01 0.1113468E-01          
 0.1106560E-01 0.1099646E-01 0.1096195E-01 0.1085830E-01 0.1057386E-01          
 0.1035857E-01 0.1022917E-01 0.1001394E-01 0.9910285E-02 0.9600222E-02          
 0.9531081E-02 0.9315789E-02 0.9246707E-02 0.9143054E-02 0.9082794E-02          
 0.8763850E-02 0.8694708E-02 0.8694708E-02 0.8505046E-02 0.8375704E-02          
 0.8272052E-02 0.8202910E-02 0.8133769E-02 0.8064628E-02 0.8030117E-02          
 0.7805943E-02 0.7642031E-02 0.7607520E-02 0.7443607E-02 0.7348895E-02          
 0.7288635E-02 0.7184982E-02 0.7115841E-02 0.6926179E-02 0.6857038E-02          
 0.6727636E-02 0.6693125E-02 0.6598353E-02 0.6408751E-02 0.6219089E-02          
 0.6115437E-02 0.6115437E-02 0.5986035E-02 0.5891263E-02 0.5796492E-02          
 0.5761981E-02 0.5701721E-02 0.5598128E-02 0.5459845E-02 0.5330443E-02          
 0.5330443E-02 0.5270183E-02 0.5166531E-02 0.5132020E-02 0.5097508E-02          
 0.5062997E-02 0.5028486E-02 0.4993975E-02 0.4890323E-02 0.4855812E-02          
 0.4786670E-02 0.4786670E-02 0.4631639E-02 0.4571378E-02 0.4467785E-02          
 0.4364133E-02 0.4329622E-02 0.4269361E-02 0.3950417E-02 0.3846765E-02          
 0.3812253E-02 0.3812253E-02 0.3812253E-02 0.3743112E-02 0.3743112E-02          
 0.3708601E-02 0.3708601E-02 0.3674090E-02 0.3604949E-02 0.3449917E-02          
 0.3320575E-02 0.3200054E-02 0.3165543E-02 0.3165543E-02 0.3131032E-02          
 0.3036261E-02 0.3036261E-02 0.3036261E-02 0.3001750E-02 0.2898097E-02          
 0.2828956E-02 0.2828956E-02 0.2768695E-02 0.2768695E-02 0.2673924E-02          
 0.2673924E-02 0.2673924E-02 0.2604783E-02 0.2604783E-02 0.2535641E-02          
 0.2501130E-02 0.2466619E-02 0.2466619E-02 0.2432108E-02 0.2432108E-02          
 0.2362967E-02 0.2328455E-02 0.2328455E-02 0.2328455E-02 0.2328455E-02          
 0.2233684E-02 0.2233684E-02 0.2164602E-02 0.2095461E-02 0.2060950E-02          
 0.2060950E-02 0.2060950E-02 0.2026439E-02 0.2026439E-02 0.2026439E-02          
 0.2026439E-02 0.1966178E-02 0.1966178E-02 0.1966178E-02 0.1931667E-02          
 0.1871407E-02 0.1836896E-02 0.1836896E-02 0.1776636E-02 0.1776636E-02          
 0.1742125E-02 0.1742125E-02 0.1707613E-02 0.1707613E-02 0.1707613E-02          
 0.1673102E-02 0.1673102E-02 0.1673102E-02 0.1673102E-02 0.1673102E-02          
 0.1673102E-02 0.1673102E-02 0.1673102E-02 0.1673102E-02 0.1673102E-02          
 0.1638591E-02 0.1638591E-02 0.1638591E-02 0.1604080E-02 0.1569569E-02          
 0.1569569E-02 0.1509309E-02 0.1509309E-02 0.1509309E-02 0.1449049E-02          
 0.1379907E-02 0.1379907E-02 0.1379907E-02 0.1319647E-02 0.1319647E-02          
 0.1319647E-02 0.1319647E-02 0.1319647E-02 0.1224875E-02 0.1190364E-02          
 0.1155853E-02 0.1095593E-02 0.1095593E-02 0.1095593E-02 0.1061082E-02          
 0.1061082E-02 0.1061082E-02 0.1061082E-02 0.1026571E-02 0.1026571E-02          
 0.1026571E-02 0.1026571E-02 0.9920597E-03 0.9920597E-03 0.9920597E-03          
 0.9920597E-03 0.9920597E-03 0.9920597E-03 0.9920597E-03 0.9920597E-03          
 0.9229183E-03 0.9229183E-03 0.8884072E-03 0.7333755E-03 0.7333755E-03          
 0.7333755E-03 0.7333755E-03 0.7333755E-03 0.7333755E-03 0.7333755E-03          
 0.7333755E-03 0.7333755E-03 0.7333755E-03 0.6988645E-03 0.6297827E-03          
 0.6297827E-03 0.6297827E-03 0.6297827E-03 0.6297827E-03 0.6297827E-03          
 0.5952716E-03 0.5607605E-03 0.4916191E-03 0.4916191E-03 0.4916191E-03          
 0.4916191E-03 0.4916191E-03 0.4571080E-03 0.4571080E-03 0.4571080E-03          
 0.4571080E-03 0.4571080E-03 0.4225969E-03 0.4225969E-03 0.4225969E-03          
 0.4225969E-03 0.4225969E-03 0.3880858E-03 0.3880858E-03 0.3880858E-03          
 0.3880858E-03 0.3880858E-03 0.3880858E-03 0.3880858E-03 0.3880858E-03          
 0.3880858E-03 0.3880858E-03 0.3278255E-03 0.3278255E-03 0.3278255E-03          
 0.3278255E-03 0.3278255E-03 0.3278255E-03 0.3278255E-03 0.3278255E-03          
 0.3278255E-03 0.3278255E-03 0.3278255E-03 0.3278255E-03 0.3278255E-03          
 0.3278255E-03 0.3278255E-03 0.3278255E-03 0.3278255E-03 0.3278255E-03          
 0.3278255E-03 0.3278255E-03 0.3278255E-03 0.3278255E-03 0.2933145E-03          
 0.2933145E-03 0.2933145E-03 0.2933145E-03 0.2933145E-03 0.2933145E-03          
  1.000000     0.9210898     0.8427305     0.7658269     0.6908776              
 0.6195827     0.5517534     0.4879711     0.4287043     0.3747784              
 0.3261273     0.2820961     0.2428044     0.2069886     0.1762710              
 0.1500366     0.1271387     0.1068830     0.8953840E-01 0.7499015E-01          
 0.6260520E-01 0.5210739E-01 0.4348290E-01 0.3593832E-01 0.3009385E-01          
 0.2576983E-01 0.2236056E-01 0.2009773E-01 0.1843220E-01 0.1684201E-01          
 0.1543999E-01 0.1439881E-01 0.1352924E-01 0.1271659E-01 0.1212138E-01          
 0.1156849E-01 0.1079291E-01 0.1019764E-01 0.9678066E-02 0.9331644E-02          
 0.8913279E-02 0.8581400E-02 0.8270025E-02 0.7936418E-02 0.7709742E-02          
 0.7407546E-02 0.7164419E-02 0.6904662E-02 0.6652296E-02 0.6492078E-02          
 0.6200910E-02 0.6044209E-02 0.5868971E-02 0.5695641E-02 0.5529702E-02          
 0.5347371E-02 0.5166829E-02 0.4991829E-02 0.4877567E-02 0.4779875E-02          
 0.4660130E-02 0.4507303E-02 0.4297256E-02 0.4212499E-02 0.4057705E-02          
 0.3998637E-02 0.3890038E-02 0.3820062E-02 0.3737211E-02 0.3600955E-02          
 0.3470242E-02 0.3317356E-02 0.3269553E-02 0.3149807E-02 0.3079832E-02          
 0.3024578E-02 0.2989531E-02 0.2930522E-02 0.2888143E-02 0.2838433E-02          
 0.2777755E-02 0.2661765E-02 0.2584338E-02 0.2542019E-02 0.2470076E-02          
 0.2429545E-02 0.2400100E-02 0.2355814E-02 0.2313435E-02 0.2285779E-02          
 0.2230585E-02 0.2186358E-02 0.2164125E-02 0.2127290E-02 0.2092242E-02          
 0.2029598E-02 0.1972497E-02 0.1946747E-02 0.1926482E-02 0.1882255E-02          
 0.1812220E-02 0.1782775E-02 0.1762509E-02 0.1718223E-02 0.1651943E-02          
 0.1596749E-02 0.1581967E-02 0.1537681E-02 0.1508236E-02 0.1465857E-02          
 0.1436412E-02 0.1394033E-02 0.1364589E-02 0.1322210E-02 0.1314819E-02          
 0.1267016E-02 0.1254141E-02 0.1241267E-02 0.1213610E-02 0.1206219E-02          
 0.1158416E-02 0.1151025E-02 0.1128852E-02 0.1114070E-02 0.1099288E-02          
 0.1091897E-02 0.1064241E-02 0.1049399E-02 0.1036584E-02 0.9942055E-03          
 0.9591579E-03 0.9369850E-03 0.9295940E-03 0.9148121E-03 0.9074211E-03          
 0.8945465E-03 0.8723736E-03 0.8723736E-03 0.8594990E-03 0.8466244E-03          
 0.8318424E-03 0.8244514E-03 0.8244514E-03 0.8170605E-03 0.8170605E-03          
 0.8170605E-03 0.7967949E-03 0.7765293E-03 0.7562637E-03 0.7488728E-03          
 0.7212162E-03 0.7138252E-03 0.6990433E-03 0.6990433E-03 0.6916523E-03          
 0.6639957E-03 0.6308556E-03 0.6308556E-03 0.5903244E-03 0.5903244E-03          
 0.5700588E-03 0.5626678E-03 0.5552769E-03 0.5552769E-03 0.5478859E-03          
 0.5331039E-03 0.5331039E-03 0.5054474E-03 0.5054474E-03 0.4980564E-03          
 0.4980564E-03 0.4777908E-03 0.4777908E-03 0.4777908E-03 0.4777908E-03          
 0.4703999E-03 0.4703999E-03 0.4630089E-03 0.4630089E-03 0.4630089E-03          
 0.4630089E-03 0.4556179E-03 0.4427433E-03 0.4427433E-03 0.4096031E-03          
 0.4096031E-03 0.3948212E-03 0.3874302E-03 0.3652573E-03 0.3523827E-03          
 0.3523827E-03 0.3523827E-03 0.3523827E-03 0.3523827E-03 0.3449917E-03          
 0.3044605E-03 0.2970695E-03 0.2896786E-03 0.2768040E-03 0.2639890E-03          
 0.2639890E-03 0.2639890E-03 0.2639890E-03 0.2639890E-03 0.2639890E-03          
 0.2492070E-03 0.2417564E-03 0.2289414E-03 0.2289414E-03 0.2289414E-03          
 0.2289414E-03 0.2215505E-03 0.2215505E-03 0.2140999E-03 0.2140999E-03          
 0.2140999E-03 0.2140999E-03 0.1993179E-03 0.1993179E-03 0.1993179E-03          
 0.1993179E-03 0.1993179E-03 0.1993179E-03 0.1993179E-03 0.1993179E-03          
 0.1993179E-03 0.1919270E-03 0.1919270E-03 0.1919270E-03 0.1919270E-03          
 0.1845360E-03 0.1771450E-03 0.1623631E-03 0.1623631E-03 0.1623631E-03          
 0.1623631E-03 0.1623631E-03 0.1623631E-03 0.1623631E-03 0.1623631E-03          
 0.1623631E-03 0.1623631E-03 0.1623631E-03 0.1549721E-03 0.1549721E-03          
 0.1549721E-03 0.1549721E-03 0.1475811E-03 0.1475811E-03 0.1475811E-03          
 0.1475811E-03 0.1475811E-03 0.1347065E-03 0.1347065E-03 0.1347065E-03          
 0.1199245E-03 0.1199245E-03 0.1199245E-03 0.1199245E-03 0.1199245E-03          
 0.1199245E-03 0.1199245E-03 0.1199245E-03 0.1125336E-03 0.1125336E-03          
 0.1125336E-03 0.1051426E-03 0.1051426E-03 0.9775162E-04 0.9036064E-04          
 0.9036064E-04 0.9036064E-04 0.9036064E-04 0.9036064E-04 0.9036064E-04          
 0.9036064E-04 0.9036064E-04 0.9036064E-04 0.9036064E-04 0.9036064E-04          
 0.9036064E-04 0.9036064E-04 0.9036064E-04 0.9036064E-04 0.9036064E-04          
 0.9036064E-04 0.8296967E-04 0.8296967E-04 0.8296967E-04 0.8296967E-04          
 0.8296967E-04 0.8296967E-04 0.8296967E-04 0.8296967E-04 0.8296967E-04          
 0.8296967E-04 0.8296967E-04 0.8296967E-04 0.8296967E-04 0.8296967E-04          
 0.7557869E-04 0.7557869E-04 0.7557869E-04 0.7557869E-04 0.7557869E-04          
 0.6818771E-04 0.6818771E-04 0.6818771E-04 0.6818771E-04 0.6818771E-04          
 0.6818771E-04 0.6818771E-04 0.6818771E-04 0.6818771E-04 0.6818771E-04          
 0.5531311E-04 0.5531311E-04 0.5531311E-04 0.5531311E-04 0.5531311E-04          
 0.5531311E-04 0.5531311E-04 0.5531311E-04 0.5531311E-04 0.5531311E-04          
 0.5531311E-04 0.4792213E-04 0.4053116E-04 0.4053116E-04 0.4053116E-04          
 0.4053116E-04 0.4053116E-04 0.4053116E-04 0.4053116E-04 0.4053116E-04          
 0.4053116E-04 0.4053116E-04 0.4053116E-04 0.4053116E-04 0.4053116E-04          
 0.4053116E-04 0.4053116E-04 0.4053116E-04 0.4053116E-04 0.4053116E-04          
 0.3314018E-04 0.3314018E-04 0.3314018E-04 0.3314018E-04 0.3314018E-04          
 0.3314018E-04 0.3314018E-04 0.3314018E-04 0.3314018E-04 0.3314018E-04          
 0.3314018E-04 0.3314018E-04 0.3314018E-04 0.3314018E-04 0.3314018E-04          
 0.3314018E-04 0.3314018E-04 0.3314018E-04 0.3314018E-04 0.3314018E-04          
 0.3314018E-04 0.3314018E-04 0.3314018E-04 0.3314018E-04 0.3314018E-04          
 0.3314018E-04 0.3314018E-04 0.3314018E-04 0.3314018E-04 0.3314018E-04          
 0.3314018E-04 0.3314018E-04 0.3314018E-04 0.3314018E-04 0.3314018E-04          
 0.3314018E-04 0.3314018E-04 0.3314018E-04 0.3314018E-04 0.3314018E-04          
 0.3314018E-04 0.3314018E-04 0.3314018E-04 0.3314018E-04 0.3314018E-04          
 0.3314018E-04 0.3314018E-04 0.3314018E-04 0.3314018E-04 0.3314018E-04          
 0.3314018E-04 0.3314018E-04 0.3314018E-04 0.3314018E-04 0.3314018E-04          
  1.000000     0.9217516     0.8444588     0.7696660     0.6962523              
 0.6261957     0.5591434     0.4961758     0.4380472     0.3849302              
 0.3358386     0.2912155     0.2518879     0.2160838     0.1849453              
 0.1573752     0.1334198     0.1128423     0.9514117E-01 0.7998830E-01          
 0.6737715E-01 0.5670804E-01 0.4765332E-01 0.4018718E-01 0.3406954E-01          
 0.2944499E-01 0.2559179E-01 0.2241158E-01 0.2005070E-01 0.1801056E-01          
 0.1618385E-01 0.1458079E-01 0.1338905E-01 0.1239365E-01 0.1141930E-01          
 0.1054502E-01 0.9759963E-02 0.9133339E-02 0.8508503E-02 0.7949948E-02          
 0.7463574E-02 0.7062018E-02 0.6651282E-02 0.6326258E-02 0.6003499E-02          
 0.5733669E-02 0.5483627E-02 0.5198598E-02 0.4975915E-02 0.4700720E-02          
 0.4506528E-02 0.4327714E-02 0.4111588E-02 0.3939748E-02 0.3793061E-02          
 0.3625095E-02 0.3452778E-02 0.3302932E-02 0.3153682E-02 0.3030479E-02          
 0.2895951E-02 0.2780497E-02 0.2681971E-02 0.2612531E-02 0.2502024E-02          
 0.2418220E-02 0.2317607E-02 0.2232909E-02 0.2169967E-02 0.2115786E-02          
 0.2061069E-02 0.1998663E-02 0.1910627E-02 0.1834095E-02 0.1770556E-02          
 0.1695096E-02 0.1647413E-02 0.1587749E-02 0.1532018E-02 0.1481175E-02          
 0.1457632E-02 0.1422644E-02 0.1371801E-02 0.1344979E-02 0.1299500E-02          
 0.1251340E-02 0.1199901E-02 0.1167059E-02 0.1124978E-02 0.1108587E-02          
 0.1062155E-02 0.1043558E-02 0.1020074E-02 0.9927154E-03 0.9708405E-03          
 0.9428859E-03 0.9166598E-03 0.9046793E-03 0.8882284E-03 0.8680820E-03          
 0.8401275E-03 0.8172393E-03 0.8001924E-03 0.7706881E-03 0.7581115E-03          
 0.7297397E-03 0.6957650E-03 0.6914139E-03 0.6810427E-03 0.6728172E-03          
 0.6460547E-03 0.6417036E-03 0.6291866E-03 0.6172061E-03 0.6083846E-03          
 0.5871058E-03 0.5673766E-03 0.5548000E-03 0.5504489E-03 0.5345941E-03          
 0.5165935E-03 0.5062222E-03 0.4958510E-03 0.4832745E-03 0.4795194E-03          
 0.4729033E-03 0.4586577E-03 0.4482865E-03 0.4385114E-03 0.4265308E-03          
 0.4221797E-03 0.4178286E-03 0.3970861E-03 0.3904700E-03 0.3844500E-03          
 0.3778338E-03 0.3756285E-03 0.3734827E-03 0.3603697E-03 0.3582239E-03          
 0.3538728E-03 0.3517270E-03 0.3473759E-03 0.3412962E-03 0.3265142E-03          
 0.3182888E-03 0.3122687E-03 0.3100634E-03 0.3063083E-03 0.2980828E-03          
 0.2883077E-03 0.2883077E-03 0.2883077E-03 0.2816916E-03 0.2728701E-03          
 0.2603531E-03 0.2537370E-03 0.2493858E-03 0.2450943E-03 0.2428889E-03          
 0.2407432E-03 0.2385974E-03 0.2363920E-03 0.2321005E-03 0.2298951E-03          
 0.2261400E-03 0.2217889E-03 0.2217889E-03 0.2217889E-03 0.2151728E-03          
 0.2151728E-03 0.2151728E-03 0.2085567E-03 0.2048016E-03 0.2010465E-03          
 0.1989007E-03 0.1928210E-03 0.1906753E-03 0.1885295E-03 0.1819134E-03          
 0.1775622E-03 0.1754165E-03 0.1754165E-03 0.1710653E-03 0.1710653E-03          
 0.1710653E-03 0.1689196E-03 0.1628399E-03 0.1584888E-03 0.1541972E-03          
 0.1519918E-03 0.1519918E-03 0.1519918E-03 0.1453757E-03 0.1416206E-03          
 0.1416206E-03 0.1378655E-03 0.1335144E-03 0.1335144E-03 0.1297593E-03          
 0.1254678E-03 0.1254678E-03 0.1232624E-03 0.1150370E-03 0.1150370E-03          
 0.1128912E-03 0.1128912E-03 0.1128912E-03 0.1107454E-03 0.1107454E-03          
 0.1107454E-03 0.1085401E-03 0.1085401E-03 0.1063943E-03 0.1042485E-03          
 0.1042485E-03 0.1042485E-03 0.1042485E-03 0.1042485E-03 0.1042485E-03          
 0.9989738E-04 0.9989738E-04 0.9614229E-04 0.9399652E-04 0.9399652E-04          
 0.9179115E-04 0.9179115E-04 0.8577108E-04 0.8577108E-04 0.8577108E-04          
 0.8577108E-04 0.8201599E-04 0.8201599E-04 0.8201599E-04 0.8201599E-04          
 0.8201599E-04 0.8201599E-04 0.8201599E-04 0.8201599E-04 0.8201599E-04          
 0.7826090E-04 0.7826090E-04 0.7605553E-04 0.7003546E-04 0.7003546E-04          
 0.6395578E-04 0.6395578E-04 0.6395578E-04 0.6020069E-04 0.6020069E-04          
 0.5805492E-04 0.5805492E-04 0.5805492E-04 0.5590916E-04 0.5370378E-04          
 0.4994869E-04 0.4994869E-04 0.4994869E-04 0.4994869E-04 0.4994869E-04          
 0.4994869E-04 0.4780293E-04 0.4559755E-04 0.4559755E-04 0.4345179E-04          
 0.4345179E-04 0.4345179E-04 0.4345179E-04 0.4345179E-04 0.4130602E-04          
 0.4130602E-04 0.4130602E-04 0.4130602E-04 0.4130602E-04 0.4130602E-04          
 0.4130602E-04 0.3910065E-04 0.3910065E-04 0.3910065E-04 0.3695488E-04          
 0.3480911E-04 0.3480911E-04 0.3480911E-04 0.3480911E-04 0.3480911E-04          
 0.3480911E-04 0.3260374E-04 0.3260374E-04 0.3260374E-04 0.3260374E-04          
 0.3260374E-04 0.3260374E-04 0.3260374E-04 0.3260374E-04 0.3260374E-04          
 0.3260374E-04 0.3260374E-04 0.3260374E-04 0.3260374E-04 0.3260374E-04          
 0.3045797E-04 0.3045797E-04 0.2825260E-04 0.2610683E-04 0.2610683E-04          
 0.2610683E-04 0.2610683E-04 0.2610683E-04 0.2610683E-04 0.2610683E-04          
 0.2610683E-04 0.2610683E-04 0.2610683E-04 0.2610683E-04 0.2610683E-04          
 0.2610683E-04 0.2610683E-04 0.2610683E-04 0.2610683E-04 0.2610683E-04          
 0.2610683E-04 0.2610683E-04 0.2610683E-04 0.2610683E-04 0.2610683E-04          
 0.2610683E-04 0.2396107E-04 0.2396107E-04 0.2396107E-04 0.2396107E-04          
 0.2396107E-04 0.2396107E-04 0.2396107E-04 0.2396107E-04 0.2396107E-04          
 0.2396107E-04 0.2175570E-04 0.2175570E-04 0.2175570E-04 0.2175570E-04          
 0.2175570E-04 0.2175570E-04 0.2175570E-04 0.2175570E-04 0.2175570E-04          
 0.2175570E-04 0.2175570E-04 0.2175570E-04 0.2175570E-04 0.2175570E-04          
 0.2175570E-04 0.2175570E-04 0.2175570E-04 0.2175570E-04 0.2175570E-04          
 0.2175570E-04 0.2175570E-04 0.2175570E-04 0.2175570E-04 0.2175570E-04          
 0.2175570E-04 0.1960993E-04 0.1960993E-04 0.1960993E-04 0.1960993E-04          
 0.1960993E-04 0.1960993E-04 0.1960993E-04 0.1960993E-04 0.1960993E-04          
 0.1960993E-04 0.1960993E-04 0.1960993E-04 0.1960993E-04 0.1960993E-04          
 0.1960993E-04 0.1960993E-04 0.1960993E-04 0.1960993E-04 0.1960993E-04          
 0.1960993E-04 0.1960993E-04 0.1960993E-04 0.1960993E-04 0.1960993E-04          
 0.1960993E-04 0.1960993E-04 0.1960993E-04 0.1960993E-04 0.1585484E-04          
 0.1585484E-04 0.1585484E-04 0.1585484E-04 0.1585484E-04 0.1585484E-04          
 0.1585484E-04 0.1585484E-04 0.1585484E-04 0.1370907E-04 0.1370907E-04          
  1.000000     0.8818796     0.7654828     0.6574816     0.5551327              
 0.4641435     0.3838395     0.3152630     0.2548338     0.2060869              
 0.1631992     0.1295412     0.1024133     0.8194226E-01 0.6507826E-01          
 0.5188942E-01 0.4183543E-01 0.3337848E-01 0.2694613E-01 0.2190608E-01          
 0.1761371E-01 0.1451385E-01 0.1202458E-01 0.9217858E-02 0.7095873E-02          
 0.5527318E-02 0.4406691E-02 0.3632903E-02 0.2912223E-02 0.2439559E-02          
 0.2182722E-02 0.1950562E-02 0.1710474E-02 0.1388848E-02 0.1213610E-02          
 0.9651184E-03 0.7777810E-03 0.6598830E-03 0.5499125E-03 0.4725456E-03          
 0.4236102E-03 0.3910065E-03 0.2973080E-03 0.2688766E-03 0.2199411E-03          
 0.1589060E-03 0.1425743E-03 0.1425743E-03 0.1099706E-03 0.8153915E-04          
 0.4893541E-04 0.4893541E-04 0.4893541E-04 0.4893541E-04 0.4893541E-04          
 0.4893541E-04 0.4893541E-04 0.4893541E-04 0.4893541E-04 0.4893541E-04          
 0.1633167E-04 0.1633167E-04 0.1633167E-04 0.1633167E-04 0.0000000E+00          
 0.0000000E+00 0.0000000E+00 0.0000000E+00 0.0000000E+00 0.0000000E+00          
 0.0000000E+00 0.0000000E+00 0.0000000E+00 0.0000000E+00 0.0000000E+00          
 0.0000000E+00 0.0000000E+00 0.0000000E+00 0.0000000E+00 0.0000000E+00          
 0.0000000E+00 0.0000000E+00 0.0000000E+00 0.0000000E+00 0.0000000E+00          
 0.0000000E+00 0.0000000E+00 0.0000000E+00 0.0000000E+00 0.0000000E+00          
 0.0000000E+00 0.0000000E+00 0.0000000E+00 0.0000000E+00 0.0000000E+00          
 0.0000000E+00 0.0000000E+00 0.0000000E+00 0.0000000E+00 0.0000000E+00          
 0.0000000E+00 0.0000000E+00 0.0000000E+00 0.0000000E+00 0.0000000E+00          
 0.0000000E+00 0.0000000E+00 0.0000000E+00 0.0000000E+00 0.0000000E+00          
 0.0000000E+00 0.0000000E+00 0.0000000E+00 0.0000000E+00 0.0000000E+00          
 0.0000000E+00 0.0000000E+00 0.0000000E+00 0.0000000E+00 0.0000000E+00          
 0.0000000E+00 0.0000000E+00 0.0000000E+00 0.0000000E+00 0.0000000E+00          
 0.0000000E+00 0.0000000E+00 0.0000000E+00 0.0000000E+00 0.0000000E+00          
 0.0000000E+00 0.0000000E+00 0.0000000E+00 0.0000000E+00 0.0000000E+00          
 0.0000000E+00 0.0000000E+00 0.0000000E+00 0.0000000E+00 0.0000000E+00          
 0.0000000E+00 0.0000000E+00 0.0000000E+00 0.0000000E+00 0.0000000E+00          
 0.0000000E+00 0.0000000E+00 0.0000000E+00 0.0000000E+00 0.0000000E+00          
 0.0000000E+00 0.0000000E+00 0.0000000E+00 0.0000000E+00 0.0000000E+00          
 0.0000000E+00 0.0000000E+00 0.0000000E+00 0.0000000E+00 0.0000000E+00          
 0.0000000E+00 0.0000000E+00 0.0000000E+00 0.0000000E+00 0.0000000E+00          
 0.0000000E+00 0.0000000E+00 0.0000000E+00 0.0000000E+00 0.0000000E+00          
 0.0000000E+00 0.0000000E+00 0.0000000E+00 0.0000000E+00 0.0000000E+00          
 0.0000000E+00 0.0000000E+00 0.0000000E+00 0.0000000E+00 0.0000000E+00          
 0.0000000E+00 0.0000000E+00 0.0000000E+00 0.0000000E+00 0.0000000E+00          
 0.0000000E+00 0.0000000E+00 0.0000000E+00 0.0000000E+00 0.0000000E+00          
 0.0000000E+00 0.0000000E+00 0.0000000E+00 0.0000000E+00 0.0000000E+00          
 0.0000000E+00 0.0000000E+00 0.0000000E+00 0.0000000E+00 0.0000000E+00          
 0.0000000E+00 0.0000000E+00 0.0000000E+00 0.0000000E+00 0.0000000E+00          
 0.0000000E+00 0.0000000E+00 0.0000000E+00 0.0000000E+00 0.0000000E+00          
 0.0000000E+00 0.0000000E+00 0.0000000E+00 0.0000000E+00 0.0000000E+00          
 0.0000000E+00 0.0000000E+00 0.0000000E+00 0.0000000E+00 0.0000000E+00          
 0.0000000E+00 0.0000000E+00 0.0000000E+00 0.0000000E+00 0.0000000E+00          
 0.0000000E+00 0.0000000E+00 0.0000000E+00 0.0000000E+00 0.0000000E+00          
 0.0000000E+00 0.0000000E+00 0.0000000E+00 0.0000000E+00 0.0000000E+00          
 0.0000000E+00 0.0000000E+00 0.0000000E+00 0.0000000E+00 0.0000000E+00          
 0.0000000E+00 0.0000000E+00 0.0000000E+00 0.0000000E+00 0.0000000E+00          
 0.0000000E+00 0.0000000E+00 0.0000000E+00 0.0000000E+00 0.0000000E+00          
 0.0000000E+00 0.0000000E+00 0.0000000E+00 0.0000000E+00 0.0000000E+00          
 0.0000000E+00 0.0000000E+00 0.0000000E+00 0.0000000E+00 0.0000000E+00          
 0.0000000E+00 0.0000000E+00 0.0000000E+00 0.0000000E+00 0.0000000E+00          
 0.0000000E+00 0.0000000E+00 0.0000000E+00 0.0000000E+00 0.0000000E+00          
 0.0000000E+00 0.0000000E+00 0.0000000E+00 0.0000000E+00 0.0000000E+00          
 0.0000000E+00 0.0000000E+00 0.0000000E+00 0.0000000E+00 0.0000000E+00          
 0.0000000E+00 0.0000000E+00 0.0000000E+00 0.0000000E+00 0.0000000E+00          
 0.0000000E+00 0.0000000E+00 0.0000000E+00 0.0000000E+00 0.0000000E+00          
 0.0000000E+00 0.0000000E+00 0.0000000E+00 0.0000000E+00 0.0000000E+00          
 0.0000000E+00 0.0000000E+00 0.0000000E+00 0.0000000E+00 0.0000000E+00          
 0.0000000E+00 0.0000000E+00 0.0000000E+00 0.0000000E+00 0.0000000E+00          
 0.0000000E+00 0.0000000E+00 0.0000000E+00 0.0000000E+00 0.0000000E+00          
 0.0000000E+00 0.0000000E+00 0.0000000E+00 0.0000000E+00 0.0000000E+00          
 0.0000000E+00 0.0000000E+00 0.0000000E+00 0.0000000E+00 0.0000000E+00          
 0.0000000E+00 0.0000000E+00 0.0000000E+00 0.0000000E+00 0.0000000E+00          
 0.0000000E+00 0.0000000E+00 0.0000000E+00 0.0000000E+00 0.0000000E+00          
 0.0000000E+00 0.0000000E+00 0.0000000E+00 0.0000000E+00 0.0000000E+00          
 0.0000000E+00 0.0000000E+00 0.0000000E+00 0.0000000E+00 0.0000000E+00          
 0.0000000E+00 0.0000000E+00 0.0000000E+00 0.0000000E+00 0.0000000E+00          
 0.0000000E+00 0.0000000E+00 0.0000000E+00 0.0000000E+00 0.0000000E+00          
 0.0000000E+00 0.0000000E+00 0.0000000E+00 0.0000000E+00 0.0000000E+00          
 0.0000000E+00 0.0000000E+00 0.0000000E+00 0.0000000E+00 0.0000000E+00          
 0.0000000E+00 0.0000000E+00 0.0000000E+00 0.0000000E+00 0.0000000E+00          
 0.0000000E+00 0.0000000E+00 0.0000000E+00 0.0000000E+00 0.0000000E+00          
 0.0000000E+00 0.0000000E+00 0.0000000E+00 0.0000000E+00 0.0000000E+00          
 0.0000000E+00 0.0000000E+00 0.0000000E+00 0.0000000E+00 0.0000000E+00          
 0.0000000E+00 0.0000000E+00 0.0000000E+00 0.0000000E+00 0.0000000E+00          
 0.0000000E+00 0.0000000E+00 0.0000000E+00 0.0000000E+00 0.0000000E+00          
 0.0000000E+00 0.0000000E+00 0.0000000E+00 0.0000000E+00 0.0000000E+00          
 0.0000000E+00 0.0000000E+00 0.0000000E+00 0.0000000E+00 0.0000000E+00          
