  1.000000     0.9263555     0.8526190     0.7842216     0.7151800              
 0.6508331     0.5863942     0.5261898     0.4715088     0.4235478              
 0.3755869     0.3325048     0.2930130     0.2574795     0.2258124              
 0.2004971     0.1756421     0.1553898     0.1365185     0.1219737              
 0.1065083     0.9435701E-01 0.8386266E-01 0.7502532E-01 0.6738472E-01          
 0.6213754E-01 0.5689037E-01 0.5274785E-01 0.4934180E-01 0.4501522E-01          
 0.4206944E-01 0.3967595E-01 0.3709841E-01 0.3507316E-01 0.3323209E-01          
 0.3120685E-01 0.2936572E-01 0.2780080E-01 0.2559143E-01 0.2393448E-01          
 0.2282977E-01 0.2172512E-01 0.2080458E-01 0.1969987E-01 0.1887143E-01          
 0.1841110E-01 0.1795083E-01 0.1693821E-01 0.1657003E-01 0.1601768E-01          
 0.1564944E-01 0.1528120E-01 0.1509714E-01 0.1472890E-01 0.1426864E-01          
 0.1390040E-01 0.1344013E-01 0.1334804E-01 0.1279575E-01 0.1205927E-01          
 0.1187515E-01 0.1169103E-01 0.1141489E-01 0.1104665E-01 0.1058638E-01          
 0.1021814E-01 0.1003408E-01 0.9481728E-02 0.9205580E-02 0.8837342E-02          
 0.8561194E-02 0.8192956E-02 0.7916808E-02 0.7824719E-02 0.7640600E-02          
 0.7180333E-02 0.7180333E-02 0.7088304E-02 0.6443918E-02 0.6075680E-02          
 0.5983591E-02 0.5799532E-02 0.5523324E-02 0.5523324E-02 0.5431294E-02          
 0.5431294E-02 0.5339205E-02 0.5339205E-02 0.5155087E-02 0.5063057E-02          
 0.4971027E-02 0.4878938E-02 0.4878938E-02 0.4694819E-02 0.4510701E-02          
 0.4234552E-02 0.4142523E-02 0.4050434E-02 0.4050434E-02 0.3958404E-02          
 0.3590167E-02 0.3590167E-02 0.3590167E-02 0.3498137E-02 0.3406048E-02          
 0.3406048E-02 0.3221929E-02 0.3221929E-02 0.3129900E-02 0.3037810E-02          
 0.2945781E-02 0.2761662E-02 0.2761662E-02 0.2669632E-02 0.2669632E-02          
 0.2577543E-02 0.2577543E-02 0.2577543E-02 0.2577543E-02 0.2393425E-02          
 0.2301395E-02 0.2301395E-02 0.2301395E-02 0.2209306E-02 0.2209306E-02          
 0.2209306E-02 0.2117276E-02 0.2117276E-02 0.2025247E-02 0.1933157E-02          
 0.1933157E-02 0.1933157E-02 0.1933157E-02 0.1933157E-02 0.1933157E-02          
 0.1841128E-02 0.1841128E-02 0.1749039E-02 0.1749039E-02 0.1749039E-02          
 0.1657009E-02 0.1564920E-02 0.1564920E-02 0.1564920E-02 0.1564920E-02          
 0.1472890E-02 0.1380861E-02 0.1380861E-02 0.1380861E-02 0.1380861E-02          
 0.1380861E-02 0.1288772E-02 0.1196742E-02 0.1196742E-02 0.1104653E-02          
 0.1104653E-02 0.1104653E-02 0.1104653E-02 0.1104653E-02 0.1104653E-02          
 0.1104653E-02 0.1012623E-02 0.1012623E-02 0.1012623E-02 0.1012623E-02          
 0.1012623E-02 0.1012623E-02 0.1012623E-02 0.9205341E-03 0.9205341E-03          
 0.7364154E-03 0.7364154E-03 0.7364154E-03 0.7364154E-03 0.7364154E-03          
 0.6443858E-03 0.6443858E-03 0.6443858E-03 0.6443858E-03 0.6443858E-03          
 0.6443858E-03 0.6443858E-03 0.6443858E-03 0.6443858E-03 0.6443858E-03          
 0.6443858E-03 0.6443858E-03 0.6443858E-03 0.6443858E-03 0.6443858E-03          
 0.5523562E-03 0.5523562E-03 0.5523562E-03 0.5523562E-03 0.5523562E-03          
 0.5523562E-03 0.5523562E-03 0.4602671E-03 0.4602671E-03 0.4602671E-03          
 0.4602671E-03 0.4602671E-03 0.4602671E-03 0.4602671E-03 0.4602671E-03          
 0.4602671E-03 0.3682375E-03 0.3682375E-03 0.3682375E-03 0.3682375E-03          
 0.3682375E-03 0.3682375E-03 0.3682375E-03 0.3682375E-03 0.3682375E-03          
 0.3682375E-03 0.3682375E-03 0.3682375E-03 0.3682375E-03 0.3682375E-03          
 0.3682375E-03 0.3682375E-03 0.3682375E-03 0.3682375E-03 0.3682375E-03          
 0.3682375E-03 0.2761483E-03 0.2761483E-03 0.2761483E-03 0.2761483E-03          
 0.2761483E-03 0.2761483E-03 0.2761483E-03 0.2761483E-03 0.2761483E-03          
 0.2761483E-03 0.2761483E-03 0.2761483E-03 0.2761483E-03 0.2761483E-03          
 0.2761483E-03 0.2761483E-03 0.2761483E-03 0.1841187E-03 0.1841187E-03          
 0.1841187E-03 0.1841187E-03 0.1841187E-03 0.1841187E-03 0.1841187E-03          
 0.1841187E-03 0.1841187E-03 0.1841187E-03 0.1841187E-03 0.1841187E-03          
 0.1841187E-03 0.1841187E-03 0.1841187E-03 0.1841187E-03 0.1841187E-03          
 0.1841187E-03 0.1841187E-03 0.1841187E-03 0.1841187E-03 0.1841187E-03          
 0.1841187E-03 0.1841187E-03 0.1841187E-03 0.1841187E-03 0.1841187E-03          
 0.1841187E-03 0.1841187E-03 0.1841187E-03 0.1841187E-03 0.1841187E-03          
 0.1841187E-03 0.1841187E-03 0.1841187E-03 0.1841187E-03 0.1841187E-03          
 0.1841187E-03 0.1841187E-03 0.1841187E-03 0.1841187E-03 0.1841187E-03          
 0.1841187E-03 0.1841187E-03 0.1841187E-03 0.1841187E-03 0.1841187E-03          
 0.1841187E-03 0.1841187E-03 0.1841187E-03 0.1841187E-03 0.1841187E-03          
 0.1841187E-03 0.1841187E-03 0.1841187E-03 0.1841187E-03 0.1841187E-03          
 0.1841187E-03 0.1841187E-03 0.1841187E-03 0.1841187E-03 0.1841187E-03          
 0.1841187E-03 0.9202957E-04 0.9202957E-04 0.9202957E-04 0.9202957E-04          
 0.9202957E-04 0.9202957E-04 0.9202957E-04 0.9202957E-04 0.9202957E-04          
 0.9202957E-04 0.0000000E+00 0.0000000E+00 0.0000000E+00 0.0000000E+00          
 0.0000000E+00 0.0000000E+00 0.0000000E+00 0.0000000E+00 0.0000000E+00          
 0.0000000E+00 0.0000000E+00 0.0000000E+00 0.0000000E+00 0.0000000E+00          
 0.0000000E+00 0.0000000E+00 0.0000000E+00 0.0000000E+00 0.0000000E+00          
 0.0000000E+00 0.0000000E+00 0.0000000E+00 0.0000000E+00 0.0000000E+00          
 0.0000000E+00 0.0000000E+00 0.0000000E+00 0.0000000E+00 0.0000000E+00          
 0.0000000E+00 0.0000000E+00 0.0000000E+00 0.0000000E+00 0.0000000E+00          
 0.0000000E+00 0.0000000E+00 0.0000000E+00 0.0000000E+00 0.0000000E+00          
 0.0000000E+00 0.0000000E+00 0.0000000E+00 0.0000000E+00 0.0000000E+00          
 0.0000000E+00 0.0000000E+00 0.0000000E+00 0.0000000E+00 0.0000000E+00          
 0.0000000E+00 0.0000000E+00 0.0000000E+00 0.0000000E+00 0.0000000E+00          
 0.0000000E+00 0.0000000E+00 0.0000000E+00 0.0000000E+00 0.0000000E+00          
 0.0000000E+00 0.0000000E+00 0.0000000E+00 0.0000000E+00 0.0000000E+00          
 0.0000000E+00 0.0000000E+00 0.0000000E+00 0.0000000E+00 0.0000000E+00          
 0.0000000E+00 0.0000000E+00 0.0000000E+00 0.0000000E+00 0.0000000E+00          
 0.0000000E+00 0.0000000E+00 0.0000000E+00 0.0000000E+00 0.0000000E+00          
 0.0000000E+00 0.0000000E+00 0.0000000E+00 0.0000000E+00 0.0000000E+00          
  1.000000     0.9198473     0.8507981     0.7845246     0.7185982              
 0.6561416     0.5888272     0.5291464     0.4757113     0.4285219              
 0.3886190     0.3518390     0.3164469     0.2862595     0.2546843              
 0.2321305     0.2137405     0.1984733     0.1828591     0.1689799              
 0.1585704     0.1460791     0.1367106     0.1273421     0.1176267              
 0.1086051     0.1034004     0.9611380E-01 0.9056211E-01 0.8639836E-01          
 0.8223456E-01 0.7980567E-01 0.7668287E-01 0.7182515E-01 0.6731439E-01          
 0.6488550E-01 0.6141567E-01 0.5898684E-01 0.5794585E-01 0.5586398E-01          
 0.5517000E-01 0.5378211E-01 0.5204719E-01 0.5100626E-01 0.4961830E-01          
 0.4857737E-01 0.4753643E-01 0.4614848E-01 0.4441363E-01 0.4337263E-01          
 0.4302567E-01 0.4267871E-01 0.4163778E-01 0.4163778E-01 0.4024982E-01          
 0.3955585E-01 0.3816795E-01 0.3712702E-01 0.3678000E-01 0.3678000E-01          
 0.3435117E-01 0.3296322E-01 0.3261626E-01 0.3088135E-01 0.3018737E-01          
 0.3018737E-01 0.2845246E-01 0.2810550E-01 0.2810550E-01 0.2775848E-01          
 0.2671754E-01 0.2602357E-01 0.2532965E-01 0.2463567E-01 0.2428871E-01          
 0.2220678E-01 0.2081889E-01 0.2047187E-01 0.2047187E-01 0.1977795E-01          
 0.1908398E-01 0.1873696E-01 0.1873696E-01 0.1873696E-01 0.1873696E-01          
 0.1839000E-01 0.1804304E-01 0.1804304E-01 0.1734906E-01 0.1700211E-01          
 0.1665509E-01 0.1630813E-01 0.1596111E-01 0.1596111E-01 0.1596111E-01          
 0.1596111E-01 0.1596111E-01 0.1526719E-01 0.1457322E-01 0.1457322E-01          
 0.1422626E-01 0.1387924E-01 0.1318526E-01 0.1283830E-01 0.1214433E-01          
 0.1214433E-01 0.1214433E-01 0.1179737E-01 0.1179737E-01 0.1145041E-01          
 0.1110339E-01 0.1110339E-01 0.1110339E-01 0.1110339E-01 0.1110339E-01          
 0.1110339E-01 0.1110339E-01 0.1075643E-01 0.1075643E-01 0.1075643E-01          
 0.1075643E-01 0.1075643E-01 0.1075643E-01 0.1040941E-01 0.1040941E-01          
 0.1040941E-01 0.1040941E-01 0.1006246E-01 0.1006246E-01 0.1006246E-01          
 0.9368479E-02 0.9368479E-02 0.9368479E-02 0.9368479E-02 0.9368479E-02          
 0.8674502E-02 0.8327544E-02 0.8327544E-02 0.8327544E-02 0.8327544E-02          
 0.8327544E-02 0.8327544E-02 0.8327544E-02 0.8327544E-02 0.7980585E-02          
 0.7980585E-02 0.7980585E-02 0.7980585E-02 0.7980585E-02 0.7980585E-02          
 0.7633567E-02 0.7633567E-02 0.7286608E-02 0.6939650E-02 0.6939650E-02          
 0.6592631E-02 0.5551696E-02 0.5551696E-02 0.5551696E-02 0.5551696E-02          
 0.5551696E-02 0.5551696E-02 0.5551696E-02 0.5551696E-02 0.5551696E-02          
 0.5551696E-02 0.5551696E-02 0.5551696E-02 0.5551696E-02 0.5551696E-02          
 0.5551696E-02 0.5551696E-02 0.5204737E-02 0.5204737E-02 0.5204737E-02          
 0.4857719E-02 0.4857719E-02 0.4510760E-02 0.4510760E-02 0.4510760E-02          
 0.4510760E-02 0.4510760E-02 0.4163802E-02 0.4163802E-02 0.4163802E-02          
 0.4163802E-02 0.4163802E-02 0.3816783E-02 0.3816783E-02 0.3816783E-02          
 0.3816783E-02 0.3816783E-02 0.3816783E-02 0.3816783E-02 0.3816783E-02          
 0.3816783E-02 0.3816783E-02 0.3816783E-02 0.3816783E-02 0.3816783E-02          
 0.3816783E-02 0.3816783E-02 0.3816783E-02 0.3469825E-02 0.3469825E-02          
 0.3122807E-02 0.3122807E-02 0.3122807E-02 0.3122807E-02 0.3122807E-02          
 0.3122807E-02 0.2775848E-02 0.2775848E-02 0.2775848E-02 0.2775848E-02          
 0.2775848E-02 0.2775848E-02 0.2775848E-02 0.2428889E-02 0.2428889E-02          
 0.2428889E-02 0.2428889E-02 0.2428889E-02 0.2428889E-02 0.2428889E-02          
 0.2428889E-02 0.2428889E-02 0.2428889E-02 0.2081871E-02 0.2081871E-02          
 0.2081871E-02 0.2081871E-02 0.2081871E-02 0.2081871E-02 0.2081871E-02          
 0.2081871E-02 0.2081871E-02 0.2081871E-02 0.2081871E-02 0.2081871E-02          
 0.2081871E-02 0.1734912E-02 0.1734912E-02 0.1734912E-02 0.1734912E-02          
 0.1387954E-02 0.1387954E-02 0.1387954E-02 0.1040936E-02 0.1040936E-02          
 0.1040936E-02 0.1040936E-02 0.1040936E-02 0.1040936E-02 0.1040936E-02          
 0.1040936E-02 0.1040936E-02 0.1040936E-02 0.1040936E-02 0.1040936E-02          
 0.1040936E-02 0.1040936E-02 0.1040936E-02 0.1040936E-02 0.1040936E-02          
 0.1040936E-02 0.1040936E-02 0.1040936E-02 0.1040936E-02 0.1040936E-02          
 0.1040936E-02 0.1040936E-02 0.1040936E-02 0.1040936E-02 0.1040936E-02          
 0.1040936E-02 0.1040936E-02 0.1040936E-02 0.1040936E-02 0.1040936E-02          
 0.1040936E-02 0.1040936E-02 0.1040936E-02 0.1040936E-02 0.1040936E-02          
 0.1040936E-02 0.1040936E-02 0.6939769E-03 0.6939769E-03 0.6939769E-03          
 0.6939769E-03 0.6939769E-03 0.6939769E-03 0.6939769E-03 0.6939769E-03          
 0.6939769E-03 0.6939769E-03 0.6939769E-03 0.6939769E-03 0.6939769E-03          
 0.6939769E-03 0.6939769E-03 0.6939769E-03 0.6939769E-03 0.6939769E-03          
 0.6939769E-03 0.6939769E-03 0.3469586E-03 0.3469586E-03 0.3469586E-03          
 0.3469586E-03 0.3469586E-03 0.3469586E-03 0.3469586E-03 0.3469586E-03          
 0.3469586E-03 0.3469586E-03 0.3469586E-03 0.3469586E-03 0.3469586E-03          
 0.3469586E-03 0.3469586E-03 0.3469586E-03 0.3469586E-03 0.3469586E-03          
 0.3469586E-03 0.3469586E-03 0.3469586E-03 0.3469586E-03 0.3469586E-03          
 0.3469586E-03 0.3469586E-03 0.3469586E-03 0.3469586E-03 0.3469586E-03          
 0.3469586E-03 0.3469586E-03 0.3469586E-03 0.3469586E-03 0.3469586E-03          
 0.3469586E-03 0.3469586E-03 0.3469586E-03 0.3469586E-03 0.3469586E-03          
 0.3469586E-03 0.3469586E-03 0.3469586E-03 0.3469586E-03 0.3469586E-03          
 0.3469586E-03 0.3469586E-03 0.3469586E-03 0.3469586E-03 0.3469586E-03          
 0.3469586E-03 0.3469586E-03 0.3469586E-03 0.3469586E-03 0.3469586E-03          
 0.3469586E-03 0.3469586E-03 0.3469586E-03 0.3469586E-03 0.3469586E-03          
 0.3469586E-03 0.3469586E-03 0.3469586E-03 0.3469586E-03 0.3469586E-03          
 0.3469586E-03 0.3469586E-03 0.3469586E-03 0.3469586E-03 0.3469586E-03          
 0.3469586E-03 0.3469586E-03 0.3469586E-03 0.3469586E-03 0.3469586E-03          
 0.3469586E-03 0.3469586E-03 0.3469586E-03 0.3469586E-03 0.3469586E-03          
 0.3469586E-03 0.3469586E-03 0.3469586E-03 0.3469586E-03 0.3469586E-03          
 0.3469586E-03 0.3469586E-03 0.3469586E-03 0.3469586E-03 0.3469586E-03          
 0.3469586E-03 0.3469586E-03 0.3469586E-03 0.3469586E-03 0.3469586E-03          
  1.000000     0.9269841     0.8539683     0.7825397     0.7142857              
 0.6460317     0.5936508     0.5380952     0.4857143     0.4317460              
 0.3888889     0.3507937     0.3158730     0.2793651     0.2619048              
 0.2333333     0.2158730     0.1952381     0.1857143     0.1714286              
 0.1587301     0.1476191     0.1365079     0.1269841     0.1174603              
 0.1142857     0.1095238     0.1095238     0.1031746     0.1031746              
 0.1031746     0.1031746     0.1015873     0.9841269E-01 0.9841269E-01          
 0.9841269E-01 0.9365082E-01 0.9206349E-01 0.8730161E-01 0.8730161E-01          
 0.8253968E-01 0.7936507E-01 0.7619047E-01 0.7460320E-01 0.7301587E-01          
 0.7301587E-01 0.7142860E-01 0.6984127E-01 0.6984127E-01 0.6984127E-01          
 0.6825399E-01 0.6825399E-01 0.6825399E-01 0.6666666E-01 0.6666666E-01          
 0.6666666E-01 0.6349206E-01 0.6190479E-01 0.6190479E-01 0.6031746E-01          
 0.5714285E-01 0.5555558E-01 0.5555558E-01 0.5396825E-01 0.5238098E-01          
 0.5079365E-01 0.4761904E-01 0.4761904E-01 0.4761904E-01 0.4603177E-01          
 0.4444444E-01 0.4444444E-01 0.4444444E-01 0.4444444E-01 0.4444444E-01          
 0.4285717E-01 0.4285717E-01 0.4285717E-01 0.4126984E-01 0.3968257E-01          
 0.3968257E-01 0.3968257E-01 0.3968257E-01 0.3492063E-01 0.3492063E-01          
 0.3492063E-01 0.3492063E-01 0.3333336E-01 0.3333336E-01 0.3333336E-01          
 0.3333336E-01 0.3174603E-01 0.3174603E-01 0.3015876E-01 0.3015876E-01          
 0.3015876E-01 0.2857143E-01 0.2857143E-01 0.2857143E-01 0.2857143E-01          
 0.2698416E-01 0.2698416E-01 0.2698416E-01 0.2539682E-01 0.2539682E-01          
 0.2539682E-01 0.2380955E-01 0.2380955E-01 0.2380955E-01 0.2380955E-01          
 0.2380955E-01 0.2380955E-01 0.2222222E-01 0.2063495E-01 0.1904762E-01          
 0.1746035E-01 0.1746035E-01 0.1746035E-01 0.1746035E-01 0.1746035E-01          
 0.1746035E-01 0.1746035E-01 0.1746035E-01 0.1746035E-01 0.1587301E-01          
 0.1587301E-01 0.1587301E-01 0.1587301E-01 0.1587301E-01 0.1587301E-01          
 0.1587301E-01 0.1428574E-01 0.1428574E-01 0.1428574E-01 0.1428574E-01          
 0.1428574E-01 0.1428574E-01 0.1269841E-01 0.1269841E-01 0.1269841E-01          
 0.1269841E-01 0.1269841E-01 0.1269841E-01 0.1269841E-01 0.1111114E-01          
 0.1111114E-01 0.1111114E-01 0.1111114E-01 0.1111114E-01 0.1111114E-01          
 0.1111114E-01 0.1111114E-01 0.1111114E-01 0.1111114E-01 0.1111114E-01          
 0.1111114E-01 0.1111114E-01 0.1111114E-01 0.1111114E-01 0.1111114E-01          
 0.9523809E-02 0.9523809E-02 0.9523809E-02 0.9523809E-02 0.9523809E-02          
 0.9523809E-02 0.9523809E-02 0.7936537E-02 0.7936537E-02 0.7936537E-02          
 0.7936537E-02 0.7936537E-02 0.7936537E-02 0.7936537E-02 0.7936537E-02          
 0.7936537E-02 0.6349206E-02 0.6349206E-02 0.6349206E-02 0.6349206E-02          
 0.6349206E-02 0.6349206E-02 0.6349206E-02 0.6349206E-02 0.6349206E-02          
 0.6349206E-02 0.6349206E-02 0.6349206E-02 0.6349206E-02 0.6349206E-02          
 0.6349206E-02 0.6349206E-02 0.6349206E-02 0.6349206E-02 0.6349206E-02          
 0.6349206E-02 0.6349206E-02 0.6349206E-02 0.4761934E-02 0.4761934E-02          
 0.4761934E-02 0.4761934E-02 0.4761934E-02 0.4761934E-02 0.3174603E-02          
 0.3174603E-02 0.3174603E-02 0.3174603E-02 0.3174603E-02 0.3174603E-02          
 0.3174603E-02 0.1587331E-02 0.1587331E-02 0.1587331E-02 0.1587331E-02          
 0.1587331E-02 0.1587331E-02 0.1587331E-02 0.1587331E-02 0.1587331E-02          
 0.1587331E-02 0.1587331E-02 0.1587331E-02 0.1587331E-02 0.0000000E+00          
 0.0000000E+00 0.0000000E+00 0.0000000E+00 0.0000000E+00 0.0000000E+00          
 0.0000000E+00 0.0000000E+00 0.0000000E+00 0.0000000E+00 0.0000000E+00          
 0.0000000E+00 0.0000000E+00 0.0000000E+00 0.0000000E+00 0.0000000E+00          
 0.0000000E+00 0.0000000E+00 0.0000000E+00 0.0000000E+00 0.0000000E+00          
 0.0000000E+00 0.0000000E+00 0.0000000E+00 0.0000000E+00 0.0000000E+00          
 0.0000000E+00 0.0000000E+00 0.0000000E+00 0.0000000E+00 0.0000000E+00          
 0.0000000E+00 0.0000000E+00 0.0000000E+00 0.0000000E+00 0.0000000E+00          
 0.0000000E+00 0.0000000E+00 0.0000000E+00 0.0000000E+00 0.0000000E+00          
 0.0000000E+00 0.0000000E+00 0.0000000E+00 0.0000000E+00 0.0000000E+00          
 0.0000000E+00 0.0000000E+00 0.0000000E+00 0.0000000E+00 0.0000000E+00          
 0.0000000E+00 0.0000000E+00 0.0000000E+00 0.0000000E+00 0.0000000E+00          
 0.0000000E+00 0.0000000E+00 0.0000000E+00 0.0000000E+00 0.0000000E+00          
 0.0000000E+00 0.0000000E+00 0.0000000E+00 0.0000000E+00 0.0000000E+00          
 0.0000000E+00 0.0000000E+00 0.0000000E+00 0.0000000E+00 0.0000000E+00          
 0.0000000E+00 0.0000000E+00 0.0000000E+00 0.0000000E+00 0.0000000E+00          
 0.0000000E+00 0.0000000E+00 0.0000000E+00 0.0000000E+00 0.0000000E+00          
 0.0000000E+00 0.0000000E+00 0.0000000E+00 0.0000000E+00 0.0000000E+00          
 0.0000000E+00 0.0000000E+00 0.0000000E+00 0.0000000E+00 0.0000000E+00          
 0.0000000E+00 0.0000000E+00 0.0000000E+00 0.0000000E+00 0.0000000E+00          
 0.0000000E+00 0.0000000E+00 0.0000000E+00 0.0000000E+00 0.0000000E+00          
 0.0000000E+00 0.0000000E+00 0.0000000E+00 0.0000000E+00 0.0000000E+00          
 0.0000000E+00 0.0000000E+00 0.0000000E+00 0.0000000E+00 0.0000000E+00          
 0.0000000E+00 0.0000000E+00 0.0000000E+00 0.0000000E+00 0.0000000E+00          
 0.0000000E+00 0.0000000E+00 0.0000000E+00 0.0000000E+00 0.0000000E+00          
 0.0000000E+00 0.0000000E+00 0.0000000E+00 0.0000000E+00 0.0000000E+00          
 0.0000000E+00 0.0000000E+00 0.0000000E+00 0.0000000E+00 0.0000000E+00          
 0.0000000E+00 0.0000000E+00 0.0000000E+00 0.0000000E+00 0.0000000E+00          
 0.0000000E+00 0.0000000E+00 0.0000000E+00 0.0000000E+00 0.0000000E+00          
 0.0000000E+00 0.0000000E+00 0.0000000E+00 0.0000000E+00 0.0000000E+00          
 0.0000000E+00 0.0000000E+00 0.0000000E+00 0.0000000E+00 0.0000000E+00          
 0.0000000E+00 0.0000000E+00 0.0000000E+00 0.0000000E+00 0.0000000E+00          
 0.0000000E+00 0.0000000E+00 0.0000000E+00 0.0000000E+00 0.0000000E+00          
 0.0000000E+00 0.0000000E+00 0.0000000E+00 0.0000000E+00 0.0000000E+00          
 0.0000000E+00 0.0000000E+00 0.0000000E+00 0.0000000E+00 0.0000000E+00          
 0.0000000E+00 0.0000000E+00 0.0000000E+00 0.0000000E+00 0.0000000E+00          
  1.000000     0.9218750     0.8412829     0.7627467     0.6776316              
 0.6138980     0.5596217     0.4979441     0.4354441     0.3844572              
 0.3355263     0.2956414     0.2602796     0.2310855     0.1986020              
 0.1685855     0.1451480     0.1221217     0.1032072     0.8675987E-01          
 0.7483554E-01 0.6208879E-01 0.5427629E-01 0.4564142E-01 0.4029608E-01          
 0.3618419E-01 0.3125000E-01 0.2713817E-01 0.2467108E-01 0.2302629E-01          
 0.2220392E-01 0.2138156E-01 0.2097040E-01 0.1973683E-01 0.1932567E-01          
 0.1850331E-01 0.1726973E-01 0.1562500E-01 0.1562500E-01 0.1480263E-01          
 0.1439142E-01 0.1356906E-01 0.1192433E-01 0.1151317E-01 0.1069081E-01          
 0.1027960E-01 0.1027960E-01 0.9868443E-02 0.9046078E-02 0.8634865E-02          
 0.8223712E-02 0.8223712E-02 0.8223712E-02 0.8223712E-02 0.7812500E-02          
 0.7401288E-02 0.6990135E-02 0.6990135E-02 0.6578922E-02 0.6578922E-02          
 0.6578922E-02 0.6167769E-02 0.6167769E-02 0.6167769E-02 0.6167769E-02          
 0.5756557E-02 0.5756557E-02 0.5756557E-02 0.5756557E-02 0.5756557E-02          
 0.5756557E-02 0.5756557E-02 0.5756557E-02 0.5756557E-02 0.5345404E-02          
 0.5345404E-02 0.5345404E-02 0.5345404E-02 0.5345404E-02 0.4934192E-02          
 0.4523039E-02 0.4523039E-02 0.4111826E-02 0.4111826E-02 0.4111826E-02          
 0.3700674E-02 0.3700674E-02 0.3700674E-02 0.3289461E-02 0.2878308E-02          
 0.2878308E-02 0.2878308E-02 0.2467096E-02 0.2467096E-02 0.2467096E-02          
 0.2467096E-02 0.2467096E-02 0.2467096E-02 0.2467096E-02 0.2467096E-02          
 0.2055943E-02 0.2055943E-02 0.2055943E-02 0.2055943E-02 0.2055943E-02          
 0.2055943E-02 0.2055943E-02 0.2055943E-02 0.2055943E-02 0.2055943E-02          
 0.1644731E-02 0.1644731E-02 0.1644731E-02 0.1233578E-02 0.1233578E-02          
 0.1233578E-02 0.1233578E-02 0.1233578E-02 0.1233578E-02 0.1233578E-02          
 0.1233578E-02 0.1233578E-02 0.1233578E-02 0.1233578E-02 0.1233578E-02          
 0.1233578E-02 0.1233578E-02 0.1233578E-02 0.1233578E-02 0.1233578E-02          
 0.1233578E-02 0.1233578E-02 0.1233578E-02 0.8223653E-03 0.8223653E-03          
 0.8223653E-03 0.8223653E-03 0.8223653E-03 0.8223653E-03 0.8223653E-03          
 0.8223653E-03 0.8223653E-03 0.8223653E-03 0.8223653E-03 0.8223653E-03          
 0.8223653E-03 0.8223653E-03 0.8223653E-03 0.8223653E-03 0.8223653E-03          
 0.8223653E-03 0.8223653E-03 0.8223653E-03 0.8223653E-03 0.8223653E-03          
 0.8223653E-03 0.8223653E-03 0.8223653E-03 0.8223653E-03 0.8223653E-03          
 0.8223653E-03 0.8223653E-03 0.8223653E-03 0.4112124E-03 0.4112124E-03          
 0.4112124E-03 0.4112124E-03 0.4112124E-03 0.4112124E-03 0.4112124E-03          
 0.4112124E-03 0.4112124E-03 0.4112124E-03 0.4112124E-03 0.4112124E-03          
 0.4112124E-03 0.4112124E-03 0.4112124E-03 0.4112124E-03 0.4112124E-03          
 0.4112124E-03 0.4112124E-03 0.4112124E-03 0.4112124E-03 0.4112124E-03          
 0.4112124E-03 0.4112124E-03 0.4112124E-03 0.4112124E-03 0.4112124E-03          
 0.4112124E-03 0.4112124E-03 0.4112124E-03 0.4112124E-03 0.4112124E-03          
 0.4112124E-03 0.4112124E-03 0.4112124E-03 0.4112124E-03 0.4112124E-03          
 0.4112124E-03 0.4112124E-03 0.4112124E-03 0.4112124E-03 0.4112124E-03          
 0.4112124E-03 0.4112124E-03 0.4112124E-03 0.4112124E-03 0.4112124E-03          
 0.4112124E-03 0.4112124E-03 0.4112124E-03 0.4112124E-03 0.4112124E-03          
 0.4112124E-03 0.4112124E-03 0.4112124E-03 0.4112124E-03 0.4112124E-03          
 0.4112124E-03 0.4112124E-03 0.4112124E-03 0.4112124E-03 0.4112124E-03          
 0.4112124E-03 0.4112124E-03 0.4112124E-03 0.4112124E-03 0.4112124E-03          
 0.4112124E-03 0.4112124E-03 0.4112124E-03 0.4112124E-03 0.4112124E-03          
 0.4112124E-03 0.4112124E-03 0.4112124E-03 0.4112124E-03 0.4112124E-03          
 0.4112124E-03 0.4112124E-03 0.4112124E-03 0.4112124E-03 0.4112124E-03          
 0.4112124E-03 0.4112124E-03 0.4112124E-03 0.4112124E-03 0.4112124E-03          
 0.4112124E-03 0.4112124E-03 0.4112124E-03 0.4112124E-03 0.4112124E-03          
 0.4112124E-03 0.4112124E-03 0.4112124E-03 0.4112124E-03 0.4112124E-03          
 0.4112124E-03 0.4112124E-03 0.4112124E-03 0.4112124E-03 0.4112124E-03          
 0.4112124E-03 0.4112124E-03 0.4112124E-03 0.4112124E-03 0.4112124E-03          
 0.4112124E-03 0.4112124E-03 0.4112124E-03 0.4112124E-03 0.4112124E-03          
 0.4112124E-03 0.4112124E-03 0.4112124E-03 0.4112124E-03 0.4112124E-03          
 0.4112124E-03 0.4112124E-03 0.4112124E-03 0.4112124E-03 0.4112124E-03          
 0.4112124E-03 0.4112124E-03 0.4112124E-03 0.4112124E-03 0.4112124E-03          
 0.4112124E-03 0.4112124E-03 0.4112124E-03 0.4112124E-03 0.4112124E-03          
 0.4112124E-03 0.4112124E-03 0.4112124E-03 0.4112124E-03 0.4112124E-03          
 0.4112124E-03 0.4112124E-03 0.4112124E-03 0.4112124E-03 0.4112124E-03          
 0.4112124E-03 0.4112124E-03 0.4112124E-03 0.4112124E-03 0.4112124E-03          
 0.4112124E-03 0.4112124E-03 0.4112124E-03 0.4112124E-03 0.4112124E-03          
 0.4112124E-03 0.4112124E-03 0.4112124E-03 0.4112124E-03 0.4112124E-03          
 0.4112124E-03 0.4112124E-03 0.4112124E-03 0.4112124E-03 0.4112124E-03          
 0.4112124E-03 0.4112124E-03 0.4112124E-03 0.4112124E-03 0.4112124E-03          
 0.4112124E-03 0.4112124E-03 0.4112124E-03 0.4112124E-03 0.0000000E+00          
 0.0000000E+00 0.0000000E+00 0.0000000E+00 0.0000000E+00 0.0000000E+00          
 0.0000000E+00 0.0000000E+00 0.0000000E+00 0.0000000E+00 0.0000000E+00          
 0.0000000E+00 0.0000000E+00 0.0000000E+00 0.0000000E+00 0.0000000E+00          
 0.0000000E+00 0.0000000E+00 0.0000000E+00 0.0000000E+00 0.0000000E+00          
 0.0000000E+00 0.0000000E+00 0.0000000E+00 0.0000000E+00 0.0000000E+00          
 0.0000000E+00 0.0000000E+00 0.0000000E+00 0.0000000E+00 0.0000000E+00          
 0.0000000E+00 0.0000000E+00 0.0000000E+00 0.0000000E+00 0.0000000E+00          
 0.0000000E+00 0.0000000E+00 0.0000000E+00 0.0000000E+00 0.0000000E+00          
 0.0000000E+00 0.0000000E+00 0.0000000E+00 0.0000000E+00 0.0000000E+00          
 0.0000000E+00 0.0000000E+00 0.0000000E+00 0.0000000E+00 0.0000000E+00          
 0.0000000E+00 0.0000000E+00 0.0000000E+00 0.0000000E+00 0.0000000E+00          
 0.0000000E+00 0.0000000E+00 0.0000000E+00 0.0000000E+00 0.0000000E+00          
 0.0000000E+00 0.0000000E+00 0.0000000E+00 0.0000000E+00 0.0000000E+00          
  1.000000     0.9255970     0.8483139     0.7761911     0.7028681              
 0.6291852     0.5633025     0.4971799     0.4399376     0.3882155              
 0.3409336     0.2964119     0.2560902     0.2192488     0.1905676              
 0.1628465     0.1387256     0.1190448     0.1002040     0.8508343E-01          
 0.7308292E-01 0.6180245E-01 0.5244207E-01 0.4248172E-01 0.3468138E-01          
 0.3132123E-01 0.2736109E-01 0.2376097E-01 0.2028084E-01 0.1884073E-01          
 0.1752073E-01 0.1584065E-01 0.1380056E-01 0.1248050E-01 0.1152045E-01          
 0.1092046E-01 0.1020038E-01 0.9600401E-02 0.8760333E-02 0.8040309E-02          
 0.7680297E-02 0.7200301E-02 0.6480277E-02 0.6240249E-02 0.5760252E-02          
 0.5400240E-02 0.5040228E-02 0.4800200E-02 0.4200161E-02 0.3960133E-02          
 0.3480136E-02 0.3240108E-02 0.3240108E-02 0.3240108E-02 0.3120124E-02          
 0.3000140E-02 0.2640128E-02 0.2520084E-02 0.2400100E-02 0.2280116E-02          
 0.2280116E-02 0.1920104E-02 0.1920104E-02 0.1800060E-02 0.1800060E-02          
 0.1800060E-02 0.1680076E-02 0.1680076E-02 0.1560092E-02 0.1560092E-02          
 0.1440048E-02 0.1320064E-02 0.1080036E-02 0.8400083E-03 0.7200241E-03          
 0.6000400E-03 0.6000400E-03 0.6000400E-03 0.6000400E-03 0.6000400E-03          
 0.6000400E-03 0.4799962E-03 0.4799962E-03 0.4799962E-03 0.3600121E-03          
 0.3600121E-03 0.3600121E-03 0.3600121E-03 0.3600121E-03 0.3600121E-03          
 0.3600121E-03 0.3600121E-03 0.3600121E-03 0.3600121E-03 0.3600121E-03          
 0.3600121E-03 0.3600121E-03 0.3600121E-03 0.3600121E-03 0.3600121E-03          
 0.3600121E-03 0.3600121E-03 0.3600121E-03 0.3600121E-03 0.2400279E-03          
 0.2400279E-03 0.2400279E-03 0.2400279E-03 0.2400279E-03 0.2400279E-03          
 0.2400279E-03 0.2400279E-03 0.2400279E-03 0.2400279E-03 0.2400279E-03          
 0.2400279E-03 0.2400279E-03 0.2400279E-03 0.2400279E-03 0.2400279E-03          
 0.2400279E-03 0.2400279E-03 0.2400279E-03 0.2400279E-03 0.2400279E-03          
 0.2400279E-03 0.2400279E-03 0.2400279E-03 0.2400279E-03 0.2400279E-03          
 0.2400279E-03 0.2400279E-03 0.2400279E-03 0.2400279E-03 0.2400279E-03          
 0.2400279E-03 0.2400279E-03 0.2400279E-03 0.2400279E-03 0.2400279E-03          
 0.2400279E-03 0.2400279E-03 0.2400279E-03 0.2400279E-03 0.2400279E-03          
 0.2400279E-03 0.2400279E-03 0.1199841E-03 0.1199841E-03 0.1199841E-03          
 0.1199841E-03 0.1199841E-03 0.1199841E-03 0.1199841E-03 0.1199841E-03          
 0.1199841E-03 0.1199841E-03 0.1199841E-03 0.1199841E-03 0.1199841E-03          
 0.1199841E-03 0.1199841E-03 0.1199841E-03 0.1199841E-03 0.1199841E-03          
 0.1199841E-03 0.1199841E-03 0.1199841E-03 0.1199841E-03 0.1199841E-03          
 0.1199841E-03 0.1199841E-03 0.1199841E-03 0.1199841E-03 0.1199841E-03          
 0.1199841E-03 0.1199841E-03 0.1199841E-03 0.1199841E-03 0.1199841E-03          
 0.1199841E-03 0.1199841E-03 0.1199841E-03 0.1199841E-03 0.1199841E-03          
 0.1199841E-03 0.1199841E-03 0.1199841E-03 0.1199841E-03 0.1199841E-03          
 0.1199841E-03 0.1199841E-03 0.1199841E-03 0.1199841E-03 0.1199841E-03          
 0.1199841E-03 0.1199841E-03 0.1199841E-03 0.1199841E-03 0.1199841E-03          
 0.0000000E+00 0.0000000E+00 0.0000000E+00 0.0000000E+00 0.0000000E+00          
 0.0000000E+00 0.0000000E+00 0.0000000E+00 0.0000000E+00 0.0000000E+00          
 0.0000000E+00 0.0000000E+00 0.0000000E+00 0.0000000E+00 0.0000000E+00          
 0.0000000E+00 0.0000000E+00 0.0000000E+00 0.0000000E+00 0.0000000E+00          
 0.0000000E+00 0.0000000E+00 0.0000000E+00 0.0000000E+00 0.0000000E+00          
 0.0000000E+00 0.0000000E+00 0.0000000E+00 0.0000000E+00 0.0000000E+00          
 0.0000000E+00 0.0000000E+00 0.0000000E+00 0.0000000E+00 0.0000000E+00          
 0.0000000E+00 0.0000000E+00 0.0000000E+00 0.0000000E+00 0.0000000E+00          
 0.0000000E+00 0.0000000E+00 0.0000000E+00 0.0000000E+00 0.0000000E+00          
 0.0000000E+00 0.0000000E+00 0.0000000E+00 0.0000000E+00 0.0000000E+00          
 0.0000000E+00 0.0000000E+00 0.0000000E+00 0.0000000E+00 0.0000000E+00          
 0.0000000E+00 0.0000000E+00 0.0000000E+00 0.0000000E+00 0.0000000E+00          
 0.0000000E+00 0.0000000E+00 0.0000000E+00 0.0000000E+00 0.0000000E+00          
 0.0000000E+00 0.0000000E+00 0.0000000E+00 0.0000000E+00 0.0000000E+00          
 0.0000000E+00 0.0000000E+00 0.0000000E+00 0.0000000E+00 0.0000000E+00          
 0.0000000E+00 0.0000000E+00 0.0000000E+00 0.0000000E+00 0.0000000E+00          
 0.0000000E+00 0.0000000E+00 0.0000000E+00 0.0000000E+00 0.0000000E+00          
 0.0000000E+00 0.0000000E+00 0.0000000E+00 0.0000000E+00 0.0000000E+00          
 0.0000000E+00 0.0000000E+00 0.0000000E+00 0.0000000E+00 0.0000000E+00          
 0.0000000E+00 0.0000000E+00 0.0000000E+00 0.0000000E+00 0.0000000E+00          
 0.0000000E+00 0.0000000E+00 0.0000000E+00 0.0000000E+00 0.0000000E+00          
 0.0000000E+00 0.0000000E+00 0.0000000E+00 0.0000000E+00 0.0000000E+00          
 0.0000000E+00 0.0000000E+00 0.0000000E+00 0.0000000E+00 0.0000000E+00          
 0.0000000E+00 0.0000000E+00 0.0000000E+00 0.0000000E+00 0.0000000E+00          
 0.0000000E+00 0.0000000E+00 0.0000000E+00 0.0000000E+00 0.0000000E+00          
 0.0000000E+00 0.0000000E+00 0.0000000E+00 0.0000000E+00 0.0000000E+00          
 0.0000000E+00 0.0000000E+00 0.0000000E+00 0.0000000E+00 0.0000000E+00          
 0.0000000E+00 0.0000000E+00 0.0000000E+00 0.0000000E+00 0.0000000E+00          
 0.0000000E+00 0.0000000E+00 0.0000000E+00 0.0000000E+00 0.0000000E+00          
 0.0000000E+00 0.0000000E+00 0.0000000E+00 0.0000000E+00 0.0000000E+00          
 0.0000000E+00 0.0000000E+00 0.0000000E+00 0.0000000E+00 0.0000000E+00          
 0.0000000E+00 0.0000000E+00 0.0000000E+00 0.0000000E+00 0.0000000E+00          
 0.0000000E+00 0.0000000E+00 0.0000000E+00 0.0000000E+00 0.0000000E+00          
 0.0000000E+00 0.0000000E+00 0.0000000E+00 0.0000000E+00 0.0000000E+00          
 0.0000000E+00 0.0000000E+00 0.0000000E+00 0.0000000E+00 0.0000000E+00          
 0.0000000E+00 0.0000000E+00 0.0000000E+00 0.0000000E+00 0.0000000E+00          
 0.0000000E+00 0.0000000E+00 0.0000000E+00 0.0000000E+00 0.0000000E+00          
 0.0000000E+00 0.0000000E+00 0.0000000E+00 0.0000000E+00 0.0000000E+00          
 0.0000000E+00 0.0000000E+00 0.0000000E+00 0.0000000E+00 0.0000000E+00          
 0.0000000E+00 0.0000000E+00 0.0000000E+00 0.0000000E+00 0.0000000E+00          
  1.000000     0.8979964     0.7969035     0.6766849     0.5774134              
 0.4763206     0.4080146     0.3524590     0.2905282     0.2468124              
 0.1985428     0.1602914     0.1238616     0.9836066E-01 0.7559198E-01          
 0.6557375E-01 0.5282331E-01 0.4007286E-01 0.3551912E-01 0.2823317E-01          
 0.2094716E-01 0.1821494E-01 0.1366121E-01 0.8196712E-02 0.4553735E-02          
 0.3642976E-02 0.2732217E-02 0.1821518E-02 0.9107590E-03 0.9107590E-03          
 0.9107590E-03 0.9107590E-03 0.9107590E-03 0.0000000E+00 0.0000000E+00          
 0.0000000E+00 0.0000000E+00 0.0000000E+00 0.0000000E+00 0.0000000E+00          
 0.0000000E+00 0.0000000E+00 0.0000000E+00 0.0000000E+00 0.0000000E+00          
 0.0000000E+00 0.0000000E+00 0.0000000E+00 0.0000000E+00 0.0000000E+00          
 0.0000000E+00 0.0000000E+00 0.0000000E+00 0.0000000E+00 0.0000000E+00          
 0.0000000E+00 0.0000000E+00 0.0000000E+00 0.0000000E+00 0.0000000E+00          
 0.0000000E+00 0.0000000E+00 0.0000000E+00 0.0000000E+00 0.0000000E+00          
 0.0000000E+00 0.0000000E+00 0.0000000E+00 0.0000000E+00 0.0000000E+00          
 0.0000000E+00 0.0000000E+00 0.0000000E+00 0.0000000E+00 0.0000000E+00          
 0.0000000E+00 0.0000000E+00 0.0000000E+00 0.0000000E+00 0.0000000E+00          
 0.0000000E+00 0.0000000E+00 0.0000000E+00 0.0000000E+00 0.0000000E+00          
 0.0000000E+00 0.0000000E+00 0.0000000E+00 0.0000000E+00 0.0000000E+00          
 0.0000000E+00 0.0000000E+00 0.0000000E+00 0.0000000E+00 0.0000000E+00          
 0.0000000E+00 0.0000000E+00 0.0000000E+00 0.0000000E+00 0.0000000E+00          
 0.0000000E+00 0.0000000E+00 0.0000000E+00 0.0000000E+00 0.0000000E+00          
 0.0000000E+00 0.0000000E+00 0.0000000E+00 0.0000000E+00 0.0000000E+00          
 0.0000000E+00 0.0000000E+00 0.0000000E+00 0.0000000E+00 0.0000000E+00          
 0.0000000E+00 0.0000000E+00 0.0000000E+00 0.0000000E+00 0.0000000E+00          
 0.0000000E+00 0.0000000E+00 0.0000000E+00 0.0000000E+00 0.0000000E+00          
 0.0000000E+00 0.0000000E+00 0.0000000E+00 0.0000000E+00 0.0000000E+00          
 0.0000000E+00 0.0000000E+00 0.0000000E+00 0.0000000E+00 0.0000000E+00          
 0.0000000E+00 0.0000000E+00 0.0000000E+00 0.0000000E+00 0.0000000E+00          
 0.0000000E+00 0.0000000E+00 0.0000000E+00 0.0000000E+00 0.0000000E+00          
 0.0000000E+00 0.0000000E+00 0.0000000E+00 0.0000000E+00 0.0000000E+00          
 0.0000000E+00 0.0000000E+00 0.0000000E+00 0.0000000E+00 0.0000000E+00          
 0.0000000E+00 0.0000000E+00 0.0000000E+00 0.0000000E+00 0.0000000E+00          
 0.0000000E+00 0.0000000E+00 0.0000000E+00 0.0000000E+00 0.0000000E+00          
 0.0000000E+00 0.0000000E+00 0.0000000E+00 0.0000000E+00 0.0000000E+00          
 0.0000000E+00 0.0000000E+00 0.0000000E+00 0.0000000E+00 0.0000000E+00          
 0.0000000E+00 0.0000000E+00 0.0000000E+00 0.0000000E+00 0.0000000E+00          
 0.0000000E+00 0.0000000E+00 0.0000000E+00 0.0000000E+00 0.0000000E+00          
 0.0000000E+00 0.0000000E+00 0.0000000E+00 0.0000000E+00 0.0000000E+00          
 0.0000000E+00 0.0000000E+00 0.0000000E+00 0.0000000E+00 0.0000000E+00          
 0.0000000E+00 0.0000000E+00 0.0000000E+00 0.0000000E+00 0.0000000E+00          
 0.0000000E+00 0.0000000E+00 0.0000000E+00 0.0000000E+00 0.0000000E+00          
 0.0000000E+00 0.0000000E+00 0.0000000E+00 0.0000000E+00 0.0000000E+00          
 0.0000000E+00 0.0000000E+00 0.0000000E+00 0.0000000E+00 0.0000000E+00          
 0.0000000E+00 0.0000000E+00 0.0000000E+00 0.0000000E+00 0.0000000E+00          
 0.0000000E+00 0.0000000E+00 0.0000000E+00 0.0000000E+00 0.0000000E+00          
 0.0000000E+00 0.0000000E+00 0.0000000E+00 0.0000000E+00 0.0000000E+00          
 0.0000000E+00 0.0000000E+00 0.0000000E+00 0.0000000E+00 0.0000000E+00          
 0.0000000E+00 0.0000000E+00 0.0000000E+00 0.0000000E+00 0.0000000E+00          
 0.0000000E+00 0.0000000E+00 0.0000000E+00 0.0000000E+00 0.0000000E+00          
 0.0000000E+00 0.0000000E+00 0.0000000E+00 0.0000000E+00 0.0000000E+00          
 0.0000000E+00 0.0000000E+00 0.0000000E+00 0.0000000E+00 0.0000000E+00          
 0.0000000E+00 0.0000000E+00 0.0000000E+00 0.0000000E+00 0.0000000E+00          
 0.0000000E+00 0.0000000E+00 0.0000000E+00 0.0000000E+00 0.0000000E+00          
 0.0000000E+00 0.0000000E+00 0.0000000E+00 0.0000000E+00 0.0000000E+00          
 0.0000000E+00 0.0000000E+00 0.0000000E+00 0.0000000E+00 0.0000000E+00          
 0.0000000E+00 0.0000000E+00 0.0000000E+00 0.0000000E+00 0.0000000E+00          
 0.0000000E+00 0.0000000E+00 0.0000000E+00 0.0000000E+00 0.0000000E+00          
 0.0000000E+00 0.0000000E+00 0.0000000E+00 0.0000000E+00 0.0000000E+00          
 0.0000000E+00 0.0000000E+00 0.0000000E+00 0.0000000E+00 0.0000000E+00          
 0.0000000E+00 0.0000000E+00 0.0000000E+00 0.0000000E+00 0.0000000E+00          
 0.0000000E+00 0.0000000E+00 0.0000000E+00 0.0000000E+00 0.0000000E+00          
 0.0000000E+00 0.0000000E+00 0.0000000E+00 0.0000000E+00 0.0000000E+00          
 0.0000000E+00 0.0000000E+00 0.0000000E+00 0.0000000E+00 0.0000000E+00          
 0.0000000E+00 0.0000000E+00 0.0000000E+00 0.0000000E+00 0.0000000E+00          
 0.0000000E+00 0.0000000E+00 0.0000000E+00 0.0000000E+00 0.0000000E+00          
 0.0000000E+00 0.0000000E+00 0.0000000E+00 0.0000000E+00 0.0000000E+00          
 0.0000000E+00 0.0000000E+00 0.0000000E+00 0.0000000E+00 0.0000000E+00          
 0.0000000E+00 0.0000000E+00 0.0000000E+00 0.0000000E+00 0.0000000E+00          
 0.0000000E+00 0.0000000E+00 0.0000000E+00 0.0000000E+00 0.0000000E+00          
 0.0000000E+00 0.0000000E+00 0.0000000E+00 0.0000000E+00 0.0000000E+00          
 0.0000000E+00 0.0000000E+00 0.0000000E+00 0.0000000E+00 0.0000000E+00          
 0.0000000E+00 0.0000000E+00 0.0000000E+00 0.0000000E+00 0.0000000E+00          
 0.0000000E+00 0.0000000E+00 0.0000000E+00 0.0000000E+00 0.0000000E+00          
 0.0000000E+00 0.0000000E+00 0.0000000E+00 0.0000000E+00 0.0000000E+00          
 0.0000000E+00 0.0000000E+00 0.0000000E+00 0.0000000E+00 0.0000000E+00          
 0.0000000E+00 0.0000000E+00 0.0000000E+00 0.0000000E+00 0.0000000E+00          
 0.0000000E+00 0.0000000E+00 0.0000000E+00 0.0000000E+00 0.0000000E+00          
 0.0000000E+00 0.0000000E+00 0.0000000E+00 0.0000000E+00 0.0000000E+00          
 0.0000000E+00 0.0000000E+00 0.0000000E+00 0.0000000E+00 0.0000000E+00          
 0.0000000E+00 0.0000000E+00 0.0000000E+00 0.0000000E+00 0.0000000E+00          
