  1.000000     0.9246529     0.8501012     0.7787895     0.7081698              
 0.6413592     0.5775168     0.5182596     0.4626951     0.4109137              
 0.3641249     0.3207313     0.2817870     0.2472596     0.2178735              
 0.1909513     0.1675796     0.1473702     0.1294630     0.1135024              
 0.1002257     0.8828759E-01 0.7782400E-01 0.6884128E-01 0.6164998E-01          
 0.5584908E-01 0.5064958E-01 0.4598045E-01 0.4176396E-01 0.3815538E-01          
 0.3510290E-01 0.3250319E-01 0.2994227E-01 0.2783400E-01 0.2603620E-01          
 0.2447116E-01 0.2299023E-01 0.2171624E-01 0.2052629E-01 0.1948512E-01          
 0.1859266E-01 0.1768082E-01 0.1692414E-01 0.1621926E-01 0.1568896E-01          
 0.1511985E-01 0.1460248E-01 0.1398814E-01 0.1341903E-01 0.1301807E-01          
 0.1252657E-01 0.1218385E-01 0.1181525E-01 0.1143366E-01 0.1112974E-01          
 0.1080638E-01 0.1055413E-01 0.1028252E-01 0.1003683E-01 0.9771645E-02          
 0.9525895E-02 0.9286642E-02 0.9066761E-02 0.8879185E-02 0.8620501E-02          
 0.8439422E-02 0.8193672E-02 0.7980287E-02 0.7760406E-02 0.7618129E-02          
 0.7424116E-02 0.7197797E-02 0.7016718E-02 0.6835639E-02 0.6719232E-02          
 0.6576955E-02 0.6408811E-02 0.6266534E-02 0.6104827E-02 0.5969048E-02          
 0.5800903E-02 0.5632758E-02 0.5522847E-02 0.5425811E-02 0.5315900E-02          
 0.5225360E-02 0.5121887E-02 0.4973114E-02 0.4837334E-02 0.4772663E-02          
 0.4669189E-02 0.4578650E-02 0.4526913E-02 0.4468679E-02 0.4365206E-02          
 0.4255295E-02 0.4158258E-02 0.4067719E-02 0.3990173E-02 0.3906071E-02          
 0.3828466E-02 0.3770292E-02 0.3705621E-02 0.3653884E-02 0.3576279E-02          
 0.3511608E-02 0.3466308E-02 0.3408134E-02 0.3362834E-02 0.3291726E-02          
 0.3259361E-02 0.3220558E-02 0.3175318E-02 0.3142953E-02 0.3097713E-02          
 0.3045976E-02 0.3013611E-02 0.2981305E-02 0.2942502E-02 0.2877831E-02          
 0.2826095E-02 0.2780795E-02 0.2735555E-02 0.2703190E-02 0.2683818E-02          
 0.2651453E-02 0.2612650E-02 0.2573848E-02 0.2547979E-02 0.2522111E-02          
 0.2489805E-02 0.2483308E-02 0.2444506E-02 0.2418637E-02 0.2373397E-02          
 0.2360463E-02 0.2353966E-02 0.2328098E-02 0.2308726E-02 0.2276361E-02          
 0.2244055E-02 0.2205253E-02 0.2166450E-02 0.2140582E-02 0.2121150E-02          
 0.2082348E-02 0.2075911E-02 0.2043545E-02 0.2011240E-02 0.1998305E-02          
 0.1972437E-02 0.1959503E-02 0.1920700E-02 0.1894832E-02 0.1843095E-02          
 0.1804292E-02 0.1797855E-02 0.1765490E-02 0.1739621E-02 0.1733184E-02          
 0.1720250E-02 0.1707315E-02 0.1674950E-02 0.1668513E-02 0.1629710E-02          
 0.1623213E-02 0.1597345E-02 0.1577973E-02 0.1558542E-02 0.1526237E-02          
 0.1506805E-02 0.1493871E-02 0.1461565E-02 0.1448631E-02 0.1435697E-02          
 0.1396894E-02 0.1371026E-02 0.1358092E-02 0.1345158E-02 0.1332223E-02          
 0.1319289E-02 0.1293421E-02 0.1273990E-02 0.1267552E-02 0.1254618E-02          
 0.1248121E-02 0.1228750E-02 0.1222253E-02 0.1196384E-02 0.1196384E-02          
 0.1170516E-02 0.1144648E-02 0.1131713E-02 0.1105845E-02 0.1105845E-02          
 0.1099408E-02 0.1079977E-02 0.1067042E-02 0.1041174E-02 0.1034737E-02          
 0.1015306E-02 0.1008868E-02 0.9959340E-03 0.9829998E-03 0.9700656E-03          
 0.9571314E-03 0.9441972E-03 0.9377003E-03 0.9312630E-03 0.9312630E-03          
 0.9183288E-03 0.9053946E-03 0.8859634E-03 0.8730292E-03 0.8665919E-03          
 0.8600950E-03 0.8471608E-03 0.8407235E-03 0.8277893E-03 0.8083582E-03          
 0.8019209E-03 0.8019209E-03 0.7954240E-03 0.7824898E-03 0.7695556E-03          
 0.7631183E-03 0.7566214E-03 0.7436872E-03 0.7372499E-03 0.7372499E-03          
 0.7178187E-03 0.7178187E-03 0.6984472E-03 0.6984472E-03 0.6919503E-03          
 0.6790161E-03 0.6725788E-03 0.6725788E-03 0.6596446E-03 0.6467104E-03          
 0.6337762E-03 0.6272793E-03 0.6143451E-03 0.6079078E-03 0.5949736E-03          
 0.5820394E-03 0.5820394E-03 0.5820394E-03 0.5626082E-03 0.5561709E-03          
 0.5496740E-03 0.5367398E-03 0.5303025E-03 0.5173683E-03 0.5173683E-03          
 0.5173683E-03 0.5173683E-03 0.5173683E-03 0.5173683E-03 0.5173683E-03          
 0.5108714E-03 0.5044341E-03 0.4979372E-03 0.4914999E-03 0.4850030E-03          
 0.4785657E-03 0.4720688E-03 0.4526973E-03 0.4526973E-03 0.4462004E-03          
 0.4462004E-03 0.4462004E-03 0.4332662E-03 0.4332662E-03 0.4332662E-03          
 0.4332662E-03 0.4332662E-03 0.4332662E-03 0.4332662E-03 0.4332662E-03          
 0.4332662E-03 0.4332662E-03 0.4332662E-03 0.4332662E-03 0.4332662E-03          
 0.4332662E-03 0.4268289E-03 0.4203320E-03 0.4009604E-03 0.3944635E-03          
 0.3880262E-03 0.3815293E-03 0.3815293E-03 0.3685951E-03 0.3556609E-03          
 0.3556609E-03 0.3556609E-03 0.3427267E-03 0.3297925E-03 0.3297925E-03          
 0.3297925E-03 0.3233552E-03 0.3168583E-03 0.3104210E-03 0.3104210E-03          
 0.3104210E-03 0.3104210E-03 0.3104210E-03 0.3039241E-03 0.3039241E-03          
 0.3039241E-03 0.3039241E-03 0.3039241E-03 0.3039241E-03 0.3039241E-03          
 0.3039241E-03 0.3039241E-03 0.2974868E-03 0.2974868E-03 0.2974868E-03          
 0.2909899E-03 0.2909899E-03 0.2909899E-03 0.2909899E-03 0.2909899E-03          
 0.2909899E-03 0.2909899E-03 0.2909899E-03 0.2909899E-03 0.2909899E-03          
 0.2845526E-03 0.2780557E-03 0.2780557E-03 0.2780557E-03 0.2651215E-03          
 0.2651215E-03 0.2651215E-03 0.2651215E-03 0.2586842E-03 0.2586842E-03          
 0.2521873E-03 0.2457500E-03 0.2457500E-03 0.2457500E-03 0.2392530E-03          
 0.2328157E-03 0.2328157E-03 0.2198815E-03 0.2198815E-03 0.2198815E-03          
 0.2198815E-03 0.2069473E-03 0.2069473E-03 0.2069473E-03 0.2069473E-03          
 0.2069473E-03 0.2069473E-03 0.2069473E-03 0.1940131E-03 0.1875162E-03          
 0.1875162E-03 0.1875162E-03 0.1875162E-03 0.1810789E-03 0.1810789E-03          
 0.1810789E-03 0.1745820E-03 0.1681447E-03 0.1681447E-03 0.1616478E-03          
 0.1616478E-03 0.1616478E-03 0.1616478E-03 0.1616478E-03 0.1487136E-03          
 0.1487136E-03 0.1487136E-03 0.1422763E-03 0.1357794E-03 0.1357794E-03          
 0.1357794E-03 0.1357794E-03 0.1357794E-03 0.1357794E-03 0.1357794E-03          
 0.1357794E-03 0.1357794E-03 0.1293421E-03 0.1293421E-03 0.1293421E-03          
 0.1293421E-03 0.1293421E-03 0.1164079E-03 0.1164079E-03 0.1099110E-03          
 0.1034737E-03 0.1034737E-03 0.1034737E-03 0.1034737E-03 0.1034737E-03          
  1.000000     0.9335387     0.8697661     0.8046247     0.7409987              
 0.6791083     0.6211044     0.5651048     0.5147271     0.4669160              
 0.4231380     0.3821955     0.3458728     0.3111144     0.2810491              
 0.2530371     0.2292782     0.2061059     0.1864046     0.1696365              
 0.1542373     0.1403534     0.1274963     0.1174012     0.1078194              
 0.1000220     0.9369117E-01 0.8706707E-01 0.8247173E-01 0.7802302E-01          
 0.7391655E-01 0.7047004E-01 0.6717020E-01 0.6448144E-01 0.6127936E-01          
 0.5888391E-01 0.5685514E-01 0.5428857E-01 0.5245531E-01 0.5091542E-01          
 0.4917991E-01 0.4810441E-01 0.4676002E-01 0.4558676E-01 0.4414463E-01          
 0.4287356E-01 0.4172474E-01 0.4055142E-01 0.3972036E-01 0.3852266E-01          
 0.3764272E-01 0.3683609E-01 0.3602946E-01 0.3502727E-01 0.3424507E-01          
 0.3373176E-01 0.3297400E-01 0.3221625E-01 0.3143406E-01 0.3070080E-01          
 0.3004080E-01 0.2950305E-01 0.2889198E-01 0.2832979E-01 0.2779204E-01          
 0.2730316E-01 0.2678984E-01 0.2634990E-01 0.2583659E-01 0.2537215E-01          
 0.2466327E-01 0.2422333E-01 0.2380776E-01 0.2322114E-01 0.2263451E-01          
 0.2219450E-01 0.2197450E-01 0.2160788E-01 0.2126569E-01 0.2107012E-01          
 0.2072793E-01 0.2033681E-01 0.1999462E-01 0.1979905E-01 0.1950574E-01          
 0.1916355E-01 0.1884580E-01 0.1860136E-01 0.1830804E-01 0.1801473E-01          
 0.1769698E-01 0.1728141E-01 0.1689035E-01 0.1659703E-01 0.1642591E-01          
 0.1615703E-01 0.1601034E-01 0.1581484E-01 0.1561928E-01 0.1537484E-01          
 0.1520371E-01 0.1493484E-01 0.1466596E-01 0.1447046E-01 0.1415265E-01          
 0.1393270E-01 0.1376158E-01 0.1359046E-01 0.1334602E-01 0.1322383E-01          
 0.1295495E-01 0.1271051E-01 0.1261276E-01 0.1251495E-01 0.1236832E-01          
 0.1217276E-01 0.1202613E-01 0.1170832E-01 0.1156169E-01 0.1136613E-01          
 0.1121950E-01 0.1107281E-01 0.1092613E-01 0.1075506E-01 0.1063281E-01          
 0.1051062E-01 0.1038837E-01 0.1024175E-01 0.1016843E-01 0.9997308E-02          
 0.9899557E-02 0.9850681E-02 0.9655118E-02 0.9361804E-02 0.9239554E-02          
 0.9141803E-02 0.8946240E-02 0.8726239E-02 0.8652925E-02 0.8579612E-02          
 0.8359611E-02 0.8310735E-02 0.8188486E-02 0.8115172E-02 0.7992983E-02          
 0.7846296E-02 0.7797420E-02 0.7675171E-02 0.7552981E-02 0.7455230E-02          
 0.7430792E-02 0.7308543E-02 0.7161915E-02 0.7161915E-02 0.7112980E-02          
 0.7039666E-02 0.6990790E-02 0.6795228E-02 0.6673038E-02 0.6575227E-02          
 0.6453037E-02 0.6281912E-02 0.6159723E-02 0.6135285E-02 0.5988598E-02          
 0.5964160E-02 0.5939722E-02 0.5817533E-02 0.5768597E-02 0.5719721E-02          
 0.5646408E-02 0.5621970E-02 0.5597532E-02 0.5548656E-02 0.5475283E-02          
 0.5401969E-02 0.5353093E-02 0.5279779E-02 0.5108654E-02 0.5059779E-02          
 0.4913092E-02 0.4815340E-02 0.4693091E-02 0.4668653E-02 0.4570901E-02          
 0.4570901E-02 0.4546463E-02 0.4497588E-02 0.4448652E-02 0.4302025E-02          
 0.4302025E-02 0.4277587E-02 0.4277587E-02 0.4155338E-02 0.4082024E-02          
 0.3984272E-02 0.3959835E-02 0.3886461E-02 0.3813148E-02 0.3788710E-02          
 0.3788710E-02 0.3739834E-02 0.3666520E-02 0.3617585E-02 0.3544271E-02          
 0.3495395E-02 0.3495395E-02 0.3470957E-02 0.3422081E-02 0.3348708E-02          
 0.3348708E-02 0.3299832E-02 0.3202081E-02 0.3177643E-02 0.3128767E-02          
 0.3104329E-02 0.3079832E-02 0.3055394E-02 0.3006518E-02 0.2957642E-02          
 0.2933204E-02 0.2933204E-02 0.2933204E-02 0.2908766E-02 0.2859890E-02          
 0.2859890E-02 0.2835453E-02 0.2786517E-02 0.2737641E-02 0.2664328E-02          
 0.2615452E-02 0.2517641E-02 0.2493203E-02 0.2468765E-02 0.2444327E-02          
 0.2444327E-02 0.2419889E-02 0.2371013E-02 0.2322137E-02 0.2273202E-02          
 0.2224326E-02 0.2224326E-02 0.2199888E-02 0.2199888E-02 0.2151012E-02          
 0.2151012E-02 0.2151012E-02 0.2151012E-02 0.2102137E-02 0.2077699E-02          
 0.2028823E-02 0.1979887E-02 0.1979887E-02 0.1979887E-02 0.1955450E-02          
 0.1931012E-02 0.1882136E-02 0.1857698E-02 0.1833260E-02 0.1808822E-02          
 0.1784384E-02 0.1735449E-02 0.1735449E-02 0.1735449E-02 0.1711011E-02          
 0.1686573E-02 0.1637697E-02 0.1613259E-02 0.1588821E-02 0.1564384E-02          
 0.1564384E-02 0.1515508E-02 0.1515508E-02 0.1466572E-02 0.1466572E-02          
 0.1442134E-02 0.1442134E-02 0.1442134E-02 0.1442134E-02 0.1393259E-02          
 0.1368821E-02 0.1368821E-02 0.1368821E-02 0.1319945E-02 0.1295507E-02          
 0.1295507E-02 0.1295507E-02 0.1271069E-02 0.1246631E-02 0.1246631E-02          
 0.1222193E-02 0.1222193E-02 0.1148820E-02 0.1148820E-02 0.1124382E-02          
 0.1099944E-02 0.1099944E-02 0.1099944E-02 0.1099944E-02 0.1099944E-02          
 0.1075506E-02 0.1075506E-02 0.1075506E-02 0.1051068E-02 0.1051068E-02          
 0.1051068E-02 0.1051068E-02 0.1051068E-02 0.1051068E-02 0.1051068E-02          
 0.1051068E-02 0.1051068E-02 0.1026630E-02 0.1026630E-02 0.1002192E-02          
 0.9777546E-03 0.9777546E-03 0.9533167E-03 0.9533167E-03 0.9533167E-03          
 0.9533167E-03 0.9533167E-03 0.9533167E-03 0.9533167E-03 0.9288192E-03          
 0.9288192E-03 0.9288192E-03 0.9043813E-03 0.9043813E-03 0.8555055E-03          
 0.8555055E-03 0.8066297E-03 0.8066297E-03 0.8066297E-03 0.8066297E-03          
 0.7821918E-03 0.7577538E-03 0.7577538E-03 0.7577538E-03 0.7577538E-03          
 0.7577538E-03 0.7577538E-03 0.7577538E-03 0.7577538E-03 0.7577538E-03          
 0.7577538E-03 0.7333159E-03 0.7088780E-03 0.6844401E-03 0.6844401E-03          
 0.6844401E-03 0.6844401E-03 0.6599426E-03 0.6355047E-03 0.6110668E-03          
 0.6110668E-03 0.6110668E-03 0.6110668E-03 0.6110668E-03 0.6110668E-03          
 0.6110668E-03 0.6110668E-03 0.6110668E-03 0.6110668E-03 0.6110668E-03          
 0.5621910E-03 0.5621910E-03 0.5621910E-03 0.5377531E-03 0.5377531E-03          
 0.5377531E-03 0.5377531E-03 0.5377531E-03 0.5377531E-03 0.5377531E-03          
 0.4888773E-03 0.4400015E-03 0.4400015E-03 0.4400015E-03 0.4400015E-03          
 0.4400015E-03 0.4155636E-03 0.4155636E-03 0.3910661E-03 0.3910661E-03          
 0.3910661E-03 0.3910661E-03 0.3910661E-03 0.3910661E-03 0.3910661E-03          
 0.3910661E-03 0.3910661E-03 0.3910661E-03 0.3910661E-03 0.3910661E-03          
 0.3910661E-03 0.3910661E-03 0.3910661E-03 0.3421903E-03 0.3421903E-03          
  1.000000     0.9421434     0.8810726     0.8246855     0.7681146              
 0.7138397     0.6553403     0.6058407     0.5552393     0.5107907              
 0.4655157     0.4230875     0.3844246     0.3463128     0.3145376              
 0.2848746     0.2612728     0.2403343     0.2173753     0.1986408              
 0.1814675     0.1660391     0.1531821     0.1403251     0.1289375              
 0.1217743     0.1139683     0.1068969     0.1018459     0.9615207E-01          
 0.9257048E-01 0.8797872E-01 0.8531547E-01 0.8191752E-01 0.7806045E-01          
 0.7585639E-01 0.7429516E-01 0.7282579E-01 0.7117271E-01 0.7007068E-01          
 0.6777483E-01 0.6630546E-01 0.6511158E-01 0.6327486E-01 0.6042796E-01          
 0.5932593E-01 0.5822390E-01 0.5730551E-01 0.5638719E-01 0.5528516E-01          
 0.5399942E-01 0.5298924E-01 0.5216271E-01 0.5115253E-01 0.5005050E-01          
 0.4940766E-01 0.4830563E-01 0.4766279E-01 0.4656076E-01 0.4527503E-01          
 0.4398936E-01 0.4334652E-01 0.4261184E-01 0.4169345E-01 0.4059142E-01          
 0.3985673E-01 0.3912205E-01 0.3866285E-01 0.3792816E-01 0.3746903E-01          
 0.3673434E-01 0.3572410E-01 0.3526497E-01 0.3425473E-01 0.3370374E-01          
 0.3296906E-01 0.3232622E-01 0.3131598E-01 0.3067315E-01 0.3012216E-01          
 0.2957112E-01 0.2883643E-01 0.2837723E-01 0.2782625E-01 0.2727520E-01          
 0.2690786E-01 0.2589768E-01 0.2525485E-01 0.2442831E-01 0.2369362E-01          
 0.2259159E-01 0.2213246E-01 0.2194875E-01 0.2158141E-01 0.2130592E-01          
 0.2121407E-01 0.2038753E-01 0.1983654E-01 0.1983654E-01 0.1974469E-01          
 0.1956105E-01 0.1928550E-01 0.1891816E-01 0.1864266E-01 0.1845902E-01          
 0.1836717E-01 0.1799983E-01 0.1763248E-01 0.1735699E-01 0.1717329E-01          
 0.1708144E-01 0.1698965E-01 0.1671410E-01 0.1671410E-01 0.1643860E-01          
 0.1616311E-01 0.1597941E-01 0.1570392E-01 0.1533657E-01 0.1515293E-01          
 0.1487738E-01 0.1441824E-01 0.1423454E-01 0.1423454E-01 0.1414269E-01          
 0.1386720E-01 0.1359171E-01 0.1340801E-01 0.1331621E-01 0.1313251E-01          
 0.1304066E-01 0.1294887E-01 0.1285702E-01 0.1276517E-01 0.1258153E-01          
 0.1248968E-01 0.1248968E-01 0.1248968E-01 0.1221418E-01 0.1193863E-01          
 0.1175499E-01 0.1147950E-01 0.1111215E-01 0.1092845E-01 0.1065296E-01          
 0.1046926E-01 0.1037747E-01 0.1010191E-01 0.1001012E-01 0.1001012E-01          
 0.9826422E-02 0.9826422E-02 0.9642780E-02 0.9367228E-02 0.9275436E-02          
 0.9275436E-02 0.8816242E-02 0.8816242E-02 0.8632541E-02 0.8540750E-02          
 0.8448899E-02 0.8357048E-02 0.8173406E-02 0.8081555E-02 0.7989705E-02          
 0.7806063E-02 0.7622361E-02 0.7438719E-02 0.7163167E-02 0.7163167E-02          
 0.7071376E-02 0.6887674E-02 0.6795824E-02 0.6795824E-02 0.6612182E-02          
 0.6520331E-02 0.6244838E-02 0.6152987E-02 0.6152987E-02 0.5877495E-02          
 0.5877495E-02 0.5785644E-02 0.5693793E-02 0.5693793E-02 0.5693793E-02          
 0.5326450E-02 0.5142808E-02 0.5142808E-02 0.5142808E-02 0.5142808E-02          
 0.5050957E-02 0.5050957E-02 0.4959106E-02 0.4959106E-02 0.4775465E-02          
 0.4683614E-02 0.4683614E-02 0.4683614E-02 0.4408121E-02 0.4316270E-02          
 0.4132628E-02 0.4132628E-02 0.4040778E-02 0.4040778E-02 0.4040778E-02          
 0.4040778E-02 0.3948927E-02 0.3948927E-02 0.3857076E-02 0.3581583E-02          
 0.3489733E-02 0.3397942E-02 0.3122389E-02 0.3122389E-02 0.2938747E-02          
 0.2938747E-02 0.2938747E-02 0.2846897E-02 0.2755046E-02 0.2663255E-02          
 0.2663255E-02 0.2663255E-02 0.2663255E-02 0.2571404E-02 0.2571404E-02          
 0.2571404E-02 0.2479553E-02 0.2479553E-02 0.2387702E-02 0.2295911E-02          
 0.2295911E-02 0.2295911E-02 0.2295911E-02 0.2295911E-02 0.2295911E-02          
 0.2295911E-02 0.2295911E-02 0.2295911E-02 0.2295911E-02 0.2295911E-02          
 0.2295911E-02 0.2204061E-02 0.2204061E-02 0.2020359E-02 0.2020359E-02          
 0.1928568E-02 0.1928568E-02 0.1928568E-02 0.1928568E-02 0.1928568E-02          
 0.1836717E-02 0.1836717E-02 0.1836717E-02 0.1836717E-02 0.1744866E-02          
 0.1744866E-02 0.1561224E-02 0.1561224E-02 0.1561224E-02 0.1561224E-02          
 0.1561224E-02 0.1561224E-02 0.1561224E-02 0.1377523E-02 0.1377523E-02          
 0.1377523E-02 0.1377523E-02 0.1377523E-02 0.1377523E-02 0.1285672E-02          
 0.1285672E-02 0.1285672E-02 0.1285672E-02 0.1193881E-02 0.1102030E-02          
 0.1102030E-02 0.1102030E-02 0.1102030E-02 0.1102030E-02 0.1102030E-02          
 0.1010180E-02 0.1010180E-02 0.1010180E-02 0.1010180E-02 0.1010180E-02          
 0.1010180E-02 0.1010180E-02 0.1010180E-02 0.1010180E-02 0.1010180E-02          
 0.1010180E-02 0.9183288E-03 0.9183288E-03 0.9183288E-03 0.9183288E-03          
 0.9183288E-03 0.9183288E-03 0.8265376E-03 0.7346869E-03 0.7346869E-03          
 0.7346869E-03 0.7346869E-03 0.7346869E-03 0.7346869E-03 0.7346869E-03          
 0.7346869E-03 0.7346869E-03 0.7346869E-03 0.6428361E-03 0.6428361E-03          
 0.6428361E-03 0.6428361E-03 0.6428361E-03 0.6428361E-03 0.6428361E-03          
 0.6428361E-03 0.6428361E-03 0.6428361E-03 0.6428361E-03 0.5509853E-03          
 0.4591942E-03 0.4591942E-03 0.4591942E-03 0.3673434E-03 0.3673434E-03          
 0.3673434E-03 0.3673434E-03 0.3673434E-03 0.3673434E-03 0.3673434E-03          
 0.2754927E-03 0.2754927E-03 0.2754927E-03 0.2754927E-03 0.2754927E-03          
 0.2754927E-03 0.2754927E-03 0.2754927E-03 0.2754927E-03 0.1836419E-03          
 0.1836419E-03 0.1836419E-03 0.1836419E-03 0.1836419E-03 0.1836419E-03          
 0.1836419E-03 0.9185076E-04 0.9185076E-04 0.9185076E-04 0.9185076E-04          
 0.9185076E-04 0.9185076E-04 0.9185076E-04 0.9185076E-04 0.9185076E-04          
 0.9185076E-04 0.9185076E-04 0.9185076E-04 0.9185076E-04 0.9185076E-04          
 0.9185076E-04 0.9185076E-04 0.9185076E-04 0.9185076E-04 0.9185076E-04          
 0.9185076E-04 0.9185076E-04 0.9185076E-04 0.9185076E-04 0.9185076E-04          
 0.9185076E-04 0.9185076E-04 0.9185076E-04 0.9185076E-04 0.9185076E-04          
 0.0000000E+00 0.0000000E+00 0.0000000E+00 0.0000000E+00 0.0000000E+00          
 0.0000000E+00 0.0000000E+00 0.0000000E+00 0.0000000E+00 0.0000000E+00          
 0.0000000E+00 0.0000000E+00 0.0000000E+00 0.0000000E+00 0.0000000E+00          
 0.0000000E+00 0.0000000E+00 0.0000000E+00 0.0000000E+00 0.0000000E+00          
 0.0000000E+00 0.0000000E+00 0.0000000E+00 0.0000000E+00 0.0000000E+00          
  1.000000     0.9310127     0.8615025     0.7927903     0.7261420              
 0.6615576     0.6014585     0.5435333     0.4864337     0.4345350              
 0.3853055     0.3406439     0.2996698     0.2615575     0.2291690              
 0.1968905     0.1692625     0.1441937     0.1237755     0.1044028              
 0.8654374E-01 0.7297742E-01 0.6067693E-01 0.5049533E-01 0.4130435E-01          
 0.3442490E-01 0.2878374E-01 0.2495873E-01 0.2204180E-01 0.1909739E-01          
 0.1772153E-01 0.1615298E-01 0.1466703E-01 0.1348376E-01 0.1268572E-01          
 0.1202530E-01 0.1119977E-01 0.1059437E-01 0.1004404E-01 0.9741306E-02          
 0.9190977E-02 0.8860767E-02 0.8530557E-02 0.8282900E-02 0.7897615E-02          
 0.7484853E-02 0.7237196E-02 0.6879449E-02 0.6521761E-02 0.6246567E-02          
 0.6053925E-02 0.5806267E-02 0.5613625E-02 0.5338490E-02 0.5173385E-02          
 0.4953206E-02 0.4870653E-02 0.4595459E-02 0.4512906E-02 0.4347801E-02          
 0.4182696E-02 0.4072666E-02 0.3990114E-02 0.3935039E-02 0.3880024E-02          
 0.3797472E-02 0.3714919E-02 0.3604829E-02 0.3494799E-02 0.3439724E-02          
 0.3302157E-02 0.3247082E-02 0.3137052E-02 0.3054500E-02 0.2971947E-02          
 0.2889395E-02 0.2834320E-02 0.2806842E-02 0.2696753E-02 0.2614200E-02          
 0.2476633E-02 0.2449095E-02 0.2339005E-02 0.2256453E-02 0.2228975E-02          
 0.2173901E-02 0.2146423E-02 0.2118886E-02 0.2118886E-02 0.2063870E-02          
 0.2036333E-02 0.1981258E-02 0.1898706E-02 0.1871228E-02 0.1816154E-02          
 0.1816154E-02 0.1788676E-02 0.1733601E-02 0.1706123E-02 0.1678586E-02          
 0.1651049E-02 0.1596034E-02 0.1596034E-02 0.1596034E-02 0.1596034E-02          
 0.1568496E-02 0.1513481E-02 0.1485944E-02 0.1458466E-02 0.1430929E-02          
 0.1403391E-02 0.1375914E-02 0.1375914E-02 0.1320839E-02 0.1320839E-02          
 0.1265824E-02 0.1210809E-02 0.1155734E-02 0.1155734E-02 0.1155734E-02          
 0.1155734E-02 0.1128256E-02 0.1128256E-02 0.1128256E-02 0.1073182E-02          
 0.1073182E-02 0.1073182E-02 0.1045704E-02 0.1018167E-02 0.9906292E-03          
 0.9356141E-03 0.9356141E-03 0.9080768E-03 0.9080768E-03 0.9080768E-03          
 0.8805990E-03 0.8805990E-03 0.8530617E-03 0.8255243E-03 0.7705092E-03          
 0.7705092E-03 0.7154942E-03 0.6604195E-03 0.6604195E-03 0.6604195E-03          
 0.6604195E-03 0.6328821E-03 0.6328821E-03 0.6328821E-03 0.6328821E-03          
 0.6054044E-03 0.6054044E-03 0.5778670E-03 0.5778670E-03 0.5778670E-03          
 0.5503297E-03 0.4953146E-03 0.4953146E-03 0.4953146E-03 0.4677773E-03          
 0.4677773E-03 0.4677773E-03 0.4402995E-03 0.4402995E-03 0.4402995E-03          
 0.4402995E-03 0.4402995E-03 0.4402995E-03 0.4127622E-03 0.4127622E-03          
 0.4127622E-03 0.4127622E-03 0.4127622E-03 0.4127622E-03 0.3852248E-03          
 0.3852248E-03 0.3852248E-03 0.3852248E-03 0.3852248E-03 0.3852248E-03          
 0.3852248E-03 0.3577471E-03 0.3577471E-03 0.3577471E-03 0.3577471E-03          
 0.3577471E-03 0.3026724E-03 0.3026724E-03 0.2751946E-03 0.2751946E-03          
 0.2751946E-03 0.2476573E-03 0.2476573E-03 0.2476573E-03 0.2476573E-03          
 0.2476573E-03 0.2476573E-03 0.2476573E-03 0.2476573E-03 0.2476573E-03          
 0.2476573E-03 0.2476573E-03 0.2476573E-03 0.2476573E-03 0.2201200E-03          
 0.2201200E-03 0.2201200E-03 0.2201200E-03 0.2201200E-03 0.2201200E-03          
 0.2201200E-03 0.2201200E-03 0.2201200E-03 0.2201200E-03 0.2201200E-03          
 0.2201200E-03 0.2201200E-03 0.2201200E-03 0.2201200E-03 0.2201200E-03          
 0.2201200E-03 0.2201200E-03 0.2201200E-03 0.2201200E-03 0.2201200E-03          
 0.2201200E-03 0.2201200E-03 0.2201200E-03 0.2201200E-03 0.2201200E-03          
 0.1926422E-03 0.1926422E-03 0.1926422E-03 0.1926422E-03 0.1926422E-03          
 0.1926422E-03 0.1926422E-03 0.1926422E-03 0.1926422E-03 0.1375675E-03          
 0.1375675E-03 0.1375675E-03 0.1375675E-03 0.1375675E-03 0.1375675E-03          
 0.1375675E-03 0.1375675E-03 0.1375675E-03 0.1375675E-03 0.1375675E-03          
 0.1375675E-03 0.1375675E-03 0.1375675E-03 0.1100898E-03 0.1100898E-03          
 0.1100898E-03 0.8255243E-04 0.8255243E-04 0.8255243E-04 0.8255243E-04          
 0.8255243E-04 0.5501509E-04 0.5501509E-04 0.5501509E-04 0.5501509E-04          
 0.5501509E-04 0.5501509E-04 0.5501509E-04 0.5501509E-04 0.5501509E-04          
 0.5501509E-04 0.5501509E-04 0.5501509E-04 0.5501509E-04 0.5501509E-04          
 0.5501509E-04 0.5501509E-04 0.5501509E-04 0.5501509E-04 0.5501509E-04          
 0.5501509E-04 0.5501509E-04 0.5501509E-04 0.5501509E-04 0.5501509E-04          
 0.5501509E-04 0.5501509E-04 0.5501509E-04 0.5501509E-04 0.5501509E-04          
 0.5501509E-04 0.5501509E-04 0.5501509E-04 0.5501509E-04 0.5501509E-04          
 0.5501509E-04 0.5501509E-04 0.5501509E-04 0.5501509E-04 0.5501509E-04          
 0.2753735E-04 0.2753735E-04 0.2753735E-04 0.2753735E-04 0.2753735E-04          
 0.2753735E-04 0.2753735E-04 0.2753735E-04 0.2753735E-04 0.2753735E-04          
 0.2753735E-04 0.2753735E-04 0.2753735E-04 0.2753735E-04 0.2753735E-04          
 0.2753735E-04 0.2753735E-04 0.2753735E-04 0.2753735E-04 0.2753735E-04          
 0.2753735E-04 0.2753735E-04 0.2753735E-04 0.2753735E-04 0.2753735E-04          
 0.2753735E-04 0.2753735E-04 0.2753735E-04 0.2753735E-04 0.2753735E-04          
 0.2753735E-04 0.2753735E-04 0.2753735E-04 0.2753735E-04 0.2753735E-04          
 0.2753735E-04 0.2753735E-04 0.2753735E-04 0.2753735E-04 0.2753735E-04          
 0.2753735E-04 0.2753735E-04 0.2753735E-04 0.2753735E-04 0.2753735E-04          
 0.2753735E-04 0.2753735E-04 0.2753735E-04 0.2753735E-04 0.2753735E-04          
 0.2753735E-04 0.2753735E-04 0.2753735E-04 0.2753735E-04 0.2753735E-04          
 0.2753735E-04 0.2753735E-04 0.2753735E-04 0.2753735E-04 0.2753735E-04          
 0.2753735E-04 0.2753735E-04 0.2753735E-04 0.2753735E-04 0.2753735E-04          
 0.2753735E-04 0.2753735E-04 0.2753735E-04 0.2753735E-04 0.2753735E-04          
 0.2753735E-04 0.2753735E-04 0.2753735E-04 0.2753735E-04 0.2753735E-04          
 0.2753735E-04 0.2753735E-04 0.2753735E-04 0.2753735E-04 0.2753735E-04          
 0.2753735E-04 0.2753735E-04 0.2753735E-04 0.2753735E-04 0.2753735E-04          
 0.2753735E-04 0.2753735E-04 0.2753735E-04 0.2753735E-04 0.2753735E-04          
 0.2753735E-04 0.2753735E-04 0.2753735E-04 0.2753735E-04 0.2753735E-04          
 0.2753735E-04 0.2753735E-04 0.2753735E-04 0.2753735E-04 0.2753735E-04          
  1.000000     0.9195434     0.8414465     0.7661746     0.6923234              
 0.6234365     0.5552925     0.4927986     0.4333665     0.3793886              
 0.3312322     0.2872645     0.2474689     0.2125559     0.1811783              
 0.1530423     0.1295601     0.1087805     0.9121788E-01 0.7702732E-01          
 0.6442076E-01 0.5363500E-01 0.4478431E-01 0.3780335E-01 0.3188378E-01          
 0.2724618E-01 0.2327806E-01 0.2037948E-01 0.1769328E-01 0.1571739E-01          
 0.1419055E-01 0.1259023E-01 0.1144713E-01 0.1044285E-01 0.9610057E-02          
 0.8818030E-02 0.8148551E-02 0.7560670E-02 0.7095277E-02 0.6646216E-02          
 0.6319582E-02 0.5919516E-02 0.5592942E-02 0.5274475E-02 0.5062222E-02          
 0.4825413E-02 0.4662156E-02 0.4417181E-02 0.4172266E-02 0.4008949E-02          
 0.3853798E-02 0.3666043E-02 0.3453732E-02 0.3290415E-02 0.3176153E-02          
 0.3037333E-02 0.2906680E-02 0.2776027E-02 0.2694428E-02 0.2580106E-02          
 0.2433121E-02 0.2351463E-02 0.2286136E-02 0.2220869E-02 0.2090216E-02          
 0.2041221E-02 0.1975894E-02 0.1926899E-02 0.1861572E-02 0.1747310E-02          
 0.1690149E-02 0.1624823E-02 0.1567662E-02 0.1502335E-02 0.1477838E-02          
 0.1396179E-02 0.1363516E-02 0.1314521E-02 0.1265526E-02 0.1241088E-02          
 0.1200259E-02 0.1143098E-02 0.1110435E-02 0.1036942E-02 0.9879470E-03          
 0.9716153E-03 0.9389520E-03 0.9144545E-03 0.8899570E-03 0.8736253E-03          
 0.8491278E-03 0.8409619E-03 0.8246303E-03 0.7919669E-03 0.7593036E-03          
 0.7348657E-03 0.7348657E-03 0.6940365E-03 0.6940365E-03 0.6940365E-03          
 0.6695390E-03 0.6532073E-03 0.6287098E-03 0.6123781E-03 0.6042123E-03          
 0.5878806E-03 0.5633831E-03 0.5552173E-03 0.5470514E-03 0.5388856E-03          
 0.5307198E-03 0.5225539E-03 0.5143881E-03 0.4735589E-03 0.4653931E-03          
 0.4653931E-03 0.4490614E-03 0.4408956E-03 0.4163980E-03 0.4000664E-03          
 0.4000664E-03 0.4000664E-03 0.3837347E-03 0.3674030E-03 0.3592372E-03          
 0.3510714E-03 0.3429055E-03 0.3265738E-03 0.3184080E-03 0.3184080E-03          
 0.3184080E-03 0.3102422E-03 0.3102422E-03 0.3020763E-03 0.3020763E-03          
 0.2857447E-03 0.2857447E-03 0.2857447E-03 0.2857447E-03 0.2857447E-03          
 0.2775788E-03 0.2694130E-03 0.2694130E-03 0.2530813E-03 0.2530813E-03          
 0.2449751E-03 0.2368093E-03 0.2286434E-03 0.2286434E-03 0.2286434E-03          
 0.2286434E-03 0.2286434E-03 0.2286434E-03 0.2286434E-03 0.2286434E-03          
 0.2286434E-03 0.2286434E-03 0.2286434E-03 0.2286434E-03 0.2204776E-03          
 0.2204776E-03 0.2123117E-03 0.2123117E-03 0.2123117E-03 0.2123117E-03          
 0.2123117E-03 0.2041459E-03 0.1878142E-03 0.1878142E-03 0.1878142E-03          
 0.1714826E-03 0.1714826E-03 0.1714826E-03 0.1551509E-03 0.1469851E-03          
 0.1469851E-03 0.1469851E-03 0.1469851E-03 0.1469851E-03 0.1469851E-03          
 0.1469851E-03 0.1469851E-03 0.1469851E-03 0.1469851E-03 0.1469851E-03          
 0.1388192E-03 0.1388192E-03 0.1224875E-03 0.1224875E-03 0.1224875E-03          
 0.1224875E-03 0.1224875E-03 0.1224875E-03 0.1224875E-03 0.1224875E-03          
 0.1224875E-03 0.1224875E-03 0.1224875E-03 0.1143217E-03 0.9799004E-04          
 0.9799004E-04 0.9799004E-04 0.9799004E-04 0.9799004E-04 0.9799004E-04          
 0.8982420E-04 0.8982420E-04 0.8982420E-04 0.8165836E-04 0.8165836E-04          
 0.8165836E-04 0.8165836E-04 0.8165836E-04 0.8165836E-04 0.8165836E-04          
 0.8165836E-04 0.8165836E-04 0.8165836E-04 0.8165836E-04 0.8165836E-04          
 0.8165836E-04 0.8165836E-04 0.8165836E-04 0.8165836E-04 0.7349253E-04          
 0.7349253E-04 0.6532669E-04 0.6532669E-04 0.6532669E-04 0.6532669E-04          
 0.6532669E-04 0.6532669E-04 0.5716085E-04 0.5716085E-04 0.4899502E-04          
 0.4899502E-04 0.4899502E-04 0.4082918E-04 0.4082918E-04 0.4082918E-04          
 0.4082918E-04 0.4082918E-04 0.4082918E-04 0.3266335E-04 0.3266335E-04          
 0.3266335E-04 0.3266335E-04 0.3266335E-04 0.3266335E-04 0.3266335E-04          
 0.3266335E-04 0.3266335E-04 0.2449751E-04 0.1633167E-04 0.1633167E-04          
 0.1633167E-04 0.1633167E-04 0.1633167E-04 0.1633167E-04 0.1633167E-04          
 0.1633167E-04 0.1633167E-04 0.1633167E-04 0.1633167E-04 0.1633167E-04          
 0.1633167E-04 0.1633167E-04 0.1633167E-04 0.1633167E-04 0.1633167E-04          
 0.1633167E-04 0.1633167E-04 0.1633167E-04 0.1633167E-04 0.1633167E-04          
 0.1633167E-04 0.1633167E-04 0.1633167E-04 0.1633167E-04 0.1633167E-04          
 0.1633167E-04 0.1633167E-04 0.1633167E-04 0.1633167E-04 0.1633167E-04          
 0.1633167E-04 0.1633167E-04 0.1633167E-04 0.1633167E-04 0.1633167E-04          
 0.1633167E-04 0.1633167E-04 0.1633167E-04 0.1633167E-04 0.1633167E-04          
 0.1633167E-04 0.1633167E-04 0.1633167E-04 0.1633167E-04 0.1633167E-04          
 0.1633167E-04 0.1633167E-04 0.1633167E-04 0.1633167E-04 0.1633167E-04          
 0.1633167E-04 0.1633167E-04 0.1633167E-04 0.1633167E-04 0.1633167E-04          
 0.1633167E-04 0.1633167E-04 0.1633167E-04 0.1633167E-04 0.1633167E-04          
 0.1633167E-04 0.1633167E-04 0.1633167E-04 0.1633167E-04 0.1633167E-04          
 0.1633167E-04 0.1633167E-04 0.1633167E-04 0.1633167E-04 0.1633167E-04          
 0.1633167E-04 0.1633167E-04 0.1633167E-04 0.1633167E-04 0.1633167E-04          
 0.8165836E-05 0.8165836E-05 0.8165836E-05 0.8165836E-05 0.8165836E-05          
 0.8165836E-05 0.8165836E-05 0.8165836E-05 0.8165836E-05 0.8165836E-05          
 0.8165836E-05 0.8165836E-05 0.8165836E-05 0.8165836E-05 0.8165836E-05          
 0.8165836E-05 0.8165836E-05 0.8165836E-05 0.8165836E-05 0.8165836E-05          
 0.8165836E-05 0.8165836E-05 0.8165836E-05 0.8165836E-05 0.8165836E-05          
 0.8165836E-05 0.8165836E-05 0.8165836E-05 0.8165836E-05 0.8165836E-05          
 0.8165836E-05 0.8165836E-05 0.8165836E-05 0.8165836E-05 0.8165836E-05          
 0.8165836E-05 0.0000000E+00 0.0000000E+00 0.0000000E+00 0.0000000E+00          
 0.0000000E+00 0.0000000E+00 0.0000000E+00 0.0000000E+00 0.0000000E+00          
 0.0000000E+00 0.0000000E+00 0.0000000E+00 0.0000000E+00 0.0000000E+00          
 0.0000000E+00 0.0000000E+00 0.0000000E+00 0.0000000E+00 0.0000000E+00          
 0.0000000E+00 0.0000000E+00 0.0000000E+00 0.0000000E+00 0.0000000E+00          
 0.0000000E+00 0.0000000E+00 0.0000000E+00 0.0000000E+00 0.0000000E+00          
 0.0000000E+00 0.0000000E+00 0.0000000E+00 0.0000000E+00 0.0000000E+00          
  1.000000     0.9272248     0.8552665     0.7880216     0.7183258              
 0.6507667     0.5884867     0.5292861     0.4717823     0.4211287              
 0.3735545     0.3294369     0.2877074     0.2510055     0.2177602              
 0.1874057     0.1609477     0.1372549     0.1156988     0.9621668E-01          
 0.7949972E-01 0.6642783E-01 0.5385870E-01 0.4493463E-01 0.3538209E-01          
 0.2909756E-01 0.2388138E-01 0.2080190E-01 0.1747108E-01 0.1445448E-01          
 0.1275766E-01 0.1112366E-01 0.9489715E-02 0.8044243E-02 0.7101536E-02          
 0.6284595E-02 0.5279064E-02 0.4524887E-02 0.3896415E-02 0.3519356E-02          
 0.3079414E-02 0.2702355E-02 0.2388120E-02 0.2136767E-02 0.1822531E-02          
 0.1822531E-02 0.1696825E-02 0.1382589E-02 0.1319766E-02 0.1256943E-02          
 0.1131237E-02 0.1068354E-02 0.1005530E-02 0.1005530E-02 0.9427071E-03          
 0.9427071E-03 0.8798242E-03 0.8170009E-03 0.8170009E-03 0.8170009E-03          
 0.7541776E-03 0.6284714E-03 0.5655885E-03 0.5027652E-03 0.4399419E-03          
 0.4399419E-03 0.4399419E-03 0.3770590E-03 0.3770590E-03 0.3770590E-03          
 0.3770590E-03 0.3142357E-03 0.3142357E-03 0.3142357E-03 0.2514124E-03          
 0.2514124E-03 0.2514124E-03 0.1885295E-03 0.1885295E-03 0.1885295E-03          
 0.1885295E-03 0.1885295E-03 0.1885295E-03 0.1885295E-03 0.1885295E-03          
 0.1885295E-03 0.1885295E-03 0.1885295E-03 0.1885295E-03 0.1885295E-03          
 0.1885295E-03 0.1885295E-03 0.1257062E-03 0.1257062E-03 0.1257062E-03          
 0.1257062E-03 0.1257062E-03 0.1257062E-03 0.1257062E-03 0.1257062E-03          
 0.1257062E-03 0.1257062E-03 0.1257062E-03 0.1257062E-03 0.1257062E-03          
 0.1257062E-03 0.1257062E-03 0.1257062E-03 0.1257062E-03 0.1257062E-03          
 0.1257062E-03 0.1257062E-03 0.1257062E-03 0.1257062E-03 0.1257062E-03          
 0.1257062E-03 0.6282330E-04 0.6282330E-04 0.6282330E-04 0.6282330E-04          
 0.6282330E-04 0.6282330E-04 0.6282330E-04 0.6282330E-04 0.6282330E-04          
 0.6282330E-04 0.6282330E-04 0.6282330E-04 0.6282330E-04 0.6282330E-04          
 0.6282330E-04 0.6282330E-04 0.6282330E-04 0.6282330E-04 0.6282330E-04          
 0.6282330E-04 0.6282330E-04 0.6282330E-04 0.6282330E-04 0.6282330E-04          
 0.6282330E-04 0.6282330E-04 0.6282330E-04 0.6282330E-04 0.6282330E-04          
 0.6282330E-04 0.6282330E-04 0.6282330E-04 0.6282330E-04 0.6282330E-04          
 0.6282330E-04 0.6282330E-04 0.6282330E-04 0.0000000E+00 0.0000000E+00          
 0.0000000E+00 0.0000000E+00 0.0000000E+00 0.0000000E+00 0.0000000E+00          
 0.0000000E+00 0.0000000E+00 0.0000000E+00 0.0000000E+00 0.0000000E+00          
 0.0000000E+00 0.0000000E+00 0.0000000E+00 0.0000000E+00 0.0000000E+00          
 0.0000000E+00 0.0000000E+00 0.0000000E+00 0.0000000E+00 0.0000000E+00          
 0.0000000E+00 0.0000000E+00 0.0000000E+00 0.0000000E+00 0.0000000E+00          
 0.0000000E+00 0.0000000E+00 0.0000000E+00 0.0000000E+00 0.0000000E+00          
 0.0000000E+00 0.0000000E+00 0.0000000E+00 0.0000000E+00 0.0000000E+00          
 0.0000000E+00 0.0000000E+00 0.0000000E+00 0.0000000E+00 0.0000000E+00          
 0.0000000E+00 0.0000000E+00 0.0000000E+00 0.0000000E+00 0.0000000E+00          
 0.0000000E+00 0.0000000E+00 0.0000000E+00 0.0000000E+00 0.0000000E+00          
 0.0000000E+00 0.0000000E+00 0.0000000E+00 0.0000000E+00 0.0000000E+00          
 0.0000000E+00 0.0000000E+00 0.0000000E+00 0.0000000E+00 0.0000000E+00          
 0.0000000E+00 0.0000000E+00 0.0000000E+00 0.0000000E+00 0.0000000E+00          
 0.0000000E+00 0.0000000E+00 0.0000000E+00 0.0000000E+00 0.0000000E+00          
 0.0000000E+00 0.0000000E+00 0.0000000E+00 0.0000000E+00 0.0000000E+00          
 0.0000000E+00 0.0000000E+00 0.0000000E+00 0.0000000E+00 0.0000000E+00          
 0.0000000E+00 0.0000000E+00 0.0000000E+00 0.0000000E+00 0.0000000E+00          
 0.0000000E+00 0.0000000E+00 0.0000000E+00 0.0000000E+00 0.0000000E+00          
 0.0000000E+00 0.0000000E+00 0.0000000E+00 0.0000000E+00 0.0000000E+00          
 0.0000000E+00 0.0000000E+00 0.0000000E+00 0.0000000E+00 0.0000000E+00          
 0.0000000E+00 0.0000000E+00 0.0000000E+00 0.0000000E+00 0.0000000E+00          
 0.0000000E+00 0.0000000E+00 0.0000000E+00 0.0000000E+00 0.0000000E+00          
 0.0000000E+00 0.0000000E+00 0.0000000E+00 0.0000000E+00 0.0000000E+00          
 0.0000000E+00 0.0000000E+00 0.0000000E+00 0.0000000E+00 0.0000000E+00          
 0.0000000E+00 0.0000000E+00 0.0000000E+00 0.0000000E+00 0.0000000E+00          
 0.0000000E+00 0.0000000E+00 0.0000000E+00 0.0000000E+00 0.0000000E+00          
 0.0000000E+00 0.0000000E+00 0.0000000E+00 0.0000000E+00 0.0000000E+00          
 0.0000000E+00 0.0000000E+00 0.0000000E+00 0.0000000E+00 0.0000000E+00          
 0.0000000E+00 0.0000000E+00 0.0000000E+00 0.0000000E+00 0.0000000E+00          
 0.0000000E+00 0.0000000E+00 0.0000000E+00 0.0000000E+00 0.0000000E+00          
 0.0000000E+00 0.0000000E+00 0.0000000E+00 0.0000000E+00 0.0000000E+00          
 0.0000000E+00 0.0000000E+00 0.0000000E+00 0.0000000E+00 0.0000000E+00          
 0.0000000E+00 0.0000000E+00 0.0000000E+00 0.0000000E+00 0.0000000E+00          
 0.0000000E+00 0.0000000E+00 0.0000000E+00 0.0000000E+00 0.0000000E+00          
 0.0000000E+00 0.0000000E+00 0.0000000E+00 0.0000000E+00 0.0000000E+00          
 0.0000000E+00 0.0000000E+00 0.0000000E+00 0.0000000E+00 0.0000000E+00          
 0.0000000E+00 0.0000000E+00 0.0000000E+00 0.0000000E+00 0.0000000E+00          
 0.0000000E+00 0.0000000E+00 0.0000000E+00 0.0000000E+00 0.0000000E+00          
 0.0000000E+00 0.0000000E+00 0.0000000E+00 0.0000000E+00 0.0000000E+00          
 0.0000000E+00 0.0000000E+00 0.0000000E+00 0.0000000E+00 0.0000000E+00          
 0.0000000E+00 0.0000000E+00 0.0000000E+00 0.0000000E+00 0.0000000E+00          
 0.0000000E+00 0.0000000E+00 0.0000000E+00 0.0000000E+00 0.0000000E+00          
 0.0000000E+00 0.0000000E+00 0.0000000E+00 0.0000000E+00 0.0000000E+00          
 0.0000000E+00 0.0000000E+00 0.0000000E+00 0.0000000E+00 0.0000000E+00          
 0.0000000E+00 0.0000000E+00 0.0000000E+00 0.0000000E+00 0.0000000E+00          
 0.0000000E+00 0.0000000E+00 0.0000000E+00 0.0000000E+00 0.0000000E+00          
 0.0000000E+00 0.0000000E+00 0.0000000E+00 0.0000000E+00 0.0000000E+00          
 0.0000000E+00 0.0000000E+00 0.0000000E+00 0.0000000E+00 0.0000000E+00          
 0.0000000E+00 0.0000000E+00 0.0000000E+00 0.0000000E+00 0.0000000E+00          
