  1.000000     0.9260709     0.8536122     0.7823973     0.7134712              
 0.6477368     0.5853386     0.5257010     0.4703872     0.4195089              
 0.3721879     0.3296925     0.2915645     0.2571928     0.2266893              
 0.1996312     0.1758220     0.1547134     0.1361746     0.1203581              
 0.1063176     0.9418112E-01 0.8386958E-01 0.7482928E-01 0.6689107E-01          
 0.6037140E-01 0.5467552E-01 0.4992348E-01 0.4573613E-01 0.4204255E-01          
 0.3880179E-01 0.3595114E-01 0.3341961E-01 0.3120726E-01 0.2921319E-01          
 0.2734458E-01 0.2569962E-01 0.2429748E-01 0.2294993E-01 0.2166504E-01          
 0.2058756E-01 0.1963550E-01 0.1871347E-01 0.1790875E-01 0.1719129E-01          
 0.1642203E-01 0.1579458E-01 0.1513720E-01 0.1460522E-01 0.1408964E-01          
 0.1355225E-01 0.1301211E-01 0.1257294E-01 0.1216650E-01 0.1183093E-01          
 0.1146543E-01 0.1108074E-01 0.1071525E-01 0.1040423E-01 0.1010144E-01          
 0.9801388E-02 0.9523153E-02 0.9258509E-02 0.8966625E-02 0.8742929E-02          
 0.8470178E-02 0.8208275E-02 0.8011878E-02 0.7785439E-02 0.7575393E-02          
 0.7349014E-02 0.7160783E-02 0.6986201E-02 0.6822526E-02 0.6636977E-02          
 0.6470621E-02 0.6317854E-02 0.6197810E-02 0.6031394E-02 0.5859554E-02          
 0.5736768E-02 0.5603135E-02 0.5433977E-02 0.5338550E-02 0.5218506E-02          
 0.5106628E-02 0.5002975E-02 0.4863858E-02 0.4762948E-02 0.4653811E-02          
 0.4533768E-02 0.4435599E-02 0.4315555E-02 0.4228234E-02 0.4173696E-02          
 0.4102767E-02 0.4020929E-02 0.3947258E-02 0.3889978E-02 0.3827274E-02          
 0.3750861E-02 0.3677249E-02 0.3622651E-02 0.3562629E-02 0.3483534E-02          
 0.3418088E-02 0.3330767E-02 0.3262579E-02 0.3218949E-02 0.3153443E-02          
 0.3096163E-02 0.3049791E-02 0.2997994E-02 0.2957046E-02 0.2905250E-02          
 0.2847910E-02 0.2796113E-02 0.2738833E-02 0.2697885E-02 0.2662420E-02          
 0.2605140E-02 0.2577901E-02 0.2550602E-02 0.2531528E-02 0.2498746E-02          
 0.2471507E-02 0.2441466E-02 0.2397835E-02 0.2362370E-02 0.2337813E-02          
 0.2286017E-02 0.2231419E-02 0.2220511E-02 0.2179623E-02 0.2149582E-02          
 0.2127767E-02 0.2103209E-02 0.2070487E-02 0.2056837E-02 0.2010465E-02          
 0.1983166E-02 0.1950443E-02 0.1942277E-02 0.1917720E-02 0.1904070E-02          
 0.1876831E-02 0.1852274E-02 0.1816809E-02 0.1786768E-02 0.1770437E-02          
 0.1737654E-02 0.1715839E-02 0.1683116E-02 0.1658559E-02 0.1628578E-02          
 0.1601279E-02 0.1582205E-02 0.1554906E-02 0.1541257E-02 0.1535833E-02          
 0.1519442E-02 0.1500368E-02 0.1486719E-02 0.1462162E-02 0.1443088E-02          
 0.1426697E-02 0.1396716E-02 0.1366675E-02 0.1350343E-02 0.1336694E-02          
 0.1317561E-02 0.1306653E-02 0.1298487E-02 0.1284838E-02 0.1265764E-02          
 0.1254857E-02 0.1235723E-02 0.1224816E-02 0.1208484E-02 0.1203001E-02          
 0.1183927E-02 0.1153886E-02 0.1140237E-02 0.1134813E-02 0.1118422E-02          
 0.1102090E-02 0.1085699E-02 0.1074791E-02 0.1055717E-02 0.1039326E-02          
 0.1022995E-02 0.1006603E-02 0.9820461E-03 0.9711385E-03 0.9547472E-03          
 0.9465814E-03 0.9356737E-03 0.9247661E-03 0.9166002E-03 0.9029508E-03          
 0.8838177E-03 0.8674860E-03 0.8565784E-03 0.8320212E-03 0.8211136E-03          
 0.8156300E-03 0.8047223E-03 0.7938147E-03 0.7801652E-03 0.7692575E-03          
 0.7638335E-03 0.7556081E-03 0.7501841E-03 0.7474422E-03 0.7310510E-03          
 0.7256269E-03 0.7201433E-03 0.6956458E-03 0.6901622E-03 0.6792545E-03          
 0.6765127E-03 0.6656051E-03 0.6601810E-03 0.6519556E-03 0.6356239E-03          
 0.6273985E-03 0.6192327E-03 0.6138086E-03 0.6138086E-03 0.6055832E-03          
 0.6001592E-03 0.5946755E-03 0.5892515E-03 0.5865097E-03 0.5783439E-03          
 0.5592108E-03 0.5510449E-03 0.5346537E-03 0.5210042E-03 0.5183220E-03          
 0.5074143E-03 0.4910231E-03 0.4882813E-03 0.4855394E-03 0.4746318E-03          
 0.4692078E-03 0.4637241E-03 0.4555583E-03 0.4555583E-03 0.4528165E-03          
 0.4419088E-03 0.4391670E-03 0.4310012E-03 0.4200935E-03 0.4200935E-03          
 0.4037023E-03 0.4037023E-03 0.4010201E-03 0.3927946E-03 0.3873706E-03          
 0.3737211E-03 0.3655553E-03 0.3655553E-03 0.3573298E-03 0.3464222E-03          
 0.3382564E-03 0.3355145E-03 0.3300905E-03 0.3246069E-03 0.3246069E-03          
 0.3218651E-03 0.3109574E-03 0.3109574E-03 0.3082752E-03 0.3055334E-03          
 0.3027916E-03 0.3027916E-03 0.2973676E-03 0.2918839E-03 0.2837181E-03          
 0.2837181E-03 0.2728105E-03 0.2645850E-03 0.2591610E-03 0.2536774E-03          
 0.2536774E-03 0.2482533E-03 0.2482533E-03 0.2482533E-03 0.2482533E-03          
 0.2482533E-03 0.2455115E-03 0.2400279E-03 0.2400279E-03 0.2400279E-03          
 0.2291203E-03 0.2236962E-03 0.2182126E-03 0.2155304E-03 0.2127886E-03          
 0.2073050E-03 0.2073050E-03 0.2046227E-03 0.2046227E-03 0.2018809E-03          
 0.1991391E-03 0.1963973E-03 0.1963973E-03 0.1963973E-03 0.1936555E-03          
 0.1854897E-03 0.1827478E-03 0.1827478E-03 0.1773238E-03 0.1773238E-03          
 0.1745820E-03 0.1718402E-03 0.1636744E-03 0.1609325E-03 0.1581907E-03          
 0.1555085E-03 0.1555085E-03 0.1555085E-03 0.1527667E-03 0.1500249E-03          
 0.1500249E-03 0.1500249E-03 0.1500249E-03 0.1472831E-03 0.1472831E-03          
 0.1446009E-03 0.1446009E-03 0.1446009E-03 0.1418591E-03 0.1418591E-03          
 0.1418591E-03 0.1418591E-03 0.1391172E-03 0.1363754E-03 0.1363754E-03          
 0.1336932E-03 0.1336932E-03 0.1309514E-03 0.1282096E-03 0.1227856E-03          
 0.1200438E-03 0.1173019E-03 0.1173019E-03 0.1173019E-03 0.1118183E-03          
 0.1091361E-03 0.1036525E-03 0.1036525E-03 0.1036525E-03 0.1009107E-03          
 0.1009107E-03 0.1009107E-03 0.9822845E-04 0.9822845E-04 0.9822845E-04          
 0.9822845E-04 0.9822845E-04 0.9548664E-04 0.9274483E-04 0.9000301E-04          
 0.9000301E-04 0.9000301E-04 0.9000301E-04 0.9000301E-04 0.9000301E-04          
 0.8457899E-04 0.8457899E-04 0.8457899E-04 0.7909536E-04 0.7909536E-04          
 0.7909536E-04 0.7635355E-04 0.7635355E-04 0.7635355E-04 0.7092953E-04          
 0.6818771E-04 0.6818771E-04 0.6818771E-04 0.6544590E-04 0.6544590E-04          
 0.6544590E-04 0.6544590E-04 0.6276369E-04 0.6276369E-04 0.6276369E-04          
 0.6002188E-04 0.6002188E-04 0.6002188E-04 0.5728006E-04 0.5728006E-04          
 0.5453825E-04 0.5453825E-04 0.5453825E-04 0.5185604E-04 0.5185604E-04          
  1.000000     0.9314586     0.8645708     0.7979178     0.7353646              
 0.6737703     0.6142308     0.5584877     0.5052984     0.4576863              
 0.4130977     0.3721979     0.3343705     0.2995567     0.2694396              
 0.2423460     0.2181975     0.1964560     0.1775129     0.1607519              
 0.1459085     0.1326014     0.1211534     0.1113492     0.1024647              
 0.9474468E-01 0.8839446E-01 0.8281720E-01 0.7789552E-01 0.7339460E-01          
 0.6918716E-01 0.6571364E-01 0.6242603E-01 0.5947107E-01 0.5689770E-01          
 0.5455917E-01 0.5247504E-01 0.5030286E-01 0.4838502E-01 0.4666293E-01          
 0.4494083E-01 0.4336554E-01 0.4204458E-01 0.4050839E-01 0.3945166E-01          
 0.3838515E-01 0.3722078E-01 0.3633034E-01 0.3525406E-01 0.3444195E-01          
 0.3352219E-01 0.3268069E-01 0.3174138E-01 0.3103685E-01 0.3036171E-01          
 0.2971596E-01 0.2897233E-01 0.2829719E-01 0.2754378E-01 0.2682948E-01          
 0.2613479E-01 0.2555746E-01 0.2502912E-01 0.2448118E-01 0.2397239E-01          
 0.2334613E-01 0.2277863E-01 0.2231878E-01 0.2184910E-01 0.2135986E-01          
 0.2086085E-01 0.2035207E-01 0.1988238E-01 0.1947141E-01 0.1897240E-01          
 0.1859081E-01 0.1815051E-01 0.1774931E-01 0.1748514E-01 0.1717204E-01          
 0.1684916E-01 0.1651645E-01 0.1615447E-01 0.1574349E-01 0.1545972E-01          
 0.1513684E-01 0.1487267E-01 0.1453018E-01 0.1433450E-01 0.1395291E-01          
 0.1371807E-01 0.1343429E-01 0.1312119E-01 0.1290596E-01 0.1262218E-01          
 0.1230907E-01 0.1208401E-01 0.1179051E-01 0.1160461E-01 0.1137954E-01          
 0.1113492E-01 0.1091963E-01 0.1066524E-01 0.1045001E-01 0.1027387E-01          
 0.1014668E-01 0.9990096E-02 0.9823799E-02 0.9696603E-02 0.9598732E-02          
 0.9500861E-02 0.9354115E-02 0.9256244E-02 0.9129047E-02 0.8992076E-02          
 0.8835554E-02 0.8698523E-02 0.8551776E-02 0.8365870E-02 0.8238673E-02          
 0.8131027E-02 0.7984281E-02 0.7896185E-02 0.7768989E-02 0.7661402E-02          
 0.7573307E-02 0.7495046E-02 0.7416785E-02 0.7377625E-02 0.7240653E-02          
 0.7172167E-02 0.7044911E-02 0.6966650E-02 0.6829679E-02 0.6741643E-02          
 0.6702483E-02 0.6643772E-02 0.6575286E-02 0.6467640E-02 0.6399155E-02          
 0.6320894E-02 0.6174088E-02 0.6056666E-02 0.5997956E-02 0.5909920E-02          
 0.5821884E-02 0.5753398E-02 0.5635977E-02 0.5547881E-02 0.5489171E-02          
 0.5391359E-02 0.5342424E-02 0.5254328E-02 0.5185843E-02 0.5097806E-02          
 0.4999936E-02 0.4951000E-02 0.4862964E-02 0.4784703E-02 0.4696608E-02          
 0.4618347E-02 0.4540086E-02 0.4451990E-02 0.4393280E-02 0.4363954E-02          
 0.4324794E-02 0.4285693E-02 0.4187822E-02 0.4119337E-02 0.4080176E-02          
 0.4001915E-02 0.3933430E-02 0.3904045E-02 0.3855169E-02 0.3786683E-02          
 0.3698587E-02 0.3639877E-02 0.3610551E-02 0.3561616E-02 0.3483355E-02          
 0.3444195E-02 0.3405035E-02 0.3375709E-02 0.3356159E-02 0.3346324E-02          
 0.3307223E-02 0.3277838E-02 0.3258288E-02 0.3238738E-02 0.3189802E-02          
 0.3160417E-02 0.3150642E-02 0.3111541E-02 0.3072381E-02 0.3052831E-02          
 0.2984345E-02 0.2906024E-02 0.2886474E-02 0.2866924E-02 0.2798378E-02          
 0.2759278E-02 0.2739727E-02 0.2700567E-02 0.2681017E-02 0.2641857E-02          
 0.2602696E-02 0.2543986E-02 0.2504885E-02 0.2485275E-02 0.2465725E-02          
 0.2436399E-02 0.2397239E-02 0.2348304E-02 0.2309203E-02 0.2299368E-02          
 0.2250493E-02 0.2230883E-02 0.2211332E-02 0.2172172E-02 0.2162397E-02          
 0.2133071E-02 0.2123296E-02 0.2103686E-02 0.2054751E-02 0.2035201E-02          
 0.2025425E-02 0.1986265E-02 0.1956940E-02 0.1927555E-02 0.1888454E-02          
 0.1859069E-02 0.1859069E-02 0.1849294E-02 0.1819968E-02 0.1790583E-02          
 0.1771033E-02 0.1702547E-02 0.1663387E-02 0.1634061E-02 0.1585126E-02          
 0.1565516E-02 0.1555741E-02 0.1555741E-02 0.1536191E-02 0.1506805E-02          
 0.1497030E-02 0.1487255E-02 0.1438320E-02 0.1428545E-02 0.1418769E-02          
 0.1408994E-02 0.1379609E-02 0.1360059E-02 0.1330733E-02 0.1320899E-02          
 0.1301348E-02 0.1281798E-02 0.1252413E-02 0.1252413E-02 0.1223087E-02          
 0.1213312E-02 0.1203537E-02 0.1193702E-02 0.1174152E-02 0.1134992E-02          
 0.1105666E-02 0.1095891E-02 0.1076281E-02 0.1066506E-02 0.1037180E-02          
 0.1017630E-02 0.1007795E-02 0.1007795E-02 0.9980202E-03 0.9882450E-03          
 0.9784698E-03 0.9784698E-03 0.9589195E-03 0.9589195E-03 0.9589195E-03          
 0.9295344E-03 0.9099841E-03 0.9002090E-03 0.8805990E-03 0.8610487E-03          
 0.8512735E-03 0.8512735E-03 0.8317232E-03 0.8218884E-03 0.8218884E-03          
 0.8218884E-03 0.8218884E-03 0.8121133E-03 0.7925630E-03 0.7925630E-03          
 0.7827878E-03 0.7534027E-03 0.7534027E-03 0.7338524E-03 0.7240772E-03          
 0.7143021E-03 0.7143021E-03 0.7143021E-03 0.7044673E-03 0.6653666E-03          
 0.6555915E-03 0.6555915E-03 0.6457567E-03 0.6262064E-03 0.6164312E-03          
 0.6066561E-03 0.6066561E-03 0.5968809E-03 0.5968809E-03 0.5871058E-03          
 0.5871058E-03 0.5871058E-03 0.5871058E-03 0.5871058E-03 0.5871058E-03          
 0.5871058E-03 0.5772710E-03 0.5772710E-03 0.5772710E-03 0.5772710E-03          
 0.5772710E-03 0.5577207E-03 0.5577207E-03 0.5381703E-03 0.5381703E-03          
 0.5381703E-03 0.5381703E-03 0.5381703E-03 0.5381703E-03 0.5283952E-03          
 0.5283952E-03 0.5087852E-03 0.5087852E-03 0.5087852E-03 0.4990101E-03          
 0.4892349E-03 0.4794598E-03 0.4500747E-03 0.4500747E-03 0.4500747E-03          
 0.4500747E-03 0.4402995E-03 0.4402995E-03 0.4402995E-03 0.4402995E-03          
 0.4402995E-03 0.4402995E-03 0.4402995E-03 0.4402995E-03 0.4402995E-03          
 0.4402995E-03 0.4305243E-03 0.4305243E-03 0.4305243E-03 0.4207492E-03          
 0.4011989E-03 0.3718138E-03 0.3620386E-03 0.3522635E-03 0.3522635E-03          
 0.3424883E-03 0.3326535E-03 0.3326535E-03 0.3228784E-03 0.3131032E-03          
 0.3131032E-03 0.3033280E-03 0.3033280E-03 0.2935529E-03 0.2935529E-03          
 0.2935529E-03 0.2935529E-03 0.2935529E-03 0.2935529E-03 0.2935529E-03          
 0.2837777E-03 0.2739429E-03 0.2641678E-03 0.2641678E-03 0.2641678E-03          
 0.2446175E-03 0.2348423E-03 0.2250671E-03 0.2250671E-03 0.2250671E-03          
 0.2250671E-03 0.2152324E-03 0.1956820E-03 0.1956820E-03 0.1859069E-03          
 0.1761317E-03 0.1761317E-03 0.1761317E-03 0.1761317E-03 0.1761317E-03          
  1.000000     0.9374202     0.8758546     0.8125235     0.7533994              
 0.6949891     0.6424386     0.5876343     0.5369244     0.4868530              
 0.4435805     0.4035384     0.3666517     0.3328826     0.3021185              
 0.2724814     0.2465254     0.2233115     0.2027271     0.1836451              
 0.1667793     0.1521298     0.1401097     0.1279017     0.1182480              
 0.1090076     0.1020209     0.9612352E-01 0.9045148E-01 0.8553076E-01          
 0.8203739E-01 0.7775521E-01 0.7467508E-01 0.7155734E-01 0.6956655E-01          
 0.6671172E-01 0.6490874E-01 0.6242955E-01 0.6017578E-01 0.5848545E-01          
 0.5687028E-01 0.5536777E-01 0.5412817E-01 0.5277592E-01 0.5149877E-01          
 0.5010891E-01 0.4920745E-01 0.4826838E-01 0.4691607E-01 0.4601455E-01          
 0.4522574E-01 0.4447448E-01 0.4349786E-01 0.4248369E-01 0.4143190E-01          
 0.4101872E-01 0.4026747E-01 0.3955376E-01 0.3880250E-01 0.3808880E-01          
 0.3733754E-01 0.3654873E-01 0.3564721E-01 0.3489596E-01 0.3425735E-01          
 0.3384417E-01 0.3324318E-01 0.3249192E-01 0.3211629E-01 0.3147775E-01          
 0.3106451E-01 0.3061378E-01 0.2974981E-01 0.2903616E-01 0.2809703E-01          
 0.2742094E-01 0.2712041E-01 0.2659452E-01 0.2614379E-01 0.2565545E-01          
 0.2512962E-01 0.2452856E-01 0.2407783E-01 0.2366465E-01 0.2287585E-01          
 0.2234995E-01 0.2178651E-01 0.2141088E-01 0.2096009E-01 0.2065963E-01          
 0.2035910E-01 0.2013373E-01 0.1964539E-01 0.1930732E-01 0.1893169E-01          
 0.1855606E-01 0.1829314E-01 0.1803023E-01 0.1754189E-01 0.1731652E-01          
 0.1712871E-01 0.1690334E-01 0.1656526E-01 0.1607692E-01 0.1577640E-01          
 0.1525056E-01 0.1506275E-01 0.1483732E-01 0.1468712E-01 0.1446170E-01          
 0.1419878E-01 0.1386070E-01 0.1363534E-01 0.1337242E-01 0.1325971E-01          
 0.1307189E-01 0.1299679E-01 0.1273382E-01 0.1247090E-01 0.1243335E-01          
 0.1220793E-01 0.1194501E-01 0.1179475E-01 0.1141912E-01 0.1126885E-01          
 0.1100594E-01 0.1081812E-01 0.1074302E-01 0.1051760E-01 0.1036739E-01          
 0.1025468E-01 0.9991765E-02 0.9954154E-02 0.9879053E-02 0.9691238E-02          
 0.9465873E-02 0.9353161E-02 0.9315610E-02 0.9202898E-02 0.9090245E-02          
 0.9015083E-02 0.8864820E-02 0.8827269E-02 0.8752167E-02 0.8677006E-02          
 0.8601904E-02 0.8451641E-02 0.8338988E-02 0.7963359E-02 0.7813096E-02          
 0.7775545E-02 0.7700384E-02 0.7587731E-02 0.7362306E-02 0.7287204E-02          
 0.7174492E-02 0.7136941E-02 0.7099390E-02 0.7024288E-02 0.6949127E-02          
 0.6874025E-02 0.6648660E-02 0.6573498E-02 0.6498396E-02 0.6385684E-02          
 0.6385684E-02 0.6310582E-02 0.6160319E-02 0.6047606E-02 0.6010056E-02          
 0.6010056E-02 0.5747139E-02 0.5596876E-02 0.5521774E-02 0.5446613E-02          
 0.5409062E-02 0.5333960E-02 0.5258799E-02 0.5070984E-02 0.4995883E-02          
 0.4845619E-02 0.4808068E-02 0.4808068E-02 0.4657805E-02 0.4582703E-02          
 0.4545093E-02 0.4507542E-02 0.4394889E-02 0.4282176E-02 0.4207075E-02          
 0.4056811E-02 0.4019260E-02 0.3944099E-02 0.3906548E-02 0.3831446E-02          
 0.3793836E-02 0.3643632E-02 0.3606021E-02 0.3568470E-02 0.3418207E-02          
 0.3268003E-02 0.3230393E-02 0.3230393E-02 0.3155291E-02 0.3155291E-02          
 0.3117740E-02 0.3117740E-02 0.3080130E-02 0.3080130E-02 0.3005028E-02          
 0.2967477E-02 0.2929926E-02 0.2854764E-02 0.2854764E-02 0.2817214E-02          
 0.2817214E-02 0.2779663E-02 0.2742112E-02 0.2666950E-02 0.2666950E-02          
 0.2666950E-02 0.2591848E-02 0.2516687E-02 0.2441585E-02 0.2441585E-02          
 0.2441585E-02 0.2441585E-02 0.2366483E-02 0.2328873E-02 0.2291322E-02          
 0.2253771E-02 0.2253771E-02 0.2216220E-02 0.2178669E-02 0.2141058E-02          
 0.2103508E-02 0.2065957E-02 0.2065957E-02 0.1990855E-02 0.1953244E-02          
 0.1878142E-02 0.1840591E-02 0.1840591E-02 0.1840591E-02 0.1803041E-02          
 0.1803041E-02 0.1727879E-02 0.1727879E-02 0.1690328E-02 0.1652777E-02          
 0.1615226E-02 0.1615226E-02 0.1615226E-02 0.1577616E-02 0.1540065E-02          
 0.1464963E-02 0.1464963E-02 0.1464963E-02 0.1464963E-02 0.1464963E-02          
 0.1464963E-02 0.1427412E-02 0.1427412E-02 0.1352251E-02 0.1352251E-02          
 0.1352251E-02 0.1352251E-02 0.1314700E-02 0.1314700E-02 0.1277149E-02          
 0.1239598E-02 0.1201987E-02 0.1201987E-02 0.1201987E-02 0.1164436E-02          
 0.1126885E-02 0.1126885E-02 0.1089334E-02 0.1089334E-02 0.1089334E-02          
 0.1089334E-02 0.1089334E-02 0.1089334E-02 0.1051784E-02 0.1051784E-02          
 0.1051784E-02 0.1014173E-02 0.1014173E-02 0.9766221E-03 0.9766221E-03          
 0.9766221E-03 0.9766221E-03 0.9390712E-03 0.9390712E-03 0.9015203E-03          
 0.9015203E-03 0.9015203E-03 0.9015203E-03 0.9015203E-03 0.8639693E-03          
 0.7888079E-03 0.7888079E-03 0.7888079E-03 0.7888079E-03 0.7888079E-03          
 0.7888079E-03 0.7888079E-03 0.7512569E-03 0.7512569E-03 0.7512569E-03          
 0.7512569E-03 0.7137060E-03 0.7137060E-03 0.7137060E-03 0.7137060E-03          
 0.6761551E-03 0.6385446E-03 0.6385446E-03 0.6385446E-03 0.6385446E-03          
 0.6385446E-03 0.6385446E-03 0.6385446E-03 0.6385446E-03 0.6385446E-03          
 0.6385446E-03 0.6385446E-03 0.6385446E-03 0.6009936E-03 0.5634427E-03          
 0.5634427E-03 0.5634427E-03 0.5634427E-03 0.5258918E-03 0.5258918E-03          
 0.5258918E-03 0.5258918E-03 0.5258918E-03 0.4883409E-03 0.4883409E-03          
 0.4883409E-03 0.4883409E-03 0.4507303E-03 0.4507303E-03 0.4507303E-03          
 0.4507303E-03 0.4507303E-03 0.4131794E-03 0.4131794E-03 0.4131794E-03          
 0.4131794E-03 0.4131794E-03 0.4131794E-03 0.4131794E-03 0.4131794E-03          
 0.4131794E-03 0.4131794E-03 0.4131794E-03 0.4131794E-03 0.4131794E-03          
 0.4131794E-03 0.4131794E-03 0.4131794E-03 0.4131794E-03 0.4131794E-03          
 0.4131794E-03 0.4131794E-03 0.4131794E-03 0.4131794E-03 0.4131794E-03          
 0.4131794E-03 0.4131794E-03 0.4131794E-03 0.4131794E-03 0.3756285E-03          
 0.3756285E-03 0.3380775E-03 0.3380775E-03 0.3380775E-03 0.3380775E-03          
 0.3380775E-03 0.3380775E-03 0.3380775E-03 0.3380775E-03 0.3005266E-03          
 0.3005266E-03 0.3005266E-03 0.3005266E-03 0.3005266E-03 0.3005266E-03          
 0.3005266E-03 0.2629161E-03 0.2629161E-03 0.2629161E-03 0.2629161E-03          
 0.2629161E-03 0.2629161E-03 0.2629161E-03 0.2629161E-03 0.2629161E-03          
  1.000000     0.9271159     0.8573905     0.7884415     0.7210346              
 0.6561377     0.5929211     0.5330866     0.4779848     0.4240529              
 0.3750771     0.3304299     0.2886648     0.2518452     0.2179822              
 0.1872142     0.1598600     0.1357390     0.1145428     0.9575009E-01          
 0.8006299E-01 0.6626892E-01 0.5464447E-01 0.4552996E-01 0.3753215E-01          
 0.3143811E-01 0.2648205E-01 0.2268523E-01 0.2005827E-01 0.1764405E-01          
 0.1584667E-01 0.1424074E-01 0.1301765E-01 0.1198602E-01 0.1097566E-01          
 0.1032692E-01 0.9752631E-02 0.9199560E-02 0.8784831E-02 0.8263648E-02          
 0.7923365E-02 0.7519186E-02 0.7178843E-02 0.6891727E-02 0.6540716E-02          
 0.6232321E-02 0.5923867E-02 0.5668640E-02 0.5466580E-02 0.5253851E-02          
 0.5094349E-02 0.4924178E-02 0.4775286E-02 0.4605114E-02 0.4434943E-02          
 0.4328609E-02 0.4211605E-02 0.3988266E-02 0.3807485E-02 0.3711760E-02          
 0.3626645E-02 0.3573477E-02 0.3467143E-02 0.3424585E-02 0.3307581E-02          
 0.3211856E-02 0.3126800E-02 0.3094912E-02 0.2977908E-02 0.2924740E-02          
 0.2818346E-02 0.2722681E-02 0.2626956E-02 0.2584398E-02 0.2509952E-02          
 0.2478063E-02 0.2392948E-02 0.2371669E-02 0.2275944E-02 0.2212167E-02          
 0.2137721E-02 0.2073884E-02 0.1978159E-02 0.1946270E-02 0.1924992E-02          
 0.1882434E-02 0.1861215E-02 0.1818657E-02 0.1786768E-02 0.1712263E-02          
 0.1659095E-02 0.1637816E-02 0.1584649E-02 0.1531482E-02 0.1499593E-02          
 0.1467705E-02 0.1403868E-02 0.1361310E-02 0.1350701E-02 0.1350701E-02          
 0.1340032E-02 0.1318812E-02 0.1286864E-02 0.1265585E-02 0.1244366E-02          
 0.1212418E-02 0.1191139E-02 0.1169860E-02 0.1148641E-02 0.1116693E-02          
 0.1095414E-02 0.1052916E-02 0.1031637E-02 0.9997487E-03 0.9997487E-03          
 0.9997487E-03 0.9997487E-03 0.9784698E-03 0.9784698E-03 0.9678006E-03          
 0.9359121E-03 0.9359121E-03 0.9253025E-03 0.8827448E-03 0.8827448E-03          
 0.8827448E-03 0.8720756E-03 0.8508563E-03 0.8401871E-03 0.8189082E-03          
 0.8082986E-03 0.7976294E-03 0.7870197E-03 0.7870197E-03 0.7764101E-03          
 0.7444620E-03 0.7444620E-03 0.7338524E-03 0.7125735E-03 0.6912947E-03          
 0.6700158E-03 0.6487370E-03 0.5849600E-03 0.5742908E-03 0.5636811E-03          
 0.5636811E-03 0.5530119E-03 0.5317926E-03 0.5105138E-03 0.4998446E-03          
 0.4998446E-03 0.4892349E-03 0.4679561E-03 0.4679561E-03 0.4573464E-03          
 0.4253983E-03 0.4253983E-03 0.4253983E-03 0.4253983E-03 0.4253983E-03          
 0.4253983E-03 0.4147887E-03 0.4041195E-03 0.3935099E-03 0.3935099E-03          
 0.3935099E-03 0.3935099E-03 0.3935099E-03 0.3935099E-03 0.3829002E-03          
 0.3829002E-03 0.3829002E-03 0.3829002E-03 0.3829002E-03 0.3829002E-03          
 0.3722310E-03 0.3616214E-03 0.3616214E-03 0.3616214E-03 0.3509521E-03          
 0.3296733E-03 0.3296733E-03 0.3296733E-03 0.3190637E-03 0.3190637E-03          
 0.3190637E-03 0.3084540E-03 0.3084540E-03 0.2977848E-03 0.2977848E-03          
 0.2977848E-03 0.2871752E-03 0.2871752E-03 0.2765059E-03 0.2765059E-03          
 0.2765059E-03 0.2765059E-03 0.2765059E-03 0.2765059E-03 0.2658963E-03          
 0.2658963E-03 0.2658963E-03 0.2552271E-03 0.2446175E-03 0.2446175E-03          
 0.2446175E-03 0.2127290E-03 0.2127290E-03 0.2127290E-03 0.2127290E-03          
 0.2020597E-03 0.2020597E-03 0.2020597E-03 0.1914501E-03 0.1914501E-03          
 0.1807809E-03 0.1807809E-03 0.1807809E-03 0.1807809E-03 0.1807809E-03          
 0.1807809E-03 0.1807809E-03 0.1807809E-03 0.1701713E-03 0.1595020E-03          
 0.1595020E-03 0.1595020E-03 0.1595020E-03 0.1595020E-03 0.1595020E-03          
 0.1595020E-03 0.1595020E-03 0.1488924E-03 0.1382828E-03 0.1382828E-03          
 0.1382828E-03 0.1382828E-03 0.1382828E-03 0.1276135E-03 0.1170039E-03          
 0.1170039E-03 0.1170039E-03 0.1170039E-03 0.1170039E-03 0.1170039E-03          
 0.1170039E-03 0.1170039E-03 0.1170039E-03 0.1170039E-03 0.1170039E-03          
 0.1170039E-03 0.1170039E-03 0.1063347E-03 0.1063347E-03 0.1063347E-03          
 0.1063347E-03 0.1063347E-03 0.1063347E-03 0.1063347E-03 0.1063347E-03          
 0.1063347E-03 0.9572506E-04 0.9572506E-04 0.9572506E-04 0.9572506E-04          
 0.8505583E-04 0.8505583E-04 0.8505583E-04 0.8505583E-04 0.8505583E-04          
 0.8505583E-04 0.8505583E-04 0.8505583E-04 0.8505583E-04 0.8505583E-04          
 0.8505583E-04 0.8505583E-04 0.8505583E-04 0.7444620E-04 0.7444620E-04          
 0.7444620E-04 0.7444620E-04 0.7444620E-04 0.7444620E-04 0.7444620E-04          
 0.7444620E-04 0.7444620E-04 0.7444620E-04 0.7444620E-04 0.7444620E-04          
 0.7444620E-04 0.7444620E-04 0.7444620E-04 0.7444620E-04 0.7444620E-04          
 0.7444620E-04 0.7444620E-04 0.7444620E-04 0.6383657E-04 0.6383657E-04          
 0.6383657E-04 0.6383657E-04 0.6383657E-04 0.6383657E-04 0.6383657E-04          
 0.6383657E-04 0.6383657E-04 0.6383657E-04 0.6383657E-04 0.5316734E-04          
 0.5316734E-04 0.5316734E-04 0.5316734E-04 0.5316734E-04 0.5316734E-04          
 0.5316734E-04 0.5316734E-04 0.5316734E-04 0.5316734E-04 0.5316734E-04          
 0.5316734E-04 0.5316734E-04 0.4255772E-04 0.4255772E-04 0.4255772E-04          
 0.4255772E-04 0.4255772E-04 0.4255772E-04 0.4255772E-04 0.4255772E-04          
 0.4255772E-04 0.4255772E-04 0.4255772E-04 0.4255772E-04 0.3188848E-04          
 0.3188848E-04 0.3188848E-04 0.3188848E-04 0.3188848E-04 0.3188848E-04          
 0.3188848E-04 0.3188848E-04 0.3188848E-04 0.3188848E-04 0.3188848E-04          
 0.3188848E-04 0.3188848E-04 0.3188848E-04 0.3188848E-04 0.2127886E-04          
 0.2127886E-04 0.2127886E-04 0.2127886E-04 0.2127886E-04 0.2127886E-04          
 0.2127886E-04 0.2127886E-04 0.2127886E-04 0.2127886E-04 0.2127886E-04          
 0.2127886E-04 0.2127886E-04 0.2127886E-04 0.2127886E-04 0.2127886E-04          
 0.2127886E-04 0.2127886E-04 0.2127886E-04 0.2127886E-04 0.2127886E-04          
 0.2127886E-04 0.2127886E-04 0.2127886E-04 0.2127886E-04 0.2127886E-04          
 0.2127886E-04 0.2127886E-04 0.2127886E-04 0.2127886E-04 0.2127886E-04          
 0.2127886E-04 0.2127886E-04 0.2127886E-04 0.2127886E-04 0.2127886E-04          
 0.2127886E-04 0.2127886E-04 0.2127886E-04 0.2127886E-04 0.2127886E-04          
 0.2127886E-04 0.2127886E-04 0.2127886E-04 0.2127886E-04 0.2127886E-04          
 0.2127886E-04 0.2127886E-04 0.2127886E-04 0.2127886E-04 0.2127886E-04          
  1.000000     0.9209593     0.8414519     0.7648146     0.6906861              
 0.6204733     0.5534605     0.4911388     0.4327503     0.3789232              
 0.3297662     0.2849564     0.2458027     0.2106665     0.1788074              
 0.1512465     0.1272855     0.1074332     0.8995283E-01 0.7512850E-01          
 0.6265855E-01 0.5213243E-01 0.4329395E-01 0.3619939E-01 0.3013283E-01          
 0.2545923E-01 0.2158207E-01 0.1849091E-01 0.1605588E-01 0.1416814E-01          
 0.1251554E-01 0.1103139E-01 0.9782314E-02 0.8729696E-02 0.7884085E-02          
 0.7157743E-02 0.6508648E-02 0.5831480E-02 0.5319178E-02 0.4929721E-02          
 0.4575372E-02 0.4217446E-02 0.3926218E-02 0.3649056E-02 0.3413975E-02          
 0.3168344E-02 0.2989411E-02 0.2799928E-02 0.2628028E-02 0.2463102E-02          
 0.2298176E-02 0.2185941E-02 0.2094686E-02 0.1992941E-02 0.1919270E-02          
 0.1828015E-02 0.1729786E-02 0.1663148E-02 0.1564860E-02 0.1501739E-02          
 0.1435041E-02 0.1375437E-02 0.1312256E-02 0.1266658E-02 0.1217544E-02          
 0.1175404E-02 0.1119256E-02 0.1070142E-02 0.1024544E-02 0.9579062E-03          
 0.9122491E-03 0.8947253E-03 0.8456111E-03 0.8140206E-03 0.7859468E-03          
 0.7543564E-03 0.7193089E-03 0.6912351E-03 0.6771684E-03 0.6561279E-03          
 0.6421208E-03 0.6280541E-03 0.6175041E-03 0.5824566E-03 0.5683899E-03          
 0.5578995E-03 0.5368590E-03 0.5122423E-03 0.4912019E-03 0.4842281E-03          
 0.4631281E-03 0.4491210E-03 0.4350543E-03 0.4315972E-03 0.4140139E-03          
 0.4035234E-03 0.3894567E-03 0.3824234E-03 0.3719330E-03 0.3613830E-03          
 0.3508925E-03 0.3438592E-03 0.3297925E-03 0.3193021E-03 0.3087521E-03          
 0.3017783E-03 0.2947450E-03 0.2947450E-03 0.2877116E-03 0.2771616E-03          
 0.2666712E-03 0.2631545E-03 0.2491474E-03 0.2456307E-03 0.2385974E-03          
 0.2280474E-03 0.2105236E-03 0.2105236E-03 0.2034903E-03 0.2034903E-03          
 0.1999736E-03 0.1999736E-03 0.1965165E-03 0.1894832E-03 0.1789331E-03          
 0.1718998E-03 0.1718998E-03 0.1684427E-03 0.1649261E-03 0.1578927E-03          
 0.1543760E-03 0.1508594E-03 0.1438856E-03 0.1368523E-03 0.1333356E-03          
 0.1263022E-03 0.1263022E-03 0.1263022E-03 0.1227856E-03 0.1158118E-03          
 0.1158118E-03 0.1158118E-03 0.1158118E-03 0.1158118E-03 0.1122952E-03          
 0.1087785E-03 0.1052618E-03 0.1017451E-03 0.1017451E-03 0.1017451E-03          
 0.9471178E-04 0.9471178E-04 0.9471178E-04 0.9471178E-04 0.9471178E-04          
 0.9471178E-04 0.9471178E-04 0.9125471E-04 0.9125471E-04 0.8773804E-04          
 0.8773804E-04 0.8773804E-04 0.8773804E-04 0.8422136E-04 0.8422136E-04          
 0.8070469E-04 0.8070469E-04 0.8070469E-04 0.8070469E-04 0.7718801E-04          
 0.7367134E-04 0.7367134E-04 0.7015467E-04 0.6663799E-04 0.6663799E-04          
 0.6663799E-04 0.6663799E-04 0.6663799E-04 0.6663799E-04 0.6663799E-04          
 0.6663799E-04 0.6318092E-04 0.6318092E-04 0.6318092E-04 0.5966425E-04          
 0.5966425E-04 0.5966425E-04 0.5966425E-04 0.5614758E-04 0.5614758E-04          
 0.5614758E-04 0.5614758E-04 0.5614758E-04 0.5263090E-04 0.5263090E-04          
 0.4559755E-04 0.4559755E-04 0.4559755E-04 0.4559755E-04 0.4559755E-04          
 0.4559755E-04 0.4559755E-04 0.4559755E-04 0.4559755E-04 0.4559755E-04          
 0.4559755E-04 0.4559755E-04 0.4559755E-04 0.4208088E-04 0.4208088E-04          
 0.4208088E-04 0.4208088E-04 0.4208088E-04 0.4208088E-04 0.4208088E-04          
 0.3159046E-04 0.2455711E-04 0.2455711E-04 0.2455711E-04 0.2455711E-04          
 0.2455711E-04 0.2455711E-04 0.2455711E-04 0.2455711E-04 0.2455711E-04          
 0.2455711E-04 0.2455711E-04 0.2455711E-04 0.2104044E-04 0.1752377E-04          
 0.1752377E-04 0.1752377E-04 0.1752377E-04 0.1752377E-04 0.1752377E-04          
 0.1752377E-04 0.1752377E-04 0.1400709E-04 0.7033348E-05 0.7033348E-05          
 0.3516674E-05 0.3516674E-05 0.3516674E-05 0.3516674E-05 0.3516674E-05          
 0.3516674E-05 0.3516674E-05 0.3516674E-05 0.3516674E-05 0.3516674E-05          
 0.3516674E-05 0.3516674E-05 0.3516674E-05 0.3516674E-05 0.3516674E-05          
 0.3516674E-05 0.3516674E-05 0.3516674E-05 0.3516674E-05 0.3516674E-05          
 0.3516674E-05 0.3516674E-05 0.3516674E-05 0.3516674E-05 0.3516674E-05          
 0.3516674E-05 0.3516674E-05 0.3516674E-05 0.3516674E-05 0.3516674E-05          
 0.3516674E-05 0.3516674E-05 0.3516674E-05 0.3516674E-05 0.3516674E-05          
 0.3516674E-05 0.3516674E-05 0.3516674E-05 0.3516674E-05 0.3516674E-05          
 0.3516674E-05 0.3516674E-05 0.3516674E-05 0.3516674E-05 0.3516674E-05          
 0.3516674E-05 0.3516674E-05 0.3516674E-05 0.3516674E-05 0.3516674E-05          
 0.0000000E+00 0.0000000E+00 0.0000000E+00 0.0000000E+00 0.0000000E+00          
 0.0000000E+00 0.0000000E+00 0.0000000E+00 0.0000000E+00 0.0000000E+00          
 0.0000000E+00 0.0000000E+00 0.0000000E+00 0.0000000E+00 0.0000000E+00          
 0.0000000E+00 0.0000000E+00 0.0000000E+00 0.0000000E+00 0.0000000E+00          
 0.0000000E+00 0.0000000E+00 0.0000000E+00 0.0000000E+00 0.0000000E+00          
 0.0000000E+00 0.0000000E+00 0.0000000E+00 0.0000000E+00 0.0000000E+00          
 0.0000000E+00 0.0000000E+00 0.0000000E+00 0.0000000E+00 0.0000000E+00          
 0.0000000E+00 0.0000000E+00 0.0000000E+00 0.0000000E+00 0.0000000E+00          
 0.0000000E+00 0.0000000E+00 0.0000000E+00 0.0000000E+00 0.0000000E+00          
 0.0000000E+00 0.0000000E+00 0.0000000E+00 0.0000000E+00 0.0000000E+00          
 0.0000000E+00 0.0000000E+00 0.0000000E+00 0.0000000E+00 0.0000000E+00          
 0.0000000E+00 0.0000000E+00 0.0000000E+00 0.0000000E+00 0.0000000E+00          
 0.0000000E+00 0.0000000E+00 0.0000000E+00 0.0000000E+00 0.0000000E+00          
 0.0000000E+00 0.0000000E+00 0.0000000E+00 0.0000000E+00 0.0000000E+00          
 0.0000000E+00 0.0000000E+00 0.0000000E+00 0.0000000E+00 0.0000000E+00          
 0.0000000E+00 0.0000000E+00 0.0000000E+00 0.0000000E+00 0.0000000E+00          
 0.0000000E+00 0.0000000E+00 0.0000000E+00 0.0000000E+00 0.0000000E+00          
 0.0000000E+00 0.0000000E+00 0.0000000E+00 0.0000000E+00 0.0000000E+00          
 0.0000000E+00 0.0000000E+00 0.0000000E+00 0.0000000E+00 0.0000000E+00          
 0.0000000E+00 0.0000000E+00 0.0000000E+00 0.0000000E+00 0.0000000E+00          
 0.0000000E+00 0.0000000E+00 0.0000000E+00 0.0000000E+00 0.0000000E+00          
 0.0000000E+00 0.0000000E+00 0.0000000E+00 0.0000000E+00 0.0000000E+00          
  1.000000     0.9251158     0.8517360     0.7808635     0.7112803              
 0.6440375     0.5783705     0.5171689     0.4584746     0.4065858              
 0.3585653     0.3138641     0.2716939     0.2350399     0.2004871              
 0.1726444     0.1460671     0.1220689     0.1022255     0.8445960E-01          
 0.6991738E-01 0.5781078E-01 0.4694587E-01 0.3827786E-01 0.3085154E-01          
 0.2504897E-01 0.2070302E-01 0.1700175E-01 0.1447058E-01 0.1208270E-01          
 0.1002914E-01 0.8739650E-02 0.7617354E-02 0.6423414E-02 0.5539894E-02          
 0.4799664E-02 0.4202664E-02 0.3629565E-02 0.3175914E-02 0.2865493E-02          
 0.2602816E-02 0.2220750E-02 0.2101362E-02 0.1862526E-02 0.1695395E-02          
 0.1528263E-02 0.1361072E-02 0.1265585E-02 0.1074553E-02 0.8835196E-03          
 0.8596182E-03 0.7641315E-03 0.6924868E-03 0.6924868E-03 0.6685853E-03          
 0.6685853E-03 0.6208420E-03 0.6208420E-03 0.5970001E-03 0.5730987E-03          
 0.5014539E-03 0.4775524E-03 0.4537106E-03 0.4298091E-03 0.3581643E-03          
 0.3343225E-03 0.3104210E-03 0.3104210E-03 0.2865195E-03 0.2626777E-03          
 0.2626777E-03 0.2626777E-03 0.2626777E-03 0.2387762E-03 0.2387762E-03          
 0.2387762E-03 0.2149343E-03 0.2149343E-03 0.2149343E-03 0.2149343E-03          
 0.2149343E-03 0.2149343E-03 0.1910329E-03 0.1432896E-03 0.1432896E-03          
 0.1432896E-03 0.1432896E-03 0.1432896E-03 0.1432896E-03 0.1432896E-03          
 0.1432896E-03 0.1432896E-03 0.1432896E-03 0.1432896E-03 0.1432896E-03          
 0.1432896E-03 0.1432896E-03 0.9548664E-04 0.7164478E-04 0.4774332E-04          
 0.4774332E-04 0.4774332E-04 0.4774332E-04 0.4774332E-04 0.4774332E-04          
 0.4774332E-04 0.4774332E-04 0.4774332E-04 0.4774332E-04 0.4774332E-04          
 0.4774332E-04 0.4774332E-04 0.4774332E-04 0.4774332E-04 0.4774332E-04          
 0.4774332E-04 0.4774332E-04 0.2390146E-04 0.2390146E-04 0.2390146E-04          
 0.2390146E-04 0.2390146E-04 0.2390146E-04 0.2390146E-04 0.2390146E-04          
 0.2390146E-04 0.2390146E-04 0.2390146E-04 0.2390146E-04 0.2390146E-04          
 0.2390146E-04 0.2390146E-04 0.2390146E-04 0.2390146E-04 0.2390146E-04          
 0.2390146E-04 0.2390146E-04 0.2390146E-04 0.2390146E-04 0.2390146E-04          
 0.2390146E-04 0.2390146E-04 0.2390146E-04 0.2390146E-04 0.2390146E-04          
 0.2390146E-04 0.2390146E-04 0.2390146E-04 0.2390146E-04 0.2390146E-04          
 0.2390146E-04 0.2390146E-04 0.2390146E-04 0.2390146E-04 0.2390146E-04          
 0.2390146E-04 0.2390146E-04 0.2390146E-04 0.2390146E-04 0.2390146E-04          
 0.2390146E-04 0.2390146E-04 0.2390146E-04 0.2390146E-04 0.2390146E-04          
 0.2390146E-04 0.2390146E-04 0.2390146E-04 0.2390146E-04 0.2390146E-04          
 0.2390146E-04 0.2390146E-04 0.2390146E-04 0.2390146E-04 0.2390146E-04          
 0.2390146E-04 0.2390146E-04 0.2390146E-04 0.2390146E-04 0.0000000E+00          
 0.0000000E+00 0.0000000E+00 0.0000000E+00 0.0000000E+00 0.0000000E+00          
 0.0000000E+00 0.0000000E+00 0.0000000E+00 0.0000000E+00 0.0000000E+00          
 0.0000000E+00 0.0000000E+00 0.0000000E+00 0.0000000E+00 0.0000000E+00          
 0.0000000E+00 0.0000000E+00 0.0000000E+00 0.0000000E+00 0.0000000E+00          
 0.0000000E+00 0.0000000E+00 0.0000000E+00 0.0000000E+00 0.0000000E+00          
 0.0000000E+00 0.0000000E+00 0.0000000E+00 0.0000000E+00 0.0000000E+00          
 0.0000000E+00 0.0000000E+00 0.0000000E+00 0.0000000E+00 0.0000000E+00          
 0.0000000E+00 0.0000000E+00 0.0000000E+00 0.0000000E+00 0.0000000E+00          
 0.0000000E+00 0.0000000E+00 0.0000000E+00 0.0000000E+00 0.0000000E+00          
 0.0000000E+00 0.0000000E+00 0.0000000E+00 0.0000000E+00 0.0000000E+00          
 0.0000000E+00 0.0000000E+00 0.0000000E+00 0.0000000E+00 0.0000000E+00          
 0.0000000E+00 0.0000000E+00 0.0000000E+00 0.0000000E+00 0.0000000E+00          
 0.0000000E+00 0.0000000E+00 0.0000000E+00 0.0000000E+00 0.0000000E+00          
 0.0000000E+00 0.0000000E+00 0.0000000E+00 0.0000000E+00 0.0000000E+00          
 0.0000000E+00 0.0000000E+00 0.0000000E+00 0.0000000E+00 0.0000000E+00          
 0.0000000E+00 0.0000000E+00 0.0000000E+00 0.0000000E+00 0.0000000E+00          
 0.0000000E+00 0.0000000E+00 0.0000000E+00 0.0000000E+00 0.0000000E+00          
 0.0000000E+00 0.0000000E+00 0.0000000E+00 0.0000000E+00 0.0000000E+00          
 0.0000000E+00 0.0000000E+00 0.0000000E+00 0.0000000E+00 0.0000000E+00          
 0.0000000E+00 0.0000000E+00 0.0000000E+00 0.0000000E+00 0.0000000E+00          
 0.0000000E+00 0.0000000E+00 0.0000000E+00 0.0000000E+00 0.0000000E+00          
 0.0000000E+00 0.0000000E+00 0.0000000E+00 0.0000000E+00 0.0000000E+00          
 0.0000000E+00 0.0000000E+00 0.0000000E+00 0.0000000E+00 0.0000000E+00          
 0.0000000E+00 0.0000000E+00 0.0000000E+00 0.0000000E+00 0.0000000E+00          
 0.0000000E+00 0.0000000E+00 0.0000000E+00 0.0000000E+00 0.0000000E+00          
 0.0000000E+00 0.0000000E+00 0.0000000E+00 0.0000000E+00 0.0000000E+00          
 0.0000000E+00 0.0000000E+00 0.0000000E+00 0.0000000E+00 0.0000000E+00          
 0.0000000E+00 0.0000000E+00 0.0000000E+00 0.0000000E+00 0.0000000E+00          
 0.0000000E+00 0.0000000E+00 0.0000000E+00 0.0000000E+00 0.0000000E+00          
 0.0000000E+00 0.0000000E+00 0.0000000E+00 0.0000000E+00 0.0000000E+00          
 0.0000000E+00 0.0000000E+00 0.0000000E+00 0.0000000E+00 0.0000000E+00          
 0.0000000E+00 0.0000000E+00 0.0000000E+00 0.0000000E+00 0.0000000E+00          
 0.0000000E+00 0.0000000E+00 0.0000000E+00 0.0000000E+00 0.0000000E+00          
 0.0000000E+00 0.0000000E+00 0.0000000E+00 0.0000000E+00 0.0000000E+00          
 0.0000000E+00 0.0000000E+00 0.0000000E+00 0.0000000E+00 0.0000000E+00          
 0.0000000E+00 0.0000000E+00 0.0000000E+00 0.0000000E+00 0.0000000E+00          
 0.0000000E+00 0.0000000E+00 0.0000000E+00 0.0000000E+00 0.0000000E+00          
 0.0000000E+00 0.0000000E+00 0.0000000E+00 0.0000000E+00 0.0000000E+00          
 0.0000000E+00 0.0000000E+00 0.0000000E+00 0.0000000E+00 0.0000000E+00          
 0.0000000E+00 0.0000000E+00 0.0000000E+00 0.0000000E+00 0.0000000E+00          
 0.0000000E+00 0.0000000E+00 0.0000000E+00 0.0000000E+00 0.0000000E+00          
 0.0000000E+00 0.0000000E+00 0.0000000E+00 0.0000000E+00 0.0000000E+00          
 0.0000000E+00 0.0000000E+00 0.0000000E+00 0.0000000E+00 0.0000000E+00          
 0.0000000E+00 0.0000000E+00 0.0000000E+00 0.0000000E+00 0.0000000E+00          
