  1.000000     0.9248691     0.8492222     0.7793261     0.7110521              
 0.6452112     0.5809924     0.5194279     0.4608862     0.4091278              
 0.3617194     0.3190297     0.2836393     0.2495023     0.2204527              
 0.1946472     0.1717172     0.1534321     0.1374327     0.1213596              
 0.1088992     0.9739733E-01 0.8832854E-01 0.7911229E-01 0.7247657E-01          
 0.6694686E-01 0.6097472E-01 0.5537122E-01 0.5161101E-01 0.4799825E-01          
 0.4541767E-01 0.4209983E-01 0.3951931E-01 0.3701246E-01 0.3568530E-01          
 0.3384209E-01 0.3089285E-01 0.2993441E-01 0.2853352E-01 0.2705890E-01          
 0.2580547E-01 0.2506822E-01 0.2396226E-01 0.2307749E-01 0.2248764E-01          
 0.2101302E-01 0.2049696E-01 0.1968592E-01 0.1902235E-01 0.1828504E-01          
 0.1747400E-01 0.1710534E-01 0.1666296E-01 0.1599944E-01 0.1548332E-01          
 0.1504093E-01 0.1422989E-01 0.1386124E-01 0.1341885E-01 0.1297647E-01          
 0.1260781E-01 0.1223916E-01 0.1187050E-01 0.1142818E-01 0.1128072E-01          
 0.1076460E-01 0.1046968E-01 0.1024848E-01 0.1010102E-01 0.9806097E-02          
 0.9658635E-02 0.9437442E-02 0.9216249E-02 0.8995056E-02 0.8773863E-02          
 0.8405209E-02 0.8257747E-02 0.8184016E-02 0.7962823E-02 0.7962823E-02          
 0.7889092E-02 0.7889092E-02 0.7520437E-02 0.7446706E-02 0.7078052E-02          
 0.7004321E-02 0.6635725E-02 0.6635725E-02 0.6561995E-02 0.6488264E-02          
 0.6193340E-02 0.6119609E-02 0.6119609E-02 0.5898416E-02 0.5750954E-02          
 0.5750954E-02 0.5603492E-02 0.5456030E-02 0.5308568E-02 0.5234838E-02          
 0.4939914E-02 0.4866183E-02 0.4718721E-02 0.4718721E-02 0.4571259E-02          
 0.4423797E-02 0.4350066E-02 0.4055142E-02 0.3981411E-02 0.3981411E-02          
 0.3833950E-02 0.3760219E-02 0.3760219E-02 0.3612757E-02 0.3539026E-02          
 0.3539026E-02 0.3465295E-02 0.3391564E-02 0.3317833E-02 0.3317833E-02          
 0.3244102E-02 0.3170371E-02 0.3170371E-02 0.3096640E-02 0.3096640E-02          
 0.3096640E-02 0.3096640E-02 0.3022909E-02 0.3022909E-02 0.2949178E-02          
 0.2801716E-02 0.2801716E-02 0.2727985E-02 0.2433062E-02 0.2359331E-02          
 0.2285659E-02 0.2285659E-02 0.2211928E-02 0.2211928E-02 0.2211928E-02          
 0.2211928E-02 0.2211928E-02 0.2211928E-02 0.2211928E-02 0.2211928E-02          
 0.2211928E-02 0.2211928E-02 0.2211928E-02 0.2211928E-02 0.2211928E-02          
 0.2211928E-02 0.2138197E-02 0.2138197E-02 0.2138197E-02 0.2064466E-02          
 0.2064466E-02 0.2064466E-02 0.2064466E-02 0.2064466E-02 0.1990736E-02          
 0.1917005E-02 0.1769543E-02 0.1769543E-02 0.1769543E-02 0.1769543E-02          
 0.1769543E-02 0.1769543E-02 0.1769543E-02 0.1695812E-02 0.1695812E-02          
 0.1622081E-02 0.1622081E-02 0.1622081E-02 0.1622081E-02 0.1622081E-02          
 0.1622081E-02 0.1548350E-02 0.1400888E-02 0.1400888E-02 0.1400888E-02          
 0.1400888E-02 0.1327157E-02 0.1327157E-02 0.1327157E-02 0.1327157E-02          
 0.1253426E-02 0.1253426E-02 0.1253426E-02 0.1253426E-02 0.1179695E-02          
 0.1179695E-02 0.1179695E-02 0.1105964E-02 0.1105964E-02 0.1105964E-02          
 0.1105964E-02 0.1105964E-02 0.1105964E-02 0.1105964E-02 0.1105964E-02          
 0.1105964E-02 0.1105964E-02 0.1105964E-02 0.1105964E-02 0.1105964E-02          
 0.1032233E-02 0.9585023E-03 0.9585023E-03 0.9585023E-03 0.9585023E-03          
 0.9585023E-03 0.9585023E-03 0.9585023E-03 0.9585023E-03 0.8847713E-03          
 0.8847713E-03 0.8847713E-03 0.8110404E-03 0.8110404E-03 0.8110404E-03          
 0.8110404E-03 0.8110404E-03 0.8110404E-03 0.8110404E-03 0.7373095E-03          
 0.7373095E-03 0.7373095E-03 0.7373095E-03 0.7373095E-03 0.7373095E-03          
 0.7373095E-03 0.7373095E-03 0.7373095E-03 0.7373095E-03 0.7373095E-03          
 0.7373095E-03 0.7373095E-03 0.7373095E-03 0.7373095E-03 0.6635785E-03          
 0.6635785E-03 0.5898476E-03 0.5898476E-03 0.5898476E-03 0.5898476E-03          
 0.5898476E-03 0.5898476E-03 0.5161166E-03 0.5161166E-03 0.5161166E-03          
 0.5161166E-03 0.5161166E-03 0.5161166E-03 0.5161166E-03 0.5161166E-03          
 0.5161166E-03 0.4423857E-03 0.4423857E-03 0.4423857E-03 0.3686547E-03          
 0.3686547E-03 0.3686547E-03 0.3686547E-03 0.3686547E-03 0.3686547E-03          
 0.3686547E-03 0.3686547E-03 0.3686547E-03 0.3686547E-03 0.3686547E-03          
 0.3686547E-03 0.3686547E-03 0.3686547E-03 0.3686547E-03 0.3686547E-03          
 0.3686547E-03 0.3686547E-03 0.3686547E-03 0.3686547E-03 0.3686547E-03          
 0.3686547E-03 0.2949238E-03 0.2949238E-03 0.2949238E-03 0.2949238E-03          
 0.2949238E-03 0.2949238E-03 0.2949238E-03 0.2949238E-03 0.2949238E-03          
 0.2949238E-03 0.2949238E-03 0.2949238E-03 0.2949238E-03 0.2949238E-03          
 0.2949238E-03 0.2949238E-03 0.2949238E-03 0.2949238E-03 0.2949238E-03          
 0.2949238E-03 0.2949238E-03 0.2949238E-03 0.2949238E-03 0.2949238E-03          
 0.2949238E-03 0.2949238E-03 0.2949238E-03 0.2949238E-03 0.2949238E-03          
 0.2949238E-03 0.2949238E-03 0.2949238E-03 0.2949238E-03 0.2211928E-03          
 0.2211928E-03 0.2211928E-03 0.1474619E-03 0.1474619E-03 0.1474619E-03          
 0.1474619E-03 0.1474619E-03 0.1474619E-03 0.7373095E-04 0.7373095E-04          
 0.7373095E-04 0.7373095E-04 0.7373095E-04 0.7373095E-04 0.7373095E-04          
 0.7373095E-04 0.7373095E-04 0.7373095E-04 0.7373095E-04 0.7373095E-04          
 0.7373095E-04 0.7373095E-04 0.7373095E-04 0.7373095E-04 0.7373095E-04          
 0.7373095E-04 0.7373095E-04 0.7373095E-04 0.7373095E-04 0.7373095E-04          
 0.7373095E-04 0.7373095E-04 0.7373095E-04 0.7373095E-04 0.7373095E-04          
 0.7373095E-04 0.7373095E-04 0.7373095E-04 0.7373095E-04 0.7373095E-04          
 0.7373095E-04 0.7373095E-04 0.7373095E-04 0.7373095E-04 0.7373095E-04          
 0.7373095E-04 0.7373095E-04 0.7373095E-04 0.7373095E-04 0.7373095E-04          
 0.7373095E-04 0.7373095E-04 0.7373095E-04 0.7373095E-04 0.7373095E-04          
 0.7373095E-04 0.7373095E-04 0.7373095E-04 0.7373095E-04 0.7373095E-04          
 0.7373095E-04 0.7373095E-04 0.7373095E-04 0.7373095E-04 0.7373095E-04          
 0.7373095E-04 0.7373095E-04 0.7373095E-04 0.7373095E-04 0.7373095E-04          
 0.7373095E-04 0.7373095E-04 0.7373095E-04 0.7373095E-04 0.7373095E-04          
 0.7373095E-04 0.7373095E-04 0.7373095E-04 0.7373095E-04 0.7373095E-04          
 0.7373095E-04 0.7373095E-04 0.7373095E-04 0.7373095E-04 0.7373095E-04          
  1.000000     0.9295808     0.8601198     0.8033533     0.7367665              
 0.6730539     0.6083832     0.5559281     0.5070659     0.4570060              
 0.4129341     0.3688623     0.3391617     0.3046706     0.2730539              
 0.2486228     0.2277845     0.2052695     0.1873054     0.1726946              
 0.1602395     0.1480240     0.1386827     0.1293413     0.1231138              
 0.1152096     0.1118563     0.1044312     0.1005988     0.9796405E-01          
 0.9365267E-01 0.8862275E-01 0.8502996E-01 0.8215570E-01 0.7760477E-01          
 0.7473052E-01 0.7233530E-01 0.7065868E-01 0.6946111E-01 0.6730539E-01          
 0.6395209E-01 0.6083834E-01 0.5844313E-01 0.5628741E-01 0.5532932E-01          
 0.5341315E-01 0.5245507E-01 0.5125749E-01 0.4982036E-01 0.4838324E-01          
 0.4646707E-01 0.4574853E-01 0.4526949E-01 0.4359281E-01 0.4215568E-01          
 0.4119760E-01 0.3976047E-01 0.3808385E-01 0.3664672E-01 0.3592813E-01          
 0.3497005E-01 0.3401196E-01 0.3329343E-01 0.3233534E-01 0.3113770E-01          
 0.3089821E-01 0.3041917E-01 0.3041917E-01 0.2970058E-01 0.2826345E-01          
 0.2658683E-01 0.2538919E-01 0.2538919E-01 0.2467066E-01 0.2467066E-01          
 0.2443111E-01 0.2443111E-01 0.2347302E-01 0.2299404E-01 0.2251500E-01          
 0.2227545E-01 0.2179641E-01 0.2107787E-01 0.2059883E-01 0.2035928E-01          
 0.2011979E-01 0.1940119E-01 0.1844311E-01 0.1844311E-01 0.1796407E-01          
 0.1796407E-01 0.1796407E-01 0.1748502E-01 0.1700598E-01 0.1700598E-01          
 0.1652694E-01 0.1652694E-01 0.1628745E-01 0.1628745E-01 0.1604789E-01          
 0.1556885E-01 0.1556885E-01 0.1556885E-01 0.1532936E-01 0.1532936E-01          
 0.1485032E-01 0.1437128E-01 0.1413172E-01 0.1389223E-01 0.1389223E-01          
 0.1389223E-01 0.1389223E-01 0.1341319E-01 0.1293415E-01 0.1293415E-01          
 0.1293415E-01 0.1269460E-01 0.1245511E-01 0.1197606E-01 0.1173651E-01          
 0.1149702E-01 0.1101798E-01 0.1101798E-01 0.1077843E-01 0.1077843E-01          
 0.1053894E-01 0.1053894E-01 0.1029938E-01 0.1005989E-01 0.9820342E-02          
 0.9820342E-02 0.9820342E-02 0.9820342E-02 0.9820342E-02 0.9101808E-02          
 0.8862257E-02 0.8862257E-02 0.8862257E-02 0.8622766E-02 0.8383214E-02          
 0.8143723E-02 0.8143723E-02 0.8143723E-02 0.7664680E-02 0.7664680E-02          
 0.7664680E-02 0.7425129E-02 0.7425129E-02 0.7185638E-02 0.7185638E-02          
 0.7185638E-02 0.7185638E-02 0.7185638E-02 0.7185638E-02 0.6946087E-02          
 0.6946087E-02 0.6946087E-02 0.6946087E-02 0.6946087E-02 0.6946087E-02          
 0.6946087E-02 0.6467044E-02 0.6467044E-02 0.6227553E-02 0.6227553E-02          
 0.6227553E-02 0.6227553E-02 0.5988002E-02 0.5988002E-02 0.5748510E-02          
 0.5748510E-02 0.5748510E-02 0.5748510E-02 0.5748510E-02 0.5748510E-02          
 0.5748510E-02 0.5748510E-02 0.5508959E-02 0.5508959E-02 0.5508959E-02          
 0.5508959E-02 0.5508959E-02 0.5269468E-02 0.5269468E-02 0.5269468E-02          
 0.5269468E-02 0.5029917E-02 0.5029917E-02 0.5029917E-02 0.5029917E-02          
 0.5029917E-02 0.5029917E-02 0.5029917E-02 0.4790425E-02 0.4790425E-02          
 0.4790425E-02 0.4790425E-02 0.4790425E-02 0.4790425E-02 0.4790425E-02          
 0.4790425E-02 0.4790425E-02 0.4790425E-02 0.4790425E-02 0.4790425E-02          
 0.4790425E-02 0.4790425E-02 0.4790425E-02 0.4790425E-02 0.4790425E-02          
 0.4790425E-02 0.4790425E-02 0.4550874E-02 0.4071832E-02 0.4071832E-02          
 0.4071832E-02 0.4071832E-02 0.4071832E-02 0.4071832E-02 0.4071832E-02          
 0.4071832E-02 0.4071832E-02 0.3832340E-02 0.3832340E-02 0.3832340E-02          
 0.3832340E-02 0.3832340E-02 0.3832340E-02 0.3832340E-02 0.3832340E-02          
 0.3832340E-02 0.3832340E-02 0.3832340E-02 0.3832340E-02 0.3592789E-02          
 0.3353298E-02 0.3353298E-02 0.3353298E-02 0.3353298E-02 0.3353298E-02          
 0.3353298E-02 0.3353298E-02 0.3353298E-02 0.3113747E-02 0.3113747E-02          
 0.3113747E-02 0.3113747E-02 0.3113747E-02 0.3113747E-02 0.3113747E-02          
 0.3113747E-02 0.3113747E-02 0.3113747E-02 0.3113747E-02 0.3113747E-02          
 0.3113747E-02 0.3113747E-02 0.3113747E-02 0.2874255E-02 0.2874255E-02          
 0.2874255E-02 0.2874255E-02 0.2634704E-02 0.2634704E-02 0.2634704E-02          
 0.2634704E-02 0.2634704E-02 0.2634704E-02 0.2634704E-02 0.2634704E-02          
 0.2634704E-02 0.2634704E-02 0.2634704E-02 0.2634704E-02 0.2634704E-02          
 0.2634704E-02 0.2634704E-02 0.2634704E-02 0.2634704E-02 0.2634704E-02          
 0.2634704E-02 0.2634704E-02 0.2634704E-02 0.2634704E-02 0.2634704E-02          
 0.2395213E-02 0.2395213E-02 0.2395213E-02 0.2395213E-02 0.2395213E-02          
 0.2395213E-02 0.2395213E-02 0.2395213E-02 0.2395213E-02 0.2395213E-02          
 0.2395213E-02 0.2395213E-02 0.2395213E-02 0.2155662E-02 0.2155662E-02          
 0.2155662E-02 0.2155662E-02 0.2155662E-02 0.2155662E-02 0.2155662E-02          
 0.2155662E-02 0.2155662E-02 0.2155662E-02 0.2155662E-02 0.2155662E-02          
 0.2155662E-02 0.2155662E-02 0.2155662E-02 0.2155662E-02 0.2155662E-02          
 0.2155662E-02 0.2155662E-02 0.2155662E-02 0.2155662E-02 0.2155662E-02          
 0.2155662E-02 0.2155662E-02 0.2155662E-02 0.2155662E-02 0.2155662E-02          
 0.2155662E-02 0.2155662E-02 0.1916170E-02 0.1916170E-02 0.1916170E-02          
 0.1916170E-02 0.1916170E-02 0.1916170E-02 0.1916170E-02 0.1916170E-02          
 0.1916170E-02 0.1916170E-02 0.1916170E-02 0.1916170E-02 0.1916170E-02          
 0.1916170E-02 0.1916170E-02 0.1916170E-02 0.1916170E-02 0.1916170E-02          
 0.1916170E-02 0.1916170E-02 0.1916170E-02 0.1916170E-02 0.1916170E-02          
 0.1916170E-02 0.1916170E-02 0.1916170E-02 0.1916170E-02 0.1916170E-02          
 0.1916170E-02 0.1916170E-02 0.1916170E-02 0.1916170E-02 0.1916170E-02          
 0.1916170E-02 0.1916170E-02 0.1676619E-02 0.1676619E-02 0.1676619E-02          
 0.1676619E-02 0.1676619E-02 0.1676619E-02 0.1676619E-02 0.1676619E-02          
 0.1676619E-02 0.1676619E-02 0.1676619E-02 0.1676619E-02 0.1676619E-02          
 0.1676619E-02 0.1676619E-02 0.1676619E-02 0.1676619E-02 0.1676619E-02          
 0.1676619E-02 0.1676619E-02 0.1676619E-02 0.1676619E-02 0.1676619E-02          
 0.1676619E-02 0.1676619E-02 0.1676619E-02 0.1676619E-02 0.1676619E-02          
 0.1676619E-02 0.1676619E-02 0.1676619E-02 0.1676619E-02 0.1676619E-02          
 0.1676619E-02 0.1676619E-02 0.1676619E-02 0.1437128E-02 0.1437128E-02          
  1.000000     0.9089791     0.8437884     0.7761378     0.7072570              
 0.6420664     0.5793358     0.5325953     0.4846249     0.4575646              
 0.4182042     0.3714637     0.3321033     0.3050430     0.2841328              
 0.2656826     0.2496925     0.2250922     0.2017220     0.1881919              
 0.1697417     0.1599016     0.1500615     0.1389914     0.1340714              
 0.1316113     0.1303813     0.1205412     0.1119311     0.1082411              
 0.1057811     0.1045510     0.1033210     0.1020910     0.9594095E-01          
 0.9594095E-01 0.9348094E-01 0.8856088E-01 0.8733088E-01 0.8610088E-01          
 0.8610088E-01 0.8610088E-01 0.8610088E-01 0.8487087E-01 0.8364081E-01          
 0.8241081E-01 0.8118081E-01 0.7749075E-01 0.7626075E-01 0.7503074E-01          
 0.7380074E-01 0.7011068E-01 0.6765068E-01 0.6396061E-01 0.6027061E-01          
 0.5904061E-01 0.5781060E-01 0.5658054E-01 0.5658054E-01 0.5412054E-01          
 0.5412054E-01 0.5289054E-01 0.5289054E-01 0.5289054E-01 0.5289054E-01          
 0.5289054E-01 0.5166054E-01 0.5043048E-01 0.4920048E-01 0.4674047E-01          
 0.4674047E-01 0.4551047E-01 0.4551047E-01 0.4428047E-01 0.4428047E-01          
 0.4428047E-01 0.4182041E-01 0.3936040E-01 0.3936040E-01 0.3813040E-01          
 0.3690034E-01 0.3567034E-01 0.3444034E-01 0.3444034E-01 0.3444034E-01          
 0.3444034E-01 0.3321034E-01 0.3198034E-01 0.3198034E-01 0.3198034E-01          
 0.3198034E-01 0.3198034E-01 0.3198034E-01 0.3198034E-01 0.3198034E-01          
 0.3075033E-01 0.3075033E-01 0.3075033E-01 0.3075033E-01 0.3075033E-01          
 0.2952027E-01 0.2829027E-01 0.2829027E-01 0.2706027E-01 0.2706027E-01          
 0.2706027E-01 0.2460027E-01 0.2214020E-01 0.2091020E-01 0.2091020E-01          
 0.2091020E-01 0.2091020E-01 0.1968020E-01 0.1968020E-01 0.1845020E-01          
 0.1845020E-01 0.1845020E-01 0.1722020E-01 0.1722020E-01 0.1599014E-01          
 0.1476014E-01 0.1476014E-01 0.1353014E-01 0.1353014E-01 0.1353014E-01          
 0.1353014E-01 0.1353014E-01 0.1353014E-01 0.1353014E-01 0.1353014E-01          
 0.1107013E-01 0.1107013E-01 0.9840071E-02 0.9840071E-02 0.9840071E-02          
 0.9840071E-02 0.9840071E-02 0.9840071E-02 0.8610070E-02 0.8610070E-02          
 0.8610070E-02 0.8610070E-02 0.8610070E-02 0.8610070E-02 0.8610070E-02          
 0.8610070E-02 0.7380068E-02 0.7380068E-02 0.7380068E-02 0.7380068E-02          
 0.7380068E-02 0.7380068E-02 0.7380068E-02 0.6150067E-02 0.6150067E-02          
 0.6150067E-02 0.6150067E-02 0.4920065E-02 0.4920065E-02 0.4920065E-02          
 0.4920065E-02 0.4920065E-02 0.3690064E-02 0.3690064E-02 0.3690064E-02          
 0.3690064E-02 0.3690064E-02 0.3690064E-02 0.3690064E-02 0.3690064E-02          
 0.3690064E-02 0.3690064E-02 0.3690064E-02 0.3690064E-02 0.3690064E-02          
 0.3690064E-02 0.3690064E-02 0.3690064E-02 0.3690064E-02 0.3690064E-02          
 0.3690064E-02 0.3690064E-02 0.3690064E-02 0.3690064E-02 0.3690064E-02          
 0.3690064E-02 0.2460003E-02 0.2460003E-02 0.2460003E-02 0.2460003E-02          
 0.1230001E-02 0.1230001E-02 0.1230001E-02 0.1230001E-02 0.1230001E-02          
 0.1230001E-02 0.1230001E-02 0.1230001E-02 0.1230001E-02 0.1230001E-02          
 0.1230001E-02 0.1230001E-02 0.1230001E-02 0.1230001E-02 0.1230001E-02          
 0.1230001E-02 0.1230001E-02 0.1230001E-02 0.1230001E-02 0.1230001E-02          
 0.1230001E-02 0.1230001E-02 0.1230001E-02 0.1230001E-02 0.1230001E-02          
 0.1230001E-02 0.1230001E-02 0.1230001E-02 0.1230001E-02 0.1230001E-02          
 0.1230001E-02 0.1230001E-02 0.1230001E-02 0.1230001E-02 0.1230001E-02          
 0.1230001E-02 0.1230001E-02 0.1230001E-02 0.1230001E-02 0.1230001E-02          
 0.1230001E-02 0.1230001E-02 0.1230001E-02 0.1230001E-02 0.1230001E-02          
 0.1230001E-02 0.1230001E-02 0.1230001E-02 0.1230001E-02 0.1230001E-02          
 0.1230001E-02 0.1230001E-02 0.1230001E-02 0.1230001E-02 0.1230001E-02          
 0.1230001E-02 0.1230001E-02 0.1230001E-02 0.1230001E-02 0.1230001E-02          
 0.1230001E-02 0.1230001E-02 0.1230001E-02 0.1230001E-02 0.1230001E-02          
 0.1230001E-02 0.0000000E+00 0.0000000E+00 0.0000000E+00 0.0000000E+00          
 0.0000000E+00 0.0000000E+00 0.0000000E+00 0.0000000E+00 0.0000000E+00          
 0.0000000E+00 0.0000000E+00 0.0000000E+00 0.0000000E+00 0.0000000E+00          
 0.0000000E+00 0.0000000E+00 0.0000000E+00 0.0000000E+00 0.0000000E+00          
 0.0000000E+00 0.0000000E+00 0.0000000E+00 0.0000000E+00 0.0000000E+00          
 0.0000000E+00 0.0000000E+00 0.0000000E+00 0.0000000E+00 0.0000000E+00          
 0.0000000E+00 0.0000000E+00 0.0000000E+00 0.0000000E+00 0.0000000E+00          
 0.0000000E+00 0.0000000E+00 0.0000000E+00 0.0000000E+00 0.0000000E+00          
 0.0000000E+00 0.0000000E+00 0.0000000E+00 0.0000000E+00 0.0000000E+00          
 0.0000000E+00 0.0000000E+00 0.0000000E+00 0.0000000E+00 0.0000000E+00          
 0.0000000E+00 0.0000000E+00 0.0000000E+00 0.0000000E+00 0.0000000E+00          
 0.0000000E+00 0.0000000E+00 0.0000000E+00 0.0000000E+00 0.0000000E+00          
 0.0000000E+00 0.0000000E+00 0.0000000E+00 0.0000000E+00 0.0000000E+00          
 0.0000000E+00 0.0000000E+00 0.0000000E+00 0.0000000E+00 0.0000000E+00          
 0.0000000E+00 0.0000000E+00 0.0000000E+00 0.0000000E+00 0.0000000E+00          
 0.0000000E+00 0.0000000E+00 0.0000000E+00 0.0000000E+00 0.0000000E+00          
 0.0000000E+00 0.0000000E+00 0.0000000E+00 0.0000000E+00 0.0000000E+00          
 0.0000000E+00 0.0000000E+00 0.0000000E+00 0.0000000E+00 0.0000000E+00          
 0.0000000E+00 0.0000000E+00 0.0000000E+00 0.0000000E+00 0.0000000E+00          
 0.0000000E+00 0.0000000E+00 0.0000000E+00 0.0000000E+00 0.0000000E+00          
 0.0000000E+00 0.0000000E+00 0.0000000E+00 0.0000000E+00 0.0000000E+00          
 0.0000000E+00 0.0000000E+00 0.0000000E+00 0.0000000E+00 0.0000000E+00          
 0.0000000E+00 0.0000000E+00 0.0000000E+00 0.0000000E+00 0.0000000E+00          
 0.0000000E+00 0.0000000E+00 0.0000000E+00 0.0000000E+00 0.0000000E+00          
 0.0000000E+00 0.0000000E+00 0.0000000E+00 0.0000000E+00 0.0000000E+00          
 0.0000000E+00 0.0000000E+00 0.0000000E+00 0.0000000E+00 0.0000000E+00          
 0.0000000E+00 0.0000000E+00 0.0000000E+00 0.0000000E+00 0.0000000E+00          
 0.0000000E+00 0.0000000E+00 0.0000000E+00 0.0000000E+00 0.0000000E+00          
 0.0000000E+00 0.0000000E+00 0.0000000E+00 0.0000000E+00 0.0000000E+00          
  1.000000     0.9187185     0.8487096     0.7692080     0.7060220              
 0.6446158     0.5677841     0.4983684     0.4423020     0.3897953              
 0.3408484     0.2981311     0.2574903     0.2156630     0.1901513              
 0.1622664     0.1367547     0.1142094     0.9492731E-01 0.8246809E-01          
 0.6852567E-01 0.5784631E-01 0.4657370E-01 0.3975081E-01 0.3530109E-01          
 0.2877486E-01 0.2402848E-01 0.2254522E-01 0.2106202E-01 0.1898545E-01          
 0.1779890E-01 0.1601899E-01 0.1542568E-01 0.1512903E-01 0.1423907E-01          
 0.1364583E-01 0.1216257E-01 0.1216257E-01 0.1216257E-01 0.1156926E-01          
 0.1127261E-01 0.1097596E-01 0.1008600E-01 0.9789407E-02 0.8899450E-02          
 0.8899450E-02 0.8899450E-02 0.8602798E-02 0.8602798E-02 0.8009493E-02          
 0.7712841E-02 0.7712841E-02 0.7416189E-02 0.7119536E-02 0.7119536E-02          
 0.7119536E-02 0.6822884E-02 0.6526232E-02 0.6526232E-02 0.6526232E-02          
 0.6526232E-02 0.6229579E-02 0.5932987E-02 0.5932987E-02 0.5932987E-02          
 0.5932987E-02 0.5339682E-02 0.5339682E-02 0.5339682E-02 0.5339682E-02          
 0.5339682E-02 0.5339682E-02 0.5339682E-02 0.5339682E-02 0.5339682E-02          
 0.5339682E-02 0.5339682E-02 0.5339682E-02 0.5339682E-02 0.5339682E-02          
 0.5339682E-02 0.5339682E-02 0.5339682E-02 0.5043030E-02 0.5043030E-02          
 0.5043030E-02 0.5043030E-02 0.5043030E-02 0.5043030E-02 0.5043030E-02          
 0.5043030E-02 0.5043030E-02 0.5043030E-02 0.5043030E-02 0.4746377E-02          
 0.4746377E-02 0.4746377E-02 0.4746377E-02 0.4746377E-02 0.4746377E-02          
 0.4746377E-02 0.4746377E-02 0.4746377E-02 0.4746377E-02 0.4746377E-02          
 0.4746377E-02 0.4746377E-02 0.4449725E-02 0.4153073E-02 0.4153073E-02          
 0.4153073E-02 0.4153073E-02 0.3856421E-02 0.3856421E-02 0.3856421E-02          
 0.3856421E-02 0.3559768E-02 0.3559768E-02 0.3559768E-02 0.3559768E-02          
 0.3263116E-02 0.3263116E-02 0.3263116E-02 0.3263116E-02 0.3263116E-02          
 0.3263116E-02 0.2966464E-02 0.2373159E-02 0.2373159E-02 0.2373159E-02          
 0.2373159E-02 0.2373159E-02 0.2373159E-02 0.2373159E-02 0.2373159E-02          
 0.2076507E-02 0.2076507E-02 0.2076507E-02 0.2076507E-02 0.2076507E-02          
 0.2076507E-02 0.2076507E-02 0.1779914E-02 0.1779914E-02 0.1779914E-02          
 0.1779914E-02 0.1779914E-02 0.1779914E-02 0.1779914E-02 0.1779914E-02          
 0.1779914E-02 0.1779914E-02 0.1779914E-02 0.1779914E-02 0.1779914E-02          
 0.1779914E-02 0.1779914E-02 0.1779914E-02 0.1779914E-02 0.1779914E-02          
 0.1779914E-02 0.1779914E-02 0.1779914E-02 0.1779914E-02 0.1779914E-02          
 0.1779914E-02 0.1483262E-02 0.1483262E-02 0.1483262E-02 0.1483262E-02          
 0.1483262E-02 0.1483262E-02 0.1483262E-02 0.1186609E-02 0.8899570E-03          
 0.8899570E-03 0.8899570E-03 0.8899570E-03 0.8899570E-03 0.8899570E-03          
 0.8899570E-03 0.8899570E-03 0.8899570E-03 0.5933046E-03 0.5933046E-03          
 0.5933046E-03 0.5933046E-03 0.5933046E-03 0.2966523E-03 0.2966523E-03          
 0.2966523E-03 0.2966523E-03 0.2966523E-03 0.2966523E-03 0.2966523E-03          
 0.2966523E-03 0.2966523E-03 0.2966523E-03 0.2966523E-03 0.2966523E-03          
 0.2966523E-03 0.2966523E-03 0.2966523E-03 0.2966523E-03 0.2966523E-03          
 0.2966523E-03 0.2966523E-03 0.2966523E-03 0.2966523E-03 0.2966523E-03          
 0.2966523E-03 0.2966523E-03 0.2966523E-03 0.2966523E-03 0.2966523E-03          
 0.2966523E-03 0.2966523E-03 0.2966523E-03 0.2966523E-03 0.2966523E-03          
 0.2966523E-03 0.2966523E-03 0.2966523E-03 0.2966523E-03 0.2966523E-03          
 0.2966523E-03 0.2966523E-03 0.2966523E-03 0.2966523E-03 0.2966523E-03          
 0.2966523E-03 0.2966523E-03 0.2966523E-03 0.2966523E-03 0.2966523E-03          
 0.2966523E-03 0.2966523E-03 0.2966523E-03 0.2966523E-03 0.2966523E-03          
 0.2966523E-03 0.2966523E-03 0.2966523E-03 0.2966523E-03 0.2966523E-03          
 0.2966523E-03 0.2966523E-03 0.2966523E-03 0.2966523E-03 0.2966523E-03          
 0.2966523E-03 0.2966523E-03 0.2966523E-03 0.2966523E-03 0.2966523E-03          
 0.2966523E-03 0.2966523E-03 0.2966523E-03 0.2966523E-03 0.2966523E-03          
 0.2966523E-03 0.2966523E-03 0.2966523E-03 0.2966523E-03 0.2966523E-03          
 0.2966523E-03 0.2966523E-03 0.2966523E-03 0.2966523E-03 0.2966523E-03          
 0.2966523E-03 0.2966523E-03 0.2966523E-03 0.2966523E-03 0.2966523E-03          
 0.2966523E-03 0.2966523E-03 0.2966523E-03 0.2966523E-03 0.2966523E-03          
 0.2966523E-03 0.2966523E-03 0.2966523E-03 0.2966523E-03 0.2966523E-03          
 0.2966523E-03 0.2966523E-03 0.2966523E-03 0.2966523E-03 0.2966523E-03          
 0.2966523E-03 0.2966523E-03 0.2966523E-03 0.2966523E-03 0.2966523E-03          
 0.2966523E-03 0.2966523E-03 0.2966523E-03 0.2966523E-03 0.2966523E-03          
 0.2966523E-03 0.2966523E-03 0.2966523E-03 0.2966523E-03 0.2966523E-03          
 0.2966523E-03 0.2966523E-03 0.2966523E-03 0.2966523E-03 0.2966523E-03          
 0.2966523E-03 0.2966523E-03 0.2966523E-03 0.2966523E-03 0.2966523E-03          
 0.2966523E-03 0.2966523E-03 0.0000000E+00 0.0000000E+00 0.0000000E+00          
 0.0000000E+00 0.0000000E+00 0.0000000E+00 0.0000000E+00 0.0000000E+00          
 0.0000000E+00 0.0000000E+00 0.0000000E+00 0.0000000E+00 0.0000000E+00          
 0.0000000E+00 0.0000000E+00 0.0000000E+00 0.0000000E+00 0.0000000E+00          
 0.0000000E+00 0.0000000E+00 0.0000000E+00 0.0000000E+00 0.0000000E+00          
 0.0000000E+00 0.0000000E+00 0.0000000E+00 0.0000000E+00 0.0000000E+00          
 0.0000000E+00 0.0000000E+00 0.0000000E+00 0.0000000E+00 0.0000000E+00          
 0.0000000E+00 0.0000000E+00 0.0000000E+00 0.0000000E+00 0.0000000E+00          
 0.0000000E+00 0.0000000E+00 0.0000000E+00 0.0000000E+00 0.0000000E+00          
 0.0000000E+00 0.0000000E+00 0.0000000E+00 0.0000000E+00 0.0000000E+00          
 0.0000000E+00 0.0000000E+00 0.0000000E+00 0.0000000E+00 0.0000000E+00          
 0.0000000E+00 0.0000000E+00 0.0000000E+00 0.0000000E+00 0.0000000E+00          
 0.0000000E+00 0.0000000E+00 0.0000000E+00 0.0000000E+00 0.0000000E+00          
 0.0000000E+00 0.0000000E+00 0.0000000E+00 0.0000000E+00 0.0000000E+00          
 0.0000000E+00 0.0000000E+00 0.0000000E+00 0.0000000E+00 0.0000000E+00          
 0.0000000E+00 0.0000000E+00 0.0000000E+00 0.0000000E+00 0.0000000E+00          
 0.0000000E+00 0.0000000E+00 0.0000000E+00 0.0000000E+00 0.0000000E+00          
  1.000000     0.9200077     0.8401118     0.7642637     0.6905358              
 0.6204703     0.5556091     0.4896877     0.4311873     0.3768312              
 0.3242097     0.2827680     0.2455667     0.2102930     0.1808982              
 0.1528527     0.1309753     0.1102544     0.9387046E-01 0.7951039E-01          
 0.6736702E-01 0.5609095E-01 0.4741710E-01 0.3989977E-01 0.3363532E-01          
 0.2833462E-01 0.2409405E-01 0.2052814E-01 0.1763684E-01 0.1580572E-01          
 0.1407093E-01 0.1243252E-01 0.1117963E-01 0.1050502E-01 0.9444892E-02          
 0.8481085E-02 0.7324576E-02 0.6842732E-02 0.6264448E-02 0.5782604E-02          
 0.5300701E-02 0.5107939E-02 0.4915178E-02 0.4915178E-02 0.4529655E-02          
 0.4433334E-02 0.4240572E-02 0.4144192E-02 0.3951430E-02 0.3180444E-02          
 0.3180444E-02 0.2987683E-02 0.2794921E-02 0.2794921E-02 0.2794921E-02          
 0.2409399E-02 0.2216637E-02 0.2216637E-02 0.2120256E-02 0.1927555E-02          
 0.1927555E-02 0.1542032E-02 0.1542032E-02 0.1542032E-02 0.1349270E-02          
 0.1349270E-02 0.1349270E-02 0.1349270E-02 0.1252890E-02 0.1252890E-02          
 0.1060128E-02 0.1060128E-02 0.9637475E-03 0.9637475E-03 0.8673668E-03          
 0.5782843E-03 0.4819036E-03 0.3855228E-03 0.3855228E-03 0.3855228E-03          
 0.3855228E-03 0.3855228E-03 0.3855228E-03 0.3855228E-03 0.3855228E-03          
 0.3855228E-03 0.3855228E-03 0.3855228E-03 0.3855228E-03 0.3855228E-03          
 0.3855228E-03 0.3855228E-03 0.3855228E-03 0.3855228E-03 0.3855228E-03          
 0.3855228E-03 0.3855228E-03 0.3855228E-03 0.2891421E-03 0.2891421E-03          
 0.2891421E-03 0.2891421E-03 0.2891421E-03 0.2891421E-03 0.2891421E-03          
 0.2891421E-03 0.2891421E-03 0.2891421E-03 0.2891421E-03 0.2891421E-03          
 0.2891421E-03 0.2891421E-03 0.2891421E-03 0.2891421E-03 0.1927614E-03          
 0.1927614E-03 0.1927614E-03 0.1927614E-03 0.1927614E-03 0.1927614E-03          
 0.1927614E-03 0.1927614E-03 0.1927614E-03 0.1927614E-03 0.1927614E-03          
 0.1927614E-03 0.1927614E-03 0.1927614E-03 0.1927614E-03 0.1927614E-03          
 0.1927614E-03 0.1927614E-03 0.1927614E-03 0.1927614E-03 0.1927614E-03          
 0.1927614E-03 0.1927614E-03 0.9638071E-04 0.9638071E-04 0.9638071E-04          
 0.9638071E-04 0.9638071E-04 0.9638071E-04 0.9638071E-04 0.9638071E-04          
 0.9638071E-04 0.9638071E-04 0.9638071E-04 0.0000000E+00 0.0000000E+00          
 0.0000000E+00 0.0000000E+00 0.0000000E+00 0.0000000E+00 0.0000000E+00          
 0.0000000E+00 0.0000000E+00 0.0000000E+00 0.0000000E+00 0.0000000E+00          
 0.0000000E+00 0.0000000E+00 0.0000000E+00 0.0000000E+00 0.0000000E+00          
 0.0000000E+00 0.0000000E+00 0.0000000E+00 0.0000000E+00 0.0000000E+00          
 0.0000000E+00 0.0000000E+00 0.0000000E+00 0.0000000E+00 0.0000000E+00          
 0.0000000E+00 0.0000000E+00 0.0000000E+00 0.0000000E+00 0.0000000E+00          
 0.0000000E+00 0.0000000E+00 0.0000000E+00 0.0000000E+00 0.0000000E+00          
 0.0000000E+00 0.0000000E+00 0.0000000E+00 0.0000000E+00 0.0000000E+00          
 0.0000000E+00 0.0000000E+00 0.0000000E+00 0.0000000E+00 0.0000000E+00          
 0.0000000E+00 0.0000000E+00 0.0000000E+00 0.0000000E+00 0.0000000E+00          
 0.0000000E+00 0.0000000E+00 0.0000000E+00 0.0000000E+00 0.0000000E+00          
 0.0000000E+00 0.0000000E+00 0.0000000E+00 0.0000000E+00 0.0000000E+00          
 0.0000000E+00 0.0000000E+00 0.0000000E+00 0.0000000E+00 0.0000000E+00          
 0.0000000E+00 0.0000000E+00 0.0000000E+00 0.0000000E+00 0.0000000E+00          
 0.0000000E+00 0.0000000E+00 0.0000000E+00 0.0000000E+00 0.0000000E+00          
 0.0000000E+00 0.0000000E+00 0.0000000E+00 0.0000000E+00 0.0000000E+00          
 0.0000000E+00 0.0000000E+00 0.0000000E+00 0.0000000E+00 0.0000000E+00          
 0.0000000E+00 0.0000000E+00 0.0000000E+00 0.0000000E+00 0.0000000E+00          
 0.0000000E+00 0.0000000E+00 0.0000000E+00 0.0000000E+00 0.0000000E+00          
 0.0000000E+00 0.0000000E+00 0.0000000E+00 0.0000000E+00 0.0000000E+00          
 0.0000000E+00 0.0000000E+00 0.0000000E+00 0.0000000E+00 0.0000000E+00          
 0.0000000E+00 0.0000000E+00 0.0000000E+00 0.0000000E+00 0.0000000E+00          
 0.0000000E+00 0.0000000E+00 0.0000000E+00 0.0000000E+00 0.0000000E+00          
 0.0000000E+00 0.0000000E+00 0.0000000E+00 0.0000000E+00 0.0000000E+00          
 0.0000000E+00 0.0000000E+00 0.0000000E+00 0.0000000E+00 0.0000000E+00          
 0.0000000E+00 0.0000000E+00 0.0000000E+00 0.0000000E+00 0.0000000E+00          
 0.0000000E+00 0.0000000E+00 0.0000000E+00 0.0000000E+00 0.0000000E+00          
 0.0000000E+00 0.0000000E+00 0.0000000E+00 0.0000000E+00 0.0000000E+00          
 0.0000000E+00 0.0000000E+00 0.0000000E+00 0.0000000E+00 0.0000000E+00          
 0.0000000E+00 0.0000000E+00 0.0000000E+00 0.0000000E+00 0.0000000E+00          
 0.0000000E+00 0.0000000E+00 0.0000000E+00 0.0000000E+00 0.0000000E+00          
 0.0000000E+00 0.0000000E+00 0.0000000E+00 0.0000000E+00 0.0000000E+00          
 0.0000000E+00 0.0000000E+00 0.0000000E+00 0.0000000E+00 0.0000000E+00          
 0.0000000E+00 0.0000000E+00 0.0000000E+00 0.0000000E+00 0.0000000E+00          
 0.0000000E+00 0.0000000E+00 0.0000000E+00 0.0000000E+00 0.0000000E+00          
 0.0000000E+00 0.0000000E+00 0.0000000E+00 0.0000000E+00 0.0000000E+00          
 0.0000000E+00 0.0000000E+00 0.0000000E+00 0.0000000E+00 0.0000000E+00          
 0.0000000E+00 0.0000000E+00 0.0000000E+00 0.0000000E+00 0.0000000E+00          
 0.0000000E+00 0.0000000E+00 0.0000000E+00 0.0000000E+00 0.0000000E+00          
 0.0000000E+00 0.0000000E+00 0.0000000E+00 0.0000000E+00 0.0000000E+00          
 0.0000000E+00 0.0000000E+00 0.0000000E+00 0.0000000E+00 0.0000000E+00          
 0.0000000E+00 0.0000000E+00 0.0000000E+00 0.0000000E+00 0.0000000E+00          
 0.0000000E+00 0.0000000E+00 0.0000000E+00 0.0000000E+00 0.0000000E+00          
 0.0000000E+00 0.0000000E+00 0.0000000E+00 0.0000000E+00 0.0000000E+00          
 0.0000000E+00 0.0000000E+00 0.0000000E+00 0.0000000E+00 0.0000000E+00          
 0.0000000E+00 0.0000000E+00 0.0000000E+00 0.0000000E+00 0.0000000E+00          
 0.0000000E+00 0.0000000E+00 0.0000000E+00 0.0000000E+00 0.0000000E+00          
 0.0000000E+00 0.0000000E+00 0.0000000E+00 0.0000000E+00 0.0000000E+00          
 0.0000000E+00 0.0000000E+00 0.0000000E+00 0.0000000E+00 0.0000000E+00          
 0.0000000E+00 0.0000000E+00 0.0000000E+00 0.0000000E+00 0.0000000E+00          
  1.000000     0.9181692     0.8432732     0.7656033     0.6865464              
 0.6234397     0.5582525     0.4944522     0.4368932     0.3800277              
 0.3294036     0.2669903     0.2378641     0.2004161     0.1747573              
 0.1442441     0.1248266     0.1081831     0.8391124E-01 0.6934816E-01          
 0.5825245E-01 0.4715675E-01 0.3814149E-01 0.2981967E-01 0.2427185E-01          
 0.1803052E-01 0.1317614E-01 0.1040220E-01 0.8321762E-02 0.6241322E-02          
 0.6241322E-02 0.4854381E-02 0.4854381E-02 0.4160881E-02 0.4160881E-02          
 0.4160881E-02 0.3467381E-02 0.3467381E-02 0.2080441E-02 0.1386940E-02          
 0.1386940E-02 0.1386940E-02 0.6935000E-03 0.6935000E-03 0.6935000E-03          
 0.6935000E-03 0.6935000E-03 0.6935000E-03 0.6935000E-03 0.6935000E-03          
 0.0000000E+00 0.0000000E+00 0.0000000E+00 0.0000000E+00 0.0000000E+00          
 0.0000000E+00 0.0000000E+00 0.0000000E+00 0.0000000E+00 0.0000000E+00          
 0.0000000E+00 0.0000000E+00 0.0000000E+00 0.0000000E+00 0.0000000E+00          
 0.0000000E+00 0.0000000E+00 0.0000000E+00 0.0000000E+00 0.0000000E+00          
 0.0000000E+00 0.0000000E+00 0.0000000E+00 0.0000000E+00 0.0000000E+00          
 0.0000000E+00 0.0000000E+00 0.0000000E+00 0.0000000E+00 0.0000000E+00          
 0.0000000E+00 0.0000000E+00 0.0000000E+00 0.0000000E+00 0.0000000E+00          
 0.0000000E+00 0.0000000E+00 0.0000000E+00 0.0000000E+00 0.0000000E+00          
 0.0000000E+00 0.0000000E+00 0.0000000E+00 0.0000000E+00 0.0000000E+00          
 0.0000000E+00 0.0000000E+00 0.0000000E+00 0.0000000E+00 0.0000000E+00          
 0.0000000E+00 0.0000000E+00 0.0000000E+00 0.0000000E+00 0.0000000E+00          
 0.0000000E+00 0.0000000E+00 0.0000000E+00 0.0000000E+00 0.0000000E+00          
 0.0000000E+00 0.0000000E+00 0.0000000E+00 0.0000000E+00 0.0000000E+00          
 0.0000000E+00 0.0000000E+00 0.0000000E+00 0.0000000E+00 0.0000000E+00          
 0.0000000E+00 0.0000000E+00 0.0000000E+00 0.0000000E+00 0.0000000E+00          
 0.0000000E+00 0.0000000E+00 0.0000000E+00 0.0000000E+00 0.0000000E+00          
 0.0000000E+00 0.0000000E+00 0.0000000E+00 0.0000000E+00 0.0000000E+00          
 0.0000000E+00 0.0000000E+00 0.0000000E+00 0.0000000E+00 0.0000000E+00          
 0.0000000E+00 0.0000000E+00 0.0000000E+00 0.0000000E+00 0.0000000E+00          
 0.0000000E+00 0.0000000E+00 0.0000000E+00 0.0000000E+00 0.0000000E+00          
 0.0000000E+00 0.0000000E+00 0.0000000E+00 0.0000000E+00 0.0000000E+00          
 0.0000000E+00 0.0000000E+00 0.0000000E+00 0.0000000E+00 0.0000000E+00          
 0.0000000E+00 0.0000000E+00 0.0000000E+00 0.0000000E+00 0.0000000E+00          
 0.0000000E+00 0.0000000E+00 0.0000000E+00 0.0000000E+00 0.0000000E+00          
 0.0000000E+00 0.0000000E+00 0.0000000E+00 0.0000000E+00 0.0000000E+00          
 0.0000000E+00 0.0000000E+00 0.0000000E+00 0.0000000E+00 0.0000000E+00          
 0.0000000E+00 0.0000000E+00 0.0000000E+00 0.0000000E+00 0.0000000E+00          
 0.0000000E+00 0.0000000E+00 0.0000000E+00 0.0000000E+00 0.0000000E+00          
 0.0000000E+00 0.0000000E+00 0.0000000E+00 0.0000000E+00 0.0000000E+00          
 0.0000000E+00 0.0000000E+00 0.0000000E+00 0.0000000E+00 0.0000000E+00          
 0.0000000E+00 0.0000000E+00 0.0000000E+00 0.0000000E+00 0.0000000E+00          
 0.0000000E+00 0.0000000E+00 0.0000000E+00 0.0000000E+00 0.0000000E+00          
 0.0000000E+00 0.0000000E+00 0.0000000E+00 0.0000000E+00 0.0000000E+00          
 0.0000000E+00 0.0000000E+00 0.0000000E+00 0.0000000E+00 0.0000000E+00          
 0.0000000E+00 0.0000000E+00 0.0000000E+00 0.0000000E+00 0.0000000E+00          
 0.0000000E+00 0.0000000E+00 0.0000000E+00 0.0000000E+00 0.0000000E+00          
 0.0000000E+00 0.0000000E+00 0.0000000E+00 0.0000000E+00 0.0000000E+00          
 0.0000000E+00 0.0000000E+00 0.0000000E+00 0.0000000E+00 0.0000000E+00          
 0.0000000E+00 0.0000000E+00 0.0000000E+00 0.0000000E+00 0.0000000E+00          
 0.0000000E+00 0.0000000E+00 0.0000000E+00 0.0000000E+00 0.0000000E+00          
 0.0000000E+00 0.0000000E+00 0.0000000E+00 0.0000000E+00 0.0000000E+00          
 0.0000000E+00 0.0000000E+00 0.0000000E+00 0.0000000E+00 0.0000000E+00          
 0.0000000E+00 0.0000000E+00 0.0000000E+00 0.0000000E+00 0.0000000E+00          
 0.0000000E+00 0.0000000E+00 0.0000000E+00 0.0000000E+00 0.0000000E+00          
 0.0000000E+00 0.0000000E+00 0.0000000E+00 0.0000000E+00 0.0000000E+00          
 0.0000000E+00 0.0000000E+00 0.0000000E+00 0.0000000E+00 0.0000000E+00          
 0.0000000E+00 0.0000000E+00 0.0000000E+00 0.0000000E+00 0.0000000E+00          
 0.0000000E+00 0.0000000E+00 0.0000000E+00 0.0000000E+00 0.0000000E+00          
 0.0000000E+00 0.0000000E+00 0.0000000E+00 0.0000000E+00 0.0000000E+00          
 0.0000000E+00 0.0000000E+00 0.0000000E+00 0.0000000E+00 0.0000000E+00          
 0.0000000E+00 0.0000000E+00 0.0000000E+00 0.0000000E+00 0.0000000E+00          
 0.0000000E+00 0.0000000E+00 0.0000000E+00 0.0000000E+00 0.0000000E+00          
 0.0000000E+00 0.0000000E+00 0.0000000E+00 0.0000000E+00 0.0000000E+00          
 0.0000000E+00 0.0000000E+00 0.0000000E+00 0.0000000E+00 0.0000000E+00          
 0.0000000E+00 0.0000000E+00 0.0000000E+00 0.0000000E+00 0.0000000E+00          
 0.0000000E+00 0.0000000E+00 0.0000000E+00 0.0000000E+00 0.0000000E+00          
 0.0000000E+00 0.0000000E+00 0.0000000E+00 0.0000000E+00 0.0000000E+00          
 0.0000000E+00 0.0000000E+00 0.0000000E+00 0.0000000E+00 0.0000000E+00          
 0.0000000E+00 0.0000000E+00 0.0000000E+00 0.0000000E+00 0.0000000E+00          
 0.0000000E+00 0.0000000E+00 0.0000000E+00 0.0000000E+00 0.0000000E+00          
 0.0000000E+00 0.0000000E+00 0.0000000E+00 0.0000000E+00 0.0000000E+00          
 0.0000000E+00 0.0000000E+00 0.0000000E+00 0.0000000E+00 0.0000000E+00          
 0.0000000E+00 0.0000000E+00 0.0000000E+00 0.0000000E+00 0.0000000E+00          
 0.0000000E+00 0.0000000E+00 0.0000000E+00 0.0000000E+00 0.0000000E+00          
 0.0000000E+00 0.0000000E+00 0.0000000E+00 0.0000000E+00 0.0000000E+00          
 0.0000000E+00 0.0000000E+00 0.0000000E+00 0.0000000E+00 0.0000000E+00          
 0.0000000E+00 0.0000000E+00 0.0000000E+00 0.0000000E+00 0.0000000E+00          
 0.0000000E+00 0.0000000E+00 0.0000000E+00 0.0000000E+00 0.0000000E+00          
 0.0000000E+00 0.0000000E+00 0.0000000E+00 0.0000000E+00 0.0000000E+00          
 0.0000000E+00 0.0000000E+00 0.0000000E+00 0.0000000E+00 0.0000000E+00          
