  1.000000     0.9284869     0.8563144     0.7850404     0.7166800              
 0.6506137     0.5878963     0.5288653     0.4729441     0.4208381              
 0.3727435     0.3289794     0.2896193     0.2532156     0.2207099              
 0.1921053     0.1664633     0.1443174     0.1252139     0.1084136              
 0.9409750E-01 0.8188218E-01 0.7129842E-01 0.6211013E-01 0.5456257E-01          
 0.4838282E-01 0.4304343E-01 0.3858113E-01 0.3491008E-01 0.3178191E-01          
 0.2911681E-01 0.2666026E-01 0.2463609E-01 0.2282667E-01 0.2133620E-01          
 0.1993155E-01 0.1887041E-01 0.1781237E-01 0.1682788E-01 0.1602131E-01          
 0.1524842E-01 0.1454920E-01 0.1392972E-01 0.1330101E-01 0.1277041E-01          
 0.1226437E-01 0.1180744E-01 0.1142406E-01 0.1103455E-01 0.1066965E-01          
 0.1034451E-01 0.1003480E-01 0.9697437E-02 0.9378493E-02 0.9102464E-02          
 0.8841753E-02 0.8574963E-02 0.8298934E-02 0.8059740E-02 0.7817447E-02          
 0.7624209E-02 0.7345140E-02 0.7133543E-02 0.6937265E-02 0.6734848E-02          
 0.6550848E-02 0.6409764E-02 0.6253362E-02 0.6133735E-02 0.5998790E-02          
 0.5836248E-02 0.5673707E-02 0.5557179E-02 0.5397677E-02 0.5259693E-02          
 0.5158484E-02 0.4992843E-02 0.4833400E-02 0.4722953E-02 0.4609525E-02          
 0.4492939E-02 0.4376411E-02 0.4253745E-02 0.4137218E-02 0.4026771E-02          
 0.3940940E-02 0.3833592E-02 0.3756881E-02 0.3680229E-02 0.3609717E-02          
 0.3517687E-02 0.3422618E-02 0.3373563E-02 0.3306091E-02 0.3244758E-02          
 0.3174186E-02 0.3118992E-02 0.3066838E-02 0.3011644E-02 0.2962589E-02          
 0.2907395E-02 0.2855241E-02 0.2797008E-02 0.2704978E-02 0.2646685E-02          
 0.2594590E-02 0.2560854E-02 0.2496421E-02 0.2419770E-02 0.2382934E-02          
 0.2349198E-02 0.2318561E-02 0.2266407E-02 0.2211213E-02 0.2168298E-02          
 0.2137601E-02 0.2088547E-02 0.2057850E-02 0.2017975E-02 0.1978099E-02          
 0.1950502E-02 0.1907587E-02 0.1858532E-02 0.1833975E-02 0.1803339E-02          
 0.1781821E-02 0.1760364E-02 0.1717448E-02 0.1689851E-02 0.1659155E-02          
 0.1625419E-02 0.1591682E-02 0.1561046E-02 0.1527309E-02 0.1505852E-02          
 0.1478255E-02 0.1450598E-02 0.1441419E-02 0.1398504E-02 0.1383126E-02          
 0.1370907E-02 0.1349449E-02 0.1334071E-02 0.1321793E-02 0.1303434E-02          
 0.1300335E-02 0.1281977E-02 0.1263559E-02 0.1245141E-02 0.1229823E-02          
 0.1199126E-02 0.1183808E-02 0.1171529E-02 0.1143932E-02 0.1116335E-02          
 0.1094878E-02 0.1088738E-02 0.1076460E-02 0.1061141E-02 0.1045823E-02          
 0.1036584E-02 0.1027405E-02 0.1002848E-02 0.9905696E-03 0.9691119E-03          
 0.9568334E-03 0.9507537E-03 0.9323359E-03 0.9230971E-03 0.9077787E-03          
 0.8985996E-03 0.8801818E-03 0.8679032E-03 0.8648634E-03 0.8525848E-03          
 0.8464456E-03 0.8311272E-03 0.8249879E-03 0.8096695E-03 0.7973909E-03          
 0.7912517E-03 0.7851124E-03 0.7728338E-03 0.7666945E-03 0.7605553E-03          
 0.7544756E-03 0.7483363E-03 0.7329583E-03 0.7237792E-03 0.7146001E-03          
 0.7084608E-03 0.6900430E-03 0.6870031E-03 0.6808639E-03 0.6685853E-03          
 0.6501675E-03 0.6440282E-03 0.6378889E-03 0.6256700E-03 0.6133914E-03          
 0.5888343E-03 0.5796552E-03 0.5735159E-03 0.5704165E-03 0.5612373E-03          
 0.5459189E-03 0.5366802E-03 0.5336404E-03 0.5336404E-03 0.5305409E-03          
 0.5183220E-03 0.5152225E-03 0.5090833E-03 0.5090833E-03 0.4999042E-03          
 0.4968047E-03 0.4937649E-03 0.4937649E-03 0.4845858E-03 0.4784465E-03          
 0.4723072E-03 0.4569888E-03 0.4508495E-03 0.4508495E-03 0.4477501E-03          
 0.4447103E-03 0.4385710E-03 0.4385710E-03 0.4385710E-03 0.4324317E-03          
 0.4262924E-03 0.4232526E-03 0.4201531E-03 0.4140139E-03 0.4048347E-03          
 0.3955960E-03 0.3925562E-03 0.3895164E-03 0.3802776E-03 0.3710985E-03          
 0.3619194E-03 0.3588200E-03 0.3557801E-03 0.3557801E-03 0.3557801E-03          
 0.3526807E-03 0.3465414E-03 0.3373623E-03 0.3281832E-03 0.3250837E-03          
 0.3250837E-03 0.3220439E-03 0.3189445E-03 0.3036261E-03 0.2974868E-03          
 0.2944469E-03 0.2883077E-03 0.2821684E-03 0.2821684E-03 0.2760291E-03          
 0.2729297E-03 0.2698898E-03 0.2637506E-03 0.2637506E-03 0.2576113E-03          
 0.2545714E-03 0.2514720E-03 0.2484322E-03 0.2484322E-03 0.2484322E-03          
 0.2484322E-03 0.2453327E-03 0.2453327E-03 0.2422929E-03 0.2391934E-03          
 0.2361536E-03 0.2361536E-03 0.2361536E-03 0.2300143E-03 0.2300143E-03          
 0.2300143E-03 0.2269745E-03 0.2238750E-03 0.2115965E-03 0.2085567E-03          
 0.2085567E-03 0.2054572E-03 0.2054572E-03 0.2024174E-03 0.2024174E-03          
 0.1993179E-03 0.1993179E-03 0.1962781E-03 0.1962781E-03 0.1932383E-03          
 0.1870990E-03 0.1839995E-03 0.1839995E-03 0.1839995E-03 0.1839995E-03          
 0.1778603E-03 0.1717210E-03 0.1655817E-03 0.1625419E-03 0.1595020E-03          
 0.1595020E-03 0.1533628E-03 0.1472235E-03 0.1472235E-03 0.1410842E-03          
 0.1410842E-03 0.1379848E-03 0.1349449E-03 0.1349449E-03 0.1318455E-03          
 0.1318455E-03 0.1318455E-03 0.1318455E-03 0.1257658E-03 0.1257658E-03          
 0.1226664E-03 0.1226664E-03 0.1196265E-03 0.1196265E-03 0.1196265E-03          
 0.1196265E-03 0.1134872E-03 0.1134872E-03 0.1134872E-03 0.1073480E-03          
 0.1042485E-03 0.1042485E-03 0.1042485E-03 0.1042485E-03 0.1012087E-03          
 0.1012087E-03 0.1012087E-03 0.1012087E-03 0.9506941E-04 0.9506941E-04          
 0.9506941E-04 0.9506941E-04 0.9506941E-04 0.9506941E-04 0.9506941E-04          
 0.9506941E-04 0.9202957E-04 0.8589029E-04 0.8589029E-04 0.8279085E-04          
 0.8279085E-04 0.7975101E-04 0.7975101E-04 0.7975101E-04 0.7975101E-04          
 0.7665157E-04 0.7051229E-04 0.7051229E-04 0.7051229E-04 0.7051229E-04          
 0.7051229E-04 0.7051229E-04 0.7051229E-04 0.7051229E-04 0.7051229E-04          
 0.7051229E-04 0.7051229E-04 0.7051229E-04 0.7051229E-04 0.7051229E-04          
 0.7051229E-04 0.6747246E-04 0.6443262E-04 0.6443262E-04 0.6443262E-04          
 0.6133318E-04 0.5829334E-04 0.5519390E-04 0.5519390E-04 0.5519390E-04          
 0.5519390E-04 0.5519390E-04 0.5519390E-04 0.5519390E-04 0.5519390E-04          
 0.5215406E-04 0.5215406E-04 0.5215406E-04 0.4905462E-04 0.4905462E-04          
 0.4905462E-04 0.4905462E-04 0.4905462E-04 0.4905462E-04 0.4905462E-04          
 0.4905462E-04 0.4905462E-04 0.4905462E-04 0.4905462E-04 0.4905462E-04          
  1.000000     0.9319425     0.8629656     0.7938526     0.7280538              
 0.6662391     0.6039477     0.5454928     0.4902954     0.4401830              
 0.3924542     0.3490953     0.3106626     0.2768041     0.2445801              
 0.2164083     0.1926971     0.1707225     0.1515062     0.1342989              
 0.1194411     0.1062973     0.9537810E-01 0.8500373E-01 0.7709247E-01          
 0.7006651E-01 0.6414157E-01 0.5897707E-01 0.5447096E-01 0.5104309E-01          
 0.4798985E-01 0.4529977E-01 0.4308641E-01 0.4083902E-01 0.3888673E-01          
 0.3711605E-01 0.3557241E-01 0.3423303E-01 0.3306395E-01 0.3192890E-01          
 0.3064632E-01 0.2962476E-01 0.2869403E-01 0.2772921E-01 0.2701414E-01          
 0.2615148E-01 0.2539104E-01 0.2460784E-01 0.2393818E-01 0.2316636E-01          
 0.2255338E-01 0.2195185E-01 0.2147514E-01 0.2097571E-01 0.2039683E-01          
 0.1984066E-01 0.1936394E-01 0.1887584E-01 0.1841050E-01 0.1808131E-01          
 0.1759326E-01 0.1723003E-01 0.1693493E-01 0.1668519E-01 0.1639009E-01          
 0.1597011E-01 0.1565230E-01 0.1511884E-01 0.1485777E-01 0.1457399E-01          
 0.1432431E-01 0.1409727E-01 0.1377946E-01 0.1346165E-01 0.1321197E-01          
 0.1293957E-01 0.1265579E-01 0.1239473E-01 0.1216769E-01 0.1194072E-01          
 0.1171368E-01 0.1156616E-01 0.1132780E-01 0.1110077E-01 0.1079428E-01          
 0.1061273E-01 0.1047647E-01 0.1028353E-01 0.1006788E-01 0.9806812E-02          
 0.9545743E-02 0.9398222E-02 0.9307384E-02 0.9159863E-02 0.8932829E-02          
 0.8751214E-02 0.8592308E-02 0.8410692E-02 0.8274496E-02 0.8047462E-02          
 0.7911265E-02 0.7820487E-02 0.7741034E-02 0.7627547E-02 0.7434547E-02          
 0.7275641E-02 0.7150829E-02 0.7037282E-02 0.6878376E-02 0.6821632E-02          
 0.6685436E-02 0.6560564E-02 0.6492496E-02 0.6356239E-02 0.6129265E-02          
 0.5981684E-02 0.5924940E-02 0.5845487E-02 0.5743325E-02 0.5629838E-02          
 0.5561709E-02 0.5504966E-02 0.5414188E-02 0.5277991E-02 0.5187154E-02          
 0.5039632E-02 0.4937470E-02 0.4801273E-02 0.4744530E-02 0.4630983E-02          
 0.4551530E-02 0.4517496E-02 0.4449368E-02 0.4415333E-02 0.4358590E-02          
 0.4301846E-02 0.4176974E-02 0.4052103E-02 0.4029393E-02 0.3972650E-02          
 0.3893197E-02 0.3836453E-02 0.3813744E-02 0.3722966E-02 0.3620803E-02          
 0.3552675E-02 0.3552675E-02 0.3461897E-02 0.3461897E-02 0.3427863E-02          
 0.3371119E-02 0.3337026E-02 0.3291667E-02 0.3257573E-02 0.3223538E-02          
 0.3155410E-02 0.3098667E-02 0.3064632E-02 0.3019214E-02 0.2962470E-02          
 0.2939761E-02 0.2894402E-02 0.2826273E-02 0.2792239E-02 0.2758145E-02          
 0.2712786E-02 0.2690077E-02 0.2655983E-02 0.2633333E-02 0.2610624E-02          
 0.2565205E-02 0.2497077E-02 0.2451718E-02 0.2451718E-02 0.2429008E-02          
 0.2394974E-02 0.2360880E-02 0.2338171E-02 0.2326846E-02 0.2281427E-02          
 0.2270103E-02 0.2258718E-02 0.2236068E-02 0.2236068E-02 0.2213359E-02          
 0.2201974E-02 0.2156615E-02 0.2122521E-02 0.2088487E-02 0.2031744E-02          
 0.2009034E-02 0.1997709E-02 0.1975000E-02 0.1963615E-02 0.1918256E-02          
 0.1884162E-02 0.1884162E-02 0.1861453E-02 0.1838803E-02 0.1827419E-02          
 0.1793385E-02 0.1770675E-02 0.1725256E-02 0.1691222E-02 0.1679897E-02          
 0.1623094E-02 0.1600444E-02 0.1566350E-02 0.1566350E-02 0.1543641E-02          
 0.1509607E-02 0.1475573E-02 0.1452863E-02 0.1430154E-02 0.1418829E-02          
 0.1396120E-02 0.1373410E-02 0.1362085E-02 0.1350701E-02 0.1327991E-02          
 0.1305282E-02 0.1282632E-02 0.1271248E-02 0.1248538E-02 0.1214504E-02          
 0.1203179E-02 0.1191795E-02 0.1191795E-02 0.1191795E-02 0.1169086E-02          
 0.1169086E-02 0.1146376E-02 0.1135051E-02 0.1112342E-02 0.1089633E-02          
 0.1055598E-02 0.1055598E-02 0.1044273E-02 0.1021564E-02 0.1021564E-02          
 0.1021564E-02 0.1021564E-02 0.9874701E-03 0.9874701E-03 0.9534359E-03          
 0.9421110E-03 0.9080172E-03 0.8966923E-03 0.8739829E-03 0.8739829E-03          
 0.8739829E-03 0.8626580E-03 0.8626580E-03 0.8512735E-03 0.8058548E-03          
 0.7718205E-03 0.7604957E-03 0.7604957E-03 0.7491112E-03 0.7264018E-03          
 0.7264018E-03 0.7150769E-03 0.7037520E-03 0.7037520E-03 0.6923676E-03          
 0.6923676E-03 0.6923676E-03 0.6923676E-03 0.6923676E-03 0.6923676E-03          
 0.6923676E-03 0.6923676E-03 0.6923676E-03 0.6923676E-03 0.6696582E-03          
 0.6583333E-03 0.6583333E-03 0.6583333E-03 0.6469488E-03 0.6469488E-03          
 0.6469488E-03 0.6469488E-03 0.6356239E-03 0.6356239E-03 0.6356239E-03          
 0.6356239E-03 0.6242990E-03 0.6242990E-03 0.6242990E-03 0.6242990E-03          
 0.6129146E-03 0.6129146E-03 0.6129146E-03 0.6015897E-03 0.5902052E-03          
 0.5902052E-03 0.5674958E-03 0.5561709E-03 0.5561709E-03 0.5561709E-03          
 0.5561709E-03 0.5561709E-03 0.5448461E-03 0.5448461E-03 0.5448461E-03          
 0.5448461E-03 0.5448461E-03 0.5334616E-03 0.5334616E-03 0.5334616E-03          
 0.5334616E-03 0.5221367E-03 0.5221367E-03 0.5221367E-03 0.5221367E-03          
 0.5221367E-03 0.5107522E-03 0.5107522E-03 0.5107522E-03 0.5107522E-03          
 0.5107522E-03 0.4880428E-03 0.4767179E-03 0.4767179E-03 0.4767179E-03          
 0.4540086E-03 0.4426837E-03 0.4426837E-03 0.4426837E-03 0.4312992E-03          
 0.4199743E-03 0.4199743E-03 0.4085898E-03 0.3972650E-03 0.3859401E-03          
 0.3859401E-03 0.3745556E-03 0.3632307E-03 0.3405213E-03 0.3405213E-03          
 0.3291368E-03 0.3291368E-03 0.3291368E-03 0.3291368E-03 0.3178120E-03          
 0.3178120E-03 0.2723932E-03 0.2610683E-03 0.2496839E-03 0.2383590E-03          
 0.2383590E-03 0.2383590E-03 0.2383590E-03 0.2383590E-03 0.2383590E-03          
 0.2383590E-03 0.2383590E-03 0.2383590E-03 0.2383590E-03 0.2383590E-03          
 0.2270341E-03 0.2270341E-03 0.2270341E-03 0.2270341E-03 0.2270341E-03          
 0.2270341E-03 0.2043247E-03 0.2043247E-03 0.2043247E-03 0.1929402E-03          
 0.1929402E-03 0.1816154E-03 0.1816154E-03 0.1816154E-03 0.1816154E-03          
 0.1702309E-03 0.1702309E-03 0.1702309E-03 0.1702309E-03 0.1702309E-03          
 0.1702309E-03 0.1702309E-03 0.1702309E-03 0.1702309E-03 0.1702309E-03          
 0.1702309E-03 0.1702309E-03 0.1702309E-03 0.1702309E-03 0.1702309E-03          
 0.1702309E-03 0.1589060E-03 0.1589060E-03 0.1475811E-03 0.1475811E-03          
 0.1475811E-03 0.1475811E-03 0.1361966E-03 0.1361966E-03 0.1361966E-03          
  1.000000     0.9238083     0.8539972     0.7890654     0.7192544              
 0.6549481     0.5896410     0.5316527     0.4761041     0.4240586              
 0.3793319     0.3389215     0.3037658     0.2694858     0.2413988              
 0.2176279     0.1978606     0.1790317     0.1614538     0.1480045              
 0.1365570     0.1255473     0.1168522     0.1095959     0.1015263              
 0.9527087E-01 0.9089202E-01 0.8645064E-01 0.8282244E-01 0.8019519E-01          
 0.7763040E-01 0.7475293E-01 0.7250094E-01 0.7093710E-01 0.6899786E-01          
 0.6780934E-01 0.6655824E-01 0.6511950E-01 0.6380582E-01 0.6224197E-01          
 0.6086576E-01 0.6011510E-01 0.5923933E-01 0.5848867E-01 0.5761290E-01          
 0.5648690E-01 0.5529839E-01 0.5392218E-01 0.5310899E-01 0.5242085E-01          
 0.5148256E-01 0.5066931E-01 0.4973102E-01 0.4898036E-01 0.4810458E-01          
 0.4766673E-01 0.4679096E-01 0.4597771E-01 0.4510194E-01 0.4435128E-01          
 0.4341298E-01 0.4222447E-01 0.4153633E-01 0.4066056E-01 0.4022270E-01          
 0.3934693E-01 0.3909671E-01 0.3853369E-01 0.3797072E-01 0.3765798E-01          
 0.3690732E-01 0.3603154E-01 0.3496808E-01 0.3415489E-01 0.3359187E-01          
 0.3290379E-01 0.3209060E-01 0.3171527E-01 0.3083950E-01 0.3027648E-01          
 0.2983862E-01 0.2921307E-01 0.2877516E-01 0.2814960E-01 0.2777427E-01          
 0.2696109E-01 0.2627301E-01 0.2577257E-01 0.2527213E-01 0.2464658E-01          
 0.2389592E-01 0.2339548E-01 0.2289504E-01 0.2258223E-01 0.2226949E-01          
 0.2183163E-01 0.2114350E-01 0.2076817E-01 0.2020520E-01 0.1970476E-01          
 0.1939195E-01 0.1907921E-01 0.1889151E-01 0.1857877E-01 0.1820344E-01          
 0.1795322E-01 0.1745278E-01 0.1707745E-01 0.1695234E-01 0.1670212E-01          
 0.1651442E-01 0.1626426E-01 0.1601404E-01 0.1570123E-01 0.1545101E-01          
 0.1538849E-01 0.1501316E-01 0.1482546E-01 0.1463783E-01 0.1445013E-01          
 0.1432502E-01 0.1426250E-01 0.1413739E-01 0.1382458E-01 0.1369947E-01          
 0.1332414E-01 0.1307392E-01 0.1294881E-01 0.1288629E-01 0.1269859E-01          
 0.1257348E-01 0.1238585E-01 0.1201051E-01 0.1169771E-01 0.1138496E-01          
 0.1125985E-01 0.1107216E-01 0.1069689E-01 0.1044667E-01 0.1019645E-01          
 0.1000875E-01 0.9946227E-02 0.9946227E-02 0.9821117E-02 0.9633422E-02          
 0.9258091E-02 0.9132981E-02 0.9132981E-02 0.8882761E-02 0.8820236E-02          
 0.8632541E-02 0.8632541E-02 0.8444905E-02 0.8319795E-02 0.8257210E-02          
 0.7944465E-02 0.7819355E-02 0.7694244E-02 0.7569134E-02 0.7444024E-02          
 0.7444024E-02 0.7381439E-02 0.7068694E-02 0.6943583E-02 0.6755888E-02          
 0.6568253E-02 0.6192923E-02 0.6067812E-02 0.6067812E-02 0.5942702E-02          
 0.5942702E-02 0.5817592E-02 0.5755007E-02 0.5755007E-02 0.5629897E-02          
 0.5567372E-02 0.5504787E-02 0.5442262E-02 0.5254626E-02 0.5254626E-02          
 0.5066931E-02 0.4941821E-02 0.4879296E-02 0.4816711E-02 0.4816711E-02          
 0.4816711E-02 0.4754186E-02 0.4691601E-02 0.4629076E-02 0.4629076E-02          
 0.4566491E-02 0.4566491E-02 0.4441381E-02 0.4378855E-02 0.4316270E-02          
 0.4253745E-02 0.4128635E-02 0.4128635E-02 0.4066050E-02 0.4003525E-02          
 0.4003525E-02 0.4003525E-02 0.3815830E-02 0.3753304E-02 0.3690720E-02          
 0.3628194E-02 0.3628194E-02 0.3565609E-02 0.3565609E-02 0.3503084E-02          
 0.3377974E-02 0.3377974E-02 0.3377974E-02 0.3377974E-02 0.3377974E-02          
 0.3315389E-02 0.3315389E-02 0.3002644E-02 0.3002644E-02 0.2940059E-02          
 0.2940059E-02 0.2877533E-02 0.2877533E-02 0.2877533E-02 0.2689838E-02          
 0.2627313E-02 0.2627313E-02 0.2564728E-02 0.2502203E-02 0.2439618E-02          
 0.2439618E-02 0.2377093E-02 0.2314508E-02 0.2251983E-02 0.2189398E-02          
 0.2189398E-02 0.2189398E-02 0.2126873E-02 0.2064288E-02 0.2001762E-02          
 0.1939178E-02 0.1939178E-02 0.1939178E-02 0.1939178E-02 0.1939178E-02          
 0.1939178E-02 0.1876652E-02 0.1688957E-02 0.1626432E-02 0.1626432E-02          
 0.1626432E-02 0.1626432E-02 0.1563847E-02 0.1563847E-02 0.1563847E-02          
 0.1563847E-02 0.1501322E-02 0.1501322E-02 0.1501322E-02 0.1438737E-02          
 0.1438737E-02 0.1438737E-02 0.1438737E-02 0.1438737E-02 0.1438737E-02          
 0.1438737E-02 0.1376212E-02 0.1376212E-02 0.1376212E-02 0.1376212E-02          
 0.1376212E-02 0.1376212E-02 0.1376212E-02 0.1376212E-02 0.1313627E-02          
 0.1313627E-02 0.1251101E-02 0.1251101E-02 0.1188517E-02 0.1188517E-02          
 0.1188517E-02 0.1188517E-02 0.1188517E-02 0.1188517E-02 0.1188517E-02          
 0.1188517E-02 0.1188517E-02 0.1063406E-02 0.1063406E-02 0.1063406E-02          
 0.1000881E-02 0.1000881E-02 0.9382963E-03 0.9382963E-03 0.9382963E-03          
 0.9382963E-03 0.9382963E-03 0.9382963E-03 0.9382963E-03 0.9382963E-03          
 0.9382963E-03 0.9382963E-03 0.9382963E-03 0.9382963E-03 0.9382963E-03          
 0.9382963E-03 0.8757710E-03 0.8757710E-03 0.8757710E-03 0.8757710E-03          
 0.8757710E-03 0.8757710E-03 0.8757710E-03 0.8757710E-03 0.8757710E-03          
 0.8757710E-03 0.8757710E-03 0.8757710E-03 0.8131862E-03 0.8131862E-03          
 0.8131862E-03 0.8131862E-03 0.7506609E-03 0.7506609E-03 0.7506609E-03          
 0.7506609E-03 0.7506609E-03 0.7506609E-03 0.7506609E-03 0.7506609E-03          
 0.6880760E-03 0.6880760E-03 0.6880760E-03 0.6255507E-03 0.6255507E-03          
 0.6255507E-03 0.6255507E-03 0.6255507E-03 0.6255507E-03 0.6255507E-03          
 0.6255507E-03 0.6255507E-03 0.6255507E-03 0.6255507E-03 0.6255507E-03          
 0.6255507E-03 0.6255507E-03 0.6255507E-03 0.6255507E-03 0.6255507E-03          
 0.6255507E-03 0.5629659E-03 0.5004406E-03 0.5004406E-03 0.5004406E-03          
 0.5004406E-03 0.4378557E-03 0.4378557E-03 0.4378557E-03 0.4378557E-03          
 0.4378557E-03 0.3753304E-03 0.3753304E-03 0.3753304E-03 0.3127456E-03          
 0.2502203E-03 0.2502203E-03 0.2502203E-03 0.2502203E-03 0.2502203E-03          
 0.2502203E-03 0.2502203E-03 0.2502203E-03 0.2502203E-03 0.2502203E-03          
 0.2502203E-03 0.2502203E-03 0.2502203E-03 0.2502203E-03 0.2502203E-03          
 0.1876354E-03 0.1876354E-03 0.1876354E-03 0.1876354E-03 0.1876354E-03          
 0.1876354E-03 0.1876354E-03 0.1876354E-03 0.1876354E-03 0.1876354E-03          
 0.1876354E-03 0.1876354E-03 0.1876354E-03 0.1876354E-03 0.1876354E-03          
 0.1876354E-03 0.6252527E-04 0.6252527E-04 0.6252527E-04 0.6252527E-04          
  1.000000     0.9179480     0.8366777     0.7581278     0.6830500              
 0.6131577     0.5449039     0.4819859     0.4207662     0.3676482              
 0.3165442     0.2727300     0.2334551     0.1986442     0.1679969              
 0.1417685     0.1171334     0.9739822E-01 0.7955688E-01 0.6505239E-01          
 0.5257702E-01 0.4313779E-01 0.3517157E-01 0.2900904E-01 0.2380848E-01          
 0.1956981E-01 0.1665390E-01 0.1417387E-01 0.1218981E-01 0.1070178E-01          
 0.9559453E-02 0.8612514E-02 0.7981241E-02 0.7304847E-02 0.6868958E-02          
 0.6418049E-02 0.6042302E-02 0.5771756E-02 0.5486190E-02 0.5245686E-02          
 0.4945040E-02 0.4704595E-02 0.4509151E-02 0.4358888E-02 0.4133403E-02          
 0.3968060E-02 0.3802717E-02 0.3562272E-02 0.3472090E-02 0.3366828E-02          
 0.3201544E-02 0.3096282E-02 0.3021121E-02 0.2870858E-02 0.2765656E-02          
 0.2660394E-02 0.2555192E-02 0.2449989E-02 0.2389848E-02 0.2374828E-02          
 0.2359807E-02 0.2284646E-02 0.2209485E-02 0.2134323E-02 0.2044141E-02          
 0.1938939E-02 0.1878798E-02 0.1818717E-02 0.1743555E-02 0.1713514E-02          
 0.1683414E-02 0.1653373E-02 0.1578212E-02 0.1548171E-02 0.1518071E-02          
 0.1503050E-02 0.1473010E-02 0.1427889E-02 0.1397848E-02 0.1397848E-02          
 0.1367807E-02 0.1337707E-02 0.1307666E-02 0.1292646E-02 0.1262546E-02          
 0.1247525E-02 0.1247525E-02 0.1202464E-02 0.1172364E-02 0.1157343E-02          
 0.1157343E-02 0.1127303E-02 0.1112282E-02 0.1097262E-02 0.1082182E-02          
 0.1037121E-02 0.1007020E-02 0.9769797E-03 0.9619594E-03 0.9319186E-03          
 0.9018183E-03 0.8717775E-03 0.8567572E-03 0.8567572E-03 0.8567572E-03          
 0.8567572E-03 0.8266568E-03 0.8116364E-03 0.7966161E-03 0.7966161E-03          
 0.7815957E-03 0.7364750E-03 0.7214546E-03 0.7064342E-03 0.7064342E-03          
 0.6763935E-03 0.6763935E-03 0.6763935E-03 0.6763935E-03 0.6613731E-03          
 0.6613731E-03 0.6462932E-03 0.6462932E-03 0.6162524E-03 0.6012321E-03          
 0.5862117E-03 0.5862117E-03 0.5862117E-03 0.5711913E-03 0.5561113E-03          
 0.5561113E-03 0.5410910E-03 0.5410910E-03 0.5410910E-03 0.5110502E-03          
 0.5110502E-03 0.4809499E-03 0.4659295E-03 0.4509091E-03 0.4509091E-03          
 0.4208684E-03 0.4208684E-03 0.4058480E-03 0.3907681E-03 0.3907681E-03          
 0.3607273E-03 0.3457069E-03 0.3457069E-03 0.3457069E-03 0.3457069E-03          
 0.3457069E-03 0.3457069E-03 0.3457069E-03 0.3306866E-03 0.3306866E-03          
 0.3306866E-03 0.3306866E-03 0.3306866E-03 0.3306866E-03 0.3306866E-03          
 0.3306866E-03 0.3306866E-03 0.3306866E-03 0.3306866E-03 0.3306866E-03          
 0.3306866E-03 0.3156662E-03 0.3156662E-03 0.3005862E-03 0.3005862E-03          
 0.3005862E-03 0.3005862E-03 0.3005862E-03 0.2855659E-03 0.2855659E-03          
 0.2705455E-03 0.2705455E-03 0.2705455E-03 0.2705455E-03 0.2705455E-03          
 0.2705455E-03 0.2705455E-03 0.2555251E-03 0.2555251E-03 0.2555251E-03          
 0.2405047E-03 0.2405047E-03 0.2405047E-03 0.2254844E-03 0.2254844E-03          
 0.2104044E-03 0.2104044E-03 0.2104044E-03 0.2104044E-03 0.2104044E-03          
 0.1803637E-03 0.1803637E-03 0.1803637E-03 0.1803637E-03 0.1803637E-03          
 0.1803637E-03 0.1653433E-03 0.1503229E-03 0.1503229E-03 0.1503229E-03          
 0.1353025E-03 0.1353025E-03 0.1353025E-03 0.1353025E-03 0.1353025E-03          
 0.1353025E-03 0.1353025E-03 0.1353025E-03 0.1353025E-03 0.1353025E-03          
 0.1353025E-03 0.1202226E-03 0.1202226E-03 0.1052022E-03 0.1052022E-03          
 0.1052022E-03 0.9018183E-04 0.9018183E-04 0.9018183E-04 0.9018183E-04          
 0.9018183E-04 0.9018183E-04 0.9018183E-04 0.7516146E-04 0.7516146E-04          
 0.7516146E-04 0.7516146E-04 0.7516146E-04 0.7516146E-04 0.7516146E-04          
 0.7516146E-04 0.7516146E-04 0.6014109E-04 0.6014109E-04 0.6014109E-04          
 0.6014109E-04 0.4512072E-04 0.4512072E-04 0.4512072E-04 0.4512072E-04          
 0.4512072E-04 0.4512072E-04 0.4512072E-04 0.4512072E-04 0.4512072E-04          
 0.4512072E-04 0.4512072E-04 0.4512072E-04 0.4512072E-04 0.4512072E-04          
 0.4512072E-04 0.4512072E-04 0.4512072E-04 0.4512072E-04 0.3004074E-04          
 0.3004074E-04 0.3004074E-04 0.3004074E-04 0.3004074E-04 0.3004074E-04          
 0.3004074E-04 0.3004074E-04 0.3004074E-04 0.3004074E-04 0.3004074E-04          
 0.3004074E-04 0.3004074E-04 0.3004074E-04 0.3004074E-04 0.3004074E-04          
 0.3004074E-04 0.3004074E-04 0.3004074E-04 0.3004074E-04 0.1502037E-04          
 0.1502037E-04 0.1502037E-04 0.1502037E-04 0.1502037E-04 0.1502037E-04          
 0.1502037E-04 0.1502037E-04  0.000000      0.000000      0.000000              
  0.000000      0.000000      0.000000      0.000000      0.000000              
  0.000000      0.000000      0.000000      0.000000      0.000000              
  0.000000      0.000000      0.000000      0.000000      0.000000              
  0.000000      0.000000      0.000000      0.000000      0.000000              
  0.000000      0.000000      0.000000      0.000000      0.000000              
  0.000000      0.000000      0.000000      0.000000      0.000000              
  0.000000      0.000000      0.000000      0.000000      0.000000              
  0.000000      0.000000      0.000000      0.000000      0.000000              
  0.000000      0.000000      0.000000      0.000000      0.000000              
  0.000000      0.000000      0.000000      0.000000      0.000000              
  0.000000      0.000000      0.000000      0.000000      0.000000              
  0.000000      0.000000      0.000000      0.000000      0.000000              
  0.000000      0.000000      0.000000      0.000000      0.000000              
  0.000000      0.000000      0.000000      0.000000      0.000000              
  0.000000      0.000000      0.000000      0.000000      0.000000              
  0.000000      0.000000      0.000000      0.000000      0.000000              
  0.000000      0.000000      0.000000      0.000000      0.000000              
  0.000000      0.000000      0.000000      0.000000      0.000000              
  0.000000      0.000000      0.000000      0.000000      0.000000              
  0.000000      0.000000      0.000000      0.000000      0.000000              
  0.000000      0.000000      0.000000      0.000000      0.000000              
  0.000000      0.000000      0.000000      0.000000      0.000000              
  1.000000     0.9202091     0.8413124     0.7647876     0.6901586              
 0.6185095     0.5506595     0.4875743     0.4284278     0.3742859              
 0.3245297     0.2795169     0.2394801     0.2035322     0.1717446              
 0.1442819     0.1202534     0.9998107E-01 0.8248818E-01 0.6749231E-01          
 0.5472505E-01 0.4426509E-01 0.3581202E-01 0.2883995E-01 0.2318424E-01          
 0.1902390E-01 0.1577216E-01 0.1297832E-01 0.1095361E-01 0.9279430E-02          
 0.7895052E-02 0.6796837E-02 0.5859554E-02 0.5176306E-02 0.4546702E-02          
 0.4013717E-02 0.3570139E-02 0.3230274E-02 0.2876103E-02 0.2561331E-02          
 0.2361000E-02 0.2182126E-02 0.2046168E-02 0.1899540E-02 0.1749277E-02          
 0.1606166E-02 0.1448810E-02 0.1373649E-02 0.1305699E-02 0.1223445E-02          
 0.1133978E-02 0.1087487E-02 0.1005232E-02 0.9586811E-03 0.9121895E-03          
 0.8692741E-03 0.8335114E-03 0.7941723E-03 0.7584095E-03 0.7404685E-03          
 0.7047057E-03 0.6689429E-03 0.6510615E-03 0.6224513E-03 0.5938411E-03          
 0.5759597E-03 0.5437732E-03 0.5115271E-03 0.4900694E-03 0.4650354E-03          
 0.4471540E-03 0.4185438E-03 0.4042387E-03 0.3863573E-03 0.3684759E-03          
 0.3648996E-03 0.3541708E-03 0.3470182E-03 0.3398657E-03 0.3362894E-03          
 0.3183484E-03 0.3040433E-03 0.2861619E-03 0.2718568E-03 0.2575517E-03          
 0.2575517E-03 0.2468228E-03 0.2396703E-03 0.2289414E-03 0.2289414E-03          
 0.2217889E-03 0.2182126E-03 0.2182126E-03 0.2074838E-03 0.1967549E-03          
 0.1896024E-03 0.1896024E-03 0.1860261E-03 0.1788735E-03 0.1752973E-03          
 0.1717210E-03 0.1717210E-03 0.1645684E-03 0.1538396E-03 0.1431108E-03          
 0.1431108E-03 0.1431108E-03 0.1395345E-03 0.1359582E-03 0.1359582E-03          
 0.1359582E-03 0.1323819E-03 0.1252294E-03 0.1180768E-03 0.1145005E-03          
 0.1072884E-03 0.1072884E-03 0.1037121E-03 0.1037121E-03 0.1037121E-03          
 0.1037121E-03 0.1001358E-03 0.9655952E-04 0.9655952E-04 0.9655952E-04          
 0.9298325E-04 0.8583069E-04 0.8583069E-04 0.8225441E-04 0.7510185E-04          
 0.7510185E-04 0.7510185E-04 0.6794930E-04 0.6794930E-04 0.6794930E-04          
 0.6794930E-04 0.6437302E-04 0.6437302E-04 0.6437302E-04 0.6437302E-04          
 0.6437302E-04 0.6437302E-04 0.6437302E-04 0.6437302E-04 0.6437302E-04          
 0.6079674E-04 0.6079674E-04 0.6079674E-04 0.6079674E-04 0.5722046E-04          
 0.5722046E-04 0.5722046E-04 0.5722046E-04 0.5722046E-04 0.5364418E-04          
 0.5364418E-04 0.5364418E-04 0.5364418E-04 0.5364418E-04 0.5006790E-04          
 0.5006790E-04 0.5006790E-04 0.5006790E-04 0.5006790E-04 0.5006790E-04          
 0.5006790E-04 0.5006790E-04 0.4649162E-04 0.4649162E-04 0.4649162E-04          
 0.4649162E-04 0.4291534E-04 0.3933907E-04 0.3933907E-04 0.3933907E-04          
 0.3933907E-04 0.3576279E-04 0.3576279E-04 0.3576279E-04 0.3576279E-04          
 0.3576279E-04 0.3576279E-04 0.3576279E-04 0.3576279E-04 0.3576279E-04          
 0.3576279E-04 0.3576279E-04 0.3576279E-04 0.3576279E-04 0.3576279E-04          
 0.3576279E-04 0.3218651E-04 0.3218651E-04 0.3218651E-04 0.2861023E-04          
 0.2861023E-04 0.2503395E-04 0.2503395E-04 0.2503395E-04 0.2503395E-04          
 0.2503395E-04 0.2503395E-04 0.2503395E-04 0.2503395E-04 0.2503395E-04          
 0.2503395E-04 0.2503395E-04 0.2145767E-04 0.2145767E-04 0.2145767E-04          
 0.2145767E-04 0.2145767E-04 0.1430511E-04 0.1072884E-04 0.1072884E-04          
 0.1072884E-04 0.1072884E-04 0.1072884E-04 0.1072884E-04 0.1072884E-04          
 0.1072884E-04 0.1072884E-04 0.1072884E-04 0.1072884E-04 0.1072884E-04          
 0.1072884E-04 0.1072884E-04 0.1072884E-04 0.1072884E-04 0.7152557E-05          
 0.7152557E-05 0.7152557E-05 0.7152557E-05 0.7152557E-05 0.7152557E-05          
 0.7152557E-05 0.7152557E-05 0.7152557E-05 0.7152557E-05 0.7152557E-05          
 0.7152557E-05 0.7152557E-05 0.7152557E-05 0.7152557E-05 0.7152557E-05          
 0.7152557E-05 0.7152557E-05 0.7152557E-05 0.7152557E-05 0.7152557E-05          
 0.7152557E-05 0.7152557E-05 0.7152557E-05 0.7152557E-05 0.7152557E-05          
 0.7152557E-05 0.7152557E-05 0.7152557E-05 0.7152557E-05 0.7152557E-05          
 0.7152557E-05 0.7152557E-05 0.7152557E-05 0.7152557E-05 0.7152557E-05          
 0.7152557E-05 0.7152557E-05 0.7152557E-05 0.7152557E-05 0.7152557E-05          
 0.7152557E-05 0.3576279E-05 0.3576279E-05 0.3576279E-05 0.3576279E-05          
 0.3576279E-05 0.3576279E-05 0.3576279E-05 0.3576279E-05 0.3576279E-05          
 0.3576279E-05 0.3576279E-05 0.3576279E-05 0.3576279E-05 0.3576279E-05          
 0.3576279E-05 0.3576279E-05 0.3576279E-05 0.3576279E-05 0.3576279E-05          
 0.3576279E-05 0.3576279E-05 0.3576279E-05 0.3576279E-05 0.3576279E-05          
 0.3576279E-05 0.3576279E-05 0.3576279E-05 0.3576279E-05 0.3576279E-05          
 0.3576279E-05 0.3576279E-05 0.3576279E-05 0.3576279E-05 0.3576279E-05          
  0.000000      0.000000      0.000000      0.000000      0.000000              
  0.000000      0.000000      0.000000      0.000000      0.000000              
  0.000000      0.000000      0.000000      0.000000      0.000000              
  0.000000      0.000000      0.000000      0.000000      0.000000              
  0.000000      0.000000      0.000000      0.000000      0.000000              
  0.000000      0.000000      0.000000      0.000000      0.000000              
  0.000000      0.000000      0.000000      0.000000      0.000000              
  0.000000      0.000000      0.000000      0.000000      0.000000              
  0.000000      0.000000      0.000000      0.000000      0.000000              
  0.000000      0.000000      0.000000      0.000000      0.000000              
  0.000000      0.000000      0.000000      0.000000      0.000000              
  0.000000      0.000000      0.000000      0.000000      0.000000              
  0.000000      0.000000      0.000000      0.000000      0.000000              
  0.000000      0.000000      0.000000      0.000000      0.000000              
  0.000000      0.000000      0.000000      0.000000      0.000000              
  0.000000      0.000000      0.000000      0.000000      0.000000              
  0.000000      0.000000      0.000000      0.000000      0.000000              
  0.000000      0.000000      0.000000      0.000000      0.000000              
  0.000000      0.000000      0.000000      0.000000      0.000000              
  1.000000     0.9246097     0.8493735     0.7741373     0.7009552              
 0.6298531     0.5620378     0.4982026     0.4408125     0.3859901              
 0.3355844     0.2909563     0.2482283     0.2113034     0.1770748              
 0.1486236     0.1232539     0.1026345     0.8383834E-01 0.6771260E-01          
 0.5451417E-01 0.4336995E-01 0.3466517E-01 0.2775782E-01 0.2185190E-01          
 0.1764071E-01 0.1389176E-01 0.1106715E-01 0.9012938E-02 0.7549286E-02          
 0.6239712E-02 0.5109906E-02 0.4185498E-02 0.3466487E-02 0.3158391E-02          
 0.2644837E-02 0.2131283E-02 0.1797438E-02 0.1592040E-02 0.1412272E-02          
 0.1309574E-02 0.1155496E-02 0.1052797E-02 0.1027107E-02 0.9757876E-03          
 0.8217096E-03 0.7446408E-03 0.5905628E-03 0.5905628E-03 0.5649328E-03          
 0.5392432E-03 0.4878640E-03 0.4878640E-03 0.4621744E-03 0.3337860E-03          
 0.3337860E-03 0.3081560E-03 0.3081560E-03 0.3081560E-03 0.2824664E-03          
 0.2824664E-03 0.2310872E-03 0.2310872E-03 0.2310872E-03 0.1797676E-03          
 0.1797676E-03 0.1283884E-03 0.1283884E-03 0.1283884E-03 0.1283884E-03          
 0.1283884E-03 0.1283884E-03 0.1283884E-03 0.1283884E-03 0.1283884E-03          
 0.1283884E-03 0.1283884E-03 0.1026988E-03 0.1026988E-03 0.1026988E-03          
 0.1026988E-03 0.7700920E-04 0.7700920E-04 0.7700920E-04 0.5137920E-04          
 0.2568960E-04 0.2568960E-04  0.000000      0.000000      0.000000              
  0.000000      0.000000      0.000000      0.000000      0.000000              
  0.000000      0.000000      0.000000      0.000000      0.000000              
  0.000000      0.000000      0.000000      0.000000      0.000000              
  0.000000      0.000000      0.000000      0.000000      0.000000              
  0.000000      0.000000      0.000000      0.000000      0.000000              
  0.000000      0.000000      0.000000      0.000000      0.000000              
  0.000000      0.000000      0.000000      0.000000      0.000000              
  0.000000      0.000000      0.000000      0.000000      0.000000              
  0.000000      0.000000      0.000000      0.000000      0.000000              
  0.000000      0.000000      0.000000      0.000000      0.000000              
  0.000000      0.000000      0.000000      0.000000      0.000000              
  0.000000      0.000000      0.000000      0.000000      0.000000              
  0.000000      0.000000      0.000000      0.000000      0.000000              
  0.000000      0.000000      0.000000      0.000000      0.000000              
  0.000000      0.000000      0.000000      0.000000      0.000000              
  0.000000      0.000000      0.000000      0.000000      0.000000              
  0.000000      0.000000      0.000000      0.000000      0.000000              
  0.000000      0.000000      0.000000      0.000000      0.000000              
  0.000000      0.000000      0.000000      0.000000      0.000000              
  0.000000      0.000000      0.000000      0.000000      0.000000              
  0.000000      0.000000      0.000000      0.000000      0.000000              
  0.000000      0.000000      0.000000      0.000000      0.000000              
  0.000000      0.000000      0.000000      0.000000      0.000000              
  0.000000      0.000000      0.000000      0.000000      0.000000              
  0.000000      0.000000      0.000000      0.000000      0.000000              
  0.000000      0.000000      0.000000      0.000000      0.000000              
  0.000000      0.000000      0.000000      0.000000      0.000000              
  0.000000      0.000000      0.000000      0.000000      0.000000              
  0.000000      0.000000      0.000000      0.000000      0.000000              
  0.000000      0.000000      0.000000      0.000000      0.000000              
  0.000000      0.000000      0.000000      0.000000      0.000000              
  0.000000      0.000000      0.000000      0.000000      0.000000              
  0.000000      0.000000      0.000000      0.000000      0.000000              
  0.000000      0.000000      0.000000      0.000000      0.000000              
  0.000000      0.000000      0.000000      0.000000      0.000000              
  0.000000      0.000000      0.000000      0.000000      0.000000              
  0.000000      0.000000      0.000000      0.000000      0.000000              
  0.000000      0.000000      0.000000      0.000000      0.000000              
  0.000000      0.000000      0.000000      0.000000      0.000000              
  0.000000      0.000000      0.000000      0.000000      0.000000              
  0.000000      0.000000      0.000000      0.000000      0.000000              
  0.000000      0.000000      0.000000      0.000000      0.000000              
  0.000000      0.000000      0.000000      0.000000      0.000000              
  0.000000      0.000000      0.000000      0.000000      0.000000              
  0.000000      0.000000      0.000000      0.000000      0.000000              
  0.000000      0.000000      0.000000      0.000000      0.000000              
  0.000000      0.000000      0.000000      0.000000      0.000000              
  0.000000      0.000000      0.000000      0.000000      0.000000              
  0.000000      0.000000      0.000000      0.000000      0.000000              
  0.000000      0.000000      0.000000      0.000000      0.000000              
  0.000000      0.000000      0.000000      0.000000      0.000000              
  0.000000      0.000000      0.000000      0.000000      0.000000              
  0.000000      0.000000      0.000000      0.000000      0.000000              
  0.000000      0.000000      0.000000      0.000000      0.000000              
  0.000000      0.000000      0.000000      0.000000      0.000000              
  0.000000      0.000000      0.000000      0.000000      0.000000              
  0.000000      0.000000      0.000000      0.000000      0.000000              
  0.000000      0.000000      0.000000      0.000000      0.000000              
  0.000000      0.000000      0.000000      0.000000      0.000000              
  0.000000      0.000000      0.000000      0.000000      0.000000              
  0.000000      0.000000      0.000000      0.000000      0.000000              
  0.000000      0.000000      0.000000      0.000000      0.000000              
