  1.000000     0.9225976     0.8460384     0.7721040     0.7000517              
 0.6317058     0.5668830     0.5059172     0.4492123     0.3975940              
 0.3506507     0.3088968     0.2716548     0.2376952     0.2083151              
 0.1825762     0.1595500     0.1394924     0.1229203     0.1083056              
 0.9563816E-01 0.8466458E-01 0.7531959E-01 0.6681776E-01 0.5998212E-01          
 0.5416286E-01 0.4918420E-01 0.4490566E-01 0.4131222E-01 0.3807759E-01          
 0.3528714E-01 0.3282791E-01 0.3061968E-01 0.2866733E-01 0.2672255E-01          
 0.2514416E-01 0.2365607E-01 0.2239388E-01 0.2120692E-01 0.2018809E-01          
 0.1919687E-01 0.1836628E-01 0.1761347E-01 0.1692837E-01 0.1628095E-01          
 0.1560843E-01 0.1501626E-01 0.1445413E-01 0.1394975E-01 0.1340020E-01          
 0.1287574E-01 0.1243907E-01 0.1197487E-01 0.1160598E-01 0.1120698E-01          
 0.1081049E-01 0.1049680E-01 0.1021826E-01 0.9964824E-02 0.9683788E-02          
 0.9357572E-02 0.9023786E-02 0.8750260E-02 0.8481741E-02 0.8205712E-02          
 0.7942259E-02 0.7708848E-02 0.7485509E-02 0.7279754E-02 0.7058918E-02          
 0.6858170E-02 0.6690025E-02 0.6539464E-02 0.6378889E-02 0.6208241E-02          
 0.6017506E-02 0.5854428E-02 0.5706370E-02 0.5568326E-02 0.5420327E-02          
 0.5277276E-02 0.5129218E-02 0.5001247E-02 0.4885793E-02 0.4780412E-02          
 0.4659951E-02 0.4554570E-02 0.4451692E-02 0.4363835E-02 0.4263461E-02          
 0.4160583E-02 0.4062712E-02 0.3984928E-02 0.3922164E-02 0.3826857E-02          
 0.3754079E-02 0.3666222E-02 0.3560841E-02 0.3525674E-02 0.3465474E-02          
 0.3397703E-02 0.3314912E-02 0.3249645E-02 0.3189445E-02 0.3101587E-02          
 0.3048897E-02 0.2958596E-02 0.2915919E-02 0.2853215E-02 0.2797961E-02          
 0.2742767E-02 0.2690077E-02 0.2647400E-02 0.2602220E-02 0.2567112E-02          
 0.2542019E-02 0.2501845E-02 0.2469242E-02 0.2424061E-02 0.2401471E-02          
 0.2376378E-02 0.2336264E-02 0.2298594E-02 0.2260983E-02 0.2223313E-02          
 0.2200723E-02 0.2160609E-02 0.2143025E-02 0.2122939E-02 0.2095342E-02          
 0.2067745E-02 0.2020061E-02 0.1984954E-02 0.1954794E-02 0.1934767E-02          
 0.1909673E-02 0.1877010E-02 0.1856983E-02 0.1831889E-02 0.1804233E-02          
 0.1766622E-02 0.1744032E-02 0.1723945E-02 0.1711428E-02 0.1678765E-02          
 0.1656175E-02 0.1636147E-02 0.1628578E-02 0.1603484E-02 0.1598477E-02          
 0.1573384E-02 0.1558363E-02 0.1540780E-02 0.1513183E-02 0.1495600E-02          
 0.1460493E-02 0.1442909E-02 0.1437902E-02 0.1422822E-02 0.1405239E-02          
 0.1375139E-02 0.1355052E-02 0.1337528E-02 0.1314938E-02 0.1304865E-02          
 0.1274765E-02 0.1264751E-02 0.1252174E-02 0.1244664E-02 0.1227081E-02          
 0.1212060E-02 0.1206994E-02 0.1196980E-02 0.1176894E-02 0.1161873E-02          
 0.1136780E-02 0.1131713E-02 0.1101613E-02 0.1089096E-02 0.1079023E-02          
 0.1064003E-02 0.1051426E-02 0.1028836E-02 0.1018822E-02 0.1001239E-02          
 0.9887218E-03 0.9761453E-03 0.9636283E-03 0.9435415E-03 0.9334683E-03          
 0.9284616E-03 0.9109378E-03 0.9008646E-03 0.8757710E-03 0.8632541E-03          
 0.8481741E-03 0.8356571E-03 0.8280873E-03 0.8155704E-03 0.8029938E-03          
 0.8004904E-03 0.7854700E-03 0.7653832E-03 0.7528067E-03 0.7452965E-03          
 0.7377863E-03 0.7202029E-03 0.7101893E-03 0.6976128E-03 0.6775260E-03          
 0.6725192E-03 0.6650090E-03 0.6574392E-03 0.6399155E-03 0.6348491E-03          
 0.6248355E-03 0.6148219E-03 0.6072521E-03 0.5972385E-03 0.5922318E-03          
 0.5897284E-03 0.5771518E-03 0.5721450E-03 0.5671382E-03 0.5545616E-03          
 0.5445480E-03 0.5395412E-03 0.5294681E-03 0.5144477E-03 0.5093813E-03          
 0.5043745E-03 0.4918575E-03 0.4868507E-03 0.4792809E-03 0.4717708E-03          
 0.4617572E-03 0.4617572E-03 0.4566908E-03 0.4516840E-03 0.4466772E-03          
 0.4441738E-03 0.4416704E-03 0.4290938E-03 0.4215837E-03 0.4140735E-03          
 0.4115701E-03 0.4065037E-03 0.4065037E-03 0.4014969E-03 0.3939867E-03          
 0.3914833E-03 0.3889799E-03 0.3814101E-03 0.3713965E-03 0.3688931E-03          
 0.3638864E-03 0.3588200E-03 0.3563166E-03 0.3538132E-03 0.3463030E-03          
 0.3387928E-03 0.3362298E-03 0.3312230E-03 0.3312230E-03 0.3262162E-03          
 0.3237128E-03 0.3187060E-03 0.3187060E-03 0.3187060E-03 0.3162026E-03          
 0.3136992E-03 0.3061295E-03 0.2986193E-03 0.2936125E-03 0.2911091E-03          
 0.2835393E-03 0.2835393E-03 0.2810359E-03 0.2810359E-03 0.2760291E-03          
 0.2710223E-03 0.2660155E-03 0.2635121E-03 0.2609491E-03 0.2584457E-03          
 0.2509356E-03 0.2434254E-03 0.2358556E-03 0.2333522E-03 0.2333522E-03          
 0.2333522E-03 0.2283454E-03 0.2258420E-03 0.2208352E-03 0.2183318E-03          
 0.2183318E-03 0.2183318E-03 0.2133250E-03 0.2133250E-03 0.2133250E-03          
 0.2107620E-03 0.2082586E-03 0.2082586E-03 0.2032518E-03 0.2032518E-03          
 0.2032518E-03 0.2007484E-03 0.2007484E-03 0.1982450E-03 0.1957417E-03          
 0.1907349E-03 0.1907349E-03 0.1856685E-03 0.1831651E-03 0.1781583E-03          
 0.1706481E-03 0.1706481E-03 0.1656413E-03 0.1631379E-03 0.1631379E-03          
 0.1631379E-03 0.1605749E-03 0.1605749E-03 0.1580715E-03 0.1580715E-03          
 0.1555681E-03 0.1555681E-03 0.1530647E-03 0.1530647E-03 0.1530647E-03          
 0.1530647E-03 0.1530647E-03 0.1505613E-03 0.1505613E-03 0.1480579E-03          
 0.1455545E-03 0.1430511E-03 0.1405478E-03 0.1380444E-03 0.1329780E-03          
 0.1279712E-03 0.1254678E-03 0.1229644E-03 0.1204610E-03 0.1204610E-03          
 0.1154542E-03 0.1129508E-03 0.1129508E-03 0.1129508E-03 0.1103878E-03          
 0.1103878E-03 0.1103878E-03 0.1103878E-03 0.1078844E-03 0.1028776E-03          
 0.1028776E-03 0.1028776E-03 0.1028776E-03 0.1003742E-03 0.1003742E-03          
 0.1003742E-03 0.1003742E-03 0.1003742E-03 0.1003742E-03 0.9787083E-04          
 0.9787083E-04 0.9787083E-04 0.9787083E-04 0.9536743E-04 0.9286404E-04          
 0.9286404E-04 0.9036064E-04 0.9036064E-04 0.9036064E-04 0.8785725E-04          
 0.8785725E-04 0.8279085E-04 0.8028746E-04 0.8028746E-04 0.7778406E-04          
 0.7778406E-04 0.7528067E-04 0.7528067E-04 0.7528067E-04 0.7277727E-04          
 0.7027388E-04 0.7027388E-04 0.6777048E-04 0.6777048E-04 0.6777048E-04          
 0.6526709E-04 0.6526709E-04 0.6526709E-04 0.6526709E-04 0.6526709E-04          
 0.6020069E-04 0.6020069E-04 0.6020069E-04 0.6020069E-04 0.6020069E-04          
  1.000000     0.9221124     0.8445466     0.7686877     0.6949737              
 0.6271315     0.5625335     0.5024846     0.4489061     0.3992957              
 0.3551013     0.3147500     0.2791620     0.2475244     0.2204804              
 0.1959121     0.1757588     0.1575359     0.1423337     0.1286866              
 0.1168538     0.1063883     0.9745109E-01 0.8940762E-01 0.8314270E-01          
 0.7721734E-01 0.7275766E-01 0.6819075E-01 0.6460696E-01 0.6115717E-01          
 0.5807388E-01 0.5527651E-01 0.5253279E-01 0.5029851E-01 0.4820722E-01          
 0.4645550E-01 0.4466808E-01 0.4313982E-01 0.4174560E-01 0.4035139E-01          
 0.3892148E-01 0.3759873E-01 0.3654414E-01 0.3543597E-01 0.3454226E-01          
 0.3346980E-01 0.3254926E-01 0.3169125E-01 0.3079754E-01 0.3002894E-01          
 0.2925140E-01 0.2840239E-01 0.2773207E-01 0.2700818E-01 0.2633792E-01          
 0.2573913E-01 0.2502412E-01 0.2447003E-01 0.2378184E-01 0.2317411E-01          
 0.2253067E-01 0.2200335E-01 0.2143139E-01 0.2101135E-01 0.2061808E-01          
 0.2025169E-01 0.1987630E-01 0.1936686E-01 0.1895577E-01 0.1858044E-01          
 0.1823187E-01 0.1779395E-01 0.1740068E-01 0.1704323E-01 0.1662320E-01          
 0.1627463E-01 0.1589030E-01 0.1564008E-01 0.1532727E-01 0.1488936E-01          
 0.1465696E-01 0.1431739E-01 0.1412076E-01 0.1383477E-01 0.1345938E-01          
 0.1316446E-01 0.1287848E-01 0.1262826E-01 0.1234227E-01 0.1221716E-01          
 0.1194900E-01 0.1178813E-01 0.1159155E-01 0.1135021E-01 0.1112682E-01          
 0.1091230E-01 0.1072460E-01 0.1058161E-01 0.1034033E-01 0.1014370E-01          
 0.9920299E-02 0.9786248E-02 0.9634316E-02 0.9500206E-02 0.9339392E-02          
 0.9223163E-02 0.9044409E-02 0.8919299E-02 0.8812070E-02 0.8686960E-02          
 0.8552909E-02 0.8427799E-02 0.8311570E-02 0.8159637E-02 0.8043468E-02          
 0.7855773E-02 0.7739604E-02 0.7605553E-02 0.7542968E-02 0.7426798E-02          
 0.7328510E-02 0.7167637E-02 0.7051468E-02 0.6997824E-02 0.6881654E-02          
 0.6792247E-02 0.6640315E-02 0.6568849E-02 0.6533086E-02 0.6416917E-02          
 0.6327510E-02 0.6229222E-02 0.6139874E-02 0.6059408E-02 0.5996883E-02          
 0.5943239E-02 0.5880654E-02 0.5782366E-02 0.5701900E-02 0.5576789E-02          
 0.5478501E-02 0.5380213E-02 0.5255044E-02 0.5210400E-02 0.5138874E-02          
 0.5031645E-02 0.4924417E-02 0.4861832E-02 0.4772484E-02 0.4709899E-02          
 0.4647315E-02 0.4584789E-02 0.4477561E-02 0.4379213E-02 0.4307747E-02          
 0.4227281E-02 0.4155815E-02 0.4093230E-02 0.4084289E-02 0.4012823E-02          
 0.3932357E-02 0.3843009E-02 0.3789365E-02 0.3708959E-02 0.3628492E-02          
 0.3601670E-02 0.3557026E-02 0.3467619E-02 0.3422916E-02 0.3342509E-02          
 0.3288865E-02 0.3235281E-02 0.3181636E-02 0.3145874E-02 0.3110170E-02          
 0.3074408E-02 0.3038645E-02 0.3029704E-02 0.2976060E-02 0.2922475E-02          
 0.2868831E-02 0.2824128E-02 0.2797365E-02 0.2743721E-02 0.2699018E-02          
 0.2663255E-02 0.2618611E-02 0.2564967E-02 0.2547085E-02 0.2520263E-02          
 0.2484560E-02 0.2475619E-02 0.2457738E-02 0.2439857E-02 0.2404094E-02          
 0.2368331E-02 0.2350509E-02 0.2296865E-02 0.2252162E-02 0.2225339E-02          
 0.2189636E-02 0.2144933E-02 0.2135992E-02 0.2100229E-02 0.2064466E-02          
 0.2037704E-02 0.1993001E-02 0.1984060E-02 0.1957238E-02 0.1939356E-02          
 0.1903594E-02 0.1876831E-02 0.1876831E-02 0.1823187E-02 0.1751661E-02          
 0.1724899E-02 0.1698077E-02 0.1689136E-02 0.1662314E-02 0.1653373E-02          
 0.1635492E-02 0.1608670E-02 0.1599729E-02 0.1590848E-02 0.1572967E-02          
 0.1537204E-02 0.1528263E-02 0.1501441E-02 0.1465678E-02 0.1447797E-02          
 0.1429975E-02 0.1412094E-02 0.1412094E-02 0.1385272E-02 0.1385272E-02          
 0.1358449E-02 0.1331627E-02 0.1304805E-02 0.1295865E-02 0.1233339E-02          
 0.1215458E-02 0.1188636E-02 0.1161814E-02 0.1143932E-02 0.1126111E-02          
 0.1117170E-02 0.1117170E-02 0.1117170E-02 0.1090348E-02 0.1054585E-02          
 0.1027763E-02 0.1009881E-02 0.9831190E-03 0.9741783E-03 0.9562969E-03          
 0.9473562E-03 0.9205341E-03 0.8937120E-03 0.8847713E-03 0.8579493E-03          
 0.8400679E-03 0.8311868E-03 0.8133054E-03 0.8133054E-03 0.8043647E-03          
 0.7954240E-03 0.7864833E-03 0.7864833E-03 0.7864833E-03 0.7507205E-03          
 0.7507205E-03 0.7238984E-03 0.7238984E-03 0.6881356E-03 0.6881356E-03          
 0.6881356E-03 0.6792545E-03 0.6792545E-03 0.6792545E-03 0.6524324E-03          
 0.6434917E-03 0.6256104E-03 0.6256104E-03 0.6256104E-03 0.6256104E-03          
 0.6256104E-03 0.6077290E-03 0.6077290E-03 0.6077290E-03 0.6077290E-03          
 0.5809069E-03 0.5809069E-03 0.5630255E-03 0.5540848E-03 0.5451441E-03          
 0.5451441E-03 0.5273223E-03 0.5273223E-03 0.5273223E-03 0.5273223E-03          
 0.5273223E-03 0.5273223E-03 0.5183816E-03 0.5094409E-03 0.5094409E-03          
 0.5094409E-03 0.4915595E-03 0.4915595E-03 0.4826188E-03 0.4826188E-03          
 0.4826188E-03 0.4826188E-03 0.4826188E-03 0.4736781E-03 0.4736781E-03          
 0.4736781E-03 0.4736781E-03 0.4736781E-03 0.4736781E-03 0.4557967E-03          
 0.4557967E-03 0.4557967E-03 0.4468560E-03 0.4468560E-03 0.4468560E-03          
 0.4468560E-03 0.4468560E-03 0.4468560E-03 0.4468560E-03 0.4379153E-03          
 0.4379153E-03 0.4379153E-03 0.4289746E-03 0.4289746E-03 0.4289746E-03          
 0.4289746E-03 0.4289746E-03 0.4200339E-03 0.4110932E-03 0.4021525E-03          
 0.4021525E-03 0.4021525E-03 0.3842711E-03 0.3664494E-03 0.3664494E-03          
 0.3485680E-03 0.3396273E-03 0.3306866E-03 0.3128052E-03 0.2859831E-03          
 0.2770424E-03 0.2681017E-03 0.2681017E-03 0.2681017E-03 0.2681017E-03          
 0.2681017E-03 0.2681017E-03 0.2502203E-03 0.2502203E-03 0.2502203E-03          
 0.2502203E-03 0.2502203E-03 0.2323389E-03 0.2323389E-03 0.2323389E-03          
 0.2323389E-03 0.2323389E-03 0.2323389E-03 0.2145171E-03 0.1966357E-03          
 0.1966357E-03 0.1966357E-03 0.1966357E-03 0.1966357E-03 0.1966357E-03          
 0.1876950E-03 0.1787543E-03 0.1698136E-03 0.1698136E-03 0.1698136E-03          
 0.1698136E-03 0.1698136E-03 0.1698136E-03 0.1698136E-03 0.1698136E-03          
 0.1698136E-03 0.1698136E-03 0.1608729E-03 0.1608729E-03 0.1519322E-03          
 0.1429915E-03 0.1429915E-03 0.1429915E-03 0.1429915E-03 0.1429915E-03          
 0.1429915E-03 0.1429915E-03 0.1340508E-03 0.1340508E-03 0.1340508E-03          
  1.000000     0.9245543     0.8455143     0.7734088     0.7020658              
 0.6368587     0.5722688     0.5149766     0.4586647     0.4103039              
 0.3669535     0.3275968     0.2911811     0.2602839     0.2313110              
 0.2067676     0.1866173     0.1674836     0.1500926     0.1358240              
 0.1233344     0.1126965     0.1031478     0.9519660E-01 0.8909702E-01          
 0.8310640E-01 0.7907635E-01 0.7544565E-01 0.7196021E-01 0.6912827E-01          
 0.6658679E-01 0.6411791E-01 0.6183058E-01 0.5947065E-01 0.5772793E-01          
 0.5591255E-01 0.5471444E-01 0.5326217E-01 0.5180991E-01 0.5057544E-01          
 0.4934102E-01 0.4828811E-01 0.4712629E-01 0.4574662E-01 0.4458481E-01          
 0.4360455E-01 0.4258794E-01 0.4149872E-01 0.4048216E-01 0.3964710E-01          
 0.3895724E-01 0.3812224E-01 0.3717822E-01 0.3641582E-01 0.3558075E-01          
 0.3470933E-01 0.3401953E-01 0.3332973E-01 0.3245836E-01 0.3187740E-01          
 0.3118759E-01 0.3031623E-01 0.2977163E-01 0.2904552E-01 0.2828306E-01          
 0.2744800E-01 0.2650404E-01 0.2599573E-01 0.2541482E-01 0.2479762E-01          
 0.2403516E-01 0.2352685E-01 0.2320009E-01 0.2280068E-01 0.2232873E-01          
 0.2196568E-01 0.2156627E-01 0.2120322E-01 0.2062231E-01 0.2011400E-01          
 0.1942420E-01 0.1891589E-01 0.1844388E-01 0.1804453E-01 0.1742733E-01          
 0.1710051E-01 0.1651961E-01 0.1612025E-01 0.1572084E-01 0.1532149E-01          
 0.1521260E-01 0.1484948E-01 0.1455903E-01 0.1419598E-01 0.1397812E-01          
 0.1365137E-01 0.1332462E-01 0.1299787E-01 0.1270741E-01 0.1256216E-01          
 0.1238066E-01 0.1190865E-01 0.1169080E-01 0.1147294E-01 0.1114619E-01          
 0.1096469E-01 0.1085573E-01 0.1063794E-01 0.1038378E-01 0.1020223E-01          
 0.9839177E-02 0.9730220E-02 0.9693921E-02 0.9439766E-02 0.9185612E-02          
 0.9004116E-02 0.8858860E-02 0.8677363E-02 0.8459508E-02 0.8241653E-02          
 0.8096457E-02 0.7878602E-02 0.7733345E-02 0.7660747E-02 0.7479191E-02          
 0.7333994E-02 0.7225037E-02 0.7043540E-02 0.6825686E-02 0.6789386E-02          
 0.6535232E-02 0.6462634E-02 0.6462634E-02 0.6426334E-02 0.6208479E-02          
 0.6099582E-02 0.5954325E-02 0.5845428E-02 0.5627573E-02 0.5591273E-02          
 0.5482316E-02 0.5409718E-02 0.5264521E-02 0.5119264E-02 0.4974067E-02          
 0.4937708E-02 0.4647255E-02 0.4538357E-02 0.4320502E-02 0.4284203E-02          
 0.4139006E-02 0.4102647E-02 0.4102647E-02 0.4030049E-02 0.3884852E-02          
 0.3848553E-02 0.3739595E-02 0.3666997E-02 0.3521740E-02 0.3412843E-02          
 0.3412843E-02 0.3303945E-02 0.3122389E-02 0.3122389E-02 0.3049791E-02          
 0.2904534E-02 0.2868235E-02 0.2831936E-02 0.2831936E-02 0.2795637E-02          
 0.2759337E-02 0.2759337E-02 0.2759337E-02 0.2650380E-02 0.2650380E-02          
 0.2577782E-02 0.2505183E-02 0.2468884E-02 0.2323627E-02 0.2287328E-02          
 0.2251029E-02 0.2214730E-02 0.2142131E-02 0.2142131E-02 0.2105772E-02          
 0.1996875E-02 0.1960576E-02 0.1887977E-02 0.1815319E-02 0.1815319E-02          
 0.1779020E-02 0.1670122E-02 0.1670122E-02 0.1561224E-02 0.1561224E-02          
 0.1524866E-02 0.1488566E-02 0.1452267E-02 0.1452267E-02 0.1452267E-02          
 0.1307070E-02 0.1307070E-02 0.1307070E-02 0.1270711E-02 0.1161814E-02          
 0.1125515E-02 0.1125515E-02 0.1125515E-02 0.1016617E-02 0.1016617E-02          
 0.1016617E-02 0.1016617E-02 0.9802580E-03 0.9802580E-03 0.9802580E-03          
 0.9802580E-03 0.9802580E-03 0.9439588E-03 0.9439588E-03 0.9076595E-03          
 0.9076595E-03 0.9076595E-03 0.9076595E-03 0.9076595E-03 0.9076595E-03          
 0.9076595E-03 0.9076595E-03 0.8713603E-03 0.8350611E-03 0.7987618E-03          
 0.7624626E-03 0.6898046E-03 0.6535053E-03 0.5809069E-03 0.5809069E-03          
 0.5809069E-03 0.5809069E-03 0.5446076E-03 0.5446076E-03 0.5446076E-03          
 0.5446076E-03 0.5446076E-03 0.5446076E-03 0.5446076E-03 0.5446076E-03          
 0.5083084E-03 0.5083084E-03 0.5083084E-03 0.5083084E-03 0.5083084E-03          
 0.5083084E-03 0.5083084E-03 0.5083084E-03 0.5083084E-03 0.5083084E-03          
 0.5083084E-03 0.5083084E-03 0.5083084E-03 0.4720092E-03 0.4720092E-03          
 0.4720092E-03 0.4720092E-03 0.4720092E-03 0.4357100E-03 0.4357100E-03          
 0.4357100E-03 0.4357100E-03 0.3993511E-03 0.3993511E-03 0.3993511E-03          
 0.3267527E-03 0.3267527E-03 0.3267527E-03 0.2541542E-03 0.2178550E-03          
 0.1815557E-03 0.1815557E-03 0.1452565E-03 0.1452565E-03 0.1452565E-03          
 0.1452565E-03 0.1452565E-03 0.1452565E-03 0.1452565E-03 0.1452565E-03          
 0.1452565E-03 0.1452565E-03 0.1452565E-03 0.1452565E-03 0.1452565E-03          
 0.1088977E-03 0.1088977E-03 0.1088977E-03 0.1088977E-03 0.1088977E-03          
 0.1088977E-03 0.1088977E-03 0.1088977E-03 0.7259846E-04 0.7259846E-04          
 0.7259846E-04 0.7259846E-04 0.7259846E-04 0.7259846E-04 0.7259846E-04          
 0.7259846E-04 0.7259846E-04 0.7259846E-04 0.7259846E-04 0.7259846E-04          
 0.3629923E-04 0.3629923E-04 0.3629923E-04 0.3629923E-04 0.3629923E-04          
 0.3629923E-04 0.3629923E-04 0.3629923E-04 0.3629923E-04 0.3629923E-04          
 0.3629923E-04 0.3629923E-04 0.3629923E-04 0.3629923E-04 0.3629923E-04          
 0.3629923E-04 0.3629923E-04 0.3629923E-04 0.3629923E-04 0.3629923E-04          
 0.3629923E-04 0.3629923E-04 0.3629923E-04 0.3629923E-04 0.3629923E-04          
 0.3629923E-04 0.3629923E-04 0.3629923E-04 0.3629923E-04 0.3629923E-04          
 0.3629923E-04 0.3629923E-04 0.3629923E-04 0.3629923E-04 0.3629923E-04          
 0.3629923E-04 0.3629923E-04 0.3629923E-04 0.3629923E-04 0.3629923E-04          
 0.3629923E-04 0.3629923E-04 0.3629923E-04 0.3629923E-04 0.3629923E-04          
 0.3629923E-04 0.3629923E-04 0.3629923E-04 0.3629923E-04 0.3629923E-04          
 0.3629923E-04 0.3629923E-04 0.3629923E-04 0.3629923E-04 0.3629923E-04          
 0.3629923E-04 0.3629923E-04 0.3629923E-04 0.3629923E-04 0.3629923E-04          
 0.3629923E-04 0.3629923E-04 0.3629923E-04 0.3629923E-04 0.3629923E-04          
 0.3629923E-04 0.3629923E-04 0.3629923E-04 0.3629923E-04 0.3629923E-04          
 0.3629923E-04 0.3629923E-04 0.3629923E-04 0.3629923E-04 0.3629923E-04          
 0.3629923E-04 0.3629923E-04 0.3629923E-04 0.3629923E-04 0.3629923E-04          
 0.3629923E-04 0.3629923E-04 0.3629923E-04 0.3629923E-04 0.3629923E-04          
 0.3629923E-04 0.3629923E-04 0.3629923E-04 0.3629923E-04 0.3629923E-04          
  1.000000     0.9227418     0.8465576     0.7705051     0.6974720              
 0.6258879     0.5601601     0.4975936     0.4391307     0.3849131              
 0.3351740     0.2888900     0.2496682     0.2150058     0.1834136              
 0.1558437     0.1322356     0.1108769     0.9262878E-01 0.7715690E-01          
 0.6418765E-01 0.5259639E-01 0.4362935E-01 0.3619230E-01 0.3018391E-01          
 0.2545214E-01 0.2167284E-01 0.1892698E-01 0.1697147E-01 0.1536047E-01          
 0.1378995E-01 0.1263487E-01 0.1175338E-01 0.1093268E-01 0.1022339E-01          
 0.9524286E-02 0.8977175E-02 0.8440137E-02 0.8034825E-02 0.7578909E-02          
 0.7285058E-02 0.7031739E-02 0.6677151E-02 0.6383300E-02 0.6119847E-02          
 0.5846322E-02 0.5633533E-02 0.5441010E-02 0.5218089E-02 0.5066097E-02          
 0.4863441E-02 0.4721642E-02 0.4569650E-02 0.4417658E-02 0.4225135E-02          
 0.4063010E-02 0.3911018E-02 0.3799558E-02 0.3698289E-02 0.3586829E-02          
 0.3515899E-02 0.3424704E-02 0.3282845E-02 0.3211915E-02 0.3140986E-02          
 0.3039658E-02 0.2948463E-02 0.2847135E-02 0.2786338E-02 0.2725542E-02          
 0.2664804E-02 0.2634406E-02 0.2533078E-02 0.2492547E-02 0.2401352E-02          
 0.2370954E-02 0.2279758E-02 0.2208829E-02 0.2158165E-02 0.2127767E-02          
 0.2056837E-02 0.2006173E-02 0.1955509E-02 0.1904845E-02 0.1854181E-02          
 0.1833916E-02 0.1773119E-02 0.1762986E-02 0.1762986E-02 0.1702189E-02          
 0.1681924E-02 0.1610994E-02 0.1560390E-02 0.1529992E-02 0.1529992E-02          
 0.1509726E-02 0.1459062E-02 0.1418531E-02 0.1378000E-02 0.1337469E-02          
 0.1307070E-02 0.1276672E-02 0.1266539E-02 0.1226008E-02 0.1215875E-02          
 0.1195610E-02 0.1175344E-02 0.1175344E-02 0.1144946E-02 0.1114547E-02          
 0.1094282E-02 0.1053751E-02 0.1043618E-02 0.1023352E-02 0.1003087E-02          
 0.9625554E-03 0.9524226E-03 0.9422898E-03 0.9321570E-03 0.9220243E-03          
 0.9118915E-03 0.9118915E-03 0.8916259E-03 0.8814931E-03 0.8713603E-03          
 0.8612275E-03 0.8409619E-03 0.8206964E-03 0.8105636E-03 0.7700324E-03          
 0.7598996E-03 0.7598996E-03 0.7497668E-03 0.7396340E-03 0.7396340E-03          
 0.7295012E-03 0.7193685E-03 0.7092357E-03 0.6991029E-03 0.6889701E-03          
 0.6687045E-03 0.6383061E-03 0.6383061E-03 0.6180406E-03 0.6180406E-03          
 0.6079078E-03 0.6079078E-03 0.5673766E-03 0.5572438E-03 0.5572438E-03          
 0.5369782E-03 0.5369782E-03 0.5269051E-03 0.5167723E-03 0.5167723E-03          
 0.5066395E-03 0.4965067E-03 0.4762411E-03 0.4762411E-03 0.4661083E-03          
 0.4661083E-03 0.4357100E-03 0.4357100E-03 0.4357100E-03 0.4255772E-03          
 0.4255772E-03 0.4154444E-03 0.4154444E-03 0.4053116E-03 0.4053116E-03          
 0.4053116E-03 0.4053116E-03 0.3951788E-03 0.3951788E-03 0.3951788E-03          
 0.3850460E-03 0.3850460E-03 0.3850460E-03 0.3850460E-03 0.3850460E-03          
 0.3850460E-03 0.3850460E-03 0.3850460E-03 0.3850460E-03 0.3749132E-03          
 0.3749132E-03 0.3749132E-03 0.3647804E-03 0.3647804E-03 0.3647804E-03          
 0.3647804E-03 0.3647804E-03 0.3647804E-03 0.3647804E-03 0.3546476E-03          
 0.3546476E-03 0.3445148E-03 0.3445148E-03 0.3445148E-03 0.3445148E-03          
 0.3445148E-03 0.3445148E-03 0.3445148E-03 0.3445148E-03 0.3343821E-03          
 0.3343821E-03 0.3343821E-03 0.3343821E-03 0.3141165E-03 0.3141165E-03          
 0.3141165E-03 0.3039837E-03 0.2938509E-03 0.2837181E-03 0.2837181E-03          
 0.2837181E-03 0.2837181E-03 0.2837181E-03 0.2837181E-03 0.2634525E-03          
 0.2634525E-03 0.2634525E-03 0.2634525E-03 0.2634525E-03 0.2533197E-03          
 0.2533197E-03 0.2533197E-03 0.2533197E-03 0.2431870E-03 0.2431870E-03          
 0.2431870E-03 0.2431870E-03 0.2431870E-03 0.2330542E-03 0.2330542E-03          
 0.2330542E-03 0.2330542E-03 0.2330542E-03 0.2330542E-03 0.2229214E-03          
 0.2127886E-03 0.2127886E-03 0.2127886E-03 0.2127886E-03 0.2127886E-03          
 0.2127886E-03 0.2127886E-03 0.2026558E-03 0.1925230E-03 0.1925230E-03          
 0.1823902E-03 0.1823902E-03 0.1823902E-03 0.1823902E-03 0.1823902E-03          
 0.1722574E-03 0.1722574E-03 0.1722574E-03 0.1722574E-03 0.1722574E-03          
 0.1621246E-03 0.1621246E-03 0.1621246E-03 0.1621246E-03 0.1621246E-03          
 0.1519918E-03 0.1519918E-03 0.1519918E-03 0.1519918E-03 0.1519918E-03          
 0.1519918E-03 0.1519918E-03 0.1519918E-03 0.1519918E-03 0.1519918E-03          
 0.1519918E-03 0.1519918E-03 0.1519918E-03 0.1418591E-03 0.1418591E-03          
 0.1418591E-03 0.1317263E-03 0.1317263E-03 0.1317263E-03 0.1317263E-03          
 0.1317263E-03 0.1317263E-03 0.1317263E-03 0.1317263E-03 0.1317263E-03          
 0.1317263E-03 0.1317263E-03 0.1317263E-03 0.1317263E-03 0.1317263E-03          
 0.1114607E-03 0.1114607E-03 0.1114607E-03 0.1114607E-03 0.1114607E-03          
 0.1114607E-03 0.1114607E-03 0.1114607E-03 0.1114607E-03 0.1114607E-03          
 0.1013279E-03 0.1013279E-03 0.1013279E-03 0.1013279E-03 0.1013279E-03          
 0.1013279E-03 0.1013279E-03 0.1013279E-03 0.9119511E-04 0.9119511E-04          
 0.9119511E-04 0.8106232E-04 0.8106232E-04 0.8106232E-04 0.8106232E-04          
 0.8106232E-04 0.8106232E-04 0.8106232E-04 0.8106232E-04 0.8106232E-04          
 0.8106232E-04 0.8106232E-04 0.8106232E-04 0.8106232E-04 0.8106232E-04          
 0.8106232E-04 0.8106232E-04 0.8106232E-04 0.7092953E-04 0.7092953E-04          
 0.7092953E-04 0.7092953E-04 0.7092953E-04 0.7092953E-04 0.7092953E-04          
 0.7092953E-04 0.7092953E-04 0.7092953E-04 0.6079674E-04 0.6079674E-04          
 0.6079674E-04 0.6079674E-04 0.6079674E-04 0.6079674E-04 0.6079674E-04          
 0.6079674E-04 0.6079674E-04 0.6079674E-04 0.6079674E-04 0.6079674E-04          
 0.6079674E-04 0.6079674E-04 0.6079674E-04 0.6079674E-04 0.6079674E-04          
 0.6079674E-04 0.6079674E-04 0.6079674E-04 0.6079674E-04 0.6079674E-04          
 0.6079674E-04 0.5066395E-04 0.5066395E-04 0.5066395E-04 0.5066395E-04          
 0.4053116E-04 0.4053116E-04 0.4053116E-04 0.4053116E-04 0.4053116E-04          
 0.4053116E-04 0.4053116E-04 0.4053116E-04 0.4053116E-04 0.4053116E-04          
 0.4053116E-04 0.4053116E-04 0.4053116E-04 0.4053116E-04 0.4053116E-04          
 0.4053116E-04 0.4053116E-04 0.4053116E-04 0.4053116E-04 0.4053116E-04          
 0.3039837E-04 0.3039837E-04 0.3039837E-04 0.3039837E-04 0.3039837E-04          
 0.3039837E-04 0.3039837E-04 0.3039837E-04 0.3039837E-04 0.3039837E-04          
  1.000000     0.9211189     0.8434823     0.7674154     0.6938151              
 0.6231265     0.5568414     0.4937475     0.4359995     0.3823623              
 0.3332521     0.2886948     0.2483654     0.2134143     0.1819535              
 0.1546036     0.1309747     0.1104720     0.9310210E-01 0.7812071E-01          
 0.6517696E-01 0.5423832E-01 0.4524624E-01 0.3770357E-01 0.3157783E-01          
 0.2674222E-01 0.2303100E-01 0.1981050E-01 0.1714891E-01 0.1505935E-01          
 0.1325899E-01 0.1189733E-01 0.1070142E-01 0.9609520E-02 0.8647561E-02          
 0.7828653E-02 0.7016182E-02 0.6421506E-02 0.5901575E-02 0.5482316E-02          
 0.5014360E-02 0.4708886E-02 0.4351437E-02 0.4078448E-02 0.3847718E-02          
 0.3672242E-02 0.3461003E-02 0.3265977E-02 0.3087282E-02 0.2908528E-02          
 0.2752542E-02 0.2612770E-02 0.2489328E-02 0.2378821E-02 0.2274811E-02          
 0.2190351E-02 0.2083063E-02 0.2001822E-02 0.1936853E-02 0.1829624E-02          
 0.1777589E-02 0.1725614E-02 0.1650870E-02 0.1592398E-02 0.1524150E-02          
 0.1455903E-02 0.1390874E-02 0.1309633E-02 0.1260877E-02 0.1218677E-02          
 0.1179636E-02 0.1150429E-02 0.1114666E-02 0.1072407E-02 0.1013935E-02          
 0.9879470E-03 0.9651780E-03 0.9359121E-03 0.9034276E-03 0.8871555E-03          
 0.8676648E-03 0.8514524E-03 0.8189082E-03 0.7929206E-03 0.7669330E-03          
 0.7344484E-03 0.7181764E-03 0.6921887E-03 0.6759763E-03 0.6694198E-03          
 0.6597042E-03 0.6369352E-03 0.6272197E-03 0.6077290E-03 0.5979538E-03          
 0.5914569E-03 0.5816817E-03 0.5589724E-03 0.5491972E-03 0.5297065E-03          
 0.5199313E-03 0.5004406E-03 0.4972219E-03 0.4777312E-03 0.4712343E-03          
 0.4549623E-03 0.4354715E-03 0.4159808E-03 0.4094839E-03 0.3932118E-03          
 0.3834963E-03 0.3769994E-03 0.3639460E-03 0.3607273E-03 0.3607273E-03          
 0.3542304E-03 0.3542304E-03 0.3542304E-03 0.3477335E-03 0.3444552E-03          
 0.3412366E-03 0.3347397E-03 0.3282428E-03 0.3184676E-03 0.3087521E-03          
 0.2956986E-03 0.2892017E-03 0.2859831E-03 0.2827048E-03 0.2794862E-03          
 0.2632141E-03 0.2599955E-03 0.2470016E-03 0.2470016E-03 0.2405047E-03          
 0.2340078E-03 0.2242327E-03 0.2242327E-03 0.2209544E-03 0.2209544E-03          
 0.2177358E-03 0.2177358E-03 0.2177358E-03 0.2177358E-03 0.2177358E-03          
 0.2177358E-03 0.2144575E-03 0.2079606E-03 0.2079606E-03 0.2014637E-03          
 0.1949668E-03 0.1949668E-03 0.1917481E-03 0.1884699E-03 0.1852512E-03          
 0.1754761E-03 0.1754761E-03 0.1722574E-03 0.1722574E-03 0.1689792E-03          
 0.1689792E-03 0.1689792E-03 0.1689792E-03 0.1689792E-03 0.1657605E-03          
 0.1657605E-03 0.1657605E-03 0.1624823E-03 0.1559854E-03 0.1559854E-03          
 0.1559854E-03 0.1462102E-03 0.1429915E-03 0.1429915E-03 0.1364946E-03          
 0.1332164E-03 0.1332164E-03 0.1332164E-03 0.1267195E-03 0.1235008E-03          
 0.1235008E-03 0.1235008E-03 0.1235008E-03 0.1170039E-03 0.1137257E-03          
 0.1137257E-03 0.1137257E-03 0.1137257E-03 0.1137257E-03 0.1137257E-03          
 0.1105070E-03 0.1105070E-03 0.1105070E-03 0.1105070E-03 0.1072288E-03          
 0.1040101E-03 0.1040101E-03 0.1007318E-03 0.9751320E-04 0.9423494E-04          
 0.9101629E-04 0.9101629E-04 0.8451939E-04 0.8451939E-04 0.7802248E-04          
 0.7802248E-04 0.7802248E-04 0.7802248E-04 0.7802248E-04 0.7802248E-04          
 0.7802248E-04 0.7474422E-04 0.7474422E-04 0.7474422E-04 0.7474422E-04          
 0.7474422E-04 0.7474422E-04 0.7146597E-04 0.7146597E-04 0.7146597E-04          
 0.7146597E-04 0.7146597E-04 0.7146597E-04 0.7146597E-04 0.7146597E-04          
 0.7146597E-04 0.7146597E-04 0.6824732E-04 0.6175041E-04 0.6175041E-04          
 0.5847216E-04 0.5525351E-04 0.5525351E-04 0.5197525E-04 0.5197525E-04          
 0.4875660E-04 0.4547834E-04 0.4225969E-04 0.3898144E-04 0.3898144E-04          
 0.3898144E-04 0.3576279E-04 0.3576279E-04 0.3576279E-04 0.3576279E-04          
 0.3576279E-04 0.3576279E-04 0.3248453E-04 0.3248453E-04 0.3248453E-04          
 0.3248453E-04 0.3248453E-04 0.3248453E-04 0.3248453E-04 0.3248453E-04          
 0.3248453E-04 0.3248453E-04 0.3248453E-04 0.2926588E-04 0.2926588E-04          
 0.2926588E-04 0.2926588E-04 0.2926588E-04 0.2926588E-04 0.2926588E-04          
 0.2926588E-04 0.2926588E-04 0.2926588E-04 0.2926588E-04 0.2926588E-04          
 0.2926588E-04 0.2926588E-04 0.2926588E-04 0.2926588E-04 0.2926588E-04          
 0.2926588E-04 0.2926588E-04 0.2926588E-04 0.2926588E-04 0.2926588E-04          
 0.2598763E-04 0.2276897E-04 0.2276897E-04 0.2276897E-04 0.2276897E-04          
 0.2276897E-04 0.2276897E-04 0.2276897E-04 0.2276897E-04 0.2276897E-04          
 0.2276897E-04 0.2276897E-04 0.2276897E-04 0.2276897E-04 0.2276897E-04          
 0.2276897E-04 0.2276897E-04 0.2276897E-04 0.2276897E-04 0.2276897E-04          
 0.2276897E-04 0.2276897E-04 0.2276897E-04 0.2276897E-04 0.2276897E-04          
 0.2276897E-04 0.2276897E-04 0.2276897E-04 0.2276897E-04 0.2276897E-04          
 0.2276897E-04 0.2276897E-04 0.2276897E-04 0.2276897E-04 0.2276897E-04          
 0.2276897E-04 0.2276897E-04 0.2276897E-04 0.2276897E-04 0.2276897E-04          
 0.2276897E-04 0.2276897E-04 0.2276897E-04 0.2276897E-04 0.2276897E-04          
 0.2276897E-04 0.1949072E-04 0.1949072E-04 0.1949072E-04 0.1949072E-04          
 0.1949072E-04 0.1949072E-04 0.1949072E-04 0.1949072E-04 0.1949072E-04          
 0.1949072E-04 0.1949072E-04 0.1949072E-04 0.1949072E-04 0.1949072E-04          
 0.1949072E-04 0.1949072E-04 0.1949072E-04 0.1949072E-04 0.1949072E-04          
 0.1949072E-04 0.1949072E-04 0.1949072E-04 0.1627207E-04 0.1627207E-04          
 0.1627207E-04 0.1627207E-04 0.1627207E-04 0.1627207E-04 0.1299381E-04          
 0.1299381E-04 0.1299381E-04 0.1299381E-04 0.1299381E-04 0.1299381E-04          
 0.1299381E-04 0.1299381E-04 0.1299381E-04 0.1299381E-04 0.1299381E-04          
 0.1299381E-04 0.1299381E-04 0.9775162E-05 0.9775162E-05 0.9775162E-05          
 0.9775162E-05 0.9775162E-05 0.6496906E-05 0.6496906E-05 0.6496906E-05          
 0.6496906E-05 0.6496906E-05 0.6496906E-05 0.6496906E-05 0.6496906E-05          
 0.6496906E-05 0.6496906E-05 0.6496906E-05 0.3278255E-05 0.3278255E-05          
 0.3278255E-05 0.3278255E-05 0.3278255E-05 0.3278255E-05 0.3278255E-05          
 0.3278255E-05 0.3278255E-05 0.3278255E-05 0.3278255E-05 0.3278255E-05          
 0.3278255E-05 0.3278255E-05 0.3278255E-05 0.3278255E-05 0.3278255E-05          
  1.000000     0.9138920     0.8313818     0.7498092     0.6713766              
 0.5961492     0.5275725     0.4627025     0.4038290     0.3506247              
 0.3001461     0.2566451     0.2170253     0.1834238     0.1541833              
 0.1292602     0.1070845     0.8748174E-01 0.7189113E-01 0.5896080E-01          
 0.4668456E-01 0.3767908E-01 0.3065783E-01 0.2474868E-01 0.1973355E-01          
 0.1628834E-01 0.1371539E-01 0.1129502E-01 0.9158134E-02 0.7479131E-02          
 0.6301641E-02 0.5298615E-02 0.4644454E-02 0.3946722E-02 0.3619611E-02          
 0.3248930E-02 0.2812862E-02 0.2442181E-02 0.2245903E-02 0.1897037E-02          
 0.1613557E-02 0.1460910E-02 0.1330078E-02 0.1155674E-02 0.1046658E-02          
 0.8068085E-03 0.7631779E-03 0.7413626E-03 0.6323457E-03 0.5887151E-03          
 0.5233288E-03 0.5233288E-03 0.4361272E-03 0.4143119E-03 0.3924966E-03          
 0.3706813E-03 0.3488660E-03 0.3052950E-03 0.2834797E-03 0.2834797E-03          
 0.2616644E-03 0.2616644E-03 0.2398491E-03 0.2398491E-03 0.2180338E-03          
 0.2180338E-03 0.1962185E-03 0.1744628E-03 0.1744628E-03 0.1526475E-03          
 0.1308322E-03 0.1308322E-03 0.1308322E-03 0.1308322E-03 0.1308322E-03          
 0.1308322E-03 0.1090169E-03 0.1090169E-03 0.1090169E-03 0.1090169E-03          
 0.1090169E-03 0.1090169E-03 0.8720160E-04 0.8720160E-04 0.8720160E-04          
 0.6538630E-04 0.6538630E-04 0.6538630E-04 0.6538630E-04 0.6538630E-04          
 0.6538630E-04 0.4363060E-04 0.4363060E-04 0.4363060E-04 0.4363060E-04          
 0.4363060E-04 0.4363060E-04 0.4363060E-04 0.2181530E-04 0.2181530E-04          
 0.2181530E-04 0.2181530E-04 0.2181530E-04 0.2181530E-04 0.2181530E-04          
 0.2181530E-04 0.2181530E-04 0.2181530E-04 0.2181530E-04 0.2181530E-04          
 0.2181530E-04 0.2181530E-04 0.2181530E-04 0.2181530E-04 0.2181530E-04          
 0.2181530E-04 0.2181530E-04 0.2181530E-04 0.2181530E-04 0.2181530E-04          
 0.2181530E-04 0.2181530E-04 0.2181530E-04 0.2181530E-04 0.2181530E-04          
 0.2181530E-04 0.2181530E-04 0.2181530E-04 0.2181530E-04 0.2181530E-04          
 0.2181530E-04 0.2181530E-04 0.2181530E-04 0.2181530E-04 0.2181530E-04          
 0.2181530E-04 0.2181530E-04 0.2181530E-04 0.2181530E-04 0.2181530E-04          
 0.2181530E-04 0.2181530E-04 0.2181530E-04 0.2181530E-04 0.2181530E-04          
 0.2181530E-04 0.2181530E-04 0.2181530E-04 0.2181530E-04 0.2181530E-04          
 0.2181530E-04 0.2181530E-04 0.2181530E-04 0.2181530E-04 0.2181530E-04          
 0.2181530E-04 0.2181530E-04 0.2181530E-04 0.2181530E-04 0.2181530E-04          
 0.2181530E-04 0.2181530E-04 0.2181530E-04 0.2181530E-04 0.2181530E-04          
 0.2181530E-04 0.2181530E-04 0.2181530E-04  0.000000      0.000000              
  0.000000      0.000000      0.000000      0.000000      0.000000              
  0.000000      0.000000      0.000000      0.000000      0.000000              
  0.000000      0.000000      0.000000      0.000000      0.000000              
  0.000000      0.000000      0.000000      0.000000      0.000000              
  0.000000      0.000000      0.000000      0.000000      0.000000              
  0.000000      0.000000      0.000000      0.000000      0.000000              
  0.000000      0.000000      0.000000      0.000000      0.000000              
  0.000000      0.000000      0.000000      0.000000      0.000000              
  0.000000      0.000000      0.000000      0.000000      0.000000              
  0.000000      0.000000      0.000000      0.000000      0.000000              
  0.000000      0.000000      0.000000      0.000000      0.000000              
  0.000000      0.000000      0.000000      0.000000      0.000000              
  0.000000      0.000000      0.000000      0.000000      0.000000              
  0.000000      0.000000      0.000000      0.000000      0.000000              
  0.000000      0.000000      0.000000      0.000000      0.000000              
  0.000000      0.000000      0.000000      0.000000      0.000000              
  0.000000      0.000000      0.000000      0.000000      0.000000              
  0.000000      0.000000      0.000000      0.000000      0.000000              
  0.000000      0.000000      0.000000      0.000000      0.000000              
  0.000000      0.000000      0.000000      0.000000      0.000000              
  0.000000      0.000000      0.000000      0.000000      0.000000              
  0.000000      0.000000      0.000000      0.000000      0.000000              
  0.000000      0.000000      0.000000      0.000000      0.000000              
  0.000000      0.000000      0.000000      0.000000      0.000000              
  0.000000      0.000000      0.000000      0.000000      0.000000              
  0.000000      0.000000      0.000000      0.000000      0.000000              
  0.000000      0.000000      0.000000      0.000000      0.000000              
  0.000000      0.000000      0.000000      0.000000      0.000000              
  0.000000      0.000000      0.000000      0.000000      0.000000              
  0.000000      0.000000      0.000000      0.000000      0.000000              
  0.000000      0.000000      0.000000      0.000000      0.000000              
  0.000000      0.000000      0.000000      0.000000      0.000000              
  0.000000      0.000000      0.000000      0.000000      0.000000              
  0.000000      0.000000      0.000000      0.000000      0.000000              
  0.000000      0.000000      0.000000      0.000000      0.000000              
  0.000000      0.000000      0.000000      0.000000      0.000000              
  0.000000      0.000000      0.000000      0.000000      0.000000              
  0.000000      0.000000      0.000000      0.000000      0.000000              
  0.000000      0.000000      0.000000      0.000000      0.000000              
  0.000000      0.000000      0.000000      0.000000      0.000000              
  0.000000      0.000000      0.000000      0.000000      0.000000              
  0.000000      0.000000      0.000000      0.000000      0.000000              
  0.000000      0.000000      0.000000      0.000000      0.000000              
  0.000000      0.000000      0.000000      0.000000      0.000000              
  0.000000      0.000000      0.000000      0.000000      0.000000              
  0.000000      0.000000      0.000000      0.000000      0.000000              
