  1.000000     0.9251549     0.8479710     0.7751140     0.7082213              
 0.6419132     0.5821542     0.5235645     0.4680154     0.4160917              
 0.3716524     0.3295521     0.2885042     0.2563443     0.2272249              
 0.2021986     0.1792773     0.1589288     0.1392819     0.1248977              
 0.1102795     0.9905273E-01 0.8946323E-01 0.8127707E-01 0.7379252E-01          
 0.6700969E-01 0.6139630E-01 0.5636770E-01 0.5379486E-01 0.5087125E-01          
 0.4841536E-01 0.4479009E-01 0.4128170E-01 0.3859198E-01 0.3648698E-01          
 0.3426498E-01 0.3286165E-01 0.3110749E-01 0.2958721E-01 0.2783298E-01          
 0.2724826E-01 0.2607882E-01 0.2561104E-01 0.2490938E-01 0.2303827E-01          
 0.2233654E-01 0.2151793E-01 0.2105016E-01 0.2058238E-01 0.2023154E-01          
 0.1941293E-01 0.1894516E-01 0.1871127E-01 0.1859432E-01 0.1800960E-01          
 0.1707405E-01 0.1648933E-01 0.1578760E-01 0.1555371E-01 0.1508594E-01          
 0.1461816E-01 0.1426733E-01 0.1356566E-01 0.1309788E-01 0.1286399E-01          
 0.1263011E-01 0.1227927E-01 0.1157761E-01 0.1157761E-01 0.1146066E-01          
 0.1110983E-01 0.1087594E-01 0.1040816E-01 0.1017427E-01 0.1005733E-01          
 0.9706438E-02 0.9472549E-02 0.9472549E-02 0.9355605E-02 0.9355605E-02          
 0.9355605E-02 0.9355605E-02 0.9355605E-02 0.9121716E-02 0.8887827E-02          
 0.8770883E-02 0.8770883E-02 0.8536994E-02 0.8186162E-02 0.8186162E-02          
 0.8069217E-02 0.7952273E-02 0.7952273E-02 0.7952273E-02 0.7718384E-02          
 0.7484496E-02 0.7133663E-02 0.6782830E-02 0.6782830E-02 0.6665885E-02          
 0.6548941E-02 0.6431997E-02 0.6431997E-02 0.6315053E-02 0.6315053E-02          
 0.6198108E-02 0.6081164E-02 0.6081164E-02 0.5964220E-02 0.5964220E-02          
 0.5847275E-02 0.5613387E-02 0.5613387E-02 0.5613387E-02 0.5496442E-02          
 0.5262554E-02 0.5145609E-02 0.5145609E-02 0.4794776E-02 0.4677832E-02          
 0.4443944E-02 0.4443944E-02 0.4443944E-02 0.4443944E-02 0.4326999E-02          
 0.3976166E-02 0.3976166E-02 0.3859222E-02 0.3859222E-02 0.3859222E-02          
 0.3742278E-02 0.3625333E-02 0.3508389E-02 0.3391445E-02 0.3274500E-02          
 0.3274500E-02 0.3274500E-02 0.3274500E-02 0.3274500E-02 0.3274500E-02          
 0.3157496E-02 0.3157496E-02 0.3040552E-02 0.3040552E-02 0.3040552E-02          
 0.3040552E-02 0.2806664E-02 0.2689719E-02 0.2572775E-02 0.2455831E-02          
 0.2455831E-02 0.2455831E-02 0.2455831E-02 0.2455831E-02 0.2455831E-02          
 0.2455831E-02 0.2455831E-02 0.2455831E-02 0.2455831E-02 0.2455831E-02          
 0.2221942E-02 0.2221942E-02 0.2221942E-02 0.2221942E-02 0.2104998E-02          
 0.2104998E-02 0.2104998E-02 0.2104998E-02 0.2104998E-02 0.2104998E-02          
 0.2104998E-02 0.2104998E-02 0.2104998E-02 0.2104998E-02 0.2104998E-02          
 0.2104998E-02 0.2104998E-02 0.2104998E-02 0.2104998E-02 0.2104998E-02          
 0.1871109E-02 0.1871109E-02 0.1871109E-02 0.1871109E-02 0.1871109E-02          
 0.1871109E-02 0.1871109E-02 0.1754165E-02 0.1637220E-02 0.1637220E-02          
 0.1637220E-02 0.1637220E-02 0.1637220E-02 0.1520276E-02 0.1520276E-02          
 0.1520276E-02 0.1520276E-02 0.1403332E-02 0.1403332E-02 0.1403332E-02          
 0.1403332E-02 0.1403332E-02 0.1403332E-02 0.1286387E-02 0.1286387E-02          
 0.1286387E-02 0.1286387E-02 0.1286387E-02 0.1286387E-02 0.1286387E-02          
 0.1286387E-02 0.1286387E-02 0.1052499E-02 0.1052499E-02 0.1052499E-02          
 0.1052499E-02 0.1052499E-02 0.1052499E-02 0.1052499E-02 0.1052499E-02          
 0.1052499E-02 0.9355545E-03 0.9355545E-03 0.9355545E-03 0.9355545E-03          
 0.8186102E-03 0.8186102E-03 0.8186102E-03 0.8186102E-03 0.7016659E-03          
 0.5847216E-03 0.5847216E-03 0.5847216E-03 0.5847216E-03 0.5847216E-03          
 0.5847216E-03 0.5847216E-03 0.5847216E-03 0.5847216E-03 0.5847216E-03          
 0.5847216E-03 0.5847216E-03 0.5847216E-03 0.4677773E-03 0.4677773E-03          
 0.4677773E-03 0.4677773E-03 0.4677773E-03 0.4677773E-03 0.4677773E-03          
 0.3508329E-03 0.3508329E-03 0.3508329E-03 0.3508329E-03 0.3508329E-03          
 0.3508329E-03 0.3508329E-03 0.3508329E-03 0.3508329E-03 0.3508329E-03          
 0.3508329E-03 0.3508329E-03 0.2338886E-03 0.2338886E-03 0.2338886E-03          
 0.2338886E-03 0.2338886E-03 0.2338886E-03 0.1169443E-03 0.1169443E-03          
 0.1169443E-03 0.1169443E-03 0.1169443E-03 0.1169443E-03 0.1169443E-03          
 0.1169443E-03 0.1169443E-03 0.1169443E-03 0.1169443E-03 0.1169443E-03          
 0.1169443E-03 0.1169443E-03 0.1169443E-03 0.1169443E-03 0.1169443E-03          
 0.1169443E-03 0.1169443E-03 0.1169443E-03 0.1169443E-03 0.1169443E-03          
 0.1169443E-03 0.1169443E-03 0.1169443E-03 0.1169443E-03 0.1169443E-03          
 0.1169443E-03 0.1169443E-03 0.1169443E-03 0.1169443E-03 0.1169443E-03          
 0.1169443E-03 0.1169443E-03 0.1169443E-03 0.1169443E-03 0.1169443E-03          
 0.1169443E-03 0.1169443E-03 0.1169443E-03 0.1169443E-03 0.1169443E-03          
 0.1169443E-03 0.1169443E-03 0.1169443E-03 0.1169443E-03 0.1169443E-03          
 0.1169443E-03 0.1169443E-03 0.1169443E-03 0.1169443E-03 0.1169443E-03          
 0.1169443E-03 0.1169443E-03 0.1169443E-03 0.1169443E-03 0.1169443E-03          
 0.1169443E-03 0.1169443E-03 0.1169443E-03 0.1169443E-03 0.1169443E-03          
 0.1169443E-03 0.1169443E-03 0.1169443E-03 0.1169443E-03 0.1169443E-03          
 0.1169443E-03 0.1169443E-03 0.1169443E-03 0.1169443E-03 0.1169443E-03          
 0.1169443E-03 0.1169443E-03 0.1169443E-03 0.1169443E-03 0.1169443E-03          
 0.1169443E-03 0.1169443E-03 0.1169443E-03 0.1169443E-03 0.1169443E-03          
 0.1169443E-03 0.1169443E-03 0.1169443E-03 0.1169443E-03 0.1169443E-03          
 0.1169443E-03 0.1169443E-03 0.1169443E-03 0.1169443E-03 0.1169443E-03          
 0.1169443E-03 0.1169443E-03 0.1169443E-03 0.1169443E-03 0.1169443E-03          
 0.1169443E-03 0.1169443E-03 0.1169443E-03 0.1169443E-03 0.1169443E-03          
 0.1169443E-03 0.1169443E-03 0.1169443E-03 0.1169443E-03 0.1169443E-03          
 0.1169443E-03 0.1169443E-03 0.1169443E-03 0.1169443E-03 0.1169443E-03          
 0.1169443E-03 0.1169443E-03 0.1169443E-03 0.1169443E-03 0.1169443E-03          
 0.1169443E-03 0.1169443E-03 0.1169443E-03 0.1169443E-03 0.1169443E-03          
 0.1169443E-03 0.1169443E-03 0.1169443E-03 0.1169443E-03 0.1169443E-03          
 0.1169443E-03 0.1169443E-03 0.1169443E-03 0.1169443E-03 0.1169443E-03          
  1.000000     0.9304909     0.8559656     0.7753493     0.7040488              
 0.6323898     0.5750627     0.5152276     0.4639914     0.4170548              
 0.3751343     0.3464708     0.3099248     0.2773200     0.2536725              
 0.2250090     0.2042279     0.1834468     0.1669652     0.1494088              
 0.1411681     0.1297026     0.1193120     0.1099964     0.1031888              
 0.9673953E-01 0.9172338E-01 0.8778214E-01 0.8348262E-01 0.8061630E-01          
 0.7667500E-01 0.7416695E-01 0.7022572E-01 0.6485128E-01 0.6377643E-01          
 0.6162667E-01 0.5804372E-01 0.5410248E-01 0.5123609E-01 0.5051953E-01          
 0.4836977E-01 0.4801148E-01 0.4657829E-01 0.4550338E-01 0.4514509E-01          
 0.4407024E-01 0.4263705E-01 0.4227877E-01 0.4012901E-01 0.3833753E-01          
 0.3762090E-01 0.3690434E-01 0.3582942E-01 0.3511286E-01 0.3367966E-01          
 0.3224653E-01 0.3152990E-01 0.3117162E-01 0.3117162E-01 0.3081334E-01          
 0.3081334E-01 0.3045505E-01 0.2973843E-01 0.2794695E-01 0.2687210E-01          
 0.2651381E-01 0.2615547E-01 0.2579719E-01 0.2508062E-01 0.2472234E-01          
 0.2472234E-01 0.2364743E-01 0.2293086E-01 0.2293086E-01 0.2257258E-01          
 0.2257258E-01 0.2257258E-01 0.2257258E-01 0.2113938E-01 0.2113938E-01          
 0.2078110E-01 0.2042282E-01 0.1970619E-01 0.1934791E-01 0.1934791E-01          
 0.1827300E-01 0.1791471E-01 0.1755643E-01 0.1755643E-01 0.1719815E-01          
 0.1683986E-01 0.1648152E-01 0.1576495E-01 0.1433176E-01 0.1433176E-01          
 0.1361519E-01 0.1325691E-01 0.1325691E-01 0.1325691E-01 0.1325691E-01          
 0.1325691E-01 0.1325691E-01 0.1289862E-01 0.1289862E-01 0.1254028E-01          
 0.1254028E-01 0.1254028E-01 0.1254028E-01 0.1254028E-01 0.1254028E-01          
 0.1254028E-01 0.1254028E-01 0.1254028E-01 0.1218200E-01 0.1218200E-01          
 0.1218200E-01 0.1218200E-01 0.1146543E-01 0.1146543E-01 0.1110715E-01          
 0.1110715E-01 0.1110715E-01 0.1110715E-01 0.1074886E-01 0.1039052E-01          
 0.1039052E-01 0.1003224E-01 0.9673953E-02 0.9673953E-02 0.9315670E-02          
 0.9315670E-02 0.9315670E-02 0.9315670E-02 0.9315670E-02 0.9315670E-02          
 0.9315670E-02 0.8957386E-02 0.8599043E-02 0.7882476E-02 0.7882476E-02          
 0.7882476E-02 0.7882476E-02 0.7882476E-02 0.7882476E-02 0.7882476E-02          
 0.7882476E-02 0.7882476E-02 0.7524192E-02 0.7524192E-02 0.7165909E-02          
 0.7165909E-02 0.7165909E-02 0.7165909E-02 0.7165909E-02 0.7165909E-02          
 0.7165909E-02 0.7165909E-02 0.7165909E-02 0.7165909E-02 0.7165909E-02          
 0.7165909E-02 0.7165909E-02 0.7165909E-02 0.6807625E-02 0.6807625E-02          
 0.6807625E-02 0.6449282E-02 0.6449282E-02 0.6449282E-02 0.6090999E-02          
 0.6090999E-02 0.6090999E-02 0.6090999E-02 0.6090999E-02 0.6090999E-02          
 0.6090999E-02 0.6090999E-02 0.6090999E-02 0.6090999E-02 0.6090999E-02          
 0.6090999E-02 0.6090999E-02 0.6090999E-02 0.6090999E-02 0.6090999E-02          
 0.6090999E-02 0.6090999E-02 0.6090999E-02 0.6090999E-02 0.6090999E-02          
 0.6090999E-02 0.6090999E-02 0.6090999E-02 0.6090999E-02 0.6090999E-02          
 0.6090999E-02 0.6090999E-02 0.6090999E-02 0.6090999E-02 0.5732715E-02          
 0.5016148E-02 0.5016148E-02 0.5016148E-02 0.5016148E-02 0.5016148E-02          
 0.5016148E-02 0.5016148E-02 0.5016148E-02 0.5016148E-02 0.5016148E-02          
 0.5016148E-02 0.5016148E-02 0.5016148E-02 0.5016148E-02 0.5016148E-02          
 0.5016148E-02 0.5016148E-02 0.5016148E-02 0.5016148E-02 0.5016148E-02          
 0.4657805E-02 0.4657805E-02 0.4299521E-02 0.4299521E-02 0.4299521E-02          
 0.3941238E-02 0.3941238E-02 0.3582954E-02 0.3582954E-02 0.3582954E-02          
 0.3582954E-02 0.3582954E-02 0.3582954E-02 0.3582954E-02 0.3582954E-02          
 0.3582954E-02 0.3582954E-02 0.3582954E-02 0.3582954E-02 0.3582954E-02          
 0.3582954E-02 0.3582954E-02 0.3582954E-02 0.3224671E-02 0.3224671E-02          
 0.3224671E-02 0.3224671E-02 0.3224671E-02 0.3224671E-02 0.2866328E-02          
 0.2866328E-02 0.2866328E-02 0.2866328E-02 0.2508044E-02 0.2508044E-02          
 0.2149761E-02 0.2149761E-02 0.2149761E-02 0.2149761E-02 0.2149761E-02          
 0.2149761E-02 0.2149761E-02 0.2149761E-02 0.2149761E-02 0.2149761E-02          
 0.2149761E-02 0.2149761E-02 0.2149761E-02 0.1791477E-02 0.1791477E-02          
 0.1791477E-02 0.1791477E-02 0.1791477E-02 0.1791477E-02 0.1791477E-02          
 0.1791477E-02 0.1791477E-02 0.1791477E-02 0.1791477E-02 0.1791477E-02          
 0.1791477E-02 0.1791477E-02 0.1791477E-02 0.1791477E-02 0.1791477E-02          
 0.1791477E-02 0.1791477E-02 0.1791477E-02 0.1791477E-02 0.1791477E-02          
 0.1791477E-02 0.1791477E-02 0.1791477E-02 0.1791477E-02 0.1433194E-02          
 0.1433194E-02 0.1433194E-02 0.1433194E-02 0.1433194E-02 0.1433194E-02          
 0.1433194E-02 0.1433194E-02 0.1433194E-02 0.1433194E-02 0.1433194E-02          
 0.1433194E-02 0.1433194E-02 0.1433194E-02 0.1433194E-02 0.1433194E-02          
 0.1433194E-02 0.1433194E-02 0.1433194E-02 0.1433194E-02 0.1433194E-02          
 0.1433194E-02 0.1433194E-02 0.1433194E-02 0.1433194E-02 0.1433194E-02          
 0.1433194E-02 0.1433194E-02 0.1433194E-02 0.1433194E-02 0.1433194E-02          
 0.1433194E-02 0.1433194E-02 0.1433194E-02 0.1433194E-02 0.1433194E-02          
 0.1433194E-02 0.1433194E-02 0.1433194E-02 0.1433194E-02 0.1433194E-02          
 0.1433194E-02 0.1433194E-02 0.1433194E-02 0.1433194E-02 0.1433194E-02          
 0.1433194E-02 0.1433194E-02 0.1433194E-02 0.1074910E-02 0.1074910E-02          
 0.1074910E-02 0.1074910E-02 0.1074910E-02 0.7165670E-03 0.7165670E-03          
 0.7165670E-03 0.7165670E-03 0.7165670E-03 0.7165670E-03 0.7165670E-03          
 0.7165670E-03 0.7165670E-03 0.7165670E-03 0.7165670E-03 0.7165670E-03          
 0.7165670E-03 0.7165670E-03 0.7165670E-03 0.7165670E-03 0.7165670E-03          
 0.7165670E-03 0.7165670E-03 0.7165670E-03 0.7165670E-03 0.7165670E-03          
 0.7165670E-03 0.7165670E-03 0.7165670E-03 0.7165670E-03 0.7165670E-03          
 0.7165670E-03 0.7165670E-03 0.7165670E-03 0.7165670E-03 0.7165670E-03          
 0.7165670E-03 0.7165670E-03 0.7165670E-03 0.7165670E-03 0.7165670E-03          
 0.7165670E-03 0.3582835E-03 0.3582835E-03 0.3582835E-03 0.3582835E-03          
 0.3582835E-03 0.3582835E-03 0.3582835E-03 0.3582835E-03 0.3582835E-03          
 0.3582835E-03 0.3582835E-03 0.3582835E-03 0.3582835E-03 0.3582835E-03          
  1.000000     0.9215686     0.8386124     0.7933635     0.7224736              
 0.6546003     0.6108598     0.5610859     0.5158371     0.4600301              
 0.4358974     0.4042232     0.3680241     0.3197587     0.3001508              
 0.2820513     0.2518854     0.2292609     0.2187029     0.1990950              
 0.1855204     0.1749623     0.1659125     0.1568627     0.1447964              
 0.1372549     0.1327300     0.1297134     0.1221719     0.1206636              
 0.1176471     0.1085973     0.1070890     0.1055807     0.9954751E-01          
 0.9803921E-01 0.9502262E-01 0.9200603E-01 0.8898944E-01 0.8748114E-01          
 0.8597285E-01 0.8597285E-01 0.8597285E-01 0.8597285E-01 0.8446455E-01          
 0.8144796E-01 0.8144796E-01 0.8144796E-01 0.7843137E-01 0.7541478E-01          
 0.7088989E-01 0.6938159E-01 0.6938159E-01 0.6636500E-01 0.6636500E-01          
 0.6334841E-01 0.6334841E-01 0.5882353E-01 0.5429864E-01 0.5429864E-01          
 0.5429864E-01 0.5279034E-01 0.5279034E-01 0.5128205E-01 0.4374057E-01          
 0.4223228E-01 0.4072398E-01 0.4072398E-01 0.3921568E-01 0.3921568E-01          
 0.3770739E-01 0.3770739E-01 0.3770739E-01 0.3770739E-01 0.3619909E-01          
 0.3619909E-01 0.3318250E-01 0.3167421E-01 0.2865762E-01 0.2714932E-01          
 0.2714932E-01 0.2564102E-01 0.2413273E-01 0.2413273E-01 0.2413273E-01          
 0.2262443E-01 0.2262443E-01 0.2262443E-01 0.2262443E-01 0.2262443E-01          
 0.2262443E-01 0.2262443E-01 0.2262443E-01 0.1960784E-01 0.1809955E-01          
 0.1809955E-01 0.1659125E-01 0.1659125E-01 0.1659125E-01 0.1357466E-01          
 0.1357466E-01 0.1357466E-01 0.1357466E-01 0.1357466E-01 0.1357466E-01          
 0.1357466E-01 0.1206636E-01 0.1206636E-01 0.1206636E-01 0.1206636E-01          
 0.1206636E-01 0.1206636E-01 0.1206636E-01 0.1206636E-01 0.1206636E-01          
 0.1206636E-01 0.1055807E-01 0.1055807E-01 0.1055807E-01 0.1055807E-01          
 0.1055807E-01 0.1055807E-01 0.1055807E-01 0.9049773E-02 0.9049773E-02          
 0.9049773E-02 0.9049773E-02 0.9049773E-02 0.9049773E-02 0.9049773E-02          
 0.9049773E-02 0.9049773E-02 0.7541478E-02 0.7541478E-02 0.7541478E-02          
 0.7541478E-02 0.7541478E-02 0.7541478E-02 0.7541478E-02 0.7541478E-02          
 0.7541478E-02 0.7541478E-02 0.7541478E-02 0.7541478E-02 0.7541478E-02          
 0.7541478E-02 0.7541478E-02 0.7541478E-02 0.7541478E-02 0.7541478E-02          
 0.7541478E-02 0.7541478E-02 0.7541478E-02 0.7541478E-02 0.7541478E-02          
 0.7541478E-02 0.7541478E-02 0.7541478E-02 0.7541478E-02 0.7541478E-02          
 0.6033182E-02 0.4524887E-02 0.4524887E-02 0.4524887E-02 0.4524887E-02          
 0.4524887E-02 0.4524887E-02 0.4524887E-02 0.4524887E-02 0.4524887E-02          
 0.4524887E-02 0.4524887E-02 0.4524887E-02 0.4524887E-02 0.4524887E-02          
 0.4524887E-02 0.4524887E-02 0.4524887E-02 0.4524887E-02 0.4524887E-02          
 0.4524887E-02 0.4524887E-02 0.4524887E-02 0.4524887E-02 0.4524887E-02          
 0.4524887E-02 0.4524887E-02 0.4524887E-02 0.4524887E-02 0.4524887E-02          
 0.4524887E-02 0.4524887E-02 0.4524887E-02 0.4524887E-02 0.4524887E-02          
 0.4524887E-02 0.4524887E-02 0.4524887E-02 0.4524887E-02 0.4524887E-02          
 0.4524887E-02 0.4524887E-02 0.4524887E-02 0.4524887E-02 0.4524887E-02          
 0.4524887E-02 0.4524887E-02 0.4524887E-02 0.4524887E-02 0.4524887E-02          
 0.4524887E-02 0.4524887E-02 0.3016591E-02 0.3016591E-02 0.3016591E-02          
 0.3016591E-02 0.3016591E-02 0.3016591E-02 0.3016591E-02 0.3016591E-02          
 0.3016591E-02 0.3016591E-02 0.3016591E-02 0.3016591E-02 0.3016591E-02          
 0.3016591E-02 0.3016591E-02 0.3016591E-02 0.3016591E-02 0.3016591E-02          
 0.3016591E-02 0.3016591E-02 0.3016591E-02 0.3016591E-02 0.3016591E-02          
 0.3016591E-02 0.3016591E-02 0.3016591E-02 0.3016591E-02 0.3016591E-02          
 0.3016591E-02 0.3016591E-02 0.3016591E-02 0.3016591E-02 0.3016591E-02          
 0.3016591E-02 0.3016591E-02 0.3016591E-02 0.3016591E-02 0.3016591E-02          
 0.3016591E-02 0.3016591E-02 0.3016591E-02 0.1508296E-02 0.1508296E-02          
 0.0000000E+00 0.0000000E+00 0.0000000E+00 0.0000000E+00 0.0000000E+00          
 0.0000000E+00 0.0000000E+00 0.0000000E+00 0.0000000E+00 0.0000000E+00          
 0.0000000E+00 0.0000000E+00 0.0000000E+00 0.0000000E+00 0.0000000E+00          
 0.0000000E+00 0.0000000E+00 0.0000000E+00 0.0000000E+00 0.0000000E+00          
 0.0000000E+00 0.0000000E+00 0.0000000E+00 0.0000000E+00 0.0000000E+00          
 0.0000000E+00 0.0000000E+00 0.0000000E+00 0.0000000E+00 0.0000000E+00          
 0.0000000E+00 0.0000000E+00 0.0000000E+00 0.0000000E+00 0.0000000E+00          
 0.0000000E+00 0.0000000E+00 0.0000000E+00 0.0000000E+00 0.0000000E+00          
 0.0000000E+00 0.0000000E+00 0.0000000E+00 0.0000000E+00 0.0000000E+00          
 0.0000000E+00 0.0000000E+00 0.0000000E+00 0.0000000E+00 0.0000000E+00          
 0.0000000E+00 0.0000000E+00 0.0000000E+00 0.0000000E+00 0.0000000E+00          
 0.0000000E+00 0.0000000E+00 0.0000000E+00 0.0000000E+00 0.0000000E+00          
 0.0000000E+00 0.0000000E+00 0.0000000E+00 0.0000000E+00 0.0000000E+00          
 0.0000000E+00 0.0000000E+00 0.0000000E+00 0.0000000E+00 0.0000000E+00          
 0.0000000E+00 0.0000000E+00 0.0000000E+00 0.0000000E+00 0.0000000E+00          
 0.0000000E+00 0.0000000E+00 0.0000000E+00 0.0000000E+00 0.0000000E+00          
 0.0000000E+00 0.0000000E+00 0.0000000E+00 0.0000000E+00 0.0000000E+00          
 0.0000000E+00 0.0000000E+00 0.0000000E+00 0.0000000E+00 0.0000000E+00          
 0.0000000E+00 0.0000000E+00 0.0000000E+00 0.0000000E+00 0.0000000E+00          
 0.0000000E+00 0.0000000E+00 0.0000000E+00 0.0000000E+00 0.0000000E+00          
 0.0000000E+00 0.0000000E+00 0.0000000E+00 0.0000000E+00 0.0000000E+00          
 0.0000000E+00 0.0000000E+00 0.0000000E+00 0.0000000E+00 0.0000000E+00          
 0.0000000E+00 0.0000000E+00 0.0000000E+00 0.0000000E+00 0.0000000E+00          
 0.0000000E+00 0.0000000E+00 0.0000000E+00 0.0000000E+00 0.0000000E+00          
 0.0000000E+00 0.0000000E+00 0.0000000E+00 0.0000000E+00 0.0000000E+00          
 0.0000000E+00 0.0000000E+00 0.0000000E+00 0.0000000E+00 0.0000000E+00          
 0.0000000E+00 0.0000000E+00 0.0000000E+00 0.0000000E+00 0.0000000E+00          
 0.0000000E+00 0.0000000E+00 0.0000000E+00 0.0000000E+00 0.0000000E+00          
 0.0000000E+00 0.0000000E+00 0.0000000E+00 0.0000000E+00 0.0000000E+00          
  1.000000     0.9234948     0.8478950     0.7849706     0.7084653              
 0.6419194     0.5735627     0.5106383     0.4517881     0.4033499              
 0.3490267     0.3019466     0.2634676     0.2272521     0.2000905              
 0.1738343     0.1462200     0.1213219     0.1054776     0.9008598E-01          
 0.7922137E-01 0.6835669E-01 0.5703938E-01 0.4708010E-01 0.3893167E-01          
 0.3485739E-01 0.3214127E-01 0.2851969E-01 0.2580351E-01 0.2218199E-01          
 0.1991850E-01 0.1856041E-01 0.1720238E-01 0.1584429E-01 0.1403350E-01          
 0.1312810E-01 0.1222271E-01 0.1177001E-01 0.1131731E-01 0.1131731E-01          
 0.1131731E-01 0.1086462E-01 0.1086462E-01 0.9506583E-02 0.9506583E-02          
 0.9506583E-02 0.9053886E-02 0.8601189E-02 0.8601189E-02 0.8148491E-02          
 0.8148491E-02 0.8148491E-02 0.8148491E-02 0.8148491E-02 0.8148491E-02          
 0.8148491E-02 0.7695794E-02 0.7243097E-02 0.7243097E-02 0.7243097E-02          
 0.7243097E-02 0.7243097E-02 0.7243097E-02 0.7243097E-02 0.7243097E-02          
 0.6337702E-02 0.6337702E-02 0.5885005E-02 0.5885005E-02 0.5885005E-02          
 0.5885005E-02 0.5432308E-02 0.5432308E-02 0.5432308E-02 0.5432308E-02          
 0.5432308E-02 0.5432308E-02 0.5432308E-02 0.5432308E-02 0.5432308E-02          
 0.5432308E-02 0.4979610E-02 0.4979610E-02 0.4979610E-02 0.4979610E-02          
 0.4979610E-02 0.4979610E-02 0.4526913E-02 0.4526913E-02 0.4526913E-02          
 0.4526913E-02 0.4526913E-02 0.4074216E-02 0.4074216E-02 0.4074216E-02          
 0.4074216E-02 0.4074216E-02 0.4074216E-02 0.4074216E-02 0.4074216E-02          
 0.4074216E-02 0.4074216E-02 0.4074216E-02 0.4074216E-02 0.3621519E-02          
 0.3621519E-02 0.3621519E-02 0.3621519E-02 0.3621519E-02 0.3621519E-02          
 0.3621519E-02 0.3621519E-02 0.3621519E-02 0.3621519E-02 0.3621519E-02          
 0.3168881E-02 0.3168881E-02 0.3168881E-02 0.3168881E-02 0.2716184E-02          
 0.2716184E-02 0.2716184E-02 0.2716184E-02 0.2263486E-02 0.2263486E-02          
 0.2263486E-02 0.2263486E-02 0.2263486E-02 0.2263486E-02 0.2263486E-02          
 0.2263486E-02 0.2263486E-02 0.2263486E-02 0.2263486E-02 0.2263486E-02          
 0.2263486E-02 0.2263486E-02 0.1810789E-02 0.1358092E-02 0.1358092E-02          
 0.1358092E-02 0.1358092E-02 0.1358092E-02 0.1358092E-02 0.1358092E-02          
 0.1358092E-02 0.1358092E-02 0.1358092E-02 0.1358092E-02 0.1358092E-02          
 0.1358092E-02 0.1358092E-02 0.1358092E-02 0.1358092E-02 0.1358092E-02          
 0.9053946E-03 0.9053946E-03 0.9053946E-03 0.9053946E-03 0.9053946E-03          
 0.9053946E-03 0.9053946E-03 0.9053946E-03 0.9053946E-03 0.9053946E-03          
 0.9053946E-03 0.9053946E-03 0.9053946E-03 0.9053946E-03 0.9053946E-03          
 0.9053946E-03 0.9053946E-03 0.9053946E-03 0.9053946E-03 0.9053946E-03          
 0.9053946E-03 0.9053946E-03 0.9053946E-03 0.9053946E-03 0.9053946E-03          
 0.9053946E-03 0.9053946E-03 0.9053946E-03 0.9053946E-03 0.9053946E-03          
 0.9053946E-03 0.4526973E-03 0.4526973E-03 0.4526973E-03 0.4526973E-03          
 0.4526973E-03 0.4526973E-03 0.4526973E-03 0.4526973E-03 0.4526973E-03          
 0.4526973E-03 0.4526973E-03 0.4526973E-03 0.4526973E-03 0.4526973E-03          
 0.4526973E-03 0.4526973E-03 0.4526973E-03 0.0000000E+00 0.0000000E+00          
 0.0000000E+00 0.0000000E+00 0.0000000E+00 0.0000000E+00 0.0000000E+00          
 0.0000000E+00 0.0000000E+00 0.0000000E+00 0.0000000E+00 0.0000000E+00          
 0.0000000E+00 0.0000000E+00 0.0000000E+00 0.0000000E+00 0.0000000E+00          
 0.0000000E+00 0.0000000E+00 0.0000000E+00 0.0000000E+00 0.0000000E+00          
 0.0000000E+00 0.0000000E+00 0.0000000E+00 0.0000000E+00 0.0000000E+00          
 0.0000000E+00 0.0000000E+00 0.0000000E+00 0.0000000E+00 0.0000000E+00          
 0.0000000E+00 0.0000000E+00 0.0000000E+00 0.0000000E+00 0.0000000E+00          
 0.0000000E+00 0.0000000E+00 0.0000000E+00 0.0000000E+00 0.0000000E+00          
 0.0000000E+00 0.0000000E+00 0.0000000E+00 0.0000000E+00 0.0000000E+00          
 0.0000000E+00 0.0000000E+00 0.0000000E+00 0.0000000E+00 0.0000000E+00          
 0.0000000E+00 0.0000000E+00 0.0000000E+00 0.0000000E+00 0.0000000E+00          
 0.0000000E+00 0.0000000E+00 0.0000000E+00 0.0000000E+00 0.0000000E+00          
 0.0000000E+00 0.0000000E+00 0.0000000E+00 0.0000000E+00 0.0000000E+00          
 0.0000000E+00 0.0000000E+00 0.0000000E+00 0.0000000E+00 0.0000000E+00          
 0.0000000E+00 0.0000000E+00 0.0000000E+00 0.0000000E+00 0.0000000E+00          
 0.0000000E+00 0.0000000E+00 0.0000000E+00 0.0000000E+00 0.0000000E+00          
 0.0000000E+00 0.0000000E+00 0.0000000E+00 0.0000000E+00 0.0000000E+00          
 0.0000000E+00 0.0000000E+00 0.0000000E+00 0.0000000E+00 0.0000000E+00          
 0.0000000E+00 0.0000000E+00 0.0000000E+00 0.0000000E+00 0.0000000E+00          
 0.0000000E+00 0.0000000E+00 0.0000000E+00 0.0000000E+00 0.0000000E+00          
 0.0000000E+00 0.0000000E+00 0.0000000E+00 0.0000000E+00 0.0000000E+00          
 0.0000000E+00 0.0000000E+00 0.0000000E+00 0.0000000E+00 0.0000000E+00          
 0.0000000E+00 0.0000000E+00 0.0000000E+00 0.0000000E+00 0.0000000E+00          
 0.0000000E+00 0.0000000E+00 0.0000000E+00 0.0000000E+00 0.0000000E+00          
 0.0000000E+00 0.0000000E+00 0.0000000E+00 0.0000000E+00 0.0000000E+00          
 0.0000000E+00 0.0000000E+00 0.0000000E+00 0.0000000E+00 0.0000000E+00          
 0.0000000E+00 0.0000000E+00 0.0000000E+00 0.0000000E+00 0.0000000E+00          
 0.0000000E+00 0.0000000E+00 0.0000000E+00 0.0000000E+00 0.0000000E+00          
 0.0000000E+00 0.0000000E+00 0.0000000E+00 0.0000000E+00 0.0000000E+00          
 0.0000000E+00 0.0000000E+00 0.0000000E+00 0.0000000E+00 0.0000000E+00          
 0.0000000E+00 0.0000000E+00 0.0000000E+00 0.0000000E+00 0.0000000E+00          
 0.0000000E+00 0.0000000E+00 0.0000000E+00 0.0000000E+00 0.0000000E+00          
 0.0000000E+00 0.0000000E+00 0.0000000E+00 0.0000000E+00 0.0000000E+00          
 0.0000000E+00 0.0000000E+00 0.0000000E+00 0.0000000E+00 0.0000000E+00          
 0.0000000E+00 0.0000000E+00 0.0000000E+00 0.0000000E+00 0.0000000E+00          
 0.0000000E+00 0.0000000E+00 0.0000000E+00 0.0000000E+00 0.0000000E+00          
 0.0000000E+00 0.0000000E+00 0.0000000E+00 0.0000000E+00 0.0000000E+00          
 0.0000000E+00 0.0000000E+00 0.0000000E+00 0.0000000E+00 0.0000000E+00          
 0.0000000E+00 0.0000000E+00 0.0000000E+00 0.0000000E+00 0.0000000E+00          
  1.000000     0.9218373     0.8490964     0.7707831     0.6989458              
 0.6310241     0.5637048     0.5070783     0.4483434     0.3977410              
 0.3484940     0.3039157     0.2599397     0.2215362     0.1903614              
 0.1609940     0.1337349     0.1134036     0.9623492E-01 0.8328313E-01          
 0.6882530E-01 0.5783135E-01 0.4774094E-01 0.3870481E-01 0.3283131E-01          
 0.2816266E-01 0.2379519E-01 0.2078313E-01 0.1716870E-01 0.1475906E-01          
 0.1325303E-01 0.1174700E-01 0.1114458E-01 0.1039159E-01 0.9789169E-02          
 0.8734941E-02 0.8584321E-02 0.8283138E-02 0.7530093E-02 0.7228911E-02          
 0.6777108E-02 0.6174684E-02 0.5722880E-02 0.5722880E-02 0.5421698E-02          
 0.5271077E-02 0.5120456E-02 0.5120456E-02 0.5120456E-02 0.4819274E-02          
 0.4668653E-02 0.4518092E-02 0.4216850E-02 0.4216850E-02 0.3915668E-02          
 0.3765047E-02 0.3614485E-02 0.3614485E-02 0.3463864E-02 0.3313243E-02          
 0.3313243E-02 0.3313243E-02 0.3012061E-02 0.2861440E-02 0.2861440E-02          
 0.2710819E-02 0.2710819E-02 0.2710819E-02 0.2710819E-02 0.2409637E-02          
 0.2259016E-02 0.2259016E-02 0.2259016E-02 0.2259016E-02 0.2259016E-02          
 0.2259016E-02 0.2259016E-02 0.2259016E-02 0.2259016E-02 0.2259016E-02          
 0.2259016E-02 0.2108455E-02 0.2108455E-02 0.2108455E-02 0.1957834E-02          
 0.1957834E-02 0.1957834E-02 0.1807213E-02 0.1807213E-02 0.1807213E-02          
 0.1807213E-02 0.1656651E-02 0.1656651E-02 0.1506031E-02 0.1355410E-02          
 0.1204848E-02 0.1204848E-02 0.1054227E-02 0.9036064E-03 0.9036064E-03          
 0.9036064E-03 0.9036064E-03 0.9036064E-03 0.9036064E-03 0.7529855E-03          
 0.6024241E-03 0.6024241E-03 0.6024241E-03 0.6024241E-03 0.6024241E-03          
 0.4518032E-03 0.4518032E-03 0.4518032E-03 0.4518032E-03 0.4518032E-03          
 0.4518032E-03 0.4518032E-03 0.3011823E-03 0.3011823E-03 0.3011823E-03          
 0.3011823E-03 0.3011823E-03 0.3011823E-03 0.3011823E-03 0.3011823E-03          
 0.3011823E-03 0.3011823E-03 0.3011823E-03 0.1506209E-03 0.1506209E-03          
 0.1506209E-03 0.1506209E-03 0.1506209E-03 0.1506209E-03 0.1506209E-03          
 0.1506209E-03 0.1506209E-03 0.1506209E-03 0.1506209E-03 0.1506209E-03          
 0.1506209E-03 0.1506209E-03 0.1506209E-03 0.1506209E-03 0.1506209E-03          
 0.1506209E-03 0.1506209E-03 0.1506209E-03 0.1506209E-03 0.1506209E-03          
 0.1506209E-03 0.1506209E-03 0.1506209E-03 0.1506209E-03 0.1506209E-03          
 0.1506209E-03 0.1506209E-03 0.1506209E-03 0.1506209E-03 0.1506209E-03          
 0.1506209E-03 0.1506209E-03 0.1506209E-03 0.1506209E-03 0.1506209E-03          
 0.1506209E-03 0.1506209E-03 0.1506209E-03 0.1506209E-03 0.1506209E-03          
 0.1506209E-03 0.1506209E-03 0.1506209E-03 0.1506209E-03 0.1506209E-03          
 0.1506209E-03 0.1506209E-03 0.1506209E-03 0.1506209E-03 0.1506209E-03          
 0.1506209E-03 0.1506209E-03 0.1506209E-03 0.1506209E-03 0.1506209E-03          
 0.1506209E-03 0.1506209E-03 0.1506209E-03 0.1506209E-03 0.1506209E-03          
 0.1506209E-03 0.1506209E-03 0.1506209E-03 0.1506209E-03 0.1506209E-03          
 0.1506209E-03 0.1506209E-03 0.1506209E-03 0.1506209E-03 0.1506209E-03          
 0.1506209E-03 0.1506209E-03 0.1506209E-03 0.1506209E-03 0.1506209E-03          
 0.1506209E-03 0.1506209E-03 0.1506209E-03 0.1506209E-03 0.1506209E-03          
 0.1506209E-03 0.1506209E-03 0.1506209E-03 0.1506209E-03 0.1506209E-03          
 0.1506209E-03 0.1506209E-03 0.1506209E-03 0.1506209E-03 0.1506209E-03          
 0.1506209E-03 0.1506209E-03 0.1506209E-03 0.1506209E-03 0.1506209E-03          
 0.1506209E-03 0.1506209E-03 0.1506209E-03 0.1506209E-03 0.1506209E-03          
 0.1506209E-03 0.1506209E-03 0.1506209E-03 0.1506209E-03 0.1506209E-03          
 0.1506209E-03 0.1506209E-03 0.1506209E-03 0.1506209E-03 0.1506209E-03          
 0.1506209E-03 0.1506209E-03 0.1506209E-03 0.1506209E-03 0.1506209E-03          
 0.1506209E-03 0.1506209E-03 0.1506209E-03 0.1506209E-03 0.1506209E-03          
 0.1506209E-03 0.1506209E-03 0.1506209E-03 0.1506209E-03 0.1506209E-03          
 0.1506209E-03 0.1506209E-03 0.1506209E-03 0.1506209E-03 0.1506209E-03          
 0.1506209E-03 0.1506209E-03 0.1506209E-03 0.1506209E-03 0.1506209E-03          
 0.1506209E-03 0.1506209E-03 0.1506209E-03 0.1506209E-03 0.1506209E-03          
 0.1506209E-03 0.1506209E-03 0.1506209E-03 0.1506209E-03 0.1506209E-03          
 0.1506209E-03 0.1506209E-03 0.1506209E-03 0.1506209E-03 0.1506209E-03          
 0.1506209E-03 0.1506209E-03 0.1506209E-03 0.1506209E-03 0.1506209E-03          
 0.1506209E-03 0.1506209E-03 0.1506209E-03 0.1506209E-03 0.1506209E-03          
 0.1506209E-03 0.1506209E-03 0.1506209E-03 0.1506209E-03 0.1506209E-03          
 0.1506209E-03 0.1506209E-03 0.1506209E-03 0.1506209E-03 0.1506209E-03          
 0.1506209E-03 0.1506209E-03 0.1506209E-03 0.1506209E-03 0.1506209E-03          
 0.1506209E-03 0.1506209E-03 0.1506209E-03 0.1506209E-03 0.1506209E-03          
 0.1506209E-03 0.1506209E-03 0.1506209E-03 0.1506209E-03 0.1506209E-03          
 0.1506209E-03 0.1506209E-03 0.1506209E-03 0.1506209E-03 0.1506209E-03          
 0.1506209E-03 0.1506209E-03 0.1506209E-03 0.1506209E-03 0.1506209E-03          
 0.1506209E-03 0.1506209E-03 0.1506209E-03 0.1506209E-03 0.1506209E-03          
 0.1506209E-03 0.1506209E-03 0.1506209E-03 0.1506209E-03 0.1506209E-03          
 0.1506209E-03 0.1506209E-03 0.1506209E-03 0.1506209E-03 0.1506209E-03          
 0.1506209E-03 0.1506209E-03 0.1506209E-03 0.1506209E-03 0.1506209E-03          
 0.1506209E-03 0.1506209E-03 0.1506209E-03 0.1506209E-03 0.1506209E-03          
 0.1506209E-03 0.1506209E-03 0.1506209E-03 0.1506209E-03 0.1506209E-03          
 0.1506209E-03 0.1506209E-03 0.1506209E-03 0.1506209E-03 0.1506209E-03          
 0.1506209E-03 0.1506209E-03 0.1506209E-03 0.1506209E-03 0.1506209E-03          
 0.1506209E-03 0.1506209E-03 0.1506209E-03 0.0000000E+00 0.0000000E+00          
 0.0000000E+00 0.0000000E+00 0.0000000E+00 0.0000000E+00 0.0000000E+00          
 0.0000000E+00 0.0000000E+00 0.0000000E+00 0.0000000E+00 0.0000000E+00          
 0.0000000E+00 0.0000000E+00 0.0000000E+00 0.0000000E+00 0.0000000E+00          
 0.0000000E+00 0.0000000E+00 0.0000000E+00 0.0000000E+00 0.0000000E+00          
 0.0000000E+00 0.0000000E+00 0.0000000E+00 0.0000000E+00 0.0000000E+00          
 0.0000000E+00 0.0000000E+00 0.0000000E+00 0.0000000E+00 0.0000000E+00          
  1.000000     0.9092646     0.8070678     0.7258835     0.6647564              
 0.6064948     0.5472779     0.4890162     0.4336199     0.3715377              
 0.3132761     0.2722063     0.2320917     0.2005731     0.1719198              
 0.1423114     0.1193888     0.1002865     0.7927412E-01 0.6399238E-01          
 0.4775548E-01 0.4106975E-01 0.3247374E-01 0.2578795E-01 0.1910222E-01          
 0.1432663E-01 0.9551108E-02 0.9551108E-02 0.7640898E-02 0.5730689E-02          
 0.5730689E-02 0.4775524E-02 0.3820419E-02 0.3820419E-02 0.3820419E-02          
 0.3820419E-02 0.3820419E-02 0.3820419E-02 0.3820419E-02 0.3820419E-02          
 0.3820419E-02 0.3820419E-02 0.2865314E-02 0.2865314E-02 0.2865314E-02          
 0.2865314E-02 0.2865314E-02 0.2865314E-02 0.2865314E-02 0.1910210E-02          
 0.1910210E-02 0.9551048E-03 0.9551048E-03 0.9551048E-03 0.9551048E-03          
 0.9551048E-03 0.9551048E-03 0.9551048E-03 0.9551048E-03 0.9551048E-03          
 0.0000000E+00 0.0000000E+00 0.0000000E+00 0.0000000E+00 0.0000000E+00          
 0.0000000E+00 0.0000000E+00 0.0000000E+00 0.0000000E+00 0.0000000E+00          
 0.0000000E+00 0.0000000E+00 0.0000000E+00 0.0000000E+00 0.0000000E+00          
 0.0000000E+00 0.0000000E+00 0.0000000E+00 0.0000000E+00 0.0000000E+00          
 0.0000000E+00 0.0000000E+00 0.0000000E+00 0.0000000E+00 0.0000000E+00          
 0.0000000E+00 0.0000000E+00 0.0000000E+00 0.0000000E+00 0.0000000E+00          
 0.0000000E+00 0.0000000E+00 0.0000000E+00 0.0000000E+00 0.0000000E+00          
 0.0000000E+00 0.0000000E+00 0.0000000E+00 0.0000000E+00 0.0000000E+00          
 0.0000000E+00 0.0000000E+00 0.0000000E+00 0.0000000E+00 0.0000000E+00          
 0.0000000E+00 0.0000000E+00 0.0000000E+00 0.0000000E+00 0.0000000E+00          
 0.0000000E+00 0.0000000E+00 0.0000000E+00 0.0000000E+00 0.0000000E+00          
 0.0000000E+00 0.0000000E+00 0.0000000E+00 0.0000000E+00 0.0000000E+00          
 0.0000000E+00 0.0000000E+00 0.0000000E+00 0.0000000E+00 0.0000000E+00          
 0.0000000E+00 0.0000000E+00 0.0000000E+00 0.0000000E+00 0.0000000E+00          
 0.0000000E+00 0.0000000E+00 0.0000000E+00 0.0000000E+00 0.0000000E+00          
 0.0000000E+00 0.0000000E+00 0.0000000E+00 0.0000000E+00 0.0000000E+00          
 0.0000000E+00 0.0000000E+00 0.0000000E+00 0.0000000E+00 0.0000000E+00          
 0.0000000E+00 0.0000000E+00 0.0000000E+00 0.0000000E+00 0.0000000E+00          
 0.0000000E+00 0.0000000E+00 0.0000000E+00 0.0000000E+00 0.0000000E+00          
 0.0000000E+00 0.0000000E+00 0.0000000E+00 0.0000000E+00 0.0000000E+00          
 0.0000000E+00 0.0000000E+00 0.0000000E+00 0.0000000E+00 0.0000000E+00          
 0.0000000E+00 0.0000000E+00 0.0000000E+00 0.0000000E+00 0.0000000E+00          
 0.0000000E+00 0.0000000E+00 0.0000000E+00 0.0000000E+00 0.0000000E+00          
 0.0000000E+00 0.0000000E+00 0.0000000E+00 0.0000000E+00 0.0000000E+00          
 0.0000000E+00 0.0000000E+00 0.0000000E+00 0.0000000E+00 0.0000000E+00          
 0.0000000E+00 0.0000000E+00 0.0000000E+00 0.0000000E+00 0.0000000E+00          
 0.0000000E+00 0.0000000E+00 0.0000000E+00 0.0000000E+00 0.0000000E+00          
 0.0000000E+00 0.0000000E+00 0.0000000E+00 0.0000000E+00 0.0000000E+00          
 0.0000000E+00 0.0000000E+00 0.0000000E+00 0.0000000E+00 0.0000000E+00          
 0.0000000E+00 0.0000000E+00 0.0000000E+00 0.0000000E+00 0.0000000E+00          
 0.0000000E+00 0.0000000E+00 0.0000000E+00 0.0000000E+00 0.0000000E+00          
 0.0000000E+00 0.0000000E+00 0.0000000E+00 0.0000000E+00 0.0000000E+00          
 0.0000000E+00 0.0000000E+00 0.0000000E+00 0.0000000E+00 0.0000000E+00          
 0.0000000E+00 0.0000000E+00 0.0000000E+00 0.0000000E+00 0.0000000E+00          
 0.0000000E+00 0.0000000E+00 0.0000000E+00 0.0000000E+00 0.0000000E+00          
 0.0000000E+00 0.0000000E+00 0.0000000E+00 0.0000000E+00 0.0000000E+00          
 0.0000000E+00 0.0000000E+00 0.0000000E+00 0.0000000E+00 0.0000000E+00          
 0.0000000E+00 0.0000000E+00 0.0000000E+00 0.0000000E+00 0.0000000E+00          
 0.0000000E+00 0.0000000E+00 0.0000000E+00 0.0000000E+00 0.0000000E+00          
 0.0000000E+00 0.0000000E+00 0.0000000E+00 0.0000000E+00 0.0000000E+00          
 0.0000000E+00 0.0000000E+00 0.0000000E+00 0.0000000E+00 0.0000000E+00          
 0.0000000E+00 0.0000000E+00 0.0000000E+00 0.0000000E+00 0.0000000E+00          
 0.0000000E+00 0.0000000E+00 0.0000000E+00 0.0000000E+00 0.0000000E+00          
 0.0000000E+00 0.0000000E+00 0.0000000E+00 0.0000000E+00 0.0000000E+00          
 0.0000000E+00 0.0000000E+00 0.0000000E+00 0.0000000E+00 0.0000000E+00          
 0.0000000E+00 0.0000000E+00 0.0000000E+00 0.0000000E+00 0.0000000E+00          
 0.0000000E+00 0.0000000E+00 0.0000000E+00 0.0000000E+00 0.0000000E+00          
 0.0000000E+00 0.0000000E+00 0.0000000E+00 0.0000000E+00 0.0000000E+00          
 0.0000000E+00 0.0000000E+00 0.0000000E+00 0.0000000E+00 0.0000000E+00          
 0.0000000E+00 0.0000000E+00 0.0000000E+00 0.0000000E+00 0.0000000E+00          
 0.0000000E+00 0.0000000E+00 0.0000000E+00 0.0000000E+00 0.0000000E+00          
 0.0000000E+00 0.0000000E+00 0.0000000E+00 0.0000000E+00 0.0000000E+00          
 0.0000000E+00 0.0000000E+00 0.0000000E+00 0.0000000E+00 0.0000000E+00          
 0.0000000E+00 0.0000000E+00 0.0000000E+00 0.0000000E+00 0.0000000E+00          
 0.0000000E+00 0.0000000E+00 0.0000000E+00 0.0000000E+00 0.0000000E+00          
 0.0000000E+00 0.0000000E+00 0.0000000E+00 0.0000000E+00 0.0000000E+00          
 0.0000000E+00 0.0000000E+00 0.0000000E+00 0.0000000E+00 0.0000000E+00          
 0.0000000E+00 0.0000000E+00 0.0000000E+00 0.0000000E+00 0.0000000E+00          
 0.0000000E+00 0.0000000E+00 0.0000000E+00 0.0000000E+00 0.0000000E+00          
 0.0000000E+00 0.0000000E+00 0.0000000E+00 0.0000000E+00 0.0000000E+00          
 0.0000000E+00 0.0000000E+00 0.0000000E+00 0.0000000E+00 0.0000000E+00          
 0.0000000E+00 0.0000000E+00 0.0000000E+00 0.0000000E+00 0.0000000E+00          
 0.0000000E+00 0.0000000E+00 0.0000000E+00 0.0000000E+00 0.0000000E+00          
 0.0000000E+00 0.0000000E+00 0.0000000E+00 0.0000000E+00 0.0000000E+00          
 0.0000000E+00 0.0000000E+00 0.0000000E+00 0.0000000E+00 0.0000000E+00          
 0.0000000E+00 0.0000000E+00 0.0000000E+00 0.0000000E+00 0.0000000E+00          
 0.0000000E+00 0.0000000E+00 0.0000000E+00 0.0000000E+00 0.0000000E+00          
 0.0000000E+00 0.0000000E+00 0.0000000E+00 0.0000000E+00 0.0000000E+00          
