  1.000000     0.9262547     0.8532255     0.7791222     0.7095296              
 0.6410109     0.5812988     0.5248085     0.4671726     0.4149781              
 0.3718050     0.3262691     0.2918307     0.2568197     0.2241713              
 0.1979666     0.1759862     0.1546503     0.1375385     0.1224315              
 0.1076824     0.9744400E-01 0.8620322E-01 0.7832748E-01 0.7152575E-01          
 0.6536835E-01 0.6007016E-01 0.5577433E-01 0.5233765E-01 0.4761225E-01          
 0.4338801E-01 0.4124004E-01 0.3880578E-01 0.3644305E-01 0.3400874E-01          
 0.3229040E-01 0.3050047E-01 0.2906853E-01 0.2799457E-01 0.2684897E-01          
 0.2584666E-01 0.2498746E-01 0.2384192E-01 0.2269638E-01 0.2198040E-01          
 0.2083480E-01 0.2019048E-01 0.1940286E-01 0.1883012E-01 0.1847214E-01          
 0.1754135E-01 0.1675379E-01 0.1639581E-01 0.1603782E-01 0.1575142E-01          
 0.1532185E-01 0.1460588E-01 0.1439106E-01 0.1403308E-01 0.1360351E-01          
 0.1338869E-01 0.1267272E-01 0.1238632E-01 0.1202834E-01 0.1159877E-01          
 0.1131237E-01 0.1109761E-01 0.1073962E-01 0.1066798E-01 0.1059639E-01          
 0.1009524E-01 0.9952009E-02 0.9808838E-02 0.9808838E-02 0.9737253E-02          
 0.9594023E-02 0.9379268E-02 0.9021282E-02 0.8806467E-02 0.8520067E-02          
 0.8448482E-02 0.8162081E-02 0.8018911E-02 0.7732511E-02 0.7446110E-02          
 0.7088125E-02 0.6873369E-02 0.6730139E-02 0.6586969E-02 0.6443739E-02          
 0.6157398E-02 0.6085753E-02 0.6014168E-02 0.6014168E-02 0.5870998E-02          
 0.5799413E-02 0.5584598E-02 0.5513012E-02 0.5369782E-02 0.5298197E-02          
 0.5226612E-02 0.5155027E-02 0.5083382E-02 0.4940212E-02 0.4797041E-02          
 0.4653811E-02 0.4510641E-02 0.4510641E-02 0.4510641E-02 0.4439056E-02          
 0.4295826E-02 0.4295826E-02 0.4152656E-02 0.4152656E-02 0.4009426E-02          
 0.3794670E-02 0.3794670E-02 0.3794670E-02 0.3794670E-02 0.3794670E-02          
 0.3723085E-02 0.3651440E-02 0.3651440E-02 0.3651440E-02 0.3651440E-02          
 0.3579855E-02 0.3579855E-02 0.3579855E-02 0.3436685E-02 0.3436685E-02          
 0.3365099E-02 0.3221869E-02 0.3150284E-02 0.3078699E-02 0.3007114E-02          
 0.2935469E-02 0.2792299E-02 0.2649128E-02 0.2649128E-02 0.2649128E-02          
 0.2505898E-02 0.2434313E-02 0.2362728E-02 0.2362728E-02 0.2362728E-02          
 0.2362728E-02 0.2362728E-02 0.2362728E-02 0.2362728E-02 0.2291143E-02          
 0.2291143E-02 0.2291143E-02 0.2291143E-02 0.2219498E-02 0.2219498E-02          
 0.2076328E-02 0.2004743E-02 0.2004743E-02 0.1933157E-02 0.1933157E-02          
 0.1933157E-02 0.1789927E-02 0.1718342E-02 0.1646757E-02 0.1646757E-02          
 0.1575112E-02 0.1575112E-02 0.1575112E-02 0.1575112E-02 0.1503527E-02          
 0.1431942E-02 0.1288772E-02 0.1288772E-02 0.1288772E-02 0.1288772E-02          
 0.1217127E-02 0.1217127E-02 0.1217127E-02 0.1217127E-02 0.1217127E-02          
 0.1145542E-02 0.1145542E-02 0.1145542E-02 0.1145542E-02 0.1145542E-02          
 0.1145542E-02 0.1073956E-02 0.1073956E-02 0.1073956E-02 0.1073956E-02          
 0.1073956E-02 0.1073956E-02 0.1073956E-02 0.1073956E-02 0.1073956E-02          
 0.1002371E-02 0.1002371E-02 0.1002371E-02 0.1002371E-02 0.1002371E-02          
 0.1002371E-02 0.9307861E-03 0.9307861E-03 0.8591413E-03 0.8591413E-03          
 0.8591413E-03 0.8591413E-03 0.8591413E-03 0.8591413E-03 0.8591413E-03          
 0.8591413E-03 0.8591413E-03 0.8591413E-03 0.7875562E-03 0.7875562E-03          
 0.7875562E-03 0.7875562E-03 0.7159710E-03 0.7159710E-03 0.7159710E-03          
 0.7159710E-03 0.7159710E-03 0.6443858E-03 0.6443858E-03 0.6443858E-03          
 0.6443858E-03 0.6443858E-03 0.6443858E-03 0.5728006E-03 0.5728006E-03          
 0.5728006E-03 0.5728006E-03 0.5728006E-03 0.5011559E-03 0.5011559E-03          
 0.5011559E-03 0.5011559E-03 0.5011559E-03 0.5011559E-03 0.5011559E-03          
 0.5011559E-03 0.5011559E-03 0.5011559E-03 0.4295707E-03 0.4295707E-03          
 0.4295707E-03 0.4295707E-03 0.4295707E-03 0.4295707E-03 0.4295707E-03          
 0.4295707E-03 0.4295707E-03 0.4295707E-03 0.4295707E-03 0.4295707E-03          
 0.4295707E-03 0.3579855E-03 0.3579855E-03 0.3579855E-03 0.3579855E-03          
 0.3579855E-03 0.3579855E-03 0.3579855E-03 0.3579855E-03 0.3579855E-03          
 0.3579855E-03 0.3579855E-03 0.3579855E-03 0.3579855E-03 0.3579855E-03          
 0.3579855E-03 0.3579855E-03 0.3579855E-03 0.3579855E-03 0.3579855E-03          
 0.3579855E-03 0.3579855E-03 0.3579855E-03 0.3579855E-03 0.3579855E-03          
 0.3579855E-03 0.3579855E-03 0.3579855E-03 0.3579855E-03 0.3579855E-03          
 0.3579855E-03 0.3579855E-03 0.2864003E-03 0.2864003E-03 0.2864003E-03          
 0.2864003E-03 0.2864003E-03 0.2864003E-03 0.2864003E-03 0.2148151E-03          
 0.2148151E-03 0.2148151E-03 0.2148151E-03 0.2148151E-03 0.2148151E-03          
 0.2148151E-03 0.2148151E-03 0.2148151E-03 0.2148151E-03 0.2148151E-03          
 0.2148151E-03 0.2148151E-03 0.2148151E-03 0.2148151E-03 0.1431704E-03          
 0.1431704E-03 0.1431704E-03 0.1431704E-03 0.1431704E-03 0.1431704E-03          
 0.1431704E-03 0.1431704E-03 0.1431704E-03 0.1431704E-03 0.1431704E-03          
 0.1431704E-03 0.1431704E-03 0.1431704E-03 0.1431704E-03 0.1431704E-03          
 0.1431704E-03 0.1431704E-03 0.1431704E-03 0.1431704E-03 0.1431704E-03          
 0.1431704E-03 0.1431704E-03 0.1431704E-03 0.1431704E-03 0.1431704E-03          
 0.1431704E-03 0.1431704E-03 0.1431704E-03 0.1431704E-03 0.1431704E-03          
 0.1431704E-03 0.1431704E-03 0.1431704E-03 0.1431704E-03 0.1431704E-03          
 0.1431704E-03 0.1431704E-03 0.1431704E-03 0.1431704E-03 0.1431704E-03          
 0.1431704E-03 0.1431704E-03 0.1431704E-03 0.1431704E-03 0.1431704E-03          
 0.1431704E-03 0.1431704E-03 0.1431704E-03 0.1431704E-03 0.1431704E-03          
 0.1431704E-03 0.1431704E-03 0.1431704E-03 0.1431704E-03 0.1431704E-03          
 0.1431704E-03 0.1431704E-03 0.1431704E-03 0.1431704E-03 0.1431704E-03          
 0.1431704E-03 0.1431704E-03 0.1431704E-03 0.1431704E-03 0.1431704E-03          
 0.1431704E-03 0.1431704E-03 0.1431704E-03 0.1431704E-03 0.1431704E-03          
 0.1431704E-03 0.1431704E-03 0.1431704E-03 0.1431704E-03 0.1431704E-03          
 0.1431704E-03 0.1431704E-03 0.1431704E-03 0.1431704E-03 0.1431704E-03          
 0.1431704E-03 0.1431704E-03 0.1431704E-03 0.1431704E-03 0.1431704E-03          
 0.1431704E-03 0.1431704E-03 0.1431704E-03 0.1431704E-03 0.1431704E-03          
  1.000000     0.9268889     0.8597778     0.7913333     0.7246667              
 0.6604444     0.6004444     0.5408889     0.4851111     0.4373333              
 0.3942222     0.3582222     0.3240000     0.2931111     0.2646667              
 0.2417778     0.2157778     0.1962222     0.1773334     0.1593333              
 0.1453333     0.1355556     0.1253333     0.1146666     0.1071111              
 0.1008889     0.9444445E-01 0.8955556E-01 0.8577776E-01 0.7955557E-01          
 0.7644445E-01 0.7311112E-01 0.6933331E-01 0.6711113E-01 0.6400001E-01          
 0.6133336E-01 0.5911112E-01 0.5777776E-01 0.5644447E-01 0.5422223E-01          
 0.5266666E-01 0.5022222E-01 0.4822224E-01 0.4644442E-01 0.4533333E-01          
 0.4444444E-01 0.4422224E-01 0.4311109E-01 0.4244447E-01 0.4177779E-01          
 0.4066664E-01 0.3933334E-01 0.3844446E-01 0.3733331E-01 0.3666669E-01          
 0.3555554E-01 0.3466666E-01 0.3399998E-01 0.3355557E-01 0.3288889E-01          
 0.3244442E-01 0.3155553E-01 0.3111112E-01 0.3066665E-01 0.3044444E-01          
 0.2999997E-01 0.2955556E-01 0.2911109E-01 0.2866668E-01 0.2733332E-01          
 0.2644444E-01 0.2555555E-01 0.2511114E-01 0.2466667E-01 0.2422220E-01          
 0.2399999E-01 0.2377778E-01 0.2355558E-01 0.2333331E-01 0.2288890E-01          
 0.2288890E-01 0.2222222E-01 0.2155554E-01 0.2155554E-01 0.2111113E-01          
 0.2088886E-01 0.2066666E-01 0.1911110E-01 0.1888889E-01 0.1844442E-01          
 0.1844442E-01 0.1755553E-01 0.1711112E-01 0.1666665E-01 0.1577777E-01          
 0.1577777E-01 0.1533335E-01 0.1511109E-01 0.1511109E-01 0.1511109E-01          
 0.1511109E-01 0.1466668E-01 0.1444447E-01 0.1444447E-01 0.1422220E-01          
 0.1400000E-01 0.1400000E-01 0.1400000E-01 0.1355553E-01 0.1355553E-01          
 0.1355553E-01 0.1355553E-01 0.1355553E-01 0.1333332E-01 0.1333332E-01          
 0.1311111E-01 0.1311111E-01 0.1288891E-01 0.1266664E-01 0.1266664E-01          
 0.1266664E-01 0.1244444E-01 0.1244444E-01 0.1222223E-01 0.1155555E-01          
 0.1155555E-01 0.1133335E-01 0.1088887E-01 0.1066667E-01 0.1066667E-01          
 0.1044446E-01 0.1044446E-01 0.1044446E-01 0.1022220E-01 0.9999990E-02          
 0.9999990E-02 0.9777784E-02 0.9777784E-02 0.9555578E-02 0.9555578E-02          
 0.9555578E-02 0.9555578E-02 0.9555578E-02 0.9111106E-02 0.8888900E-02          
 0.8666694E-02 0.8666694E-02 0.8666694E-02 0.8666694E-02 0.8444428E-02          
 0.8444428E-02 0.8444428E-02 0.8444428E-02 0.8444428E-02 0.8222222E-02          
 0.8222222E-02 0.8222222E-02 0.8222222E-02 0.8222222E-02 0.8222222E-02          
 0.8000016E-02 0.7777750E-02 0.7777750E-02 0.7555544E-02 0.7333338E-02          
 0.7111132E-02 0.6888866E-02 0.6888866E-02 0.6888866E-02 0.6888866E-02          
 0.6888866E-02 0.6666660E-02 0.6666660E-02 0.6666660E-02 0.6666660E-02          
 0.6666660E-02 0.6666660E-02 0.6666660E-02 0.6666660E-02 0.6666660E-02          
 0.6666660E-02 0.6444454E-02 0.6444454E-02 0.6444454E-02 0.6444454E-02          
 0.6444454E-02 0.6444454E-02 0.6444454E-02 0.6444454E-02 0.6444454E-02          
 0.6444454E-02 0.6222248E-02 0.6222248E-02 0.6222248E-02 0.6222248E-02          
 0.6222248E-02 0.6222248E-02 0.5999982E-02 0.5999982E-02 0.5777776E-02          
 0.5777776E-02 0.5777776E-02 0.5777776E-02 0.5777776E-02 0.5777776E-02          
 0.5555570E-02 0.5555570E-02 0.5555570E-02 0.5555570E-02 0.5555570E-02          
 0.5555570E-02 0.5555570E-02 0.5555570E-02 0.5555570E-02 0.5555570E-02          
 0.5555570E-02 0.5555570E-02 0.5555570E-02 0.5555570E-02 0.5555570E-02          
 0.5333304E-02 0.5111098E-02 0.5111098E-02 0.5111098E-02 0.5111098E-02          
 0.5111098E-02 0.5111098E-02 0.5111098E-02 0.5111098E-02 0.5111098E-02          
 0.5111098E-02 0.5111098E-02 0.5111098E-02 0.5111098E-02 0.5111098E-02          
 0.5111098E-02 0.5111098E-02 0.4888892E-02 0.4666686E-02 0.4666686E-02          
 0.4666686E-02 0.4666686E-02 0.4666686E-02 0.4666686E-02 0.4666686E-02          
 0.4666686E-02 0.4666686E-02 0.4666686E-02 0.4666686E-02 0.4444420E-02          
 0.4444420E-02 0.4444420E-02 0.4444420E-02 0.4222214E-02 0.4222214E-02          
 0.4222214E-02 0.4222214E-02 0.4222214E-02 0.4222214E-02 0.4222214E-02          
 0.4222214E-02 0.4222214E-02 0.4000008E-02 0.4000008E-02 0.4000008E-02          
 0.3777802E-02 0.3777802E-02 0.3777802E-02 0.3555536E-02 0.3555536E-02          
 0.3555536E-02 0.3555536E-02 0.3555536E-02 0.3555536E-02 0.3555536E-02          
 0.3333330E-02 0.3333330E-02 0.3111124E-02 0.3111124E-02 0.3111124E-02          
 0.3111124E-02 0.3111124E-02 0.3111124E-02 0.3111124E-02 0.3111124E-02          
 0.3111124E-02 0.3111124E-02 0.3111124E-02 0.3111124E-02 0.3111124E-02          
 0.3111124E-02 0.3111124E-02 0.3111124E-02 0.3111124E-02 0.3111124E-02          
 0.2888918E-02 0.2888918E-02 0.2888918E-02 0.2888918E-02 0.2888918E-02          
 0.2444446E-02 0.2444446E-02 0.2444446E-02 0.2444446E-02 0.2444446E-02          
 0.2222240E-02 0.2222240E-02 0.2222240E-02 0.1999974E-02 0.1999974E-02          
 0.1999974E-02 0.1999974E-02 0.1999974E-02 0.1999974E-02 0.1777768E-02          
 0.1777768E-02 0.1777768E-02 0.1777768E-02 0.1777768E-02 0.1777768E-02          
 0.1777768E-02 0.1777768E-02 0.1777768E-02 0.1555562E-02 0.1333356E-02          
 0.1333356E-02 0.1333356E-02 0.1333356E-02 0.1333356E-02 0.1333356E-02          
 0.1333356E-02 0.1333356E-02 0.1333356E-02 0.1333356E-02 0.1333356E-02          
 0.1333356E-02 0.1333356E-02 0.1333356E-02 0.1333356E-02 0.1333356E-02          
 0.1333356E-02 0.1333356E-02 0.1333356E-02 0.1333356E-02 0.1333356E-02          
 0.1333356E-02 0.1333356E-02 0.1333356E-02 0.1333356E-02 0.1333356E-02          
 0.1333356E-02 0.1333356E-02 0.1333356E-02 0.1333356E-02 0.1333356E-02          
 0.1333356E-02 0.1333356E-02 0.1333356E-02 0.1111090E-02 0.8888841E-03          
 0.8888841E-03 0.8888841E-03 0.8888841E-03 0.8888841E-03 0.8888841E-03          
 0.8888841E-03 0.8888841E-03 0.8888841E-03 0.8888841E-03 0.8888841E-03          
 0.8888841E-03 0.8888841E-03 0.6666780E-03 0.6666780E-03 0.6666780E-03          
 0.6666780E-03 0.6666780E-03 0.6666780E-03 0.6666780E-03 0.6666780E-03          
 0.6666780E-03 0.6666780E-03 0.6666780E-03 0.6666780E-03 0.6666780E-03          
 0.6666780E-03 0.4444718E-03 0.4444718E-03 0.4444718E-03 0.4444718E-03          
 0.4444718E-03 0.4444718E-03 0.4444718E-03 0.4444718E-03 0.4444718E-03          
 0.4444718E-03 0.4444718E-03 0.4444718E-03 0.4444718E-03 0.4444718E-03          
  1.000000     0.9362187     0.8564920     0.7767653     0.7266515              
 0.6617312     0.5979499     0.5296128     0.4817768     0.4328018              
 0.3997722     0.3633257     0.3314351     0.3006834     0.2801822              
 0.2539864     0.2209567     0.2050114     0.1890661     0.1753986              
 0.1617312     0.1492027     0.1435080     0.1343964     0.1275626              
 0.1195900     0.1150342     0.1138952     0.1104783     0.1070615              
 0.1002278     0.9794986E-01 0.9681094E-01 0.9111619E-01 0.8997720E-01          
 0.8769929E-01 0.8542138E-01 0.8200455E-01 0.7858771E-01 0.7630980E-01          
 0.7289296E-01 0.6947607E-01 0.6833714E-01 0.6719816E-01 0.6719816E-01          
 0.6605923E-01 0.6492025E-01 0.6492025E-01 0.6264240E-01 0.6150341E-01          
 0.5808657E-01 0.5466968E-01 0.5466968E-01 0.5125284E-01 0.5125284E-01          
 0.5011392E-01 0.4897493E-01 0.4783601E-01 0.4783601E-01 0.4669702E-01          
 0.4555809E-01 0.4555809E-01 0.4328018E-01 0.4100227E-01 0.4100227E-01          
 0.3872436E-01 0.3530753E-01 0.3416854E-01 0.3302962E-01 0.3075171E-01          
 0.3075171E-01 0.3075171E-01 0.3075171E-01 0.2961278E-01 0.2847379E-01          
 0.2619588E-01 0.2619588E-01 0.2505696E-01 0.2505696E-01 0.2391797E-01          
 0.2277905E-01 0.2277905E-01 0.2277905E-01 0.2277905E-01 0.2277905E-01          
 0.2164006E-01 0.2164006E-01 0.2050114E-01 0.2050114E-01 0.2050114E-01          
 0.2050114E-01 0.1936221E-01 0.1936221E-01 0.1822323E-01 0.1822323E-01          
 0.1822323E-01 0.1480639E-01 0.1480639E-01 0.1480639E-01 0.1480639E-01          
 0.1480639E-01 0.1480639E-01 0.1480639E-01 0.1480639E-01 0.1480639E-01          
 0.1480639E-01 0.1366740E-01 0.1366740E-01 0.1366740E-01 0.1366740E-01          
 0.1366740E-01 0.1366740E-01 0.1366740E-01 0.1366740E-01 0.1366740E-01          
 0.1366740E-01 0.1252848E-01 0.1138949E-01 0.1138949E-01 0.1138949E-01          
 0.9111643E-02 0.9111643E-02 0.9111643E-02 0.9111643E-02 0.9111643E-02          
 0.9111643E-02 0.9111643E-02 0.9111643E-02 0.9111643E-02 0.9111643E-02          
 0.7972658E-02 0.7972658E-02 0.7972658E-02 0.7972658E-02 0.7972658E-02          
 0.7972658E-02 0.7972658E-02 0.7972658E-02 0.7972658E-02 0.7972658E-02          
 0.7972658E-02 0.7972658E-02 0.7972658E-02 0.7972658E-02 0.7972658E-02          
 0.7972658E-02 0.7972658E-02 0.7972658E-02 0.7972658E-02 0.7972658E-02          
 0.7972658E-02 0.7972658E-02 0.7972658E-02 0.7972658E-02 0.7972658E-02          
 0.7972658E-02 0.7972658E-02 0.6833732E-02 0.6833732E-02 0.5694747E-02          
 0.5694747E-02 0.4555821E-02 0.4555821E-02 0.4555821E-02 0.4555821E-02          
 0.4555821E-02 0.4555821E-02 0.4555821E-02 0.4555821E-02 0.4555821E-02          
 0.4555821E-02 0.4555821E-02 0.4555821E-02 0.4555821E-02 0.4555821E-02          
 0.4555821E-02 0.4555821E-02 0.4555821E-02 0.3416836E-02 0.3416836E-02          
 0.3416836E-02 0.3416836E-02 0.2277911E-02 0.2277911E-02 0.2277911E-02          
 0.2277911E-02 0.2277911E-02 0.2277911E-02 0.2277911E-02 0.2277911E-02          
 0.2277911E-02 0.2277911E-02 0.2277911E-02 0.2277911E-02 0.2277911E-02          
 0.2277911E-02 0.2277911E-02 0.2277911E-02 0.2277911E-02 0.2277911E-02          
 0.2277911E-02 0.2277911E-02 0.2277911E-02 0.2277911E-02 0.2277911E-02          
 0.2277911E-02 0.2277911E-02 0.2277911E-02 0.2277911E-02 0.2277911E-02          
 0.2277911E-02 0.2277911E-02 0.2277911E-02 0.2277911E-02 0.2277911E-02          
 0.2277911E-02 0.2277911E-02 0.2277911E-02 0.2277911E-02 0.2277911E-02          
 0.2277911E-02 0.2277911E-02 0.2277911E-02 0.2277911E-02 0.2277911E-02          
 0.2277911E-02 0.2277911E-02 0.2277911E-02 0.2277911E-02 0.2277911E-02          
 0.2277911E-02 0.1138926E-02 0.1138926E-02 0.1138926E-02 0.1138926E-02          
 0.1138926E-02 0.1138926E-02 0.1138926E-02 0.1138926E-02 0.1138926E-02          
 0.1138926E-02 0.1138926E-02 0.1138926E-02 0.1138926E-02 0.1138926E-02          
 0.1138926E-02 0.1138926E-02 0.1138926E-02 0.1138926E-02 0.1138926E-02          
 0.1138926E-02 0.1138926E-02 0.1138926E-02 0.1138926E-02 0.1138926E-02          
 0.1138926E-02 0.1138926E-02 0.1138926E-02 0.1138926E-02 0.1138926E-02          
 0.1138926E-02 0.1138926E-02 0.1138926E-02 0.1138926E-02 0.1138926E-02          
 0.1138926E-02 0.1138926E-02 0.1138926E-02 0.1138926E-02 0.1138926E-02          
 0.1138926E-02 0.1138926E-02 0.1138926E-02 0.1138926E-02 0.1138926E-02          
 0.1138926E-02 0.0000000E+00 0.0000000E+00 0.0000000E+00 0.0000000E+00          
 0.0000000E+00 0.0000000E+00 0.0000000E+00 0.0000000E+00 0.0000000E+00          
 0.0000000E+00 0.0000000E+00 0.0000000E+00 0.0000000E+00 0.0000000E+00          
 0.0000000E+00 0.0000000E+00 0.0000000E+00 0.0000000E+00 0.0000000E+00          
 0.0000000E+00 0.0000000E+00 0.0000000E+00 0.0000000E+00 0.0000000E+00          
 0.0000000E+00 0.0000000E+00 0.0000000E+00 0.0000000E+00 0.0000000E+00          
 0.0000000E+00 0.0000000E+00 0.0000000E+00 0.0000000E+00 0.0000000E+00          
 0.0000000E+00 0.0000000E+00 0.0000000E+00 0.0000000E+00 0.0000000E+00          
 0.0000000E+00 0.0000000E+00 0.0000000E+00 0.0000000E+00 0.0000000E+00          
 0.0000000E+00 0.0000000E+00 0.0000000E+00 0.0000000E+00 0.0000000E+00          
 0.0000000E+00 0.0000000E+00 0.0000000E+00 0.0000000E+00 0.0000000E+00          
 0.0000000E+00 0.0000000E+00 0.0000000E+00 0.0000000E+00 0.0000000E+00          
 0.0000000E+00 0.0000000E+00 0.0000000E+00 0.0000000E+00 0.0000000E+00          
 0.0000000E+00 0.0000000E+00 0.0000000E+00 0.0000000E+00 0.0000000E+00          
 0.0000000E+00 0.0000000E+00 0.0000000E+00 0.0000000E+00 0.0000000E+00          
 0.0000000E+00 0.0000000E+00 0.0000000E+00 0.0000000E+00 0.0000000E+00          
 0.0000000E+00 0.0000000E+00 0.0000000E+00 0.0000000E+00 0.0000000E+00          
 0.0000000E+00 0.0000000E+00 0.0000000E+00 0.0000000E+00 0.0000000E+00          
 0.0000000E+00 0.0000000E+00 0.0000000E+00 0.0000000E+00 0.0000000E+00          
 0.0000000E+00 0.0000000E+00 0.0000000E+00 0.0000000E+00 0.0000000E+00          
 0.0000000E+00 0.0000000E+00 0.0000000E+00 0.0000000E+00 0.0000000E+00          
 0.0000000E+00 0.0000000E+00 0.0000000E+00 0.0000000E+00 0.0000000E+00          
 0.0000000E+00 0.0000000E+00 0.0000000E+00 0.0000000E+00 0.0000000E+00          
 0.0000000E+00 0.0000000E+00 0.0000000E+00 0.0000000E+00 0.0000000E+00          
 0.0000000E+00 0.0000000E+00 0.0000000E+00 0.0000000E+00 0.0000000E+00          
  1.000000     0.9259468     0.8575466     0.7868853     0.7198982              
 0.6512154     0.5822499     0.5169587     0.4570379     0.4084228              
 0.3609384     0.3069531     0.2637083     0.2255512     0.1924816              
 0.1659129     0.1404749     0.1178632     0.9864330E-01 0.8168459E-01          
 0.6698698E-01 0.5483323E-01 0.4635388E-01 0.3872246E-01 0.3363484E-01          
 0.2854723E-01 0.2515548E-01 0.2232897E-01 0.2204633E-01 0.2119839E-01          
 0.1893723E-01 0.1639342E-01 0.1554549E-01 0.1384962E-01 0.1243639E-01          
 0.1187110E-01 0.1130581E-01 0.1102316E-01 0.1017523E-01 0.9892583E-02          
 0.9044647E-02 0.9044647E-02 0.8479357E-02 0.7348776E-02 0.7348776E-02          
 0.7348776E-02 0.6783485E-02 0.6500840E-02 0.5935550E-02 0.5652905E-02          
 0.5370259E-02 0.5370259E-02 0.5370259E-02 0.5087614E-02 0.5087614E-02          
 0.5087614E-02 0.5087614E-02 0.4522324E-02 0.4522324E-02 0.4522324E-02          
 0.4239678E-02 0.4239678E-02 0.3957033E-02 0.3674388E-02 0.3674388E-02          
 0.3674388E-02 0.3674388E-02 0.3674388E-02 0.3674388E-02 0.3674388E-02          
 0.3674388E-02 0.3674388E-02 0.3674388E-02 0.3674388E-02 0.3674388E-02          
 0.3674388E-02 0.3674388E-02 0.3674388E-02 0.3674388E-02 0.3674388E-02          
 0.3674388E-02 0.3674388E-02 0.3674388E-02 0.3674388E-02 0.3674388E-02          
 0.3674388E-02 0.3391743E-02 0.3109097E-02 0.3109097E-02 0.3109097E-02          
 0.2826452E-02 0.2826452E-02 0.2826452E-02 0.2826452E-02 0.2826452E-02          
 0.2826452E-02 0.2826452E-02 0.2826452E-02 0.2543807E-02 0.2543807E-02          
 0.2543807E-02 0.2261162E-02 0.2261162E-02 0.2261162E-02 0.2261162E-02          
 0.2261162E-02 0.2261162E-02 0.2261162E-02 0.2261162E-02 0.2261162E-02          
 0.2261162E-02 0.1978517E-02 0.1978517E-02 0.1695871E-02 0.1695871E-02          
 0.1695871E-02 0.1695871E-02 0.1695871E-02 0.1695871E-02 0.1695871E-02          
 0.1695871E-02 0.1413226E-02 0.1413226E-02 0.1413226E-02 0.1130581E-02          
 0.1130581E-02 0.1130581E-02 0.1130581E-02 0.1130581E-02 0.1130581E-02          
 0.1130581E-02 0.1130581E-02 0.1130581E-02 0.1130581E-02 0.1130581E-02          
 0.1130581E-02 0.1130581E-02 0.1130581E-02 0.1130581E-02 0.1130581E-02          
 0.1130581E-02 0.1130581E-02 0.1130581E-02 0.1130581E-02 0.1130581E-02          
 0.1130581E-02 0.1130581E-02 0.1130581E-02 0.1130581E-02 0.1130581E-02          
 0.1130581E-02 0.1130581E-02 0.1130581E-02 0.1130581E-02 0.1130581E-02          
 0.8479357E-03 0.8479357E-03 0.8479357E-03 0.8479357E-03 0.8479357E-03          
 0.8479357E-03 0.8479357E-03 0.8479357E-03 0.8479357E-03 0.8479357E-03          
 0.5652905E-03 0.5652905E-03 0.5652905E-03 0.5652905E-03 0.5652905E-03          
 0.5652905E-03 0.5652905E-03 0.5652905E-03 0.5652905E-03 0.5652905E-03          
 0.5652905E-03 0.5652905E-03 0.5652905E-03 0.5652905E-03 0.5652905E-03          
 0.5652905E-03 0.5652905E-03 0.5652905E-03 0.5652905E-03 0.5652905E-03          
 0.5652905E-03 0.5652905E-03 0.5652905E-03 0.5652905E-03 0.5652905E-03          
 0.5652905E-03 0.5652905E-03 0.5652905E-03 0.5652905E-03 0.5652905E-03          
 0.5652905E-03 0.2826452E-03 0.2826452E-03 0.2826452E-03 0.2826452E-03          
 0.2826452E-03 0.2826452E-03 0.2826452E-03 0.2826452E-03 0.2826452E-03          
 0.2826452E-03 0.2826452E-03 0.2826452E-03 0.2826452E-03 0.2826452E-03          
 0.2826452E-03 0.2826452E-03 0.2826452E-03 0.2826452E-03 0.2826452E-03          
 0.2826452E-03 0.2826452E-03 0.0000000E+00 0.0000000E+00 0.0000000E+00          
 0.0000000E+00 0.0000000E+00 0.0000000E+00 0.0000000E+00 0.0000000E+00          
 0.0000000E+00 0.0000000E+00 0.0000000E+00 0.0000000E+00 0.0000000E+00          
 0.0000000E+00 0.0000000E+00 0.0000000E+00 0.0000000E+00 0.0000000E+00          
 0.0000000E+00 0.0000000E+00 0.0000000E+00 0.0000000E+00 0.0000000E+00          
 0.0000000E+00 0.0000000E+00 0.0000000E+00 0.0000000E+00 0.0000000E+00          
 0.0000000E+00 0.0000000E+00 0.0000000E+00 0.0000000E+00 0.0000000E+00          
 0.0000000E+00 0.0000000E+00 0.0000000E+00 0.0000000E+00 0.0000000E+00          
 0.0000000E+00 0.0000000E+00 0.0000000E+00 0.0000000E+00 0.0000000E+00          
 0.0000000E+00 0.0000000E+00 0.0000000E+00 0.0000000E+00 0.0000000E+00          
 0.0000000E+00 0.0000000E+00 0.0000000E+00 0.0000000E+00 0.0000000E+00          
 0.0000000E+00 0.0000000E+00 0.0000000E+00 0.0000000E+00 0.0000000E+00          
 0.0000000E+00 0.0000000E+00 0.0000000E+00 0.0000000E+00 0.0000000E+00          
 0.0000000E+00 0.0000000E+00 0.0000000E+00 0.0000000E+00 0.0000000E+00          
 0.0000000E+00 0.0000000E+00 0.0000000E+00 0.0000000E+00 0.0000000E+00          
 0.0000000E+00 0.0000000E+00 0.0000000E+00 0.0000000E+00 0.0000000E+00          
 0.0000000E+00 0.0000000E+00 0.0000000E+00 0.0000000E+00 0.0000000E+00          
 0.0000000E+00 0.0000000E+00 0.0000000E+00 0.0000000E+00 0.0000000E+00          
 0.0000000E+00 0.0000000E+00 0.0000000E+00 0.0000000E+00 0.0000000E+00          
 0.0000000E+00 0.0000000E+00 0.0000000E+00 0.0000000E+00 0.0000000E+00          
 0.0000000E+00 0.0000000E+00 0.0000000E+00 0.0000000E+00 0.0000000E+00          
 0.0000000E+00 0.0000000E+00 0.0000000E+00 0.0000000E+00 0.0000000E+00          
 0.0000000E+00 0.0000000E+00 0.0000000E+00 0.0000000E+00 0.0000000E+00          
 0.0000000E+00 0.0000000E+00 0.0000000E+00 0.0000000E+00 0.0000000E+00          
 0.0000000E+00 0.0000000E+00 0.0000000E+00 0.0000000E+00 0.0000000E+00          
 0.0000000E+00 0.0000000E+00 0.0000000E+00 0.0000000E+00 0.0000000E+00          
 0.0000000E+00 0.0000000E+00 0.0000000E+00 0.0000000E+00 0.0000000E+00          
 0.0000000E+00 0.0000000E+00 0.0000000E+00 0.0000000E+00 0.0000000E+00          
 0.0000000E+00 0.0000000E+00 0.0000000E+00 0.0000000E+00 0.0000000E+00          
 0.0000000E+00 0.0000000E+00 0.0000000E+00 0.0000000E+00 0.0000000E+00          
 0.0000000E+00 0.0000000E+00 0.0000000E+00 0.0000000E+00 0.0000000E+00          
 0.0000000E+00 0.0000000E+00 0.0000000E+00 0.0000000E+00 0.0000000E+00          
 0.0000000E+00 0.0000000E+00 0.0000000E+00 0.0000000E+00 0.0000000E+00          
 0.0000000E+00 0.0000000E+00 0.0000000E+00 0.0000000E+00 0.0000000E+00          
 0.0000000E+00 0.0000000E+00 0.0000000E+00 0.0000000E+00 0.0000000E+00          
 0.0000000E+00 0.0000000E+00 0.0000000E+00 0.0000000E+00 0.0000000E+00          
 0.0000000E+00 0.0000000E+00 0.0000000E+00 0.0000000E+00 0.0000000E+00          
  1.000000     0.9219381     0.8490803     0.7771198     0.7068641              
 0.6379542     0.5687752     0.5104531     0.4536564     0.3975774              
 0.3474204     0.3040826     0.2623598     0.2256618     0.1933603              
 0.1647375     0.1380888     0.1177210     0.1005832     0.8640647E-01          
 0.7447284E-01 0.6334680E-01 0.5518168E-01 0.4549128E-01 0.3983849E-01          
 0.3463435E-01 0.2871245E-01 0.2386719E-01 0.2000898E-01 0.1722747E-01          
 0.1606101E-01 0.1408702E-01 0.1327950E-01 0.1184386E-01 0.1094663E-01          
 0.9869874E-02 0.9600699E-02 0.9062350E-02 0.8344531E-02 0.7895947E-02          
 0.7357538E-02 0.6550014E-02 0.6370544E-02 0.6280839E-02 0.5921960E-02          
 0.5652785E-02 0.5383551E-02 0.4845202E-02 0.4486322E-02 0.4037678E-02          
 0.3678799E-02 0.3589034E-02 0.3499329E-02 0.3319860E-02 0.3230155E-02          
 0.3230155E-02 0.3050685E-02 0.3050685E-02 0.3050685E-02 0.2871215E-02          
 0.2871215E-02 0.2781510E-02 0.2691805E-02 0.2602041E-02 0.2512336E-02          
 0.2422631E-02 0.2332866E-02 0.2153456E-02 0.2063692E-02 0.1973987E-02          
 0.1884282E-02 0.1884282E-02 0.1884282E-02 0.1794517E-02 0.1794517E-02          
 0.1704812E-02 0.1704812E-02 0.1615047E-02 0.1525342E-02 0.1435637E-02          
 0.1345873E-02 0.1345873E-02 0.1345873E-02 0.1345873E-02 0.1345873E-02          
 0.1256168E-02 0.1256168E-02 0.1256168E-02 0.1256168E-02 0.1256168E-02          
 0.1256168E-02 0.1256168E-02 0.1256168E-02 0.1256168E-02 0.1256168E-02          
 0.1166463E-02 0.1166463E-02 0.1166463E-02 0.1166463E-02 0.1076698E-02          
 0.9869933E-03 0.9869933E-03 0.9869933E-03 0.9869933E-03 0.9869933E-03          
 0.9869933E-03 0.9869933E-03 0.9869933E-03 0.9869933E-03 0.8972883E-03          
 0.8075237E-03 0.8075237E-03 0.8075237E-03 0.8075237E-03 0.7178187E-03          
 0.7178187E-03 0.7178187E-03 0.7178187E-03 0.7178187E-03 0.7178187E-03          
 0.7178187E-03 0.7178187E-03 0.7178187E-03 0.7178187E-03 0.7178187E-03          
 0.7178187E-03 0.7178187E-03 0.7178187E-03 0.6281137E-03 0.6281137E-03          
 0.5383492E-03 0.5383492E-03 0.5383492E-03 0.5383492E-03 0.5383492E-03          
 0.5383492E-03 0.5383492E-03 0.5383492E-03 0.4486442E-03 0.4486442E-03          
 0.4486442E-03 0.4486442E-03 0.4486442E-03 0.4486442E-03 0.4486442E-03          
 0.3588796E-03 0.3588796E-03 0.3588796E-03 0.3588796E-03 0.3588796E-03          
 0.3588796E-03 0.3588796E-03 0.3588796E-03 0.3588796E-03 0.3588796E-03          
 0.3588796E-03 0.3588796E-03 0.3588796E-03 0.3588796E-03 0.3588796E-03          
 0.3588796E-03 0.3588796E-03 0.3588796E-03 0.3588796E-03 0.3588796E-03          
 0.3588796E-03 0.2691746E-03 0.2691746E-03 0.2691746E-03 0.2691746E-03          
 0.2691746E-03 0.2691746E-03 0.2691746E-03 0.2691746E-03 0.2691746E-03          
 0.1794696E-03 0.1794696E-03 0.1794696E-03 0.1794696E-03 0.1794696E-03          
 0.1794696E-03 0.1794696E-03 0.1794696E-03 0.1794696E-03 0.1794696E-03          
 0.1794696E-03 0.1794696E-03 0.1794696E-03 0.1794696E-03 0.1794696E-03          
 0.1794696E-03 0.1794696E-03 0.1794696E-03 0.1794696E-03 0.1794696E-03          
 0.1794696E-03 0.1794696E-03 0.1794696E-03 0.1794696E-03 0.1794696E-03          
 0.1794696E-03 0.1794696E-03 0.1794696E-03 0.1794696E-03 0.1794696E-03          
 0.1794696E-03 0.1794696E-03 0.1794696E-03 0.1794696E-03 0.1794696E-03          
 0.1794696E-03 0.1794696E-03 0.1794696E-03 0.1794696E-03 0.1794696E-03          
 0.1794696E-03 0.1794696E-03 0.1794696E-03 0.1794696E-03 0.1794696E-03          
 0.1794696E-03 0.1794696E-03 0.1794696E-03 0.1794696E-03 0.1794696E-03          
 0.1794696E-03 0.1794696E-03 0.1794696E-03 0.1794696E-03 0.1794696E-03          
 0.1794696E-03 0.1794696E-03 0.1794696E-03 0.1794696E-03 0.1794696E-03          
 0.1794696E-03 0.1794696E-03 0.1794696E-03 0.1794696E-03 0.1794696E-03          
 0.1794696E-03 0.1794696E-03 0.1794696E-03 0.1794696E-03 0.1794696E-03          
 0.1794696E-03 0.1794696E-03 0.1794696E-03 0.1794696E-03 0.1794696E-03          
 0.1794696E-03 0.1794696E-03 0.1794696E-03 0.1794696E-03 0.1794696E-03          
 0.1794696E-03 0.1794696E-03 0.1794696E-03 0.1794696E-03 0.1794696E-03          
 0.1794696E-03 0.1794696E-03 0.1794696E-03 0.1794696E-03 0.1794696E-03          
 0.1794696E-03 0.1794696E-03 0.1794696E-03 0.1794696E-03 0.1794696E-03          
 0.1794696E-03 0.1794696E-03 0.1794696E-03 0.1794696E-03 0.1794696E-03          
 0.1794696E-03 0.1794696E-03 0.1794696E-03 0.1794696E-03 0.1794696E-03          
 0.1794696E-03 0.1794696E-03 0.1794696E-03 0.1794696E-03 0.1794696E-03          
 0.1794696E-03 0.1794696E-03 0.1794696E-03 0.1794696E-03 0.1794696E-03          
 0.1794696E-03 0.1794696E-03 0.1794696E-03 0.1794696E-03 0.1794696E-03          
 0.1794696E-03 0.1794696E-03 0.1794696E-03 0.1794696E-03 0.1794696E-03          
 0.1794696E-03 0.1794696E-03 0.1794696E-03 0.1794696E-03 0.1794696E-03          
 0.1794696E-03 0.1794696E-03 0.1794696E-03 0.1794696E-03 0.1794696E-03          
 0.1794696E-03 0.8970499E-04 0.8970499E-04 0.8970499E-04 0.8970499E-04          
 0.8970499E-04 0.8970499E-04 0.8970499E-04 0.8970499E-04 0.0000000E+00          
 0.0000000E+00 0.0000000E+00 0.0000000E+00 0.0000000E+00 0.0000000E+00          
 0.0000000E+00 0.0000000E+00 0.0000000E+00 0.0000000E+00 0.0000000E+00          
 0.0000000E+00 0.0000000E+00 0.0000000E+00 0.0000000E+00 0.0000000E+00          
 0.0000000E+00 0.0000000E+00 0.0000000E+00 0.0000000E+00 0.0000000E+00          
 0.0000000E+00 0.0000000E+00 0.0000000E+00 0.0000000E+00 0.0000000E+00          
 0.0000000E+00 0.0000000E+00 0.0000000E+00 0.0000000E+00 0.0000000E+00          
 0.0000000E+00 0.0000000E+00 0.0000000E+00 0.0000000E+00 0.0000000E+00          
 0.0000000E+00 0.0000000E+00 0.0000000E+00 0.0000000E+00 0.0000000E+00          
 0.0000000E+00 0.0000000E+00 0.0000000E+00 0.0000000E+00 0.0000000E+00          
 0.0000000E+00 0.0000000E+00 0.0000000E+00 0.0000000E+00 0.0000000E+00          
 0.0000000E+00 0.0000000E+00 0.0000000E+00 0.0000000E+00 0.0000000E+00          
 0.0000000E+00 0.0000000E+00 0.0000000E+00 0.0000000E+00 0.0000000E+00          
 0.0000000E+00 0.0000000E+00 0.0000000E+00 0.0000000E+00 0.0000000E+00          
 0.0000000E+00 0.0000000E+00 0.0000000E+00 0.0000000E+00 0.0000000E+00          
 0.0000000E+00 0.0000000E+00 0.0000000E+00 0.0000000E+00 0.0000000E+00          
 0.0000000E+00 0.0000000E+00 0.0000000E+00 0.0000000E+00 0.0000000E+00          
  1.000000     0.9296167     0.8459930     0.7665505     0.6961672              
 0.6236933     0.5470383     0.4926829     0.4327526     0.3763066              
 0.3303136     0.2794425     0.2348432     0.2013937     0.1728223              
 0.1400697     0.1198606     0.1031359     0.8641118E-01 0.6411147E-01          
 0.5087107E-01 0.4250872E-01 0.3693378E-01 0.3135890E-01 0.2578396E-01          
 0.1881534E-01 0.1463413E-01 0.1393729E-01 0.1184666E-01 0.8362353E-02          
 0.8362353E-02 0.6968617E-02 0.4181206E-02 0.3484309E-02 0.3484309E-02          
 0.2787471E-02 0.1393735E-02 0.1393735E-02 0.1393735E-02 0.1393735E-02          
 0.1393735E-02 0.1393735E-02 0.1393735E-02 0.1393735E-02 0.1393735E-02          
 0.1393735E-02 0.1393735E-02 0.1393735E-02 0.1393735E-02 0.1393735E-02          
 0.6968379E-03 0.6968379E-03 0.6968379E-03 0.6968379E-03 0.6968379E-03          
 0.6968379E-03 0.6968379E-03 0.6968379E-03 0.6968379E-03 0.6968379E-03          
 0.6968379E-03 0.6968379E-03 0.0000000E+00 0.0000000E+00 0.0000000E+00          
 0.0000000E+00 0.0000000E+00 0.0000000E+00 0.0000000E+00 0.0000000E+00          
 0.0000000E+00 0.0000000E+00 0.0000000E+00 0.0000000E+00 0.0000000E+00          
 0.0000000E+00 0.0000000E+00 0.0000000E+00 0.0000000E+00 0.0000000E+00          
 0.0000000E+00 0.0000000E+00 0.0000000E+00 0.0000000E+00 0.0000000E+00          
 0.0000000E+00 0.0000000E+00 0.0000000E+00 0.0000000E+00 0.0000000E+00          
 0.0000000E+00 0.0000000E+00 0.0000000E+00 0.0000000E+00 0.0000000E+00          
 0.0000000E+00 0.0000000E+00 0.0000000E+00 0.0000000E+00 0.0000000E+00          
 0.0000000E+00 0.0000000E+00 0.0000000E+00 0.0000000E+00 0.0000000E+00          
 0.0000000E+00 0.0000000E+00 0.0000000E+00 0.0000000E+00 0.0000000E+00          
 0.0000000E+00 0.0000000E+00 0.0000000E+00 0.0000000E+00 0.0000000E+00          
 0.0000000E+00 0.0000000E+00 0.0000000E+00 0.0000000E+00 0.0000000E+00          
 0.0000000E+00 0.0000000E+00 0.0000000E+00 0.0000000E+00 0.0000000E+00          
 0.0000000E+00 0.0000000E+00 0.0000000E+00 0.0000000E+00 0.0000000E+00          
 0.0000000E+00 0.0000000E+00 0.0000000E+00 0.0000000E+00 0.0000000E+00          
 0.0000000E+00 0.0000000E+00 0.0000000E+00 0.0000000E+00 0.0000000E+00          
 0.0000000E+00 0.0000000E+00 0.0000000E+00 0.0000000E+00 0.0000000E+00          
 0.0000000E+00 0.0000000E+00 0.0000000E+00 0.0000000E+00 0.0000000E+00          
 0.0000000E+00 0.0000000E+00 0.0000000E+00 0.0000000E+00 0.0000000E+00          
 0.0000000E+00 0.0000000E+00 0.0000000E+00 0.0000000E+00 0.0000000E+00          
 0.0000000E+00 0.0000000E+00 0.0000000E+00 0.0000000E+00 0.0000000E+00          
 0.0000000E+00 0.0000000E+00 0.0000000E+00 0.0000000E+00 0.0000000E+00          
 0.0000000E+00 0.0000000E+00 0.0000000E+00 0.0000000E+00 0.0000000E+00          
 0.0000000E+00 0.0000000E+00 0.0000000E+00 0.0000000E+00 0.0000000E+00          
 0.0000000E+00 0.0000000E+00 0.0000000E+00 0.0000000E+00 0.0000000E+00          
 0.0000000E+00 0.0000000E+00 0.0000000E+00 0.0000000E+00 0.0000000E+00          
 0.0000000E+00 0.0000000E+00 0.0000000E+00 0.0000000E+00 0.0000000E+00          
 0.0000000E+00 0.0000000E+00 0.0000000E+00 0.0000000E+00 0.0000000E+00          
 0.0000000E+00 0.0000000E+00 0.0000000E+00 0.0000000E+00 0.0000000E+00          
 0.0000000E+00 0.0000000E+00 0.0000000E+00 0.0000000E+00 0.0000000E+00          
 0.0000000E+00 0.0000000E+00 0.0000000E+00 0.0000000E+00 0.0000000E+00          
 0.0000000E+00 0.0000000E+00 0.0000000E+00 0.0000000E+00 0.0000000E+00          
 0.0000000E+00 0.0000000E+00 0.0000000E+00 0.0000000E+00 0.0000000E+00          
 0.0000000E+00 0.0000000E+00 0.0000000E+00 0.0000000E+00 0.0000000E+00          
 0.0000000E+00 0.0000000E+00 0.0000000E+00 0.0000000E+00 0.0000000E+00          
 0.0000000E+00 0.0000000E+00 0.0000000E+00 0.0000000E+00 0.0000000E+00          
 0.0000000E+00 0.0000000E+00 0.0000000E+00 0.0000000E+00 0.0000000E+00          
 0.0000000E+00 0.0000000E+00 0.0000000E+00 0.0000000E+00 0.0000000E+00          
 0.0000000E+00 0.0000000E+00 0.0000000E+00 0.0000000E+00 0.0000000E+00          
 0.0000000E+00 0.0000000E+00 0.0000000E+00 0.0000000E+00 0.0000000E+00          
 0.0000000E+00 0.0000000E+00 0.0000000E+00 0.0000000E+00 0.0000000E+00          
 0.0000000E+00 0.0000000E+00 0.0000000E+00 0.0000000E+00 0.0000000E+00          
 0.0000000E+00 0.0000000E+00 0.0000000E+00 0.0000000E+00 0.0000000E+00          
 0.0000000E+00 0.0000000E+00 0.0000000E+00 0.0000000E+00 0.0000000E+00          
 0.0000000E+00 0.0000000E+00 0.0000000E+00 0.0000000E+00 0.0000000E+00          
 0.0000000E+00 0.0000000E+00 0.0000000E+00 0.0000000E+00 0.0000000E+00          
 0.0000000E+00 0.0000000E+00 0.0000000E+00 0.0000000E+00 0.0000000E+00          
 0.0000000E+00 0.0000000E+00 0.0000000E+00 0.0000000E+00 0.0000000E+00          
 0.0000000E+00 0.0000000E+00 0.0000000E+00 0.0000000E+00 0.0000000E+00          
 0.0000000E+00 0.0000000E+00 0.0000000E+00 0.0000000E+00 0.0000000E+00          
 0.0000000E+00 0.0000000E+00 0.0000000E+00 0.0000000E+00 0.0000000E+00          
 0.0000000E+00 0.0000000E+00 0.0000000E+00 0.0000000E+00 0.0000000E+00          
 0.0000000E+00 0.0000000E+00 0.0000000E+00 0.0000000E+00 0.0000000E+00          
 0.0000000E+00 0.0000000E+00 0.0000000E+00 0.0000000E+00 0.0000000E+00          
 0.0000000E+00 0.0000000E+00 0.0000000E+00 0.0000000E+00 0.0000000E+00          
 0.0000000E+00 0.0000000E+00 0.0000000E+00 0.0000000E+00 0.0000000E+00          
 0.0000000E+00 0.0000000E+00 0.0000000E+00 0.0000000E+00 0.0000000E+00          
 0.0000000E+00 0.0000000E+00 0.0000000E+00 0.0000000E+00 0.0000000E+00          
 0.0000000E+00 0.0000000E+00 0.0000000E+00 0.0000000E+00 0.0000000E+00          
 0.0000000E+00 0.0000000E+00 0.0000000E+00 0.0000000E+00 0.0000000E+00          
 0.0000000E+00 0.0000000E+00 0.0000000E+00 0.0000000E+00 0.0000000E+00          
 0.0000000E+00 0.0000000E+00 0.0000000E+00 0.0000000E+00 0.0000000E+00          
 0.0000000E+00 0.0000000E+00 0.0000000E+00 0.0000000E+00 0.0000000E+00          
 0.0000000E+00 0.0000000E+00 0.0000000E+00 0.0000000E+00 0.0000000E+00          
 0.0000000E+00 0.0000000E+00 0.0000000E+00 0.0000000E+00 0.0000000E+00          
 0.0000000E+00 0.0000000E+00 0.0000000E+00 0.0000000E+00 0.0000000E+00          
 0.0000000E+00 0.0000000E+00 0.0000000E+00 0.0000000E+00 0.0000000E+00          
 0.0000000E+00 0.0000000E+00 0.0000000E+00 0.0000000E+00 0.0000000E+00          
  1.000000     0.9287206     0.8592689     0.7848564     0.7198433              
 0.6637076     0.6015666     0.5454308     0.4945170     0.4451697              
 0.3979113     0.3590078     0.3203655     0.2900783     0.2626632              
 0.2394256     0.2185379     0.1973890     0.1825065     0.1684073              
 0.1532637     0.1407311     0.1302872     0.1187990     0.1122715              
 0.1036553     0.9738904E-01 0.9347260E-01 0.8825064E-01 0.8224541E-01          
 0.7937336E-01 0.7493472E-01 0.6971282E-01 0.6553525E-01 0.6318539E-01          
 0.6005222E-01 0.5665797E-01 0.5430812E-01 0.5326372E-01 0.4986948E-01          
 0.4778069E-01 0.4621410E-01 0.4464751E-01 0.4360312E-01 0.4151434E-01          
 0.4073107E-01 0.3994781E-01 0.3733683E-01 0.3603131E-01 0.3524804E-01          
 0.3394258E-01 0.3315926E-01 0.3211486E-01 0.3054827E-01 0.2872062E-01          
 0.2845955E-01 0.2741516E-01 0.2689296E-01 0.2610964E-01 0.2532637E-01          
 0.2480417E-01 0.2375978E-01 0.2271539E-01 0.2167100E-01 0.2140993E-01          
 0.2088773E-01 0.2010447E-01 0.1958227E-01 0.1879895E-01 0.1879895E-01          
 0.1853788E-01 0.1827675E-01 0.1775455E-01 0.1749349E-01 0.1697129E-01          
 0.1618797E-01 0.1618797E-01 0.1618797E-01 0.1566577E-01 0.1540470E-01          
 0.1514363E-01 0.1488250E-01 0.1409924E-01 0.1383811E-01 0.1279372E-01          
 0.1253265E-01 0.1227152E-01 0.1174933E-01 0.1122713E-01 0.1044387E-01          
 0.1044387E-01 0.9660602E-02 0.9660602E-02 0.9660602E-02 0.9138405E-02          
 0.8616209E-02 0.8355081E-02 0.7832885E-02 0.7832885E-02 0.7832885E-02          
 0.7832885E-02 0.7832885E-02 0.7832885E-02 0.7310688E-02 0.7049620E-02          
 0.7049620E-02 0.6788492E-02 0.6788492E-02 0.6788492E-02 0.6788492E-02          
 0.6788492E-02 0.6788492E-02 0.6788492E-02 0.6527424E-02 0.6266296E-02          
 0.6266296E-02 0.6266296E-02 0.6005228E-02 0.6005228E-02 0.5744100E-02          
 0.5483031E-02 0.5221903E-02 0.5221903E-02 0.5221903E-02 0.5221903E-02          
 0.5221903E-02 0.4699767E-02 0.4699767E-02 0.4438639E-02 0.3916442E-02          
 0.3916442E-02 0.3916442E-02 0.3655374E-02 0.3655374E-02 0.3655374E-02          
 0.3655374E-02 0.3655374E-02 0.3655374E-02 0.3655374E-02 0.3655374E-02          
 0.3655374E-02 0.3655374E-02 0.3655374E-02 0.3655374E-02 0.3655374E-02          
 0.3394246E-02 0.3394246E-02 0.3394246E-02 0.3394246E-02 0.3394246E-02          
 0.3133178E-02 0.2872050E-02 0.2872050E-02 0.2872050E-02 0.2610981E-02          
 0.2610981E-02 0.2349854E-02 0.2349854E-02 0.2088785E-02 0.2088785E-02          
 0.2088785E-02 0.2088785E-02 0.2088785E-02 0.2088785E-02 0.2088785E-02          
 0.2088785E-02 0.2088785E-02 0.2088785E-02 0.2088785E-02 0.2088785E-02          
 0.1827657E-02 0.1566589E-02 0.1566589E-02 0.1566589E-02 0.1566589E-02          
 0.1305461E-02 0.1305461E-02 0.1305461E-02 0.1305461E-02 0.1044393E-02          
 0.1044393E-02 0.1044393E-02 0.1044393E-02 0.1044393E-02 0.1044393E-02          
 0.1044393E-02 0.1044393E-02 0.1044393E-02 0.1044393E-02 0.1044393E-02          
 0.1044393E-02 0.1044393E-02 0.1044393E-02 0.7832646E-03 0.7832646E-03          
 0.7832646E-03 0.7832646E-03 0.7832646E-03 0.7832646E-03 0.5221963E-03          
 0.5221963E-03 0.5221963E-03 0.2610683E-03 0.2610683E-03 0.2610683E-03          
 0.2610683E-03 0.2610683E-03 0.2610683E-03 0.2610683E-03 0.2610683E-03          
 0.2610683E-03 0.2610683E-03 0.2610683E-03 0.2610683E-03 0.2610683E-03          
 0.2610683E-03 0.2610683E-03 0.2610683E-03 0.2610683E-03 0.2610683E-03          
 0.2610683E-03 0.2610683E-03 0.2610683E-03 0.2610683E-03 0.2610683E-03          
 0.0000000E+00 0.0000000E+00 0.0000000E+00 0.0000000E+00 0.0000000E+00          
 0.0000000E+00 0.0000000E+00 0.0000000E+00 0.0000000E+00 0.0000000E+00          
 0.0000000E+00 0.0000000E+00 0.0000000E+00 0.0000000E+00 0.0000000E+00          
 0.0000000E+00 0.0000000E+00 0.0000000E+00 0.0000000E+00 0.0000000E+00          
 0.0000000E+00 0.0000000E+00 0.0000000E+00 0.0000000E+00 0.0000000E+00          
 0.0000000E+00 0.0000000E+00 0.0000000E+00 0.0000000E+00 0.0000000E+00          
 0.0000000E+00 0.0000000E+00 0.0000000E+00 0.0000000E+00 0.0000000E+00          
 0.0000000E+00 0.0000000E+00 0.0000000E+00 0.0000000E+00 0.0000000E+00          
 0.0000000E+00 0.0000000E+00 0.0000000E+00 0.0000000E+00 0.0000000E+00          
 0.0000000E+00 0.0000000E+00 0.0000000E+00 0.0000000E+00 0.0000000E+00          
 0.0000000E+00 0.0000000E+00 0.0000000E+00 0.0000000E+00 0.0000000E+00          
 0.0000000E+00 0.0000000E+00 0.0000000E+00 0.0000000E+00 0.0000000E+00          
 0.0000000E+00 0.0000000E+00 0.0000000E+00 0.0000000E+00 0.0000000E+00          
 0.0000000E+00 0.0000000E+00 0.0000000E+00 0.0000000E+00 0.0000000E+00          
 0.0000000E+00 0.0000000E+00 0.0000000E+00 0.0000000E+00 0.0000000E+00          
 0.0000000E+00 0.0000000E+00 0.0000000E+00 0.0000000E+00 0.0000000E+00          
 0.0000000E+00 0.0000000E+00 0.0000000E+00 0.0000000E+00 0.0000000E+00          
 0.0000000E+00 0.0000000E+00 0.0000000E+00 0.0000000E+00 0.0000000E+00          
 0.0000000E+00 0.0000000E+00 0.0000000E+00 0.0000000E+00 0.0000000E+00          
 0.0000000E+00 0.0000000E+00 0.0000000E+00 0.0000000E+00 0.0000000E+00          
 0.0000000E+00 0.0000000E+00 0.0000000E+00 0.0000000E+00 0.0000000E+00          
 0.0000000E+00 0.0000000E+00 0.0000000E+00 0.0000000E+00 0.0000000E+00          
 0.0000000E+00 0.0000000E+00 0.0000000E+00 0.0000000E+00 0.0000000E+00          
 0.0000000E+00 0.0000000E+00 0.0000000E+00 0.0000000E+00 0.0000000E+00          
 0.0000000E+00 0.0000000E+00 0.0000000E+00 0.0000000E+00 0.0000000E+00          
 0.0000000E+00 0.0000000E+00 0.0000000E+00 0.0000000E+00 0.0000000E+00          
 0.0000000E+00 0.0000000E+00 0.0000000E+00 0.0000000E+00 0.0000000E+00          
 0.0000000E+00 0.0000000E+00 0.0000000E+00 0.0000000E+00 0.0000000E+00          
 0.0000000E+00 0.0000000E+00 0.0000000E+00 0.0000000E+00 0.0000000E+00          
 0.0000000E+00 0.0000000E+00 0.0000000E+00 0.0000000E+00 0.0000000E+00          
 0.0000000E+00 0.0000000E+00 0.0000000E+00 0.0000000E+00 0.0000000E+00          
 0.0000000E+00 0.0000000E+00 0.0000000E+00 0.0000000E+00 0.0000000E+00          
 0.0000000E+00 0.0000000E+00 0.0000000E+00 0.0000000E+00 0.0000000E+00          
 0.0000000E+00 0.0000000E+00 0.0000000E+00 0.0000000E+00 0.0000000E+00          
 0.0000000E+00 0.0000000E+00 0.0000000E+00 0.0000000E+00 0.0000000E+00          
  1.000000     0.9378806     0.8745432     0.8112059     0.7551766              
 0.6906212     0.6382461     0.5895250     0.5298417     0.5006090              
 0.4652863     0.4384897     0.4190012     0.3909866     0.3629720              
 0.3434836     0.3130329     0.2996346     0.2789282     0.2679659              
 0.2509135     0.2411693     0.2362972     0.2204629     0.2107186              
 0.2058465     0.1973203     0.1912302     0.1863581     0.1827040              
 0.1802680     0.1778319     0.1729598     0.1717418     0.1680877              
 0.1644336     0.1607795     0.1583435     0.1546894     0.1534714              
 0.1498173     0.1449452     0.1425092     0.1327649     0.1303289              
 0.1181486     0.1169305     0.1144945     0.1108404     0.1071864              
 0.1047503     0.1035323     0.1023142     0.1010962     0.9744215E-01          
 0.9622413E-01 0.9500611E-01 0.9378809E-01 0.9257001E-01 0.8891594E-01          
 0.8769792E-01 0.8647990E-01 0.8282584E-01 0.8038980E-01 0.7917172E-01          
 0.7795370E-01 0.7673568E-01 0.7673568E-01 0.7429963E-01 0.7308161E-01          
 0.6942755E-01 0.6820953E-01 0.6577343E-01 0.6455541E-01 0.6455541E-01          
 0.6333739E-01 0.6211936E-01 0.6211936E-01 0.6090134E-01 0.6090134E-01          
 0.5968332E-01 0.5968332E-01 0.5968332E-01 0.5968332E-01 0.5602926E-01          
 0.5481118E-01 0.5481118E-01 0.5359316E-01 0.5359316E-01 0.5237514E-01          
 0.4993910E-01 0.4993910E-01 0.4872108E-01 0.4628503E-01 0.4506701E-01          
 0.4506701E-01 0.4506701E-01 0.4384899E-01 0.4384899E-01 0.4263091E-01          
 0.4263091E-01 0.4263091E-01 0.4263091E-01 0.4263091E-01 0.4263091E-01          
 0.4263091E-01 0.4263091E-01 0.4141289E-01 0.4019487E-01 0.4019487E-01          
 0.4019487E-01 0.4019487E-01 0.3897685E-01 0.3654081E-01 0.3532279E-01          
 0.3532279E-01 0.3532279E-01 0.3532279E-01 0.3410476E-01 0.3410476E-01          
 0.3288674E-01 0.3166872E-01 0.3166872E-01 0.3166872E-01 0.3045064E-01          
 0.3045064E-01 0.2923262E-01 0.2923262E-01 0.2923262E-01 0.2801460E-01          
 0.2801460E-01 0.2801460E-01 0.2679658E-01 0.2557856E-01 0.2557856E-01          
 0.2557856E-01 0.2436054E-01 0.2436054E-01 0.2436054E-01 0.2436054E-01          
 0.2436054E-01 0.2436054E-01 0.2436054E-01 0.2436054E-01 0.2436054E-01          
 0.2436054E-01 0.2436054E-01 0.2436054E-01 0.2436054E-01 0.2436054E-01          
 0.2436054E-01 0.2314252E-01 0.2314252E-01 0.2192450E-01 0.2192450E-01          
 0.2192450E-01 0.2192450E-01 0.2192450E-01 0.2192450E-01 0.2192450E-01          
 0.2192450E-01 0.2070647E-01 0.2070647E-01 0.1948845E-01 0.1948845E-01          
 0.1948845E-01 0.1827037E-01 0.1827037E-01 0.1827037E-01 0.1827037E-01          
 0.1705235E-01 0.1461631E-01 0.1461631E-01 0.1461631E-01 0.1339829E-01          
 0.1339829E-01 0.1339829E-01 0.1339829E-01 0.1339829E-01 0.1339829E-01          
 0.1339829E-01 0.1339829E-01 0.1339829E-01 0.1339829E-01 0.1339829E-01          
 0.1339829E-01 0.1339829E-01 0.1339829E-01 0.1339829E-01 0.1339829E-01          
 0.1339829E-01 0.1339829E-01 0.1339829E-01 0.1339829E-01 0.1339829E-01          
 0.1096225E-01 0.1096225E-01 0.1096225E-01 0.1096225E-01 0.1096225E-01          
 0.1096225E-01 0.1096225E-01 0.1096225E-01 0.1096225E-01 0.1096225E-01          
 0.1096225E-01 0.1096225E-01 0.9744227E-02 0.9744227E-02 0.9744227E-02          
 0.8526206E-02 0.8526206E-02 0.6090105E-02 0.6090105E-02 0.6090105E-02          
 0.6090105E-02 0.6090105E-02 0.6090105E-02 0.6090105E-02 0.4872084E-02          
 0.4872084E-02 0.4872084E-02 0.4872084E-02 0.4872084E-02 0.4872084E-02          
 0.4872084E-02 0.3654063E-02 0.3654063E-02 0.3654063E-02 0.3654063E-02          
 0.2436042E-02 0.2436042E-02 0.2436042E-02 0.2436042E-02 0.2436042E-02          
 0.2436042E-02 0.2436042E-02 0.2436042E-02 0.2436042E-02 0.2436042E-02          
 0.2436042E-02 0.2436042E-02 0.2436042E-02 0.2436042E-02 0.2436042E-02          
 0.2436042E-02 0.2436042E-02 0.2436042E-02 0.2436042E-02 0.2436042E-02          
 0.2436042E-02 0.2436042E-02 0.2436042E-02 0.2436042E-02 0.2436042E-02          
 0.2436042E-02 0.2436042E-02 0.2436042E-02 0.2436042E-02 0.2436042E-02          
 0.2436042E-02 0.2436042E-02 0.2436042E-02 0.2436042E-02 0.2436042E-02          
 0.2436042E-02 0.2436042E-02 0.2436042E-02 0.2436042E-02 0.2436042E-02          
 0.2436042E-02 0.2436042E-02 0.2436042E-02 0.2436042E-02 0.2436042E-02          
 0.2436042E-02 0.2436042E-02 0.2436042E-02 0.2436042E-02 0.2436042E-02          
 0.2436042E-02 0.2436042E-02 0.2436042E-02 0.2436042E-02 0.2436042E-02          
 0.2436042E-02 0.2436042E-02 0.2436042E-02 0.2436042E-02 0.2436042E-02          
 0.2436042E-02 0.2436042E-02 0.2436042E-02 0.2436042E-02 0.2436042E-02          
 0.2436042E-02 0.2436042E-02 0.2436042E-02 0.2436042E-02 0.2436042E-02          
 0.2436042E-02 0.2436042E-02 0.2436042E-02 0.2436042E-02 0.2436042E-02          
 0.2436042E-02 0.2436042E-02 0.2436042E-02 0.2436042E-02 0.2436042E-02          
 0.2436042E-02 0.2436042E-02 0.2436042E-02 0.2436042E-02 0.2436042E-02          
 0.2436042E-02 0.2436042E-02 0.2436042E-02 0.2436042E-02 0.2436042E-02          
 0.2436042E-02 0.2436042E-02 0.2436042E-02 0.2436042E-02 0.2436042E-02          
 0.2436042E-02 0.2436042E-02 0.2436042E-02 0.2436042E-02 0.2436042E-02          
 0.2436042E-02 0.2436042E-02 0.2436042E-02 0.2436042E-02 0.2436042E-02          
 0.2436042E-02 0.2436042E-02 0.2436042E-02 0.2436042E-02 0.2436042E-02          
 0.2436042E-02 0.2436042E-02 0.2436042E-02 0.2436042E-02 0.2436042E-02          
 0.2436042E-02 0.2436042E-02 0.2436042E-02 0.2436042E-02 0.2436042E-02          
 0.2436042E-02 0.2436042E-02 0.2436042E-02 0.2436042E-02 0.2436042E-02          
 0.2436042E-02 0.2436042E-02 0.2436042E-02 0.2436042E-02 0.2436042E-02          
 0.2436042E-02 0.2436042E-02 0.2436042E-02 0.2436042E-02 0.2436042E-02          
 0.2436042E-02 0.2436042E-02 0.2436042E-02 0.2436042E-02 0.2436042E-02          
 0.2436042E-02 0.2436042E-02 0.2436042E-02 0.2436042E-02 0.2436042E-02          
 0.2436042E-02 0.2436042E-02 0.2436042E-02 0.2436042E-02 0.2436042E-02          
 0.2436042E-02 0.2436042E-02 0.2436042E-02 0.2436042E-02 0.2436042E-02          
 0.2436042E-02 0.2436042E-02 0.2436042E-02 0.2436042E-02 0.2436042E-02          
 0.2436042E-02 0.2436042E-02 0.2436042E-02 0.2436042E-02 0.2436042E-02          
 0.2436042E-02 0.2436042E-02 0.2436042E-02 0.2436042E-02 0.2436042E-02          
  1.000000     0.9182550     0.8305802     0.7534943     0.6861500              
 0.6094875     0.5328251     0.4743752     0.4155019     0.3578992              
 0.3269801     0.2795426     0.2384583     0.2028801     0.1745023              
 0.1533248     0.1287590     0.1105464     0.9360439E-01 0.8259213E-01          
 0.6861502E-01 0.5675560E-01 0.4616690E-01 0.3727233E-01 0.3515458E-01          
 0.3007197E-01 0.2498943E-01 0.2414232E-01 0.2033037E-01 0.1948327E-01          
 0.1778907E-01 0.1567131E-01 0.1440066E-01 0.1185936E-01 0.1101226E-01          
 0.1016515E-01 0.8894563E-02 0.8894563E-02 0.7623911E-02 0.7200360E-02          
 0.6776810E-02 0.6353259E-02 0.6353259E-02 0.6353259E-02 0.6353259E-02          
 0.5929708E-02 0.5929708E-02 0.5929708E-02 0.5929708E-02 0.5929708E-02          
 0.5082607E-02 0.5082607E-02 0.4659057E-02 0.4659057E-02 0.4659057E-02          
 0.4659057E-02 0.4659057E-02 0.4659057E-02 0.4659057E-02 0.4659057E-02          
 0.4235506E-02 0.4235506E-02 0.3811955E-02 0.3811955E-02 0.3811955E-02          
 0.2964854E-02 0.2964854E-02 0.2964854E-02 0.2964854E-02 0.2541304E-02          
 0.2541304E-02 0.2541304E-02 0.2541304E-02 0.2541304E-02 0.2541304E-02          
 0.2541304E-02 0.2541304E-02 0.2117753E-02 0.2117753E-02 0.2117753E-02          
 0.2117753E-02 0.2117753E-02 0.2117753E-02 0.2117753E-02 0.2117753E-02          
 0.2117753E-02 0.1694202E-02 0.1694202E-02 0.1694202E-02 0.1694202E-02          
 0.1694202E-02 0.1694202E-02 0.1694202E-02 0.1694202E-02 0.1694202E-02          
 0.1694202E-02 0.1694202E-02 0.1694202E-02 0.1694202E-02 0.1270652E-02          
 0.1270652E-02 0.1270652E-02 0.1270652E-02 0.8471012E-03 0.8471012E-03          
 0.8471012E-03 0.8471012E-03 0.8471012E-03 0.8471012E-03 0.8471012E-03          
 0.8471012E-03 0.8471012E-03 0.4235506E-03 0.4235506E-03 0.4235506E-03          
 0.4235506E-03 0.4235506E-03 0.4235506E-03 0.4235506E-03 0.4235506E-03          
 0.4235506E-03 0.4235506E-03 0.4235506E-03 0.4235506E-03 0.4235506E-03          
 0.4235506E-03 0.4235506E-03 0.4235506E-03 0.4235506E-03 0.4235506E-03          
 0.4235506E-03 0.4235506E-03 0.4235506E-03 0.4235506E-03 0.4235506E-03          
 0.4235506E-03 0.4235506E-03 0.4235506E-03 0.4235506E-03 0.4235506E-03          
 0.4235506E-03 0.4235506E-03 0.4235506E-03 0.4235506E-03 0.4235506E-03          
 0.4235506E-03 0.4235506E-03 0.4235506E-03 0.4235506E-03 0.4235506E-03          
 0.4235506E-03 0.4235506E-03 0.4235506E-03 0.4235506E-03 0.4235506E-03          
 0.4235506E-03 0.4235506E-03 0.4235506E-03 0.4235506E-03 0.4235506E-03          
 0.4235506E-03 0.4235506E-03 0.4235506E-03 0.4235506E-03 0.4235506E-03          
 0.4235506E-03 0.4235506E-03 0.4235506E-03 0.4235506E-03 0.4235506E-03          
 0.4235506E-03 0.4235506E-03 0.4235506E-03 0.4235506E-03 0.4235506E-03          
 0.4235506E-03 0.4235506E-03 0.4235506E-03 0.4235506E-03 0.4235506E-03          
 0.4235506E-03 0.4235506E-03 0.4235506E-03 0.4235506E-03 0.4235506E-03          
 0.4235506E-03 0.4235506E-03 0.4235506E-03 0.4235506E-03 0.4235506E-03          
 0.4235506E-03 0.4235506E-03 0.4235506E-03 0.4235506E-03 0.4235506E-03          
 0.4235506E-03 0.4235506E-03 0.0000000E+00 0.0000000E+00 0.0000000E+00          
 0.0000000E+00 0.0000000E+00 0.0000000E+00 0.0000000E+00 0.0000000E+00          
 0.0000000E+00 0.0000000E+00 0.0000000E+00 0.0000000E+00 0.0000000E+00          
 0.0000000E+00 0.0000000E+00 0.0000000E+00 0.0000000E+00 0.0000000E+00          
 0.0000000E+00 0.0000000E+00 0.0000000E+00 0.0000000E+00 0.0000000E+00          
 0.0000000E+00 0.0000000E+00 0.0000000E+00 0.0000000E+00 0.0000000E+00          
 0.0000000E+00 0.0000000E+00 0.0000000E+00 0.0000000E+00 0.0000000E+00          
 0.0000000E+00 0.0000000E+00 0.0000000E+00 0.0000000E+00 0.0000000E+00          
 0.0000000E+00 0.0000000E+00 0.0000000E+00 0.0000000E+00 0.0000000E+00          
 0.0000000E+00 0.0000000E+00 0.0000000E+00 0.0000000E+00 0.0000000E+00          
 0.0000000E+00 0.0000000E+00 0.0000000E+00 0.0000000E+00 0.0000000E+00          
 0.0000000E+00 0.0000000E+00 0.0000000E+00 0.0000000E+00 0.0000000E+00          
 0.0000000E+00 0.0000000E+00 0.0000000E+00 0.0000000E+00 0.0000000E+00          
 0.0000000E+00 0.0000000E+00 0.0000000E+00 0.0000000E+00 0.0000000E+00          
 0.0000000E+00 0.0000000E+00 0.0000000E+00 0.0000000E+00 0.0000000E+00          
 0.0000000E+00 0.0000000E+00 0.0000000E+00 0.0000000E+00 0.0000000E+00          
 0.0000000E+00 0.0000000E+00 0.0000000E+00 0.0000000E+00 0.0000000E+00          
 0.0000000E+00 0.0000000E+00 0.0000000E+00 0.0000000E+00 0.0000000E+00          
 0.0000000E+00 0.0000000E+00 0.0000000E+00 0.0000000E+00 0.0000000E+00          
 0.0000000E+00 0.0000000E+00 0.0000000E+00 0.0000000E+00 0.0000000E+00          
 0.0000000E+00 0.0000000E+00 0.0000000E+00 0.0000000E+00 0.0000000E+00          
 0.0000000E+00 0.0000000E+00 0.0000000E+00 0.0000000E+00 0.0000000E+00          
 0.0000000E+00 0.0000000E+00 0.0000000E+00 0.0000000E+00 0.0000000E+00          
 0.0000000E+00 0.0000000E+00 0.0000000E+00 0.0000000E+00 0.0000000E+00          
 0.0000000E+00 0.0000000E+00 0.0000000E+00 0.0000000E+00 0.0000000E+00          
 0.0000000E+00 0.0000000E+00 0.0000000E+00 0.0000000E+00 0.0000000E+00          
 0.0000000E+00 0.0000000E+00 0.0000000E+00 0.0000000E+00 0.0000000E+00          
 0.0000000E+00 0.0000000E+00 0.0000000E+00 0.0000000E+00 0.0000000E+00          
 0.0000000E+00 0.0000000E+00 0.0000000E+00 0.0000000E+00 0.0000000E+00          
 0.0000000E+00 0.0000000E+00 0.0000000E+00 0.0000000E+00 0.0000000E+00          
 0.0000000E+00 0.0000000E+00 0.0000000E+00 0.0000000E+00 0.0000000E+00          
 0.0000000E+00 0.0000000E+00 0.0000000E+00 0.0000000E+00 0.0000000E+00          
 0.0000000E+00 0.0000000E+00 0.0000000E+00 0.0000000E+00 0.0000000E+00          
 0.0000000E+00 0.0000000E+00 0.0000000E+00 0.0000000E+00 0.0000000E+00          
 0.0000000E+00 0.0000000E+00 0.0000000E+00 0.0000000E+00 0.0000000E+00          
 0.0000000E+00 0.0000000E+00 0.0000000E+00 0.0000000E+00 0.0000000E+00          
 0.0000000E+00 0.0000000E+00 0.0000000E+00 0.0000000E+00 0.0000000E+00          
 0.0000000E+00 0.0000000E+00 0.0000000E+00 0.0000000E+00 0.0000000E+00          
 0.0000000E+00 0.0000000E+00 0.0000000E+00 0.0000000E+00 0.0000000E+00          
 0.0000000E+00 0.0000000E+00 0.0000000E+00 0.0000000E+00 0.0000000E+00          
 0.0000000E+00 0.0000000E+00 0.0000000E+00 0.0000000E+00 0.0000000E+00          
  1.000000     0.9144050     0.8267223     0.7223382     0.6701461              
 0.6012526     0.5344468     0.4759917     0.4196242     0.3716075              
 0.3173277     0.2609603     0.2233821     0.1899791     0.1524009              
 0.1210856     0.1002088     0.7724428E-01 0.5427974E-01 0.5010438E-01          
 0.3966600E-01 0.2922755E-01 0.2296454E-01 0.2087682E-01 0.1461381E-01          
 0.1252609E-01 0.1252609E-01 0.1252609E-01 0.1252609E-01 0.1043844E-01          
 0.8350730E-02 0.4175365E-02 0.4175365E-02 0.2087712E-02 0.2087712E-02          
 0.2087712E-02 0.0000000E+00 0.0000000E+00 0.0000000E+00 0.0000000E+00          
 0.0000000E+00 0.0000000E+00 0.0000000E+00 0.0000000E+00 0.0000000E+00          
 0.0000000E+00 0.0000000E+00 0.0000000E+00 0.0000000E+00 0.0000000E+00          
 0.0000000E+00 0.0000000E+00 0.0000000E+00 0.0000000E+00 0.0000000E+00          
 0.0000000E+00 0.0000000E+00 0.0000000E+00 0.0000000E+00 0.0000000E+00          
 0.0000000E+00 0.0000000E+00 0.0000000E+00 0.0000000E+00 0.0000000E+00          
 0.0000000E+00 0.0000000E+00 0.0000000E+00 0.0000000E+00 0.0000000E+00          
 0.0000000E+00 0.0000000E+00 0.0000000E+00 0.0000000E+00 0.0000000E+00          
 0.0000000E+00 0.0000000E+00 0.0000000E+00 0.0000000E+00 0.0000000E+00          
 0.0000000E+00 0.0000000E+00 0.0000000E+00 0.0000000E+00 0.0000000E+00          
 0.0000000E+00 0.0000000E+00 0.0000000E+00 0.0000000E+00 0.0000000E+00          
 0.0000000E+00 0.0000000E+00 0.0000000E+00 0.0000000E+00 0.0000000E+00          
 0.0000000E+00 0.0000000E+00 0.0000000E+00 0.0000000E+00 0.0000000E+00          
 0.0000000E+00 0.0000000E+00 0.0000000E+00 0.0000000E+00 0.0000000E+00          
 0.0000000E+00 0.0000000E+00 0.0000000E+00 0.0000000E+00 0.0000000E+00          
 0.0000000E+00 0.0000000E+00 0.0000000E+00 0.0000000E+00 0.0000000E+00          
 0.0000000E+00 0.0000000E+00 0.0000000E+00 0.0000000E+00 0.0000000E+00          
 0.0000000E+00 0.0000000E+00 0.0000000E+00 0.0000000E+00 0.0000000E+00          
 0.0000000E+00 0.0000000E+00 0.0000000E+00 0.0000000E+00 0.0000000E+00          
 0.0000000E+00 0.0000000E+00 0.0000000E+00 0.0000000E+00 0.0000000E+00          
 0.0000000E+00 0.0000000E+00 0.0000000E+00 0.0000000E+00 0.0000000E+00          
 0.0000000E+00 0.0000000E+00 0.0000000E+00 0.0000000E+00 0.0000000E+00          
 0.0000000E+00 0.0000000E+00 0.0000000E+00 0.0000000E+00 0.0000000E+00          
 0.0000000E+00 0.0000000E+00 0.0000000E+00 0.0000000E+00 0.0000000E+00          
 0.0000000E+00 0.0000000E+00 0.0000000E+00 0.0000000E+00 0.0000000E+00          
 0.0000000E+00 0.0000000E+00 0.0000000E+00 0.0000000E+00 0.0000000E+00          
 0.0000000E+00 0.0000000E+00 0.0000000E+00 0.0000000E+00 0.0000000E+00          
 0.0000000E+00 0.0000000E+00 0.0000000E+00 0.0000000E+00 0.0000000E+00          
 0.0000000E+00 0.0000000E+00 0.0000000E+00 0.0000000E+00 0.0000000E+00          
 0.0000000E+00 0.0000000E+00 0.0000000E+00 0.0000000E+00 0.0000000E+00          
 0.0000000E+00 0.0000000E+00 0.0000000E+00 0.0000000E+00 0.0000000E+00          
 0.0000000E+00 0.0000000E+00 0.0000000E+00 0.0000000E+00 0.0000000E+00          
 0.0000000E+00 0.0000000E+00 0.0000000E+00 0.0000000E+00 0.0000000E+00          
 0.0000000E+00 0.0000000E+00 0.0000000E+00 0.0000000E+00 0.0000000E+00          
 0.0000000E+00 0.0000000E+00 0.0000000E+00 0.0000000E+00 0.0000000E+00          
 0.0000000E+00 0.0000000E+00 0.0000000E+00 0.0000000E+00 0.0000000E+00          
 0.0000000E+00 0.0000000E+00 0.0000000E+00 0.0000000E+00 0.0000000E+00          
 0.0000000E+00 0.0000000E+00 0.0000000E+00 0.0000000E+00 0.0000000E+00          
 0.0000000E+00 0.0000000E+00 0.0000000E+00 0.0000000E+00 0.0000000E+00          
 0.0000000E+00 0.0000000E+00 0.0000000E+00 0.0000000E+00 0.0000000E+00          
 0.0000000E+00 0.0000000E+00 0.0000000E+00 0.0000000E+00 0.0000000E+00          
 0.0000000E+00 0.0000000E+00 0.0000000E+00 0.0000000E+00 0.0000000E+00          
 0.0000000E+00 0.0000000E+00 0.0000000E+00 0.0000000E+00 0.0000000E+00          
 0.0000000E+00 0.0000000E+00 0.0000000E+00 0.0000000E+00 0.0000000E+00          
 0.0000000E+00 0.0000000E+00 0.0000000E+00 0.0000000E+00 0.0000000E+00          
 0.0000000E+00 0.0000000E+00 0.0000000E+00 0.0000000E+00 0.0000000E+00          
 0.0000000E+00 0.0000000E+00 0.0000000E+00 0.0000000E+00 0.0000000E+00          
 0.0000000E+00 0.0000000E+00 0.0000000E+00 0.0000000E+00 0.0000000E+00          
 0.0000000E+00 0.0000000E+00 0.0000000E+00 0.0000000E+00 0.0000000E+00          
 0.0000000E+00 0.0000000E+00 0.0000000E+00 0.0000000E+00 0.0000000E+00          
 0.0000000E+00 0.0000000E+00 0.0000000E+00 0.0000000E+00 0.0000000E+00          
 0.0000000E+00 0.0000000E+00 0.0000000E+00 0.0000000E+00 0.0000000E+00          
 0.0000000E+00 0.0000000E+00 0.0000000E+00 0.0000000E+00 0.0000000E+00          
 0.0000000E+00 0.0000000E+00 0.0000000E+00 0.0000000E+00 0.0000000E+00          
 0.0000000E+00 0.0000000E+00 0.0000000E+00 0.0000000E+00 0.0000000E+00          
 0.0000000E+00 0.0000000E+00 0.0000000E+00 0.0000000E+00 0.0000000E+00          
 0.0000000E+00 0.0000000E+00 0.0000000E+00 0.0000000E+00 0.0000000E+00          
 0.0000000E+00 0.0000000E+00 0.0000000E+00 0.0000000E+00 0.0000000E+00          
 0.0000000E+00 0.0000000E+00 0.0000000E+00 0.0000000E+00 0.0000000E+00          
 0.0000000E+00 0.0000000E+00 0.0000000E+00 0.0000000E+00 0.0000000E+00          
 0.0000000E+00 0.0000000E+00 0.0000000E+00 0.0000000E+00 0.0000000E+00          
 0.0000000E+00 0.0000000E+00 0.0000000E+00 0.0000000E+00 0.0000000E+00          
 0.0000000E+00 0.0000000E+00 0.0000000E+00 0.0000000E+00 0.0000000E+00          
 0.0000000E+00 0.0000000E+00 0.0000000E+00 0.0000000E+00 0.0000000E+00          
 0.0000000E+00 0.0000000E+00 0.0000000E+00 0.0000000E+00 0.0000000E+00          
 0.0000000E+00 0.0000000E+00 0.0000000E+00 0.0000000E+00 0.0000000E+00          
 0.0000000E+00 0.0000000E+00 0.0000000E+00 0.0000000E+00 0.0000000E+00          
 0.0000000E+00 0.0000000E+00 0.0000000E+00 0.0000000E+00 0.0000000E+00          
 0.0000000E+00 0.0000000E+00 0.0000000E+00 0.0000000E+00 0.0000000E+00          
 0.0000000E+00 0.0000000E+00 0.0000000E+00 0.0000000E+00 0.0000000E+00          
 0.0000000E+00 0.0000000E+00 0.0000000E+00 0.0000000E+00 0.0000000E+00          
 0.0000000E+00 0.0000000E+00 0.0000000E+00 0.0000000E+00 0.0000000E+00          
 0.0000000E+00 0.0000000E+00 0.0000000E+00 0.0000000E+00 0.0000000E+00          
